{
    "0a97bbb3a0da722d9e48e3c05e77a24c": {
        "(6, 2)": {
            "AM2L": [
                1232
            ], 
            "AM2F": [
                541
            ], 
            "WBF": [
                1566
            ], 
            "BM1F": [
                1878
            ], 
            "M1": [
                2011
            ], 
            "irrelevant_Adj": [
                0
            ], 
            "M2": [
                434
            ], 
            "BM1L": [
                1490
            ], 
            "WBO": [
                4
            ], 
            "WBL": [
                2866
            ], 
            "irrelevant_Noun": [
                0
            ], 
            "M1_ADJ": [
                0
            ]
        }, 
        "location1": [
            6
        ], 
        "location2": [
            2
        ], 
        "sentence": "in my opinion it 's the best camera for the money if you 're looking for something that 's easy to use , small good for travel , and provides excellent , sharp image ."
    }
}