{
    "d0daccfd58ec29fbb2753db534018ca5": {
        "location1": [
            6
        ], 
        "location2": [
            12
        ], 
        "(6, 12)": {
            "AM2L": [
                2225
            ], 
            "AM2F": [
                275
            ], 
            "WBF": [
                541
            ], 
            "BM1F": [
                2866
            ], 
            "M1": [
                434
            ], 
            "irrelevant_Adj": [
                0
            ], 
            "M2": [
                1163
            ], 
            "BM1L": [
                1562
            ], 
            "WBO": [
                2037, 
                2873
            ], 
            "WBL": [
                2866
            ], 
            "irrelevant_Noun": [
                0
            ], 
            "M1_ADJ": [
                1
            ]
        }, 
        "sentence": "nikon 4300 , i feel , is the best camera out there for the feature and price ."
    }
}