{
    "0a97bbb3a0da722d9e48e3c05e77a24c": {
        "location1": [
            6
        ], 
        "location2": [
            30
        ], 
        "(6, 30)": {
            "WBF": [
                541
            ], 
            "BM1F": [
                2866
            ], 
            "M1": [
                434
            ], 
            "irrelevant_Adj": [
                0
            ], 
            "M2": [
                1470
            ], 
            "BM1L": [
                4
            ], 
            "WBO": [
                1232, 
                2866, 
                1844, 
                1463, 
                3229, 
                3, 
                1712, 
                1232, 
                2661, 
                2864, 
                4, 
                1005, 
                2909, 
                3041, 
                2637, 
                1320, 
                1232, 
                2946, 
                275, 
                2267
            ], 
            "WBL": [
                2564
            ], 
            "irrelevant_Noun": [
                0
            ], 
            "M1_ADJ": [
                1
            ]
        }, 
        "sentence": "in my opinion it 's the best camera for the money if you 're looking for something that 's easy to use , small good for travel , and provides excellent , sharp image ."
    }
}