{
    "2d3d3d47aa5812c5767bcd8d62c2bc24": {
        "location1": [
            7
        ], 
        "location2": [
            9
        ], 
        "(7, 9)": {
            "AM2L": [
                541
            ], 
            "WBFL": [
                2790
            ], 
            "BM1F": [
                2637
            ], 
            "M1": [
                673
            ], 
            "irrelevant_Adj": [
                0
            ], 
            "M2": [
                2420
            ], 
            "BM1L": [
                150
            ], 
            "AM2F": [
                894
            ], 
            "irrelevant_Noun": [
                0
            ], 
            "M1_ADJ": [
                1
            ]
        }, 
        "sentence": "if you 're looking for a small , compact , super resolution digital camera , you can end your search with the nikon 4300 !"
    }
}