{
    "164dda298348d815567dec7d16e56e32": {
        "location1": [
            47
        ], 
        "location2": [
            28
        ], 
        "(47, 28)": {
            "AM2L": [
                2864
            ], 
            "AM2F": [
                541
            ], 
            "WBF": [
                275
            ], 
            "BM1F": [
                1188
            ], 
            "M1": [
                662
            ], 
            "irrelevant_Adj": [
                0
            ], 
            "M2": [
                894
            ], 
            "BM1L": [
                2146
            ], 
            "WBO": [
                1758, 
                1971, 
                2866, 
                3047, 
                1272, 
                316, 
                3075, 
                2604, 
                2909, 
                2635, 
                1837, 
                275, 
                3181, 
                195, 
                737
            ], 
            "WBL": [
                150
            ], 
            "irrelevant_Noun": [
                0
            ], 
            "M1_ADJ": [
                0
            ]
        }, 
        "sentence": "recently bought this coolpix 4300 along with a 256mb ultra flash card . as expected , i happily found that quality of the picture are excellent with 3m-4m pixel / fine combo and many of the user-friendly function are very similar to slr model , and with added convenience of a digital camera that you can see picture immediately ."
    }
}