{
    "7e902b1c3bac0da57adc7cb4cce23d18": {
        "(1, 6)": {
            "AM2L": [
                1971
            ], 
            "AM2F": [
                1271
            ], 
            "WBF": [
                2909
            ], 
            "BM1F": [
                1569
            ], 
            "M1": [
                1005
            ], 
            "irrelevant_Adj": [
                0
            ], 
            "M2": [
                2568
            ], 
            "WBO": [
                3041
            ], 
            "WBL": [
                2866
            ], 
            "irrelevant_Noun": [
                0
            ], 
            "M1_ADJ": [
                1
            ]
        }, 
        "location1": [
            1
        ], 
        "location2": [
            6
        ], 
        "sentence": "its easy to use and the sheer fun of being able to use an array of nikon accessory like the telephoto and wide-angle lens is the proverbial icing on the cake ."
    }
}