{
    "7e902b1c3bac0da57adc7cb4cce23d18": {
        "(1, 14)": {
            "AM2L": [
                1914
            ], 
            "AM2F": [
                1971
            ], 
            "WBF": [
                2909
            ], 
            "BM1F": [
                1569
            ], 
            "M1": [
                1005
            ], 
            "irrelevant_Adj": [
                0
            ], 
            "M2": [
                321
            ], 
            "WBO": [
                3041, 
                275, 
                2866, 
                2568, 
                1271, 
                1971, 
                423, 
                153, 
                2909
            ], 
            "WBL": [
                273
            ], 
            "irrelevant_Noun": [
                0
            ], 
            "M1_ADJ": [
                1
            ]
        }, 
        "location1": [
            1
        ], 
        "location2": [
            14
        ], 
        "sentence": "its easy to use and the sheer fun of being able to use an array of nikon accessory like the telephoto and wide-angle lens is the proverbial icing on the cake ."
    }
}