{
    "3e862711b9c6b61022e139ccc3d36f8a": {
        "(17, 14)": {
            "AM2L": [
                3041
            ], 
            "AM2F": [
                2909
            ], 
            "WBF": [
                316
            ], 
            "BM1F": [
                2496
            ], 
            "M1": [
                1836
            ], 
            "irrelevant_Adj": [
                0
            ], 
            "M2": [
                1005
            ], 
            "BM1L": [
                2866
            ], 
            "WBO": [
                3075
            ], 
            "WBL": [
                3075
            ], 
            "irrelevant_Noun": [
                0
            ], 
            "M1_ADJ": [
                0
            ]
        }, 
        "location1": [
            17
        ], 
        "location2": [
            3, 
            14
        ], 
        "(17, 3)": {
            "AM2L": [
                3041
            ], 
            "AM2F": [
                2909
            ], 
            "WBF": [
                1566
            ], 
            "BM1F": [
                350
            ], 
            "M1": [
                1836
            ], 
            "irrelevant_Adj": [
                0
            ], 
            "M2": [
                1005
            ], 
            "BM1L": [
                2866
            ], 
            "WBO": [
                1272, 
                395, 
                325, 
                150, 
                2172, 
                275, 
                636, 
                2866, 
                2496, 
                1836
            ], 
            "WBL": [
                3075
            ], 
            "irrelevant_Noun": [
                0
            ], 
            "M1_ADJ": [
                0
            ]
        }, 
        "sentence": "in the auto mode it function basically as a point and click , the scene mode are very easy to use and produce good result ."
    }
}