{
    "3649de2567f56d923eed19f3229fac58": {
        "location1": [
            5
        ], 
        "location2": [
            17
        ], 
        "(5, 17)": {
            "AM2L": [
                597
            ], 
            "AM2F": [
                400
            ], 
            "WBF": [
                2909
            ], 
            "BM1F": [
                1092
            ], 
            "M1": [
                1005
            ], 
            "irrelevant_Adj": [
                0
            ], 
            "M2": [
                2236
            ], 
            "BM1L": [
                3181
            ], 
            "WBO": [
                1527, 
                2653, 
                1449, 
                3041, 
                1566, 
                1987, 
                3219, 
                275
            ], 
            "WBL": [
                3183
            ], 
            "irrelevant_Noun": [
                0
            ], 
            "M1_ADJ": [
                1
            ]
        }, 
        "sentence": "the 4300 comes with excellent easy to install software i use it on xp and win98 without problem , battery charger , usb and video cable ."
    }
}