{
    "ef8b221188025f77306dd1fd16320e12": {
        "(12, 13)": {
            "AM2L": [
                1259
            ], 
            "BM1F": [
                1322
            ], 
            "M1": [
                1092
            ], 
            "irrelevant_Adj": [
                0
            ], 
            "M2": [
                2429
            ], 
            "BM1L": [
                275
            ], 
            "WBNULL": [
                1
            ], 
            "irrelevant_Noun": [
                0
            ], 
            "AM2F": [
                2605
            ], 
            "M1_ADJ": [
                1
            ]
        }, 
        "location1": [
            12
        ], 
        "location2": [
            13
        ], 
        "sentence": "great camera , i have been using this for several month and got excellent result , simple friendly usage , in many scene indoor , outdoor , snow , close up macro etc ."
    }
}