{
    "0d9c98a0b96f462fb9a75d73a026a16e": {
        "(2, 3)": {
            "AM2L": [
                1562
            ], 
            "BM1F": [
                2836
            ], 
            "M1": [
                1092
            ], 
            "irrelevant_Adj": [
                0
            ], 
            "M2": [
                2128
            ], 
            "BM1L": [
                1566
            ], 
            "WBNULL": [
                1
            ], 
            "irrelevant_Noun": [
                0
            ], 
            "AM2F": [
                275
            ], 
            "M1_ADJ": [
                1
            ]
        }, 
        "location1": [
            2
        ], 
        "location2": [
            3
        ], 
        "sentence": "it takes excellent pic and is very easy to use , if you read the manual ."
    }
}