{
    "164dda298348d815567dec7d16e56e32": {
        "location1": [
            23
        ], 
        "location2": [
            3
        ], 
        "(23, 3)": {
            "AM2L": [
                91
            ], 
            "AM2F": [
                3181
            ], 
            "WBF": [
                104
            ], 
            "BM1F": [
                2882
            ], 
            "M1": [
                746
            ], 
            "irrelevant_Adj": [
                0
            ], 
            "M2": [
                1092
            ], 
            "BM1L": [
                479
            ], 
            "WBO": [
                249, 
                3181, 
                150, 
                63, 
                2985, 
                1208, 
                554, 
                325, 
                1103, 
                1449, 
                1361, 
                1245, 
                2864, 
                2281, 
                1971, 
                2866
            ], 
            "WBL": [
                316
            ], 
            "irrelevant_Noun": [
                0
            ], 
            "M1_ADJ": [
                0
            ]
        }, 
        "sentence": "recently bought this coolpix 4300 along with a 256mb ultra flash card . as expected , i happily found that quality of the picture are excellent with 3m-4m pixel / fine combo and many of the user-friendly function are very similar to slr model , and with added convenience of a digital camera that you can see picture immediately ."
    }
}