{
    "164dda298348d815567dec7d16e56e32": {
        "(23, 28)": {
            "AM2L": [
                1758
            ], 
            "AM2F": [
                275
            ], 
            "WBF": [
                3181
            ], 
            "BM1F": [
                316
            ], 
            "M1": [
                1092
            ], 
            "irrelevant_Adj": [
                0
            ], 
            "M2": [
                662
            ], 
            "BM1L": [
                2133
            ], 
            "WBO": [
                91
            ], 
            "WBL": [
                1188
            ], 
            "irrelevant_Noun": [
                0
            ], 
            "M1_ADJ": [
                1
            ]
        }, 
        "location1": [
            23
        ], 
        "location2": [
            28
        ], 
        "sentence": "recently bought this coolpix 4300 along with a 256mb ultra flash card . as expected , i happily found that quality of the picture are excellent with 3m-4m pixel / fine combo and many of the user-friendly function are very similar to slr model , and with added convenience of a digital camera that you can see picture immediately ."
    }
}