{
    "97224a9d11f9869b7bb37913f20d0e1d": {
        "location1": [
            2
        ], 
        "location2": [
            4
        ], 
        "(2, 4)": {
            "AM2L": [
                3138
            ], 
            "WBFL": [
                1737
            ], 
            "BM1F": [
                2834
            ], 
            "M1": [
                1092
            ], 
            "irrelevant_Adj": [
                0
            ], 
            "M2": [
                2586
            ], 
            "BM1L": [
                2875
            ], 
            "AM2F": [
                325
            ], 
            "irrelevant_Noun": [
                0
            ], 
            "M1_ADJ": [
                1
            ]
        }, 
        "sentence": "they take excellent macro shot as well ."
    }
}