{
    "164dda298348d815567dec7d16e56e32": {
        "location1": [
            23
        ], 
        "location2": [
            18
        ], 
        "(23, 18)": {
            "AM2L": [
                91
            ], 
            "AM2F": [
                3181
            ], 
            "WBF": [
                1971
            ], 
            "BM1F": [
                2864
            ], 
            "M1": [
                2281
            ], 
            "irrelevant_Adj": [
                0
            ], 
            "M2": [
                1092
            ], 
            "BM1L": [
                1245
            ], 
            "WBO": [
                2866
            ], 
            "WBL": [
                316
            ], 
            "irrelevant_Noun": [
                0
            ], 
            "M1_ADJ": [
                0
            ]
        }, 
        "sentence": "recently bought this coolpix 4300 along with a 256mb ultra flash card . as expected , i happily found that quality of the picture are excellent with 3m-4m pixel / fine combo and many of the user-friendly function are very similar to slr model , and with added convenience of a digital camera that you can see picture immediately ."
    }, 
    "cc90bbee0ce57ccc7e1b784c1f46fd96": {
        "(5, 10)": {
            "AM2L": [
                2866
            ], 
            "AM2F": [
                1971
            ], 
            "WBF": [
                325
            ], 
            "BM1F": [
                316
            ], 
            "M1": [
                1092
            ], 
            "irrelevant_Adj": [
                0
            ], 
            "M2": [
                2281
            ], 
            "BM1L": [
                723
            ], 
            "WBO": [
                1562
            ], 
            "WBL": [
                1647
            ], 
            "irrelevant_Noun": [
                0
            ], 
            "M1_ADJ": [
                1
            ]
        }, 
        "location1": [
            5
        ], 
        "location2": [
            10
        ], 
        "sentence": "the design and construction are excellent -- as is the legendary quality of the nikon optic ."
    }, 
    "a245cc8c0d049db1f832f29a7c5409f3": {
        "(4, 2)": {
            "WBFL": [
                1562
            ], 
            "BM1F": [
                2133
            ], 
            "M1": [
                2281
            ], 
            "irrelevant_Adj": [
                0
            ], 
            "M2": [
                1092
            ], 
            "BM1L": [
                130
            ], 
            "irrelevant_Noun": [
                0
            ], 
            "M1_ADJ": [
                0
            ]
        }, 
        "location1": [
            4
        ], 
        "location2": [
            2
        ], 
        "sentence": "7 picture quality is excellent ."
    }
}