{
    "113723c117c44d3f1da9fb6a41a2ac71": {
        "location1": [
            3
        ], 
        "location2": [
            6
        ], 
        "(3, 6)": {
            "AM2L": [
                1739
            ], 
            "AM2F": [
                3152
            ], 
            "WBF": [
                3075
            ], 
            "BM1F": [
                150
            ], 
            "M1": [
                1152
            ], 
            "irrelevant_Adj": [
                0
            ], 
            "M2": [
                541
            ], 
            "BM1L": [
                242
            ], 
            "WBO": [
                673
            ], 
            "WBL": [
                673
            ], 
            "irrelevant_Noun": [
                0
            ], 
            "M1_ADJ": [
                1
            ]
        }, 
        "sentence": "over all a fantastic very compact camera , which made us experience photography on a totally new level !"
    }
}