{
    "113723c117c44d3f1da9fb6a41a2ac71": {
        "(3, 16)": {
            "WBF": [
                3075
            ], 
            "BM1F": [
                150
            ], 
            "M1": [
                1152
            ], 
            "irrelevant_Adj": [
                0
            ], 
            "M2": [
                1659
            ], 
            "BM1L": [
                242
            ], 
            "WBO": [
                673, 
                541, 
                3152, 
                1739, 
                3038, 
                1106, 
                2125, 
                1987, 
                150
            ], 
            "WBL": [
                1903
            ], 
            "irrelevant_Noun": [
                0
            ], 
            "M1_ADJ": [
                1
            ]
        }, 
        "location1": [
            3
        ], 
        "location2": [
            16
        ], 
        "sentence": "over all a fantastic very compact camera , which made us experience photography on a totally new level !"
    }
}