{
    "4283cf0438864dd7aa4566ca679cc53b": {
        "location1": [
            10
        ], 
        "location2": [
            21
        ], 
        "(10, 21)": {
            "AM2L": [
                1175
            ], 
            "AM2F": [
                2909
            ], 
            "WBF": [
                894
            ], 
            "BM1F": [
                150
            ], 
            "M1": [
                1320
            ], 
            "irrelevant_Adj": [
                0
            ], 
            "M2": [
                3133
            ], 
            "BM1L": [
                1232
            ], 
            "WBO": [
                541, 
                2864, 
                2836, 
                1333, 
                2133, 
                3226, 
                936
            ], 
            "WBL": [
                2834
            ], 
            "irrelevant_Noun": [
                0
            ], 
            "M1_ADJ": [
                1
            ]
        }, 
        "sentence": "i highly recommend this camera to anyone looking for a good digital camera that takes great picture yet does n't take week to figure out how to operate ."
    }
}