{
    "6c8553c3c50ea94e8903ac7ad2b1d889": {
        "(5, 2)": {
            "AM2L": [
                2133
            ], 
            "AM2F": [
                1971
            ], 
            "WBF": [
                2836
            ], 
            "BM1F": [
                894
            ], 
            "M1": [
                3239
            ], 
            "irrelevant_Adj": [
                0
            ], 
            "M2": [
                1320
            ], 
            "BM1L": [
                2866
            ], 
            "WBO": [
                325
            ], 
            "WBL": [
                325
            ], 
            "irrelevant_Noun": [
                0
            ], 
            "M1_ADJ": [
                0
            ]
        }, 
        "location1": [
            5
        ], 
        "location2": [
            2, 
            11
        ], 
        "(5, 11)": {
            "AM2F": [
                936
            ], 
            "WBF": [
                1971
            ], 
            "BM1F": [
                325
            ], 
            "M1": [
                1320
            ], 
            "irrelevant_Adj": [
                0
            ], 
            "M2": [
                3239
            ], 
            "BM1L": [
                2836
            ], 
            "WBO": [
                2133, 
                325
            ], 
            "WBL": [
                2015
            ], 
            "irrelevant_Noun": [
                0
            ], 
            "M1_ADJ": [
                1
            ]
        }, 
        "sentence": "the digital zoom takes as good of picture , as the optical zoom does !"
    }
}