{
    "5881e9601bc8ceb222a7a2d40997a8ab": {
        "(18, 14)": {
            "AM2L": [
                181
            ], 
            "AM2F": [
                1232
            ], 
            "WBF": [
                1490
            ], 
            "BM1F": [
                36
            ], 
            "M1": [
                2145
            ], 
            "irrelevant_Adj": [
                0
            ], 
            "M2": [
                1333
            ], 
            "BM1L": [
                2909
            ], 
            "WBO": [
                2302
            ], 
            "WBL": [
                2781
            ], 
            "irrelevant_Noun": [
                0
            ], 
            "M1_ADJ": [
                0
            ]
        }, 
        "location1": [
            18
        ], 
        "location2": [
            14
        ], 
        "sentence": "i love the continuous shot mode , which allows you to take up to 16 pix in rapid succession -- great for action shot ."
    }
}