{
    "20dbab3ec3be9a7c52eb8932beb60154": {
        "(6, 1)": {
            "WBF": [
                1836
            ], 
            "BM1F": [
                2866
            ], 
            "M1": [
                1861
            ], 
            "irrelevant_Adj": [
                0
            ], 
            "M2": [
                1333
            ], 
            "WBO": [
                1562
            ], 
            "WBL": [
                3195
            ], 
            "irrelevant_Noun": [
                0
            ], 
            "M1_ADJ": [
                0
            ]
        }, 
        "location1": [
            6
        ], 
        "location2": [
            1
        ], 
        "sentence": "the movie mode is also working great ."
    }
}