{
    "af71635b2c094a32f231726f4484cd17": {
        "(7, 17)": {
            "WBF": [
                541
            ], 
            "BM1F": [
                150
            ], 
            "M1": [
                1333
            ], 
            "irrelevant_Adj": [
                0
            ], 
            "M2": [
                542
            ], 
            "BM1L": [
                2115
            ], 
            "WBO": [
                1232, 
                2866, 
                1844, 
                275, 
                1449, 
                2
            ], 
            "WBL": [
                1362
            ], 
            "irrelevant_Noun": [
                0
            ], 
            "M1_ADJ": [
                1
            ]
        }, 
        "location1": [
            7
        ], 
        "location2": [
            17
        ], 
        "sentence": "still , at least from my perspective , a great camera for the money , and i 'm a happy camper !"
    }
}