{
    "ef8b221188025f77306dd1fd16320e12": {
        "(0, 25)": {
            "WBF": [
                541
            ], 
            "M1": [
                1333
            ], 
            "irrelevant_Adj": [
                0
            ], 
            "M2": [
                1737
            ], 
            "WBO": [
                1449, 
                1375, 
                413, 
                3049, 
                2882, 
                1232, 
                2555, 
                1849, 
                275, 
                1322, 
                1092, 
                2429, 
                2605, 
                1259, 
                3039, 
                1490, 
                1758, 
                2496, 
                1510, 
                2038, 
                2647
            ], 
            "WBL": [
                3029
            ], 
            "irrelevant_Noun": [
                0
            ], 
            "AM2F": [
                1074
            ], 
            "M1_ADJ": [
                1
            ]
        }, 
        "location1": [
            0
        ], 
        "location2": [
            25
        ], 
        "sentence": "great camera , i have been using this for several month and got excellent result , simple friendly usage , in many scene indoor , outdoor , snow , close up macro etc ."
    }
}