{
    "a037bc2334cf7856abb5cb99ee6cd3d8": {
        "(2, 3)": {
            "BM1F": [
                541
            ], 
            "M1": [
                1333
            ], 
            "irrelevant_Adj": [
                0
            ], 
            "M2": [
                1556
            ], 
            "BM1L": [
                1333
            ], 
            "WBNULL": [
                1
            ], 
            "irrelevant_Noun": [
                0
            ], 
            "M1_ADJ": [
                1
            ]
        }, 
        "(0, 3)": {
            "WBF": [
                541
            ], 
            "M1": [
                1333
            ], 
            "irrelevant_Adj": [
                0
            ], 
            "M2": [
                1556
            ], 
            "WBO": [
                1333
            ], 
            "WBL": [
                1333
            ], 
            "irrelevant_Noun": [
                0
            ], 
            "M1_ADJ": [
                1
            ]
        }, 
        "location1": [
            0, 
            2
        ], 
        "location2": [
            3
        ], 
        "sentence": "great camera , great investment !"
    }
}