{
    "5881e9601bc8ceb222a7a2d40997a8ab": {
        "location1": [
            18
        ], 
        "location2": [
            20
        ], 
        "(18, 20)": {
            "WBFL": [
                1232
            ], 
            "BM1F": [
                2781
            ], 
            "M1": [
                1333
            ], 
            "irrelevant_Adj": [
                0
            ], 
            "M2": [
                181
            ], 
            "BM1L": [
                2302
            ], 
            "AM2F": [
                2586
            ], 
            "irrelevant_Noun": [
                0
            ], 
            "M1_ADJ": [
                1
            ]
        }, 
        "sentence": "i love the continuous shot mode , which allows you to take up to 16 pix in rapid succession -- great for action shot ."
    }
}