{
    "49fddc188547ceed107c560e4e129e1f": {
        "(0, 5)": {
            "WBF": [
                541
            ], 
            "AM2L": [
                543
            ], 
            "M1": [
                1333
            ], 
            "irrelevant_Adj": [
                0
            ], 
            "M2": [
                2225
            ], 
            "WBO": [
                275
            ], 
            "WBL": [
                2866
            ], 
            "irrelevant_Noun": [
                0
            ], 
            "AM2F": [
                3229
            ], 
            "M1_ADJ": [
                1
            ]
        }, 
        "location1": [
            0
        ], 
        "location2": [
            5
        ], 
        "sentence": "great camera , and for the price you can 't beat it ."
    }, 
    "5408e4563e95c36874dcaf6a786a5d7c": {
        "(1, 2)": {
            "AM2L": [
                242
            ], 
            "BM1F": [
                17
            ], 
            "M1": [
                1333
            ], 
            "irrelevant_Adj": [
                0
            ], 
            "M2": [
                2225
            ], 
            "AM2F": [
                1232
            ], 
            "irrelevant_Noun": [
                0
            ], 
            "WBNULL": [
                1
            ], 
            "M1_ADJ": [
                1
            ]
        }, 
        "location1": [
            1
        ], 
        "location2": [
            2
        ], 
        "sentence": "10 great price for all the feature ."
    }
}