{
    "d2ecbc0b6c5a83518582c7e8d313b9b7": {
        "(21, 3)": {
            "AM2L": [
                1836
            ], 
            "AM2F": [
                646
            ], 
            "WBF": [
                1261
            ], 
            "BM1F": [
                109
            ], 
            "M1": [
                615
            ], 
            "irrelevant_Adj": [
                0
            ], 
            "M2": [
                1333
            ], 
            "BM1L": [
                2479
            ], 
            "WBO": [
                2866, 
                106, 
                541, 
                2170, 
                150, 
                94, 
                3239, 
                3181, 
                2866, 
                152, 
                2909, 
                1100, 
                3037, 
                2864
            ], 
            "WBL": [
                1117
            ], 
            "irrelevant_Noun": [
                0
            ], 
            "M1_ADJ": [
                0
            ]
        }, 
        "location1": [
            21
        ], 
        "location2": [
            3
        ], 
        "sentence": "the same 4mp chip from the 4500 camera , plus a 3x zoom with the ability to expand upon that with extenders , great closeup mode , long lasting rechargable battery , etc etc ."
    }
}