{
    "af71635b2c094a32f231726f4484cd17": {
        "location1": [
            7
        ], 
        "location2": [
            11
        ], 
        "(7, 11)": {
            "AM2L": [
                1449
            ], 
            "AM2F": [
                275
            ], 
            "WBF": [
                541
            ], 
            "BM1F": [
                150
            ], 
            "M1": [
                1333
            ], 
            "irrelevant_Adj": [
                0
            ], 
            "M2": [
                1844
            ], 
            "BM1L": [
                2115
            ], 
            "WBO": [
                1232
            ], 
            "WBL": [
                2866
            ], 
            "irrelevant_Noun": [
                0
            ], 
            "M1_ADJ": [
                1
            ]
        }, 
        "sentence": "still , at least from my perspective , a great camera for the money , and i 'm a happy camper !"
    }
}