{
    "e71bfa23d0bac20249b5f7a3754b3ca7": {
        "location1": [
            9
        ], 
        "location2": [
            26
        ], 
        "(9, 26)": {
            "AM2L": [
                1784
            ], 
            "AM2F": [
                95
            ], 
            "WBF": [
                2106
            ], 
            "BM1F": [
                1164
            ], 
            "M1": [
                1407
            ], 
            "irrelevant_Adj": [
                0
            ], 
            "M2": [
                2281
            ], 
            "BM1L": [
                150
            ], 
            "WBO": [
                2946, 
                2617, 
                541, 
                1449, 
                1518, 
                1332, 
                2909, 
                2882, 
                1690, 
                1290, 
                407, 
                1971, 
                2866
            ], 
            "WBL": [
                2133
            ], 
            "irrelevant_Noun": [
                0
            ], 
            "M1_ADJ": [
                1
            ]
        }, 
        "sentence": "after a lengthy and extensive journey for a feature-loaded , high performance , travel size camera , i initially gravitated to this little gem because of the superior picture quality 4 mega pixel ."
    }, 
    "fc74409b72829e8f76ff6ce7e7d9c3eb": {
        "(12, 15)": {
            "AM2L": [
                3240
            ], 
            "AM2F": [
                2866
            ], 
            "WBF": [
                2909
            ], 
            "BM1F": [
                2617
            ], 
            "M1": [
                1407
            ], 
            "irrelevant_Adj": [
                0
            ], 
            "M2": [
                2281
            ], 
            "BM1L": [
                1997
            ], 
            "WBO": [
                1188
            ], 
            "WBL": [
                1188
            ], 
            "irrelevant_Noun": [
                0
            ], 
            "M1_ADJ": [
                1
            ]
        }, 
        "location1": [
            12
        ], 
        "location2": [
            15
        ], 
        "sentence": "i expected the 12x digital zoom to be grainy , but onfull size high to fine quality , the zoomed image are quite impressive ."
    }, 
    "1da9da21f6c3e925964f446dfeae9895": {
        "(9, 10)": {
            "AM2L": [
                673
            ], 
            "BM1F": [
                3041
            ], 
            "M1": [
                1407
            ], 
            "irrelevant_Adj": [
                0
            ], 
            "M2": [
                2281
            ], 
            "BM1L": [
                2909
            ], 
            "WBNULL": [
                1
            ], 
            "irrelevant_Noun": [
                0
            ], 
            "AM2F": [
                275
            ], 
            "M1_ADJ": [
                1
            ]
        }, 
        "location1": [
            9
        ], 
        "location2": [
            10
        ], 
        "sentence": "the nikon coolpix 4300 is wonderful -- easy to use , high quality , and compact in size ."
    }, 
    "e0a2186c7537ef86190504d475e55254": {
        "(9, 10)": {
            "AM2L": [
                1080
            ], 
            "BM1F": [
                1323
            ], 
            "M1": [
                1407
            ], 
            "irrelevant_Adj": [
                0
            ], 
            "M2": [
                2281
            ], 
            "BM1L": [
                1375
            ], 
            "WBNULL": [
                1
            ], 
            "irrelevant_Noun": [
                0
            ], 
            "AM2F": [
                2133
            ], 
            "M1_ADJ": [
                1
            ]
        }, 
        "location1": [
            9
        ], 
        "location2": [
            10
        ], 
        "sentence": "i selected the 4300 right away and have gotten high quality picture every time ."
    }, 
    "d70accb3661a2674ab2766a0dd695dae": {
        "(15, 16)": {
            "AM2L": [
                275
            ], 
            "BM1F": [
                150
            ], 
            "M1": [
                1407
            ], 
            "irrelevant_Adj": [
                0
            ], 
            "M2": [
                2281
            ], 
            "BM1L": [
                3110
            ], 
            "WBNULL": [
                1
            ], 
            "irrelevant_Noun": [
                0
            ], 
            "AM2F": [
                2172
            ], 
            "M1_ADJ": [
                1
            ]
        }, 
        "location1": [
            15
        ], 
        "location2": [
            16
        ], 
        "sentence": "in summary , i love this camera and would whole-heartedly recommend this to anyone wanting a high quality point and shoot camera in the medium price range ."
    }
}