{
    "d70accb3661a2674ab2766a0dd695dae": {
        "(15, 25)": {
            "WBF": [
                2281
            ], 
            "BM1F": [
                150
            ], 
            "M1": [
                1407
            ], 
            "irrelevant_Adj": [
                0
            ], 
            "M2": [
                2301
            ], 
            "BM1L": [
                3110
            ], 
            "WBO": [
                2172, 
                275, 
                2579, 
                541, 
                1490, 
                2866
            ], 
            "WBL": [
                2225
            ], 
            "irrelevant_Noun": [
                0
            ], 
            "M1_ADJ": [
                1
            ]
        }, 
        "location1": [
            15
        ], 
        "location2": [
            25
        ], 
        "sentence": "in summary , i love this camera and would whole-heartedly recommend this to anyone wanting a high quality point and shoot camera in the medium price range ."
    }
}