{
    "e71bfa23d0bac20249b5f7a3754b3ca7": {
        "(9, 25)": {
            "AM2L": [
                95
            ], 
            "AM2F": [
                2281
            ], 
            "WBF": [
                2106
            ], 
            "BM1F": [
                1164
            ], 
            "M1": [
                1407
            ], 
            "irrelevant_Adj": [
                0
            ], 
            "M2": [
                2133
            ], 
            "BM1L": [
                150
            ], 
            "WBO": [
                2946, 
                2617, 
                541, 
                1449, 
                1518, 
                1332, 
                2909, 
                2882, 
                1690, 
                1290, 
                407, 
                1971
            ], 
            "WBL": [
                2793
            ], 
            "irrelevant_Noun": [
                0
            ], 
            "M1_ADJ": [
                1
            ]
        }, 
        "location1": [
            9
        ], 
        "location2": [
            25
        ], 
        "sentence": "after a lengthy and extensive journey for a feature-loaded , high performance , travel size camera , i initially gravitated to this little gem because of the superior picture quality 4 mega pixel ."
    }, 
    "e0a2186c7537ef86190504d475e55254": {
        "(9, 11)": {
            "AM2L": [
                2901
            ], 
            "WBFL": [
                2281
            ], 
            "BM1F": [
                1323
            ], 
            "M1": [
                1407
            ], 
            "irrelevant_Adj": [
                0
            ], 
            "M2": [
                2133
            ], 
            "BM1L": [
                1375
            ], 
            "AM2F": [
                1080
            ], 
            "irrelevant_Noun": [
                0
            ], 
            "M1_ADJ": [
                1
            ]
        }, 
        "location1": [
            9
        ], 
        "location2": [
            11
        ], 
        "sentence": "i selected the 4300 right away and have gotten high quality picture every time ."
    }
}