{
    "d70accb3661a2674ab2766a0dd695dae": {
        "location1": [
            15
        ], 
        "location2": [
            19
        ], 
        "(15, 19)": {
            "AM2L": [
                1490
            ], 
            "AM2F": [
                541
            ], 
            "WBF": [
                2281
            ], 
            "BM1F": [
                150
            ], 
            "M1": [
                1407
            ], 
            "irrelevant_Adj": [
                0
            ], 
            "M2": [
                2579
            ], 
            "BM1L": [
                3110
            ], 
            "WBO": [
                2172
            ], 
            "WBL": [
                275
            ], 
            "irrelevant_Noun": [
                0
            ], 
            "M1_ADJ": [
                1
            ]
        }, 
        "sentence": "in summary , i love this camera and would whole-heartedly recommend this to anyone wanting a high quality point and shoot camera in the medium price range ."
    }
}