{
    "d03f98646be6254d949650bd4e9d9ba9": {
        "(17, 18)": {
            "AM2L": [
                2866
            ], 
            "BM1F": [
                150
            ], 
            "M1": [
                1446
            ], 
            "irrelevant_Adj": [
                0
            ], 
            "M2": [
                386
            ], 
            "BM1L": [
                851
            ], 
            "WBNULL": [
                1
            ], 
            "irrelevant_Noun": [
                0
            ], 
            "AM2F": [
                1232
            ], 
            "M1_ADJ": [
                1
            ]
        }, 
        "location1": [
            17
        ], 
        "location2": [
            18
        ], 
        "sentence": "after using it for about a month , i can state unequivocably that this nikon definitely delivers a huge bang for the buck ."
    }
}