{
    "d4954af171cda06cc040755bc979e934": {
        "location1": [
            2
        ], 
        "location2": [
            1
        ], 
        "(2, 1)": {
            "AM2L": [
                3181
            ], 
            "BM1F": [
                1987
            ], 
            "M1": [
                361
            ], 
            "irrelevant_Adj": [
                1
            ], 
            "M2": [
                1510
            ], 
            "AM2F": [
                2586
            ], 
            "irrelevant_Noun": [
                0
            ], 
            "WBNULL": [
                1
            ], 
            "M1_ADJ": [
                0
            ]
        }, 
        "sentence": "on average , indoor shot with a flash are not quite as good as 35mm ."
    }
}