{
    "d4954af171cda06cc040755bc979e934": {
        "location1": [
            2
        ], 
        "location2": [
            6
        ], 
        "(2, 6)": {
            "AM2L": [
                1935
            ], 
            "AM2F": [
                316
            ], 
            "WBF": [
                2586
            ], 
            "BM1F": [
                361
            ], 
            "M1": [
                1510
            ], 
            "irrelevant_Adj": [
                1
            ], 
            "M2": [
                1208
            ], 
            "BM1L": [
                1987
            ], 
            "WBO": [
                3181
            ], 
            "WBL": [
                150
            ], 
            "irrelevant_Noun": [
                0
            ], 
            "M1_ADJ": [
                1
            ]
        }, 
        "sentence": "on average , indoor shot with a flash are not quite as good as 35mm ."
    }, 
    "747107cdbe2f2c1bbb64da5fa3d529a4": {
        "(8, 32)": {
            "AM2L": [
                1449
            ], 
            "AM2F": [
                2864
            ], 
            "WBF": [
                2586
            ], 
            "BM1F": [
                8
            ], 
            "M1": [
                1510
            ], 
            "irrelevant_Adj": [
                1
            ], 
            "M2": [
                1208
            ], 
            "BM1L": [
                316
            ], 
            "WBO": [
                1261, 
                150, 
                923, 
                140, 
                1616, 
                734, 
                275, 
                656, 
                522, 
                1449, 
                6, 
                1245, 
                2882, 
                2909, 
                402, 
                150, 
                2236, 
                3181, 
                242, 
                541
            ], 
            "WBL": [
                509
            ], 
            "irrelevant_Noun": [
                0
            ], 
            "M1_ADJ": [
                1
            ]
        }, 
        "location1": [
            8
        ], 
        "location2": [
            32
        ], 
        "sentence": "the only drawback i 've encountered are : 1 indoor shot from a distance > 8ft lack contrast and color , but i 've found this to be a problem with all camera with built-in flash that i 've used even on a nikon slr ."
    }
}