{
    "d2ecbc0b6c5a83518582c7e8d313b9b7": {
        "(25, 7)": {
            "AM2L": [
                400
            ], 
            "AM2F": [
                2341
            ], 
            "WBF": [
                2170
            ], 
            "BM1F": [
                106
            ], 
            "M1": [
                541
            ], 
            "irrelevant_Adj": [
                0
            ], 
            "M2": [
                1628
            ], 
            "BM1L": [
                2866
            ], 
            "WBO": [
                150, 
                94, 
                3239, 
                3181, 
                2866, 
                152, 
                2909, 
                1100, 
                3037, 
                2864, 
                3181, 
                1117, 
                1333, 
                646
            ], 
            "WBL": [
                1706
            ], 
            "irrelevant_Noun": [
                0
            ], 
            "M1_ADJ": [
                0
            ]
        }, 
        "location1": [
            25
        ], 
        "location2": [
            7
        ], 
        "sentence": "the same 4mp chip from the 4500 camera , plus a 3x zoom with the ability to expand upon that with extenders , great closeup mode , long lasting rechargable battery , etc etc ."
    }
}