{
    "cc90bbee0ce57ccc7e1b784c1f46fd96": {
        "(9, 14)": {
            "WBF": [
                2281
            ], 
            "BM1F": [
                2866
            ], 
            "M1": [
                1647
            ], 
            "irrelevant_Adj": [
                0
            ], 
            "M2": [
                2014
            ], 
            "BM1L": [
                1562
            ], 
            "WBO": [
                1971
            ], 
            "WBL": [
                1914
            ], 
            "irrelevant_Noun": [
                0
            ], 
            "M1_ADJ": [
                1
            ]
        }, 
        "location1": [
            9
        ], 
        "location2": [
            14
        ], 
        "sentence": "the design and construction are excellent -- as is the legendary quality of the nikon optic ."
    }
}