{
    "9a0c2c401f7f0515a8b07827ed8550ab": {
        "(27, 32)": {
            "AM2L": [
                1314
            ], 
            "AM2F": [
                2909
            ], 
            "WBF": [
                1479
            ], 
            "BM1F": [
                150
            ], 
            "M1": [
                1690
            ], 
            "irrelevant_Adj": [
                1
            ], 
            "M2": [
                1208
            ], 
            "BM1L": [
                409
            ], 
            "WBO": [
                3102
            ], 
            "WBL": [
                2866
            ], 
            "irrelevant_Noun": [
                0
            ], 
            "M1_ADJ": [
                1
            ]
        }, 
        "location1": [
            27
        ], 
        "location2": [
            32
        ], 
        "sentence": "2 . it takes a while for the camera to actually capture the photograph from the time you click the button and i have seen people becoming a little impatient waiting for the flash to glow ."
    }
}