{
    "9f0a61055e1f449cb62f85d3d95c52bd": {
        "(1, 2)": {
            "AM2L": [
                780
            ], 
            "BM1F": [
                2882
            ], 
            "M1": [
                1690
            ], 
            "irrelevant_Adj": [
                1
            ], 
            "M2": [
                541
            ], 
            "AM2F": [
                1371
            ], 
            "irrelevant_Noun": [
                0
            ], 
            "WBNULL": [
                1
            ], 
            "M1_ADJ": [
                1
            ]
        }, 
        "(1, 18)": {
            "AM2L": [
                1870
            ], 
            "AM2F": [
                2650
            ], 
            "WBF": [
                541
            ], 
            "BM1F": [
                2882
            ], 
            "M1": [
                1690
            ], 
            "irrelevant_Adj": [
                1
            ], 
            "M2": [
                541
            ], 
            "WBO": [
                1371, 
                780, 
                150, 
                1761, 
                437, 
                1880, 
                275, 
                1914, 
                1902, 
                1607, 
                1449, 
                758, 
                1722
            ], 
            "WBL": [
                894
            ], 
            "irrelevant_Noun": [
                0
            ], 
            "M1_ADJ": [
                1
            ]
        }, 
        "location1": [
            1
        ], 
        "location2": [
            2, 
            18
        ], 
        "sentence": "this little camera has created a marriage between myself and nikon . never knew i could love a digital camera so much ."
    }, 
    "f8fa77a39d46ecc23ee6c2f2659dd3e5": {
        "(11, 12)": {
            "AM2L": [
                2650
            ], 
            "BM1F": [
                2882
            ], 
            "M1": [
                1690
            ], 
            "irrelevant_Adj": [
                1
            ], 
            "M2": [
                541
            ], 
            "BM1L": [
                1188
            ], 
            "WBNULL": [
                1
            ], 
            "irrelevant_Noun": [
                0
            ], 
            "AM2F": [
                1371
            ], 
            "M1_ADJ": [
                1
            ]
        }, 
        "location1": [
            11
        ], 
        "location2": [
            12
        ], 
        "sentence": "ooh , and i dropped it and it still work fine : this little camera has so many feature i have n't even gotten to all of them yet ."
    }, 
    "e1059b8f0b964b9d4a7371a1719ac5a7": {
        "(4, 5)": {
            "BM1F": [
                2882
            ], 
            "M1": [
                1690
            ], 
            "irrelevant_Adj": [
                1
            ], 
            "M2": [
                541
            ], 
            "BM1L": [
                3181
            ], 
            "WBNULL": [
                1
            ], 
            "irrelevant_Noun": [
                0
            ], 
            "M1_ADJ": [
                1
            ]
        }, 
        "location1": [
            4
        ], 
        "location2": [
            5
        ], 
        "sentence": "really happy with this little camera ."
    }, 
    "9a500297c21bf39ce8d23a80a2266c9f": {
        "location1": [
            7
        ], 
        "location2": [
            10
        ], 
        "(7, 10)": {
            "WBF": [
                3226
            ], 
            "BM1F": [
                2882
            ], 
            "M1": [
                1690
            ], 
            "irrelevant_Adj": [
                1
            ], 
            "M2": [
                541
            ], 
            "BM1L": [
                1490
            ], 
            "WBO": [
                2205
            ], 
            "WBL": [
                2205
            ], 
            "irrelevant_Noun": [
                0
            ], 
            "M1_ADJ": [
                1
            ]
        }, 
        "sentence": "there are so many function in this little , yet powerful camera !"
    }, 
    "e389400b358904930d1a6caf7c8dd8e6": {
        "(11, 12)": {
            "BM1F": [
                3044
            ], 
            "M1": [
                1690
            ], 
            "irrelevant_Adj": [
                1
            ], 
            "M2": [
                541
            ], 
            "BM1L": [
                275
            ], 
            "WBNULL": [
                1
            ], 
            "irrelevant_Noun": [
                0
            ], 
            "M1_ADJ": [
                1
            ]
        }, 
        "location1": [
            11
        ], 
        "location2": [
            12
        ], 
        "sentence": "overall the nikon 4300 is a very dependable , robust , and useful little camera ."
    }, 
    "6ab5e8c4fc8cb5905e79f4c8ff6d9ff5": {
        "location1": [
            14
        ], 
        "location2": [
            6
        ], 
        "(14, 6)": {
            "AM2L": [
                587
            ], 
            "AM2F": [
                1271
            ], 
            "WBF": [
                3153
            ], 
            "BM1F": [
                1182
            ], 
            "M1": [
                541
            ], 
            "irrelevant_Adj": [
                1
            ], 
            "M2": [
                1690
            ], 
            "BM1L": [
                1878
            ], 
            "WBO": [
                2496, 
                275, 
                1752, 
                1836
            ], 
            "WBL": [
                150
            ], 
            "irrelevant_Noun": [
                0
            ], 
            "M1_ADJ": [
                0
            ]
        }, 
        "sentence": "autofocus feel exactly like my film camera while scene and manual mode add a little fun challenge to it all ."
    }, 
    "9a0c2c401f7f0515a8b07827ed8550ab": {
        "location1": [
            27
        ], 
        "location2": [
            7
        ], 
        "(27, 7)": {
            "AM2L": [
                3102
            ], 
            "AM2F": [
                1479
            ], 
            "WBF": [
                2909
            ], 
            "BM1F": [
                2866
            ], 
            "M1": [
                541
            ], 
            "irrelevant_Adj": [
                1
            ], 
            "M2": [
                1690
            ], 
            "BM1L": [
                1232
            ], 
            "WBO": [
                185, 
                552, 
                2866, 
                2122, 
                1261, 
                2866, 
                2901, 
                3229, 
                636, 
                2866, 
                523, 
                275, 
                1449, 
                1375, 
                2523, 
                2100
            ], 
            "WBL": [
                150
            ], 
            "irrelevant_Noun": [
                0
            ], 
            "M1_ADJ": [
                0
            ]
        }, 
        "sentence": "2 . it takes a while for the camera to actually capture the photograph from the time you click the button and i have seen people becoming a little impatient waiting for the flash to glow ."
    }, 
    "22acb9431eff5025a15adbaf9c736917": {
        "(10, 3)": {
            "AM2L": [
                319
            ], 
            "AM2F": [
                613
            ], 
            "WBF": [
                1562
            ], 
            "BM1F": [
                894
            ], 
            "M1": [
                541
            ], 
            "irrelevant_Adj": [
                1
            ], 
            "M2": [
                1690
            ], 
            "BM1L": [
                673
            ], 
            "WBO": [
                1071, 
                3044, 
                1463
            ], 
            "WBL": [
                1375
            ], 
            "irrelevant_Noun": [
                0
            ], 
            "M1_ADJ": [
                0
            ]
        }, 
        "location1": [
            10
        ], 
        "location2": [
            3, 
            19
        ], 
        "(10, 19)": {
            "AM2L": [
                3229
            ], 
            "AM2F": [
                3181
            ], 
            "WBF": [
                613
            ], 
            "BM1F": [
                1375
            ], 
            "M1": [
                1690
            ], 
            "irrelevant_Adj": [
                1
            ], 
            "M2": [
                541
            ], 
            "BM1L": [
                3229
            ], 
            "WBO": [
                319, 
                275, 
                3229, 
                543, 
                259
            ], 
            "WBL": [
                2866
            ], 
            "irrelevant_Noun": [
                0
            ], 
            "M1_ADJ": [
                1
            ]
        }, 
        "sentence": "the compact digital camera is especially useful if you have little child around and you can always take the camera with you and take many picture of them ."
    }, 
    "e71bfa23d0bac20249b5f7a3754b3ca7": {
        "(19, 13)": {
            "AM2L": [
                407
            ], 
            "AM2F": [
                1290
            ], 
            "WBF": [
                1449
            ], 
            "BM1F": [
                2617
            ], 
            "M1": [
                541
            ], 
            "irrelevant_Adj": [
                1
            ], 
            "M2": [
                1690
            ], 
            "BM1L": [
                2946
            ], 
            "WBO": [
                1518, 
                1332
            ], 
            "WBL": [
                2882
            ], 
            "irrelevant_Noun": [
                0
            ], 
            "M1_ADJ": [
                0
            ]
        }, 
        "location1": [
            19
        ], 
        "location2": [
            13
        ], 
        "sentence": "after a lengthy and extensive journey for a feature-loaded , high performance , travel size camera , i initially gravitated to this little gem because of the superior picture quality 4 mega pixel ."
    }
}