{
    "e71bfa23d0bac20249b5f7a3754b3ca7": {
        "(19, 29)": {
            "WBF": [
                1290
            ], 
            "BM1F": [
                2882
            ], 
            "M1": [
                1690
            ], 
            "irrelevant_Adj": [
                1
            ], 
            "M2": [
                2146
            ], 
            "BM1L": [
                2909
            ], 
            "WBO": [
                407, 
                1971, 
                2866, 
                2793, 
                2133, 
                2281
            ], 
            "WBL": [
                1784
            ], 
            "irrelevant_Noun": [
                0
            ], 
            "M1_ADJ": [
                1
            ]
        }, 
        "location1": [
            19
        ], 
        "location2": [
            29
        ], 
        "sentence": "after a lengthy and extensive journey for a feature-loaded , high performance , travel size camera , i initially gravitated to this little gem because of the superior picture quality 4 mega pixel ."
    }
}