{
    "e71bfa23d0bac20249b5f7a3754b3ca7": {
        "(19, 5)": {
            "AM2L": [
                407
            ], 
            "AM2F": [
                1290
            ], 
            "WBF": [
                1232
            ], 
            "BM1F": [
                1118
            ], 
            "M1": [
                1583
            ], 
            "irrelevant_Adj": [
                1
            ], 
            "M2": [
                1690
            ], 
            "BM1L": [
                275
            ], 
            "WBO": [
                150, 
                1164, 
                1407, 
                2106, 
                2946, 
                2617, 
                541, 
                1449, 
                1518, 
                1332
            ], 
            "WBL": [
                2882
            ], 
            "irrelevant_Noun": [
                0
            ], 
            "M1_ADJ": [
                0
            ]
        }, 
        "location1": [
            19
        ], 
        "location2": [
            5
        ], 
        "sentence": "after a lengthy and extensive journey for a feature-loaded , high performance , travel size camera , i initially gravitated to this little gem because of the superior picture quality 4 mega pixel ."
    }
}