{
    "d2ecbc0b6c5a83518582c7e8d313b9b7": {
        "(24, 23)": {
            "AM2L": [
                2341
            ], 
            "BM1F": [
                646
            ], 
            "M1": [
                1836
            ], 
            "irrelevant_Adj": [
                0
            ], 
            "M2": [
                1706
            ], 
            "BM1L": [
                1333
            ], 
            "WBNULL": [
                1
            ], 
            "irrelevant_Noun": [
                0
            ], 
            "AM2F": [
                1628
            ], 
            "M1_ADJ": [
                0
            ]
        }, 
        "location1": [
            24
        ], 
        "location2": [
            23
        ], 
        "sentence": "the same 4mp chip from the 4500 camera , plus a 3x zoom with the ability to expand upon that with extenders , great closeup mode , long lasting rechargable battery , etc etc ."
    }
}