{
    "9faf0a7bfc43d9a419ce8a897488d3e6": {
        "(19, 20)": {
            "AM2L": [
                3152
            ], 
            "BM1F": [
                2909
            ], 
            "M1": [
                1758
            ], 
            "irrelevant_Adj": [
                1
            ], 
            "M2": [
                2614
            ], 
            "BM1L": [
                754
            ], 
            "WBNULL": [
                1
            ], 
            "irrelevant_Noun": [
                0
            ], 
            "AM2F": [
                1490
            ], 
            "M1_ADJ": [
                1
            ]
        }, 
        "location1": [
            19
        ], 
        "location2": [
            20
        ], 
        "sentence": "the auto-focus performs well , but i love having the 12 optional scene mode - they are dummy-proof , and correspond to many situation in which i would actually seek to use the camera ."
    }
}