{
    "9faf0a7bfc43d9a419ce8a897488d3e6": {
        "(19, 30)": {
            "WBF": [
                2614
            ], 
            "BM1F": [
                2909
            ], 
            "M1": [
                1758
            ], 
            "irrelevant_Adj": [
                1
            ], 
            "M2": [
                541
            ], 
            "BM1L": [
                754
            ], 
            "WBO": [
                1490, 
                3152, 
                1449, 
                3204, 
                185, 
                2519, 
                2909
            ], 
            "WBL": [
                2866
            ], 
            "irrelevant_Noun": [
                0
            ], 
            "M1_ADJ": [
                1
            ]
        }, 
        "location1": [
            19
        ], 
        "location2": [
            30
        ], 
        "sentence": "the auto-focus performs well , but i love having the 12 optional scene mode - they are dummy-proof , and correspond to many situation in which i would actually seek to use the camera ."
    }, 
    "f4ed4ae3305445dd6ec6f73ce7ad7b7c": {
        "location1": [
            2
        ], 
        "location2": [
            32
        ], 
        "(2, 32)": {
            "AM2F": [
                2748
            ], 
            "WBF": [
                1163
            ], 
            "BM1F": [
                1569
            ], 
            "M1": [
                1758
            ], 
            "irrelevant_Adj": [
                1
            ], 
            "M2": [
                541
            ], 
            "BM1L": [
                2008
            ], 
            "WBO": [
                1562, 
                1005, 
                275, 
                1980, 
                1961, 
                1449, 
                2, 
                1917, 
                278, 
                1645, 
                522, 
                1449, 
                3117, 
                153, 
                2909, 
                1175, 
                2037, 
                1854, 
                1971, 
                1569, 
                152, 
                1591, 
                1801, 
                319, 
                3181, 
                1566
            ], 
            "WBL": [
                150
            ], 
            "irrelevant_Noun": [
                0
            ], 
            "M1_ADJ": [
                1
            ]
        }, 
        "sentence": "operating its many feature is easy and often obvious - i 'm no annie lebovitz , but i was able to figure out most of its ability just messing around with it at a camera store ."
    }, 
    "f8fa77a39d46ecc23ee6c2f2659dd3e5": {
        "(15, 12)": {
            "AM2L": [
                1449
            ], 
            "AM2F": [
                1163
            ], 
            "WBF": [
                1371
            ], 
            "BM1F": [
                1690
            ], 
            "M1": [
                541
            ], 
            "irrelevant_Adj": [
                1
            ], 
            "M2": [
                1758
            ], 
            "BM1L": [
                2882
            ], 
            "WBO": [
                2650
            ], 
            "WBL": [
                2650
            ], 
            "irrelevant_Noun": [
                0
            ], 
            "M1_ADJ": [
                0
            ]
        }, 
        "location1": [
            15
        ], 
        "location2": [
            12
        ], 
        "sentence": "ooh , and i dropped it and it still work fine : this little camera has so many feature i have n't even gotten to all of them yet ."
    }, 
    "22acb9431eff5025a15adbaf9c736917": {
        "(24, 19)": {
            "AM2L": [
                1971
            ], 
            "AM2F": [
                2133
            ], 
            "WBF": [
                3181
            ], 
            "BM1F": [
                2866
            ], 
            "M1": [
                541
            ], 
            "irrelevant_Adj": [
                1
            ], 
            "M2": [
                1758
            ], 
            "BM1L": [
                2834
            ], 
            "WBO": [
                3229
            ], 
            "WBL": [
                2834
            ], 
            "irrelevant_Noun": [
                0
            ], 
            "M1_ADJ": [
                0
            ]
        }, 
        "location1": [
            24
        ], 
        "location2": [
            3, 
            19
        ], 
        "(24, 3)": {
            "AM2L": [
                1971
            ], 
            "AM2F": [
                2133
            ], 
            "WBF": [
                1562
            ], 
            "BM1F": [
                894
            ], 
            "M1": [
                541
            ], 
            "irrelevant_Adj": [
                1
            ], 
            "M2": [
                1758
            ], 
            "BM1L": [
                673
            ], 
            "WBO": [
                1071, 
                3044, 
                1463, 
                3229, 
                1375, 
                1690, 
                613, 
                319, 
                275, 
                3229, 
                543, 
                259, 
                2834, 
                2866, 
                541, 
                3181, 
                3229
            ], 
            "WBL": [
                2834
            ], 
            "irrelevant_Noun": [
                0
            ], 
            "M1_ADJ": [
                0
            ]
        }, 
        "sentence": "the compact digital camera is especially useful if you have little child around and you can always take the camera with you and take many picture of them ."
    }, 
    "164dda298348d815567dec7d16e56e32": {
        "(30, 48)": {
            "AM2L": [
                3229
            ], 
            "AM2F": [
                2864
            ], 
            "WBF": [
                1971
            ], 
            "BM1F": [
                275
            ], 
            "M1": [
                1758
            ], 
            "irrelevant_Adj": [
                1
            ], 
            "M2": [
                541
            ], 
            "BM1L": [
                662
            ], 
            "WBO": [
                2866, 
                3047, 
                1272, 
                316, 
                3075, 
                2604, 
                2909, 
                2635, 
                1837, 
                275, 
                3181, 
                195, 
                737, 
                1971
            ], 
            "WBL": [
                894
            ], 
            "irrelevant_Noun": [
                0
            ], 
            "M1_ADJ": [
                1
            ]
        }, 
        "location1": [
            30
        ], 
        "location2": [
            48
        ], 
        "sentence": "recently bought this coolpix 4300 along with a 256mb ultra flash card . as expected , i happily found that quality of the picture are excellent with 3m-4m pixel / fine combo and many of the user-friendly function are very similar to slr model , and with added convenience of a digital camera that you can see picture immediately ."
    }, 
    "ef8b221188025f77306dd1fd16320e12": {
        "(18, 1)": {
            "AM2L": [
                1510
            ], 
            "AM2F": [
                2496
            ], 
            "WBF": [
                1449
            ], 
            "BM1F": [
                1333
            ], 
            "M1": [
                541
            ], 
            "irrelevant_Adj": [
                1
            ], 
            "M2": [
                1758
            ], 
            "WBO": [
                1375, 
                413, 
                3049, 
                2882, 
                1232, 
                2555, 
                1849, 
                275, 
                1322, 
                1092, 
                2429, 
                2605, 
                1259
            ], 
            "WBL": [
                1490
            ], 
            "irrelevant_Noun": [
                0
            ], 
            "M1_ADJ": [
                0
            ]
        }, 
        "location1": [
            18
        ], 
        "location2": [
            1
        ], 
        "sentence": "great camera , i have been using this for several month and got excellent result , simple friendly usage , in many scene indoor , outdoor , snow , close up macro etc ."
    }, 
    "9a500297c21bf39ce8d23a80a2266c9f": {
        "(3, 10)": {
            "WBF": [
                1272
            ], 
            "BM1F": [
                2650
            ], 
            "M1": [
                1758
            ], 
            "irrelevant_Adj": [
                1
            ], 
            "M2": [
                541
            ], 
            "BM1L": [
                316
            ], 
            "WBO": [
                1490, 
                2882, 
                1690
            ], 
            "WBL": [
                2205
            ], 
            "irrelevant_Noun": [
                0
            ], 
            "M1_ADJ": [
                1
            ]
        }, 
        "location1": [
            3
        ], 
        "location2": [
            10
        ], 
        "sentence": "there are so many function in this little , yet powerful camera !"
    }
}