{
    "ef8b221188025f77306dd1fd16320e12": {
        "location1": [
            18
        ], 
        "location2": [
            21
        ], 
        "(18, 21)": {
            "AM2L": [
                640
            ], 
            "AM2F": [
                2647
            ], 
            "WBF": [
                2496
            ], 
            "BM1F": [
                1490
            ], 
            "M1": [
                1758
            ], 
            "irrelevant_Adj": [
                1
            ], 
            "M2": [
                2038
            ], 
            "BM1L": [
                3039
            ], 
            "WBO": [
                1510
            ], 
            "WBL": [
                1510
            ], 
            "irrelevant_Noun": [
                0
            ], 
            "M1_ADJ": [
                1
            ]
        }, 
        "sentence": "great camera , i have been using this for several month and got excellent result , simple friendly usage , in many scene indoor , outdoor , snow , close up macro etc ."
    }
}