{
    "164dda298348d815567dec7d16e56e32": {
        "(30, 11)": {
            "AM2L": [
                2866
            ], 
            "AM2F": [
                1971
            ], 
            "WBF": [
                325
            ], 
            "BM1F": [
                1208
            ], 
            "M1": [
                554
            ], 
            "irrelevant_Adj": [
                1
            ], 
            "M2": [
                1758
            ], 
            "BM1L": [
                2985
            ], 
            "WBO": [
                1103, 
                1449, 
                1361, 
                1245, 
                2864, 
                2281, 
                1971, 
                2866, 
                2133, 
                316, 
                1092, 
                3181, 
                91, 
                2146, 
                1188
            ], 
            "WBL": [
                275
            ], 
            "irrelevant_Noun": [
                0
            ], 
            "M1_ADJ": [
                0
            ]
        }, 
        "location1": [
            30
        ], 
        "location2": [
            11
        ], 
        "sentence": "recently bought this coolpix 4300 along with a 256mb ultra flash card . as expected , i happily found that quality of the picture are excellent with 3m-4m pixel / fine combo and many of the user-friendly function are very similar to slr model , and with added convenience of a digital camera that you can see picture immediately ."
    }
}