{
    "7e902b1c3bac0da57adc7cb4cce23d18": {
        "(26, 17)": {
            "AM2L": [
                1987
            ], 
            "AM2F": [
                1455
            ], 
            "WBF": [
                1669
            ], 
            "BM1F": [
                1914
            ], 
            "M1": [
                170
            ], 
            "irrelevant_Adj": [
                0
            ], 
            "M2": [
                2264
            ], 
            "BM1L": [
                1971
            ], 
            "WBO": [
                2866, 
                2852, 
                275, 
                3164, 
                1653
            ], 
            "WBL": [
                2866
            ], 
            "irrelevant_Noun": [
                0
            ], 
            "M1_ADJ": [
                0
            ]
        }, 
        "location1": [
            26
        ], 
        "location2": [
            17
        ], 
        "sentence": "its easy to use and the sheer fun of being able to use an array of nikon accessory like the telephoto and wide-angle lens is the proverbial icing on the cake ."
    }
}