{
    "d2ecbc0b6c5a83518582c7e8d313b9b7": {
        "location1": [
            26
        ], 
        "location2": [
            27
        ], 
        "(26, 27)": {
            "AM2L": [
                1074
            ], 
            "BM1F": [
                1628
            ], 
            "M1": [
                2341
            ], 
            "irrelevant_Adj": [
                0
            ], 
            "M2": [
                400
            ], 
            "BM1L": [
                1706
            ], 
            "WBNULL": [
                1
            ], 
            "irrelevant_Noun": [
                0
            ], 
            "AM2F": [
                1074
            ], 
            "M1_ADJ": [
                1
            ]
        }, 
        "sentence": "the same 4mp chip from the 4500 camera , plus a 3x zoom with the ability to expand upon that with extenders , great closeup mode , long lasting rechargable battery , etc etc ."
    }, 
    "c258388ac50d5b84b13964b0049cfc7c": {
        "(4, 5)": {
            "AM2L": [
                936
            ], 
            "BM1F": [
                150
            ], 
            "M1": [
                2341
            ], 
            "irrelevant_Adj": [
                0
            ], 
            "M2": [
                400
            ], 
            "BM1L": [
                3181
            ], 
            "WBNULL": [
                1
            ], 
            "irrelevant_Noun": [
                0
            ], 
            "AM2F": [
                2864
            ], 
            "M1_ADJ": [
                1
            ]
        }, 
        "location1": [
            4
        ], 
        "location2": [
            5
        ], 
        "sentence": "it comes with a rechargable battery that does not seem to last all that long , especially if you use the flash a lot ."
    }, 
    "28ce5a5d99f26c9f2dbe0be5134a0068": {
        "(9, 10)": {
            "AM2L": [
                598
            ], 
            "BM1F": [
                1994
            ], 
            "M1": [
                2341
            ], 
            "irrelevant_Adj": [
                0
            ], 
            "M2": [
                400
            ], 
            "BM1L": [
                275
            ], 
            "WBNULL": [
                1
            ], 
            "irrelevant_Noun": [
                0
            ], 
            "AM2F": [
                2866
            ], 
            "M1_ADJ": [
                1
            ]
        }, 
        "location1": [
            9
        ], 
        "location2": [
            10
        ], 
        "sentence": "comes with a 16 mb compact flash and one rechargable battery the charging unit , included , is fast and small ."
    }
}