{
    "28ce5a5d99f26c9f2dbe0be5134a0068": {
        "location1": [
            9
        ], 
        "location2": [
            13
        ], 
        "(9, 13)": {
            "AM2L": [
                1562
            ], 
            "AM2F": [
                1496
            ], 
            "WBF": [
                400
            ], 
            "BM1F": [
                1994
            ], 
            "M1": [
                2341
            ], 
            "irrelevant_Adj": [
                0
            ], 
            "M2": [
                3010
            ], 
            "BM1L": [
                275
            ], 
            "WBO": [
                2866
            ], 
            "WBL": [
                598
            ], 
            "irrelevant_Noun": [
                0
            ], 
            "M1_ADJ": [
                1
            ]
        }, 
        "sentence": "comes with a 16 mb compact flash and one rechargable battery the charging unit , included , is fast and small ."
    }
}