{
    "0a97bbb3a0da722d9e48e3c05e77a24c": {
        "location1": [
            29
        ], 
        "location2": [
            25
        ], 
        "(29, 25)": {
            "AM2F": [
                1470
            ], 
            "WBF": [
                275
            ], 
            "BM1F": [
                1232
            ], 
            "M1": [
                2946
            ], 
            "irrelevant_Adj": [
                0
            ], 
            "M2": [
                2564
            ], 
            "BM1L": [
                1320
            ], 
            "WBO": [
                2267
            ], 
            "WBL": [
                1092
            ], 
            "irrelevant_Noun": [
                0
            ], 
            "M1_ADJ": [
                0
            ]
        }, 
        "sentence": "in my opinion it 's the best camera for the money if you 're looking for something that 's easy to use , small good for travel , and provides excellent , sharp image ."
    }
}