{
    "a3c39ca74e64f9139dabb40cc958b72d": {
        "location1": [
            10
        ], 
        "location2": [
            11
        ], 
        "(10, 11)": {
            "BM1F": [
                2240
            ], 
            "M1": [
                2695
            ], 
            "irrelevant_Adj": [
                0
            ], 
            "M2": [
                1470
            ], 
            "BM1L": [
                275
            ], 
            "WBNULL": [
                1
            ], 
            "irrelevant_Noun": [
                0
            ], 
            "M1_ADJ": [
                1
            ]
        }, 
        "sentence": "this camera was affordable , very easy to learn , and produce spectacular image ."
    }
}