{
    "22acb9431eff5025a15adbaf9c736917": {
        "location1": [
            6
        ], 
        "location2": [
            25
        ], 
        "(6, 25)": {
            "AM2L": [
                2869
            ], 
            "AM2F": [
                1971
            ], 
            "WBF": [
                1463
            ], 
            "BM1F": [
                1071
            ], 
            "M1": [
                3044
            ], 
            "irrelevant_Adj": [
                0
            ], 
            "M2": [
                2133
            ], 
            "BM1L": [
                1562
            ], 
            "WBO": [
                3229, 
                1375, 
                1690, 
                613, 
                319, 
                275, 
                3229, 
                543, 
                259, 
                2834, 
                2866, 
                541, 
                3181, 
                3229, 
                275
            ], 
            "WBL": [
                1758
            ], 
            "irrelevant_Noun": [
                0
            ], 
            "M1_ADJ": [
                1
            ]
        }, 
        "sentence": "the compact digital camera is especially useful if you have little child around and you can always take the camera with you and take many picture of them ."
    }
}