{
    "867804e0f600290b55597fc61d92689b": {
        "location1": [
            2
        ], 
        "location2": [
            1
        ], 
        "(2, 1)": {
            "AM2L": [
                17
            ], 
            "BM1F": [
                1333
            ], 
            "M1": [
                3058
            ], 
            "irrelevant_Adj": [
                1
            ], 
            "M2": [
                103
            ], 
            "AM2F": [
                3098
            ], 
            "irrelevant_Noun": [
                0
            ], 
            "WBNULL": [
                1
            ], 
            "M1_ADJ": [
                0
            ]
        }, 
        "sentence": "- great value 40gb vs 10 gb ipod for the price"
    }
}