{
    "fd02adeb0b3e3ad869f3f15173d5cd41": {
        "(7, 3)": {
            "AM2L": [
                1566
            ], 
            "AM2F": [
                275
            ], 
            "WBF": [
                1587
            ], 
            "BM1F": [
                2866
            ], 
            "M1": [
                1922
            ], 
            "irrelevant_Adj": [
                1
            ], 
            "M2": [
                103
            ], 
            "BM1L": [
                2273
            ], 
            "WBO": [
                3236
            ], 
            "WBL": [
                3220
            ], 
            "irrelevant_Noun": [
                0
            ], 
            "M1_ADJ": [
                0
            ]
        }, 
        "location1": [
            7
        ], 
        "location2": [
            3
        ], 
        "sentence": "i purchased the nomad jukebox zen xtra 40gb and it is fantastic !"
    }, 
    "df460eaf582c2debf712f5605d908023": {
        "(15, 5)": {
            "AM2L": [
                1363
            ], 
            "AM2F": [
                2187
            ], 
            "WBF": [
                3168
            ], 
            "BM1F": [
                2866
            ], 
            "M1": [
                1922
            ], 
            "irrelevant_Adj": [
                1
            ], 
            "M2": [
                103
            ], 
            "BM1L": [
                1773
            ], 
            "WBO": [
                1490, 
                2866, 
                1706, 
                2469, 
                402, 
                337
            ], 
            "WBL": [
                150
            ], 
            "irrelevant_Noun": [
                0
            ], 
            "M1_ADJ": [
                0
            ]
        }, 
        "location1": [
            15
        ], 
        "location2": [
            5
        ], 
        "sentence": "my gut tell me the nomad will in the long run be , at best , a 40gb portable hard drive , albeit one on which i can 't create folder , or , at worst , a very expensive lesson in company never to buy product from again ( i have their audigy sound card and find it in many way equally frustrating ) ."
    }, 
    "4fb1cfe789fe3b6adac7a3197959eeff": {
        "(6, 7)": {
            "AM2L": [
                3220
            ], 
            "BM1F": [
                2866
            ], 
            "M1": [
                103
            ], 
            "irrelevant_Adj": [
                1
            ], 
            "M2": [
                1922
            ], 
            "BM1L": [
                618
            ], 
            "WBNULL": [
                1
            ], 
            "irrelevant_Noun": [
                0
            ], 
            "AM2F": [
                3236
            ], 
            "M1_ADJ": [
                1
            ]
        }, 
        "location1": [
            6
        ], 
        "location2": [
            7
        ], 
        "sentence": "after some consideration i chose the 40gb nomad zen xtra from creative , and i have not been disappointed ."
    }
}