{
    "ad451383a8f52970863fb60b1cd69f44": {
        "(20, 14)": {
            "AM2L": [
                2866
            ], 
            "AM2F": [
                1922
            ], 
            "WBF": [
                1558
            ], 
            "BM1F": [
                78
            ], 
            "M1": [
                1302
            ], 
            "irrelevant_Adj": [
                0
            ], 
            "M2": [
                127
            ], 
            "BM1L": [
                150
            ], 
            "WBO": [
                3229, 
                543
            ], 
            "WBL": [
                150
            ], 
            "irrelevant_Noun": [
                0
            ], 
            "M1_ADJ": [
                0
            ]
        }, 
        "location1": [
            20
        ], 
        "location2": [
            14
        ], 
        "sentence": "for some this might be a problem , but for the price of a 30 gig ipod , you can get a 60gb nomad , the ipod simply pale in comparison ."
    }
}