{
    "ad451383a8f52970863fb60b1cd69f44": {
        "location1": [
            20
        ], 
        "location2": [
            10
        ], 
        "(20, 10)": {
            "AM2L": [
                2866
            ], 
            "AM2F": [
                1922
            ], 
            "WBF": [
                1971
            ], 
            "BM1F": [
                2866
            ], 
            "M1": [
                2225
            ], 
            "irrelevant_Adj": [
                0
            ], 
            "M2": [
                127
            ], 
            "BM1L": [
                1232
            ], 
            "WBO": [
                150, 
                78, 
                1302, 
                1558, 
                3229, 
                543
            ], 
            "WBL": [
                150
            ], 
            "irrelevant_Noun": [
                0
            ], 
            "M1_ADJ": [
                0
            ]
        }, 
        "sentence": "for some this might be a problem , but for the price of a 30 gig ipod , you can get a 60gb nomad , the ipod simply pale in comparison ."
    }
}