{
    "0e57ee572cc132a512fea07060c57adf": {
        "location1": [
            11
        ], 
        "location2": [
            13
        ], 
        "(11, 13)": {
            "WBFL": [
                1363
            ], 
            "BM1F": [
                273
            ], 
            "M1": [
                184
            ], 
            "irrelevant_Adj": [
                0
            ], 
            "M2": [
                963
            ], 
            "BM1L": [
                1425
            ], 
            "irrelevant_Noun": [
                0
            ], 
            "M1_ADJ": [
                1
            ]
        }, 
        "sentence": "the player feel very delicate , as if i 'm holding an actual hard drive ."
    }
}