{
    "ca693a4c5df2c07f651e149646f822a6": {
        "(10, 12)": {
            "AM2L": [
                1566
            ], 
            "WBFL": [
                1363
            ], 
            "BM1F": [
                273
            ], 
            "M1": [
                198
            ], 
            "irrelevant_Adj": [
                0
            ], 
            "M2": [
                915
            ], 
            "BM1L": [
                325
            ], 
            "AM2F": [
                2650
            ], 
            "irrelevant_Noun": [
                0
            ], 
            "M1_ADJ": [
                1
            ]
        }, 
        "location1": [
            10
        ], 
        "location2": [
            12
        ], 
        "sentence": "transfer through window explorer - window recognizes the jukebox as an additional hard disk , so it allows you to simply drag and drop file from window explorer to a folder for the nomad ."
    }
}