{
    "eb88968921d7cb163079768a48fd733a": {
        "location1": [
            23
        ], 
        "location2": [
            2
        ], 
        "(23, 2)": {
            "AM2L": [
                1449
            ], 
            "AM2F": [
                1163
            ], 
            "WBF": [
                2794
            ], 
            "BM1F": [
                2653
            ], 
            "M1": [
                1544
            ], 
            "irrelevant_Adj": [
                0
            ], 
            "M2": [
                210
            ], 
            "BM1L": [
                2866
            ], 
            "WBO": [
                3117, 
                3075, 
                1005, 
                2909, 
                3041, 
                522, 
                1449, 
                3142, 
                228, 
                275, 
                1322, 
                2361, 
                586, 
                4, 
                1944, 
                2653, 
                407
            ], 
            "WBL": [
                2659
            ], 
            "irrelevant_Noun": [
                0
            ], 
            "M1_ADJ": [
                0
            ]
        }, 
        "sentence": "the software interface supplied was very easy to use but i went ahead and got red chair 's `` notmad `` software because of some advanced feature i wanted ."
    }
}