{
    "44d22a9ad796160bb6beb7100f6b8152": {
        "(2, 15)": {
            "AM2L": [
                2862
            ], 
            "AM2F": [
                3199
            ], 
            "WBF": [
                1445
            ], 
            "BM1F": [
                1058
            ], 
            "M1": [
                347
            ], 
            "irrelevant_Adj": [
                1
            ], 
            "M2": [
                2676
            ], 
            "BM1L": [
                2866
            ], 
            "WBO": [
                1562, 
                248, 
                688, 
                3045, 
                275, 
                1371, 
                1739, 
                1854, 
                1971
            ], 
            "WBL": [
                2666
            ], 
            "irrelevant_Noun": [
                0
            ], 
            "M1_ADJ": [
                1
            ]
        }, 
        "location1": [
            2
        ], 
        "location2": [
            15
        ], 
        "sentence": "the environmental audio , however , is almost completely useless and has made most of my song sound worse than without it ( i encode my song at 192-256 kbps without variable bit rate . )"
    }, 
    "7967db31bc77438a94a846ddeb630669": {
        "(39, 48)": {
            "AM2L": [
                678
            ], 
            "AM2F": [
                2281
            ], 
            "WBF": [
                1239
            ], 
            "BM1F": [
                3185
            ], 
            "M1": [
                347
            ], 
            "irrelevant_Adj": [
                1
            ], 
            "M2": [
                2676
            ], 
            "BM1L": [
                2866
            ], 
            "WBO": [
                2783, 
                1210, 
                2037, 
                2783, 
                1490
            ], 
            "WBL": [
                1971
            ], 
            "irrelevant_Noun": [
                0
            ], 
            "M1_ADJ": [
                1
            ]
        }, 
        "location1": [
            39
        ], 
        "location2": [
            48
        ], 
        "sentence": "finally the software used to put all the song into it is vastly inferior to itunes on two level , first it is poorly integrated into the overall player and clunky to use especially with tagging and second the wma audio format suck , flat out suck in term of sound quality compared with the vastly superior aac format the apple ipod us and it stick you with one of the sub par paid music service such as napster instead of allowing to use the itunes store , which , if you ever plan to pay for your music , is by far the best ."
    }, 
    "ef25a24c12ae7b697445f8d181fbe847": {
        "location1": [
            48
        ], 
        "location2": [
            28
        ], 
        "(48, 28)": {
            "AM2L": [
                520
            ], 
            "AM2F": [
                2111
            ], 
            "WBF": [
                3165
            ], 
            "BM1F": [
                1092
            ], 
            "M1": [
                2676
            ], 
            "irrelevant_Adj": [
                1
            ], 
            "M2": [
                347
            ], 
            "BM1L": [
                275
            ], 
            "WBO": [
                1612, 
                2909, 
                402, 
                436, 
                2862, 
                1558, 
                1935, 
                2807, 
                717, 
                2866, 
                1949, 
                1971, 
                3222, 
                784, 
                1371, 
                413
            ], 
            "WBL": [
                2866
            ], 
            "irrelevant_Noun": [
                0
            ], 
            "M1_ADJ": [
                0
            ]
        }, 
        "sentence": "like it 's predecessor , the quickly revised nx , this player boast a decent size and weight , a relatively-intuitive navigational system that categorizes based on id3 tag , and excellent sound ( widely known to be better than ipod - not surprising considering the number of year creative has been in the audio peripheral business ) ."
    }, 
    "9fab3fa1513794381fb4939e464dcc56": {
        "location1": [
            19
        ], 
        "location2": [
            2
        ], 
        "(19, 2)": {
            "AM2L": [
                221
            ], 
            "AM2F": [
                1545
            ], 
            "WBF": [
                2281
            ], 
            "BM1F": [
                2866
            ], 
            "M1": [
                2676
            ], 
            "irrelevant_Adj": [
                1
            ], 
            "M2": [
                347
            ], 
            "BM1L": [
                1199
            ], 
            "WBO": [
                1562, 
                1983, 
                522, 
                325, 
                337, 
                1641, 
                1994, 
                2032, 
                2439, 
                1371, 
                1794, 
                2866, 
                1008
            ], 
            "WBL": [
                570
            ], 
            "irrelevant_Noun": [
                0
            ], 
            "M1_ADJ": [
                0
            ]
        }, 
        "sentence": "first , the sound quality is okay , but ( as at least one other reviewer has mentioned ) the eax can cause audio interference after about 30 minute ."
    }
}