{
    "ef25a24c12ae7b697445f8d181fbe847": {
        "(48, 13)": {
            "AM2L": [
                520
            ], 
            "AM2F": [
                2111
            ], 
            "WBF": [
                275
            ], 
            "BM1F": [
                827
            ], 
            "M1": [
                2617
            ], 
            "irrelevant_Adj": [
                1
            ], 
            "M2": [
                347
            ], 
            "BM1L": [
                150
            ], 
            "WBO": [
                3135, 
                150, 
                2377, 
                1888, 
                2824, 
                2864, 
                568, 
                393, 
                1987, 
                1457, 
                2832, 
                275, 
                1092, 
                2676, 
                3165, 
                1612, 
                2909, 
                402, 
                436, 
                2862, 
                1558, 
                1935, 
                2807, 
                717, 
                2866, 
                1949, 
                1971, 
                3222, 
                784, 
                1371, 
                413
            ], 
            "WBL": [
                2866
            ], 
            "irrelevant_Noun": [
                0
            ], 
            "M1_ADJ": [
                0
            ]
        }, 
        "location1": [
            48
        ], 
        "location2": [
            13
        ], 
        "sentence": "like it 's predecessor , the quickly revised nx , this player boast a decent size and weight , a relatively-intuitive navigational system that categorizes based on id3 tag , and excellent sound ( widely known to be better than ipod - not surprising considering the number of year creative has been in the audio peripheral business ) ."
    }
}