{
    "9fab3fa1513794381fb4939e464dcc56": {
        "(19, 20)": {
            "AM2L": [
                154
            ], 
            "BM1F": [
                570
            ], 
            "M1": [
                347
            ], 
            "irrelevant_Adj": [
                1
            ], 
            "M2": [
                1545
            ], 
            "BM1L": [
                543
            ], 
            "WBNULL": [
                1
            ], 
            "irrelevant_Noun": [
                0
            ], 
            "AM2F": [
                221
            ], 
            "M1_ADJ": [
                1
            ]
        }, 
        "location1": [
            19
        ], 
        "location2": [
            20
        ], 
        "sentence": "first , the sound quality is okay , but ( as at least one other reviewer has mentioned ) the eax can cause audio interference after about 30 minute ."
    }
}