{
    "398cb319769bddd6c91cb1051d7c2e26": {
        "(11, 7)": {
            "AM2F": [
                469
            ], 
            "WBF": [
                2866
            ], 
            "BM1F": [
                1971
            ], 
            "M1": [
                834
            ], 
            "irrelevant_Adj": [
                1
            ], 
            "M2": [
                347
            ], 
            "BM1L": [
                2673
            ], 
            "WBO": [
                2276
            ], 
            "WBL": [
                1971
            ], 
            "irrelevant_Noun": [
                0
            ], 
            "M1_ADJ": [
                0
            ]
        }, 
        "location1": [
            11
        ], 
        "location2": [
            7
        ], 
        "sentence": "this makes no sense and sort of defeat the purpose of audio bookmark .. ."
    }
}