{
    "25da27d72af155af06e6c5874f503ef7": {
        "(5, 3)": {
            "AM2L": [
                399
            ], 
            "WBFL": [
                1562
            ], 
            "BM1F": [
                2866
            ], 
            "M1": [
                2676
            ], 
            "irrelevant_Adj": [
                0
            ], 
            "M2": [
                367
            ], 
            "BM1L": [
                222
            ], 
            "AM2F": [
                2866
            ], 
            "irrelevant_Noun": [
                0
            ], 
            "M1_ADJ": [
                0
            ]
        }, 
        "location1": [
            5
        ], 
        "location2": [
            3
        ], 
        "sentence": "once again , the sound is awesome , the batterly life is only 6-8 hour , and that is because all my music is 320 kbps which does affect the battery life ."
    }, 
    "148b1ce6d32ce2ca6d79482fee329435": {
        "(3, 16)": {
            "AM2L": [
                769
            ], 
            "AM2F": [
                1810
            ], 
            "WBF": [
                522
            ], 
            "BM1F": [
                1562
            ], 
            "M1": [
                367
            ], 
            "irrelevant_Adj": [
                0
            ], 
            "M2": [
                2676
            ], 
            "BM1L": [
                2676
            ], 
            "WBO": [
                1463, 
                2980, 
                2280, 
                1566, 
                2919, 
                1720, 
                857, 
                1987, 
                3234
            ], 
            "WBL": [
                2866
            ], 
            "irrelevant_Noun": [
                0
            ], 
            "M1_ADJ": [
                1
            ]
        }, 
        "(3, 1)": {
            "AM2L": [
                1463
            ], 
            "WBFL": [
                1562
            ], 
            "BM1F": [
                2866
            ], 
            "M1": [
                2676
            ], 
            "irrelevant_Adj": [
                0
            ], 
            "M2": [
                367
            ], 
            "AM2F": [
                522
            ], 
            "irrelevant_Noun": [
                0
            ], 
            "M1_ADJ": [
                0
            ]
        }, 
        "location1": [
            3
        ], 
        "location2": [
            1, 
            16
        ], 
        "sentence": "the sound is awesome , but if u put it too loud , depends on yoursound quality , the sound might crack ."
    }
}