{
    "11ea6cc51cd764b97b163d2625b56407": {
        "location1": [
            15
        ], 
        "location2": [
            17
        ], 
        "(15, 17)": {
            "AM2L": [
                3152
            ], 
            "WBFL": [
                818
            ], 
            "BM1F": [
                273
            ], 
            "M1": [
                367
            ], 
            "irrelevant_Adj": [
                0
            ], 
            "M2": [
                654
            ], 
            "BM1L": [
                1297
            ], 
            "AM2F": [
                1261
            ], 
            "irrelevant_Noun": [
                0
            ], 
            "M1_ADJ": [
                1
            ]
        }, 
        "sentence": "if you use software correctly , put in all the id3 tag , you will get an awesome database collection , from which you can easily access your song ."
    }
}