{
    "25da27d72af155af06e6c5874f503ef7": {
        "(5, 12)": {
            "AM2L": [
                2864
            ], 
            "AM2F": [
                275
            ], 
            "WBF": [
                2866
            ], 
            "BM1F": [
                1562
            ], 
            "M1": [
                367
            ], 
            "irrelevant_Adj": [
                0
            ], 
            "M2": [
                1442
            ], 
            "BM1L": [
                2676
            ], 
            "WBO": [
                399, 
                1664, 
                1562
            ], 
            "WBL": [
                123
            ], 
            "irrelevant_Noun": [
                0
            ], 
            "M1_ADJ": [
                1
            ]
        }, 
        "location1": [
            5
        ], 
        "location2": [
            12
        ], 
        "sentence": "once again , the sound is awesome , the batterly life is only 6-8 hour , and that is because all my music is 320 kbps which does affect the battery life ."
    }, 
    "df802df13330b60399ef8b6c4a7f1791": {
        "location1": [
            4
        ], 
        "location2": [
            13
        ], 
        "(4, 13)": {
            "WBF": [
                2876
            ], 
            "BM1F": [
                273
            ], 
            "M1": [
                367
            ], 
            "irrelevant_Adj": [
                0
            ], 
            "M2": [
                1442
            ], 
            "BM1L": [
                1562
            ], 
            "WBO": [
                407, 
                1566, 
                2346, 
                1490, 
                1999
            ], 
            "WBL": [
                48
            ], 
            "irrelevant_Noun": [
                0
            ], 
            "M1_ADJ": [
                1
            ]
        }, 
        "sentence": "battery recharge , is an awesome thing , because it recharges in only like 2-3 hour ."
    }
}