{
    "ead02770ba3fff710bbb69f23f20558b": {
        "(16, 11)": {
            "AM2F": [
                308
            ], 
            "WBF": [
                1591
            ], 
            "BM1F": [
                2404
            ], 
            "M1": [
                400
            ], 
            "irrelevant_Adj": [
                0
            ], 
            "M2": [
                401
            ], 
            "BM1L": [
                150
            ], 
            "WBO": [
                1669
            ], 
            "WBL": [
                2032
            ], 
            "irrelevant_Noun": [
                0
            ], 
            "M1_ADJ": [
                0
            ]
        }, 
        "location1": [
            16
        ], 
        "location2": [
            11
        ], 
        "sentence": "the zennx will keep running for the price of a replacement battery , just like any other battery-powered appliance ."
    }
}