{
    "4eb5f2954876bf5f8cf65bf5ee5d832b": {
        "(9, 16)": {
            "AM2L": [
                2160
            ], 
            "AM2F": [
                1864
            ], 
            "WBF": [
                524
            ], 
            "BM1F": [
                2866
            ], 
            "M1": [
                434
            ], 
            "irrelevant_Adj": [
                0
            ], 
            "M2": [
                1792
            ], 
            "BM1L": [
                402
            ], 
            "WBO": [
                2037, 
                2873, 
                1232
            ], 
            "WBL": [
                1623
            ], 
            "irrelevant_Noun": [
                0
            ], 
            "M1_ADJ": [
                1
            ]
        }, 
        "location1": [
            9
        ], 
        "location2": [
            16
        ], 
        "sentence": "considering the price and specs , this might be the best buy out there for a large memory mp3 player ."
    }
}