{
    "b4710055bc1a10f777d1a193f72ef944": {
        "location1": [
            12
        ], 
        "location2": [
            16
        ], 
        "(12, 16)": {
            "WBF": [
                386
            ], 
            "BM1F": [
                2866
            ], 
            "M1": [
                434
            ], 
            "irrelevant_Adj": [
                0
            ], 
            "M2": [
                502
            ], 
            "BM1L": [
                840
            ], 
            "WBO": [
                1232
            ], 
            "WBL": [
                2866
            ], 
            "irrelevant_Noun": [
                0
            ], 
            "M1_ADJ": [
                1
            ]
        }, 
        "sentence": "compared to everything else in this category , this is most definately the best bang for the buck ."
    }
}