{
    "b2d4e633a50cce494eea7a203213e6b5": {
        "location1": [
            39
        ], 
        "location2": [
            13
        ], 
        "(39, 13)": {
            "AM2L": [
                2037
            ], 
            "AM2F": [
                1994
            ], 
            "WBF": [
                2160
            ], 
            "BM1F": [
                888
            ], 
            "M1": [
                1864
            ], 
            "irrelevant_Adj": [
                0
            ], 
            "M2": [
                434
            ], 
            "BM1L": [
                1758
            ], 
            "WBO": [
                522, 
                1184, 
                829, 
                1987, 
                2882, 
                1994, 
                275, 
                1946, 
                2864, 
                1449, 
                1375, 
                1566, 
                1449, 
                758, 
                1881, 
                402, 
                1360, 
                275, 
                1449, 
                2, 
                743, 
                1566
            ], 
            "WBL": [
                2866
            ], 
            "irrelevant_Noun": [
                0
            ], 
            "M1_ADJ": [
                0
            ]
        }, 
        "sentence": "before asking for the zen xtra specifically for christmas i researched many different mp3 player but finally decided on this one , and now that i have it i could n't be happier and i 'm convinced it 's the best one out there ."
    }, 
    "4eb5f2954876bf5f8cf65bf5ee5d832b": {
        "(9, 17)": {
            "AM2F": [
                2160
            ], 
            "WBF": [
                524
            ], 
            "BM1F": [
                2866
            ], 
            "M1": [
                434
            ], 
            "irrelevant_Adj": [
                0
            ], 
            "M2": [
                1864
            ], 
            "BM1L": [
                402
            ], 
            "WBO": [
                2037, 
                2873, 
                1232, 
                150
            ], 
            "WBL": [
                1792
            ], 
            "irrelevant_Noun": [
                0
            ], 
            "M1_ADJ": [
                1
            ]
        }, 
        "location1": [
            9
        ], 
        "location2": [
            17
        ], 
        "sentence": "considering the price and specs , this might be the best buy out there for a large memory mp3 player ."
    }, 
    "bdc192fe7f1f8ae65e2026ddd253541b": {
        "(16, 8)": {
            "AM2L": [
                2281
            ], 
            "AM2F": [
                2676
            ], 
            "WBF": [
                2160
            ], 
            "BM1F": [
                784
            ], 
            "M1": [
                1864
            ], 
            "irrelevant_Adj": [
                0
            ], 
            "M2": [
                434
            ], 
            "BM1L": [
                2034
            ], 
            "WBO": [
                316, 
                3075, 
                1320, 
                275
            ], 
            "WBL": [
                2866
            ], 
            "irrelevant_Noun": [
                0
            ], 
            "M1_ADJ": [
                0
            ]
        }, 
        "location1": [
            16
        ], 
        "location2": [
            8
        ], 
        "sentence": "it 's really a shame , because otherwise , creative mp3 player are very good , and have the best sound quality of any player on the market ."
    }, 
    "8812abd94f2f4829367b5c99303eebd1": {
        "location1": [
            15
        ], 
        "location2": [
            11
        ], 
        "(15, 11)": {
            "AM2L": [
                2281
            ], 
            "AM2F": [
                2676
            ], 
            "WBF": [
                1587
            ], 
            "BM1F": [
                784
            ], 
            "M1": [
                1864
            ], 
            "irrelevant_Adj": [
                0
            ], 
            "M2": [
                434
            ], 
            "BM1L": [
                2866
            ], 
            "WBO": [
                1375
            ], 
            "WBL": [
                2866
            ], 
            "irrelevant_Noun": [
                0
            ], 
            "M1_ADJ": [
                0
            ]
        }, 
        "sentence": "all review i 've seen seem to indicate that the creative mp3 jukebox have the best sound quality of these 2nd generation jukeboxed ( ipod , archos , dell , samsung ) ."
    }
}