{
    "13ed9f0eb7cfb3f0871a1f60badfc088": {
        "location1": [
            14
        ], 
        "location2": [
            8, 
            12
        ], 
        "(14, 8)": {
            "AM2L": [
                2866
            ], 
            "AM2F": [
                1987
            ], 
            "WBF": [
                1163
            ], 
            "BM1F": [
                275
            ], 
            "M1": [
                2160
            ], 
            "irrelevant_Adj": [
                0
            ], 
            "M2": [
                434
            ], 
            "BM1L": [
                2617
            ], 
            "WBO": [
                1745, 
                2882
            ], 
            "WBL": [
                2866
            ], 
            "irrelevant_Noun": [
                0
            ], 
            "M1_ADJ": [
                0
            ]
        }, 
        "(14, 12)": {
            "AM2L": [
                2866
            ], 
            "WBFL": [
                2866
            ], 
            "BM1F": [
                2882
            ], 
            "M1": [
                2160
            ], 
            "irrelevant_Adj": [
                0
            ], 
            "M2": [
                434
            ], 
            "BM1L": [
                1745
            ], 
            "AM2F": [
                1987
            ], 
            "irrelevant_Noun": [
                0
            ], 
            "M1_ADJ": [
                0
            ]
        }, 
        "sentence": "the combination of the price , storage size , and player feature makes this player the best on the market ."
    }, 
    "7967db31bc77438a94a846ddeb630669": {
        "(99, 27)": {
            "WBF": [
                275
            ], 
            "BM1F": [
                2046
            ], 
            "M1": [
                2160
            ], 
            "irrelevant_Adj": [
                0
            ], 
            "M2": [
                434
            ], 
            "BM1L": [
                2866
            ], 
            "WBO": [
                648, 
                2909, 
                3041, 
                1071, 
                3181, 
                2833, 
                275, 
                2516, 
                2866, 
                3185, 
                347, 
                1239, 
                2783, 
                1210, 
                2037, 
                2783, 
                1490, 
                2856, 
                1971, 
                2676, 
                2281, 
                678, 
                3181, 
                2866, 
                3064, 
                2793, 
                151, 
                1239, 
                2866, 
                307, 
                1558, 
                3038, 
                275, 
                1566, 
                2732, 
                3229, 
                3181, 
                1994, 
                1971, 
                2866, 
                2772, 
                2078, 
                2069, 
                1875, 
                2549, 
                2782, 
                325, 
                1883, 
                1535, 
                1971, 
                246, 
                2909, 
                3041, 
                2866, 
                1571, 
                2748, 
                3152, 
                1463, 
                3229, 
                1079, 
                2151, 
                2909, 
                2092, 
                1232, 
                3230, 
                1875, 
                1562, 
                528
            ], 
            "WBL": [
                2866
            ], 
            "irrelevant_Noun": [
                0
            ], 
            "M1_ADJ": [
                0
            ]
        }, 
        "location1": [
            99
        ], 
        "location2": [
            27
        ], 
        "sentence": "finally the software used to put all the song into it is vastly inferior to itunes on two level , first it is poorly integrated into the overall player and clunky to use especially with tagging and second the wma audio format suck , flat out suck in term of sound quality compared with the vastly superior aac format the apple ipod us and it stick you with one of the sub par paid music service such as napster instead of allowing to use the itunes store , which , if you ever plan to pay for your music , is by far the best ."
    }, 
    "4eb5f2954876bf5f8cf65bf5ee5d832b": {
        "(9, 18)": {
            "WBF": [
                524
            ], 
            "BM1F": [
                2866
            ], 
            "M1": [
                434
            ], 
            "irrelevant_Adj": [
                0
            ], 
            "M2": [
                2160
            ], 
            "BM1L": [
                402
            ], 
            "WBO": [
                2037, 
                2873, 
                1232, 
                150, 
                1623
            ], 
            "WBL": [
                1864
            ], 
            "irrelevant_Noun": [
                0
            ], 
            "M1_ADJ": [
                1
            ]
        }, 
        "location1": [
            9
        ], 
        "location2": [
            18
        ], 
        "sentence": "considering the price and specs , this might be the best buy out there for a large memory mp3 player ."
    }, 
    "bdc192fe7f1f8ae65e2026ddd253541b": {
        "(16, 9)": {
            "AM2L": [
                2281
            ], 
            "AM2F": [
                2676
            ], 
            "WBF": [
                316
            ], 
            "BM1F": [
                1864
            ], 
            "M1": [
                2160
            ], 
            "irrelevant_Adj": [
                0
            ], 
            "M2": [
                434
            ], 
            "BM1L": [
                784
            ], 
            "WBO": [
                3075, 
                1320, 
                275
            ], 
            "WBL": [
                2866
            ], 
            "irrelevant_Noun": [
                0
            ], 
            "M1_ADJ": [
                0
            ]
        }, 
        "(16, 21)": {
            "AM2L": [
                2866
            ], 
            "AM2F": [
                1987
            ], 
            "WBF": [
                2676
            ], 
            "BM1F": [
                2866
            ], 
            "M1": [
                434
            ], 
            "irrelevant_Adj": [
                0
            ], 
            "M2": [
                2160
            ], 
            "BM1L": [
                1375
            ], 
            "WBO": [
                2281
            ], 
            "WBL": [
                286
            ], 
            "irrelevant_Noun": [
                0
            ], 
            "M1_ADJ": [
                1
            ]
        }, 
        "location1": [
            16
        ], 
        "location2": [
            9, 
            21
        ], 
        "sentence": "it 's really a shame , because otherwise , creative mp3 player are very good , and have the best sound quality of any player on the market ."
    }, 
    "24abd4ca4b2e2dd4bcb7e9533280f5ce": {
        "(12, 13)": {
            "AM2L": [
                6
            ], 
            "BM1F": [
                2866
            ], 
            "M1": [
                434
            ], 
            "irrelevant_Adj": [
                0
            ], 
            "M2": [
                2160
            ], 
            "BM1L": [
                4
            ], 
            "WBNULL": [
                1
            ], 
            "irrelevant_Noun": [
                0
            ], 
            "AM2F": [
                1449
            ], 
            "M1_ADJ": [
                1
            ]
        }, 
        "location1": [
            12
        ], 
        "location2": [
            13
        ], 
        "sentence": "i 've had it for about 2 week and it 's the best player i 've seen , and used , ever ."
    }, 
    "b2d4e633a50cce494eea7a203213e6b5": {
        "(39, 14)": {
            "AM2L": [
                2037
            ], 
            "AM2F": [
                1994
            ], 
            "WBF": [
                522
            ], 
            "BM1F": [
                1864
            ], 
            "M1": [
                2160
            ], 
            "irrelevant_Adj": [
                0
            ], 
            "M2": [
                434
            ], 
            "BM1L": [
                888
            ], 
            "WBO": [
                1184, 
                829, 
                1987, 
                2882, 
                1994, 
                275, 
                1946, 
                2864, 
                1449, 
                1375, 
                1566, 
                1449, 
                758, 
                1881, 
                402, 
                1360, 
                275, 
                1449, 
                2, 
                743, 
                1566
            ], 
            "WBL": [
                2866
            ], 
            "irrelevant_Noun": [
                0
            ], 
            "M1_ADJ": [
                0
            ]
        }, 
        "location1": [
            39
        ], 
        "location2": [
            14
        ], 
        "sentence": "before asking for the zen xtra specifically for christmas i researched many different mp3 player but finally decided on this one , and now that i have it i could n't be happier and i 'm convinced it 's the best one out there ."
    }
}