{
    "03570c7476d0ceac93f46ac37f238d57": {
        "location1": [
            12
        ], 
        "location2": [
            16
        ], 
        "(12, 16)": {
            "WBF": [
                824
            ], 
            "BM1F": [
                2866
            ], 
            "M1": [
                434
            ], 
            "irrelevant_Adj": [
                0
            ], 
            "M2": [
                1844
            ], 
            "BM1L": [
                3117
            ], 
            "WBO": [
                1232
            ], 
            "WBL": [
                2866
            ], 
            "irrelevant_Noun": [
                0
            ], 
            "M1_ADJ": [
                1
            ]
        }, 
        "sentence": "i chose this one because from what i read , it was the best deal for the money ."
    }
}