{
    "ef25a24c12ae7b697445f8d181fbe847": {
        "location1": [
            33
        ], 
        "location2": [
            13
        ], 
        "(33, 13)": {
            "AM2L": [
                1558
            ], 
            "AM2F": [
                2862
            ], 
            "WBF": [
                275
            ], 
            "BM1F": [
                827
            ], 
            "M1": [
                2617
            ], 
            "irrelevant_Adj": [
                0
            ], 
            "M2": [
                436
            ], 
            "BM1L": [
                150
            ], 
            "WBO": [
                3135, 
                150, 
                2377, 
                1888, 
                2824, 
                2864, 
                568, 
                393, 
                1987, 
                1457, 
                2832, 
                275, 
                1092, 
                2676, 
                3165, 
                1612
            ], 
            "WBL": [
                402
            ], 
            "irrelevant_Noun": [
                0
            ], 
            "M1_ADJ": [
                0
            ]
        }, 
        "sentence": "like it 's predecessor , the quickly revised nx , this player boast a decent size and weight , a relatively-intuitive navigational system that categorizes based on id3 tag , and excellent sound ( widely known to be better than ipod - not surprising considering the number of year creative has been in the audio peripheral business ) ."
    }, 
    "cc9343b9437cedbe76ed6e65ab813167": {
        "location1": [
            10
        ], 
        "location2": [
            5
        ], 
        "(10, 5)": {
            "AM2L": [
                2866
            ], 
            "AM2F": [
                2862
            ], 
            "WBF": [
                275
            ], 
            "BM1F": [
                1490
            ], 
            "M1": [
                2617
            ], 
            "irrelevant_Adj": [
                0
            ], 
            "M2": [
                436
            ], 
            "BM1L": [
                2859
            ], 
            "WBO": [
                864
            ], 
            "WBL": [
                1712
            ], 
            "irrelevant_Noun": [
                0
            ], 
            "M1_ADJ": [
                0
            ]
        }, 
        "sentence": "the system is terrific in size and design , imo looking better than the ipod ."
    }
}