{
    "c5fb91677140916fcce268347c2b912b": {
        "(22, 21)": {
            "BM1F": [
                2734
            ], 
            "M1": [
                3191
            ], 
            "irrelevant_Adj": [
                0
            ], 
            "M2": [
                436
            ], 
            "BM1L": [
                1769
            ], 
            "WBNULL": [
                1
            ], 
            "irrelevant_Noun": [
                0
            ], 
            "M1_ADJ": [
                0
            ]
        }, 
        "location1": [
            22
        ], 
        "location2": [
            21
        ], 
        "sentence": "as i mentioned before , the creative mediasource software is actually really robust despite what others have said , though notmad may still work better ."
    }, 
    "5d8a1adbeeaf90d9f03da0b3810f9ee5": {
        "(5, 10)": {
            "AM2L": [
                150
            ], 
            "AM2F": [
                1669
            ], 
            "WBF": [
                275
            ], 
            "BM1F": [
                402
            ], 
            "M1": [
                436
            ], 
            "irrelevant_Adj": [
                0
            ], 
            "M2": [
                3191
            ], 
            "BM1L": [
                1881
            ], 
            "WBO": [
                2866
            ], 
            "WBL": [
                2160
            ], 
            "irrelevant_Noun": [
                0
            ], 
            "M1_ADJ": [
                1
            ]
        }, 
        "location1": [
            5
        ], 
        "location2": [
            10
        ], 
        "sentence": "the software could n't be better and the mp3 player work like a dream , i could n't give this anything but a 5 , i wish there was a 6 ."
    }
}