{
    "e17e18380718fc3b0a9d1deacbd92ff8": {
        "location1": [
            10
        ], 
        "location2": [
            30
        ], 
        "(10, 30)": {
            "AM2L": [
                2421
            ], 
            "AM2F": [
                2864
            ], 
            "WBF": [
                1211
            ], 
            "BM1F": [
                1971
            ], 
            "M1": [
                440
            ], 
            "irrelevant_Adj": [
                0
            ], 
            "M2": [
                675
            ], 
            "BM1L": [
                764
            ], 
            "WBO": [
                2864, 
                2200, 
                525, 
                2587, 
                402, 
                3116, 
                1971, 
                275, 
                242, 
                2319, 
                1896, 
                2909, 
                1610, 
                154, 
                150, 
                2880
            ], 
            "WBL": [
                2653
            ], 
            "irrelevant_Noun": [
                0
            ], 
            "M1_ADJ": [
                1
            ]
        }, 
        "sentence": "this player is an overall disappointment with a couple of big flaw that potential buyer should be wary of ; and all reader need to know about a third party software company that resolve virtually all of the creative mediasource file transfer issue ."
    }
}