{
    "ac35a2b46c21e2344be10bb8fcaad509": {
        "(29, 30)": {
            "BM1F": [
                150
            ], 
            "M1": [
                440
            ], 
            "irrelevant_Adj": [
                0
            ], 
            "M2": [
                1373
            ], 
            "BM1L": [
                402
            ], 
            "WBNULL": [
                1
            ], 
            "irrelevant_Noun": [
                0
            ], 
            "M1_ADJ": [
                1
            ]
        }, 
        "location1": [
            29
        ], 
        "location2": [
            30
        ], 
        "sentence": "the included eax support is useful at time , especially when you listen to a variety of genre , as it will adjust the equalizer for you which can be a big hassle ."
    }
}