{
    "60f14cbc1a1f1fba8df34fb32d3b3aa8": {
        "location1": [
            12
        ], 
        "location2": [
            17
        ], 
        "(12, 17)": {
            "AM2L": [
                242
            ], 
            "AM2F": [
                852
            ], 
            "WBF": [
                1845
            ], 
            "BM1F": [
                150
            ], 
            "M1": [
                440
            ], 
            "irrelevant_Adj": [
                0
            ], 
            "M2": [
                2313
            ], 
            "BM1L": [
                402
            ], 
            "WBO": [
                2609
            ], 
            "WBL": [
                1560
            ], 
            "irrelevant_Noun": [
                0
            ], 
            "M1_ADJ": [
                1
            ]
        }, 
        "sentence": "since battery do run out on everything , this will also be a big money-saver since ipod , irivers , rca , dell , all have built-in battery that need to be replaced by a technician ( apple charge 100 bone for the battery replacement ) ."
    }
}