{
    "ac35a2b46c21e2344be10bb8fcaad509": {
        "(29, 3)": {
            "AM2F": [
                1373
            ], 
            "WBF": [
                1562
            ], 
            "BM1F": [
                1008
            ], 
            "M1": [
                2797
            ], 
            "irrelevant_Adj": [
                0
            ], 
            "M2": [
                440
            ], 
            "BM1L": [
                1496
            ], 
            "WBO": [
                3044, 
                337, 
                2901, 
                1071, 
                3147, 
                3229, 
                1683, 
                2909, 
                150, 
                3061, 
                1971, 
                1296, 
                325, 
                1566, 
                3168, 
                204, 
                2866, 
                1062, 
                1232, 
                3229, 
                3152, 
                543
            ], 
            "WBL": [
                150
            ], 
            "irrelevant_Noun": [
                0
            ], 
            "M1_ADJ": [
                0
            ]
        }, 
        "location1": [
            29
        ], 
        "location2": [
            3
        ], 
        "sentence": "the included eax support is useful at time , especially when you listen to a variety of genre , as it will adjust the equalizer for you which can be a big hassle ."
    }
}