{
    "60f14cbc1a1f1fba8df34fb32d3b3aa8": {
        "(12, 32)": {
            "AM2L": [
                466
            ], 
            "AM2F": [
                19
            ], 
            "WBF": [
                1845
            ], 
            "BM1F": [
                150
            ], 
            "M1": [
                440
            ], 
            "irrelevant_Adj": [
                0
            ], 
            "M2": [
                595
            ], 
            "BM1L": [
                402
            ], 
            "WBO": [
                2609, 
                1558, 
                1560, 
                2313, 
                852, 
                242, 
                1375, 
                509, 
                400, 
                2864, 
                1896, 
                2909, 
                402, 
                2403, 
                528, 
                150
            ], 
            "WBL": [
                307
            ], 
            "irrelevant_Noun": [
                0
            ], 
            "M1_ADJ": [
                1
            ]
        }, 
        "location1": [
            12
        ], 
        "location2": [
            32
        ], 
        "sentence": "since battery do run out on everything , this will also be a big money-saver since ipod , irivers , rca , dell , all have built-in battery that need to be replaced by a technician ( apple charge 100 bone for the battery replacement ) ."
    }
}