{
    "8d1f6697eefabe40a2bed7c33818a32d": {
        "(1, 14)": {
            "AM2L": [
                761
            ], 
            "AM2F": [
                275
            ], 
            "WBF": [
                2747
            ], 
            "BM1F": [
                23
            ], 
            "M1": [
                440
            ], 
            "irrelevant_Adj": [
                0
            ], 
            "M2": [
                237
            ], 
            "WBO": [
                1878, 
                1056, 
                574, 
                654, 
                1490, 
                1994, 
                2637, 
                877, 
                119
            ], 
            "WBL": [
                107
            ], 
            "irrelevant_Noun": [
                0
            ], 
            "M1_ADJ": [
                1
            ]
        }, 
        "location1": [
            1
        ], 
        "location2": [
            14
        ], 
        "sentence": "12 ) big storage - my entire cd collection in one small device ( 5717 song , 491 album and counting ) !"
    }
}