{
    "60f14cbc1a1f1fba8df34fb32d3b3aa8": {
        "location1": [
            12
        ], 
        "location2": [
            6
        ], 
        "(12, 6)": {
            "AM2L": [
                2609
            ], 
            "AM2F": [
                1845
            ], 
            "WBF": [
                2882
            ], 
            "BM1F": [
                1987
            ], 
            "M1": [
                1084
            ], 
            "irrelevant_Adj": [
                0
            ], 
            "M2": [
                440
            ], 
            "BM1L": [
                2037
            ], 
            "WBO": [
                3168, 
                254
            ], 
            "WBL": [
                150
            ], 
            "irrelevant_Noun": [
                0
            ], 
            "M1_ADJ": [
                0
            ]
        }, 
        "sentence": "since battery do run out on everything , this will also be a big money-saver since ipod , irivers , rca , dell , all have built-in battery that need to be replaced by a technician ( apple charge 100 bone for the battery replacement ) ."
    }
}