{
    "60f14cbc1a1f1fba8df34fb32d3b3aa8": {
        "sentence": "since battery do run out on everything , this will also be a big money-saver since ipod , irivers , rca , dell , all have built-in battery that need to be replaced by a technician ( apple charge 100 bone for the battery replacement ) .", 
        "(12, 37)": {
            "AM2F": [
                2404
            ], 
            "WBF": [
                1845
            ], 
            "BM1F": [
                150
            ], 
            "M1": [
                440
            ], 
            "irrelevant_Adj": [
                0
            ], 
            "M2": [
                400
            ], 
            "BM1L": [
                402
            ], 
            "WBO": [
                2609, 
                1558, 
                1560, 
                2313, 
                852, 
                242, 
                1375, 
                509, 
                400, 
                2864, 
                1896, 
                2909, 
                402, 
                2403, 
                528, 
                150, 
                2849, 
                307, 
                595, 
                19, 
                466
            ], 
            "WBL": [
                2866
            ], 
            "irrelevant_Noun": [
                0
            ], 
            "M1_ADJ": [
                1
            ]
        }, 
        "location2": [
            1, 
            22, 
            37
        ], 
        "(12, 22)": {
            "AM2L": [
                1896
            ], 
            "AM2F": [
                2864
            ], 
            "WBF": [
                1845
            ], 
            "BM1F": [
                150
            ], 
            "M1": [
                440
            ], 
            "irrelevant_Adj": [
                0
            ], 
            "M2": [
                400
            ], 
            "BM1L": [
                402
            ], 
            "WBO": [
                2609, 
                1558, 
                1560, 
                2313, 
                852, 
                242
            ], 
            "WBL": [
                509
            ], 
            "irrelevant_Noun": [
                0
            ], 
            "M1_ADJ": [
                1
            ]
        }, 
        "location1": [
            12
        ], 
        "(12, 1)": {
            "AM2L": [
                2609
            ], 
            "AM2F": [
                1845
            ], 
            "WBF": [
                931
            ], 
            "BM1F": [
                2609
            ], 
            "M1": [
                400
            ], 
            "irrelevant_Adj": [
                0
            ], 
            "M2": [
                440
            ], 
            "WBO": [
                2469, 
                2037, 
                1987, 
                1084, 
                2882, 
                3168, 
                254
            ], 
            "WBL": [
                150
            ], 
            "irrelevant_Noun": [
                0
            ], 
            "M1_ADJ": [
                0
            ]
        }
    }
}