{
    "e17e18380718fc3b0a9d1deacbd92ff8": {
        "location1": [
            10
        ], 
        "location2": [
            5
        ], 
        "(10, 5)": {
            "AM2L": [
                2864
            ], 
            "AM2F": [
                1211
            ], 
            "WBF": [
                3181
            ], 
            "BM1F": [
                2046
            ], 
            "M1": [
                908
            ], 
            "irrelevant_Adj": [
                0
            ], 
            "M2": [
                440
            ], 
            "BM1L": [
                273
            ], 
            "WBO": [
                150
            ], 
            "WBL": [
                1971
            ], 
            "irrelevant_Noun": [
                0
            ], 
            "M1_ADJ": [
                0
            ]
        }, 
        "sentence": "this player is an overall disappointment with a couple of big flaw that potential buyer should be wary of ; and all reader need to know about a third party software company that resolve virtually all of the creative mediasource file transfer issue ."
    }
}