{
    "8d1f6697eefabe40a2bed7c33818a32d": {
        "(1, 10)": {
            "AM2L": [
                2666
            ], 
            "AM2F": [
                119
            ], 
            "WBF": [
                2747
            ], 
            "BM1F": [
                23
            ], 
            "M1": [
                440
            ], 
            "irrelevant_Adj": [
                0
            ], 
            "M2": [
                877
            ], 
            "WBO": [
                1878, 
                1056, 
                574, 
                654, 
                1490
            ], 
            "WBL": [
                2637
            ], 
            "irrelevant_Noun": [
                0
            ], 
            "M1_ADJ": [
                1
            ]
        }, 
        "location1": [
            1
        ], 
        "location2": [
            10
        ], 
        "sentence": "12 ) big storage - my entire cd collection in one small device ( 5717 song , 491 album and counting ) !"
    }, 
    "a92fef16203e6547baf7dd20d024590d": {
        "(6, 26)": {
            "WBF": [
                2170
            ], 
            "BM1F": [
                150
            ], 
            "M1": [
                440
            ], 
            "irrelevant_Adj": [
                0
            ], 
            "M2": [
                877
            ], 
            "BM1L": [
                1562
            ], 
            "WBO": [
                1566, 
                185, 
                2261, 
                2866, 
                3010, 
                3138, 
                2661, 
                150, 
                1719, 
                1971, 
                561, 
                562, 
                1138, 
                2909, 
                931, 
                3181
            ], 
            "WBL": [
                347
            ], 
            "irrelevant_Noun": [
                0
            ], 
            "M1_ADJ": [
                1
            ]
        }, 
        "location1": [
            6
        ], 
        "location2": [
            26
        ], 
        "sentence": "the included leather pouch is a big plus : it actually protects the unit well , something a lot of ' carrying case ' fail to do with other audio device ."
    }
}