{
    "0e5f67b050553dd76a766dd94211c505": {
        "(5, 12)": {
            "AM2L": [
                3229
            ], 
            "AM2F": [
                1463
            ], 
            "WBF": [
                2872
            ], 
            "BM1F": [
                2664
            ], 
            "M1": [
                441
            ], 
            "irrelevant_Adj": [
                0
            ], 
            "M2": [
                1565
            ], 
            "BM1L": [
                3010
            ], 
            "WBO": [
                2866, 
                1558, 
                522
            ], 
            "WBL": [
                273
            ], 
            "irrelevant_Noun": [
                0
            ], 
            "M1_ADJ": [
                1
            ]
        }, 
        "location1": [
            5
        ], 
        "location2": [
            12
        ], 
        "sentence": "nice palm sized unit , somewhat bigger then the ipod but not an issue if you 're not going to try & jog with it or something ."
    }
}