{
    "0e323c1547426b8da1e4e82d6f89a302": {
        "(1, 5)": {
            "AM2L": [
                2019
            ], 
            "AM2F": [
                1664
            ], 
            "WBF": [
                686
            ], 
            "BM1F": [
                1878
            ], 
            "M1": [
                442
            ], 
            "irrelevant_Adj": [
                0
            ], 
            "M2": [
                400
            ], 
            "WBO": [
                1562
            ], 
            "WBL": [
                2866
            ], 
            "irrelevant_Noun": [
                0
            ], 
            "M1_ADJ": [
                1
            ]
        }, 
        "location1": [
            1
        ], 
        "location2": [
            5
        ], 
        "sentence": "my biggest complaint is the battery life or lack there of ."
    }, 
    "fe401e4c7ad5871abaee9660a3bbdd76": {
        "location1": [
            2
        ], 
        "location2": [
            21, 
            33
        ], 
        "(2, 21)": {
            "AM2L": [
                1402
            ], 
            "AM2F": [
                1417
            ], 
            "WBF": [
                211
            ], 
            "BM1F": [
                2866
            ], 
            "M1": [
                442
            ], 
            "irrelevant_Adj": [
                0
            ], 
            "M2": [
                400
            ], 
            "BM1L": [
                2195
            ], 
            "WBO": [
                2882, 
                2160, 
                1371, 
                1463, 
                2225, 
                3117, 
                1881, 
                1050, 
                1562, 
                2866, 
                1132, 
                2864, 
                2866, 
                3046, 
                543
            ], 
            "WBL": [
                2866
            ], 
            "irrelevant_Noun": [
                0
            ], 
            "M1_ADJ": [
                1
            ]
        }, 
        "(2, 33)": {
            "WBF": [
                211
            ], 
            "BM1F": [
                2866
            ], 
            "M1": [
                442
            ], 
            "irrelevant_Adj": [
                0
            ], 
            "M2": [
                400
            ], 
            "BM1L": [
                2195
            ], 
            "WBO": [
                2882, 
                2160, 
                1371, 
                1463, 
                2225, 
                3117, 
                1881, 
                1050, 
                1562, 
                2866, 
                1132, 
                2864, 
                2866, 
                3046, 
                543, 
                2401, 
                2866, 
                400, 
                1417, 
                1402, 
                528, 
                2005, 
                2866, 
                1663, 
                275, 
                2183, 
                1490
            ], 
            "WBL": [
                1903
            ], 
            "irrelevant_Noun": [
                0
            ], 
            "M1_ADJ": [
                1
            ]
        }, 
        "sentence": "possibly the biggest advantage this player has ( if price was n't enough ) is the fact that the user can replace the battery him / herself by opening the lid and popping in the new battery ."
    }
}