{
    "c8a04e62ab057c0a7bce58982ce6cae8": {
        "(9, 10)": {
            "AM2L": [
                490
            ], 
            "BM1F": [
                2866
            ], 
            "M1": [
                457
            ], 
            "irrelevant_Adj": [
                0
            ], 
            "M2": [
                1665
            ], 
            "BM1L": [
                275
            ], 
            "WBNULL": [
                1
            ], 
            "irrelevant_Noun": [
                0
            ], 
            "AM2F": [
                1562
            ], 
            "M1_ADJ": [
                1
            ]
        }, 
        "location1": [
            9
        ], 
        "location2": [
            10
        ], 
        "sentence": "the screen is very easy to read and the blue light is bright enough to read at night , but dim enough so it does n't blind you when you stare too long ."
    }, 
    "22b951ffa2f0d17cc9b029bd85dcdf41": {
        "(4, 5)": {
            "AM2L": [
                247
            ], 
            "BM1F": [
                634
            ], 
            "M1": [
                457
            ], 
            "irrelevant_Adj": [
                0
            ], 
            "M2": [
                1665
            ], 
            "BM1L": [
                150
            ], 
            "WBNULL": [
                1
            ], 
            "irrelevant_Noun": [
                0
            ], 
            "AM2F": [
                2864
            ], 
            "M1_ADJ": [
                1
            ]
        }, 
        "location1": [
            4
        ], 
        "location2": [
            5
        ], 
        "sentence": "it has a clear blue light that allows you to see everything on the screen easily ."
    }, 
    "21ebed2a97f528417ad5da338ef26ef7": {
        "(19, 20)": {
            "AM2L": [
                2866
            ], 
            "BM1F": [
                2866
            ], 
            "M1": [
                457
            ], 
            "irrelevant_Adj": [
                0
            ], 
            "M2": [
                1665
            ], 
            "BM1L": [
                275
            ], 
            "WBNULL": [
                1
            ], 
            "irrelevant_Noun": [
                0
            ], 
            "AM2F": [
                1490
            ], 
            "M1_ADJ": [
                1
            ]
        }, 
        "location1": [
            19
        ], 
        "location2": [
            20
        ], 
        "sentence": "now here the stuff you should know starting with the good thing : the screen is really big and the blue light in the back is perfect , fast as hell in music transfer , control are easy to use after mastering the scroll button , great sound and ive heard many mp3 player , a ton of different equilizer type deal on here ."
    }
}