{
    "4609198e9495aeb97d0e1704b1f11136": {
        "(8, 6)": {
            "AM2L": [
                2501
            ], 
            "WBFL": [
                406
            ], 
            "BM1F": [
                1712
            ], 
            "M1": [
                2160
            ], 
            "irrelevant_Adj": [
                0
            ], 
            "M2": [
                457
            ], 
            "BM1L": [
                1320
            ], 
            "AM2F": [
                374
            ], 
            "irrelevant_Noun": [
                0
            ], 
            "M1_ADJ": [
                0
            ]
        }, 
        "location1": [
            8
        ], 
        "location2": [
            6, 
            17
        ], 
        "(8, 17)": {
            "AM2L": [
                1375
            ], 
            "AM2F": [
                2659
            ], 
            "WBF": [
                374
            ], 
            "BM1F": [
                406
            ], 
            "M1": [
                457
            ], 
            "irrelevant_Adj": [
                0
            ], 
            "M2": [
                2160
            ], 
            "BM1L": [
                2160
            ], 
            "WBO": [
                2501, 
                1463, 
                3229, 
                6, 
                2317
            ], 
            "WBL": [
                2866
            ], 
            "irrelevant_Noun": [
                0
            ], 
            "M1_ADJ": [
                1
            ]
        }, 
        "sentence": "much cheaper than i-pod good looking player ( beautiful blue back-lit screen ) if you 've read about the player , some have complained about the lack of a viewing hole for the face when the case is on , but this is good because the face does n't get damaged / scratched fast transfer rate"
    }, 
    "21ebed2a97f528417ad5da338ef26ef7": {
        "(19, 49)": {
            "AM2L": [
                2916
            ], 
            "AM2F": [
                150
            ], 
            "WBF": [
                1665
            ], 
            "BM1F": [
                2866
            ], 
            "M1": [
                457
            ], 
            "irrelevant_Adj": [
                0
            ], 
            "M2": [
                2160
            ], 
            "BM1L": [
                275
            ], 
            "WBO": [
                1490, 
                2866, 
                373, 
                1562, 
                2104, 
                1156, 
                325, 
                1398, 
                1490, 
                1875, 
                2939, 
                735, 
                316, 
                1005, 
                2909, 
                3041, 
                221, 
                1764, 
                2866, 
                2506, 
                523, 
                1333, 
                2676, 
                275, 
                1572, 
                1389
            ], 
            "WBL": [
                1864
            ], 
            "irrelevant_Noun": [
                0
            ], 
            "M1_ADJ": [
                1
            ]
        }, 
        "location1": [
            19
        ], 
        "location2": [
            49
        ], 
        "sentence": "now here the stuff you should know starting with the good thing : the screen is really big and the blue light in the back is perfect , fast as hell in music transfer , control are easy to use after mastering the scroll button , great sound and ive heard many mp3 player , a ton of different equilizer type deal on here ."
    }
}