{
    "21ebed2a97f528417ad5da338ef26ef7": {
        "(19, 23)": {
            "AM2L": [
                2104
            ], 
            "AM2F": [
                1562
            ], 
            "WBF": [
                1665
            ], 
            "BM1F": [
                2866
            ], 
            "M1": [
                457
            ], 
            "irrelevant_Adj": [
                0
            ], 
            "M2": [
                373
            ], 
            "BM1L": [
                275
            ], 
            "WBO": [
                1490
            ], 
            "WBL": [
                2866
            ], 
            "irrelevant_Noun": [
                0
            ], 
            "M1_ADJ": [
                1
            ]
        }, 
        "location1": [
            19
        ], 
        "location2": [
            23
        ], 
        "sentence": "now here the stuff you should know starting with the good thing : the screen is really big and the blue light in the back is perfect , fast as hell in music transfer , control are easy to use after mastering the scroll button , great sound and ive heard many mp3 player , a ton of different equilizer type deal on here ."
    }
}