{
    "046321e6f46dfb8659079eb3d885696d": {
        "(2, 8)": {
            "AM2L": [
                723
            ], 
            "AM2F": [
                827
            ], 
            "WBF": [
                400
            ], 
            "BM1F": [
                2170
            ], 
            "M1": [
                590
            ], 
            "irrelevant_Adj": [
                0
            ], 
            "M2": [
                1057
            ], 
            "BM1L": [
                2032
            ], 
            "WBO": [
                1694, 
                1971
            ], 
            "WBL": [
                1232
            ], 
            "irrelevant_Noun": [
                0
            ], 
            "M1_ADJ": [
                1
            ]
        }, 
        "location1": [
            2
        ], 
        "location2": [
            8
        ], 
        "sentence": "other plus : changable battery , load of presets for environment , decent construction , still quite small and light despite being slightly bigger than an ipod ."
    }
}