{
    "dfeaf50d5e3cca7bf889853664f868cd": {
        "location1": [
            0
        ], 
        "location2": [
            7
        ], 
        "(0, 7)": {
            "WBF": [
                723
            ], 
            "AM2L": [
                1971
            ], 
            "M1": [
                601
            ], 
            "irrelevant_Adj": [
                0
            ], 
            "M2": [
                2160
            ], 
            "WBO": [
                2875, 
                2587, 
                1375
            ], 
            "WBL": [
                2866
            ], 
            "irrelevant_Noun": [
                0
            ], 
            "AM2F": [
                2037
            ], 
            "M1_ADJ": [
                1
            ]
        }, 
        "sentence": "cheap construction - they should have made the player out of hard plastic and put some rubber on the corner ."
    }
}