{
    "ea590102fe54b3305e3c92c7f680c4d9": {
        "(18, 24)": {
            "AM2F": [
                1573
            ], 
            "WBF": [
                1166
            ], 
            "BM1F": [
                2328
            ], 
            "M1": [
                718
            ], 
            "irrelevant_Adj": [
                0
            ], 
            "M2": [
                1386
            ], 
            "BM1L": [
                275
            ], 
            "WBO": [
                154, 
                2236
            ], 
            "WBL": [
                2866
            ], 
            "irrelevant_Noun": [
                0
            ], 
            "M1_ADJ": [
                1
            ]
        }, 
        "location1": [
            18
        ], 
        "location2": [
            24
        ], 
        "sentence": "creative zen feedback suffers from construction quality , poor product support , difficulty of using the scroll wheel and reasonably consistent feedback about problem with the headphone jack ."
    }
}