{
    "8c911f0be96ba4560218d1f4847f02a8": {
        "(8, 21)": {
            "AM2L": [
                2172
            ], 
            "AM2F": [
                2518
            ], 
            "WBF": [
                817
            ], 
            "BM1F": [
                150
            ], 
            "M1": [
                738
            ], 
            "irrelevant_Adj": [
                0
            ], 
            "M2": [
                654
            ], 
            "BM1L": [
                1935
            ], 
            "WBO": [
                2747, 
                877, 
                1999, 
                524, 
                2866, 
                551, 
                3229, 
                1896, 
                1232
            ], 
            "WBL": [
                1875
            ], 
            "irrelevant_Noun": [
                0
            ], 
            "M1_ADJ": [
                1
            ]
        }, 
        "location1": [
            8
        ], 
        "location2": [
            21
        ], 
        "sentence": "in other word , the zen is not a convenient data storage device ; only buy the capacity you need for your music collection ( see point 1. for some sizing information ) ."
    }
}