{
    "8c911f0be96ba4560218d1f4847f02a8": {
        "(8, 10)": {
            "AM2L": [
                1999
            ], 
            "WBFL": [
                817
            ], 
            "BM1F": [
                150
            ], 
            "M1": [
                738
            ], 
            "irrelevant_Adj": [
                0
            ], 
            "M2": [
                2747
            ], 
            "BM1L": [
                1935
            ], 
            "AM2F": [
                877
            ], 
            "irrelevant_Noun": [
                0
            ], 
            "M1_ADJ": [
                1
            ]
        }, 
        "location1": [
            8
        ], 
        "location2": [
            10
        ], 
        "sentence": "in other word , the zen is not a convenient data storage device ; only buy the capacity you need for your music collection ( see point 1. for some sizing information ) ."
    }
}