{
    "55a1e032f3ca37204ac18478c6c689ef": {
        "(28, 30)": {
            "WBFL": [
                198
            ], 
            "BM1F": [
                150
            ], 
            "M1": [
                738
            ], 
            "irrelevant_Adj": [
                0
            ], 
            "M2": [
                616
            ], 
            "BM1L": [
                402
            ], 
            "irrelevant_Noun": [
                0
            ], 
            "M1_ADJ": [
                1
            ]
        }, 
        "location1": [
            28
        ], 
        "location2": [
            30
        ], 
        "sentence": "6 . the zen nx battery requires the ac adapter to recharge ; it does not charge by usb cable ; this is not tragic , but usb recharging would be a convenient ( additional ) choice ."
    }
}