{
    "55a1e032f3ca37204ac18478c6c689ef": {
        "(28, 24)": {
            "AM2L": [
                616
            ], 
            "AM2F": [
                198
            ], 
            "WBF": [
                3204
            ], 
            "BM1F": [
                3040
            ], 
            "M1": [
                2347
            ], 
            "irrelevant_Adj": [
                0
            ], 
            "M2": [
                738
            ], 
            "BM1L": [
                522
            ], 
            "WBO": [
                402
            ], 
            "WBL": [
                150
            ], 
            "irrelevant_Noun": [
                0
            ], 
            "M1_ADJ": [
                0
            ]
        }, 
        "location1": [
            28
        ], 
        "location2": [
            24
        ], 
        "sentence": "6 . the zen nx battery requires the ac adapter to recharge ; it does not charge by usb cable ; this is not tragic , but usb recharging would be a convenient ( additional ) choice ."
    }
}