{
    "26afbb728550c0df1149e771bc94d54b": {
        "(15, 36)": {
            "AM2L": [
                1082
            ], 
            "AM2F": [
                522
            ], 
            "WBF": [
                2501
            ], 
            "BM1F": [
                1710
            ], 
            "M1": [
                744
            ], 
            "irrelevant_Adj": [
                0
            ], 
            "M2": [
                2225
            ], 
            "BM1L": [
                3010
            ], 
            "WBO": [
                1562, 
                490, 
                275, 
                1005, 
                2909, 
                2317, 
                275, 
                2866, 
                2402, 
                400, 
                1774, 
                150, 
                1743, 
                211, 
                2045, 
                2866, 
                1558
            ], 
            "WBL": [
                2866
            ], 
            "irrelevant_Noun": [
                0
            ], 
            "M1_ADJ": [
                1
            ]
        }, 
        "location1": [
            15
        ], 
        "location2": [
            36
        ], 
        "sentence": "the sound quality is excellent ( and i 'm fussy with that stuff ) , the unit look cool , screen is bright and easy to read , and the replaceable battery mean a major advantage over the ipod ( besides the price , but everyone know that ) ."
    }
}