{
    "67bd9ef657ec9fe0e24675e255e6ee0d": {
        "(7, 14)": {
            "WBF": [
                1994
            ], 
            "BM1F": [
                2659
            ], 
            "M1": [
                744
            ], 
            "irrelevant_Adj": [
                0
            ], 
            "M2": [
                1163
            ], 
            "BM1L": [
                1490
            ], 
            "WBO": [
                2609, 
                1566, 
                1371
            ], 
            "WBL": [
                1008
            ], 
            "irrelevant_Noun": [
                0
            ], 
            "M1_ADJ": [
                1
            ]
        }, 
        "location1": [
            7
        ], 
        "location2": [
            14
        ], 
        "sentence": "headphone suck , i would invest in some cool one since it has the eax feature ."
    }, 
    "1815e3af4f811c08b874fb48013a9edc": {
        "(5, 2)": {
            "AM2L": [
                3138
            ], 
            "AM2F": [
                325
            ], 
            "WBF": [
                316
            ], 
            "BM1F": [
                1008
            ], 
            "M1": [
                1163
            ], 
            "irrelevant_Adj": [
                0
            ], 
            "M2": [
                744
            ], 
            "BM1L": [
                2866
            ], 
            "WBO": [
                2220
            ], 
            "WBL": [
                2220
            ], 
            "irrelevant_Noun": [
                0
            ], 
            "M1_ADJ": [
                0
            ]
        }, 
        "location1": [
            5
        ], 
        "location2": [
            2
        ], 
        "sentence": "the eax feature are pretty cool , as well , as creative has included a number of eq adjustment that , for example , compensate for the extraneous noise encountered in a car or on a train ."
    }
}