{
    "26afbb728550c0df1149e771bc94d54b": {
        "(15, 16)": {
            "AM2L": [
                490
            ], 
            "BM1F": [
                1710
            ], 
            "M1": [
                744
            ], 
            "irrelevant_Adj": [
                0
            ], 
            "M2": [
                2501
            ], 
            "BM1L": [
                3010
            ], 
            "WBNULL": [
                1
            ], 
            "irrelevant_Noun": [
                0
            ], 
            "AM2F": [
                1562
            ], 
            "M1_ADJ": [
                1
            ]
        }, 
        "location1": [
            15
        ], 
        "location2": [
            16
        ], 
        "sentence": "the sound quality is excellent ( and i 'm fussy with that stuff ) , the unit look cool , screen is bright and easy to read , and the replaceable battery mean a major advantage over the ipod ( besides the price , but everyone know that ) ."
    }, 
    "ec0fd99b6bcbfe936b9599e58eacb322": {
        "(6, 7)": {
            "AM2L": [
                1935
            ], 
            "BM1F": [
                150
            ], 
            "M1": [
                744
            ], 
            "irrelevant_Adj": [
                0
            ], 
            "M2": [
                2501
            ], 
            "BM1L": [
                1371
            ], 
            "WBNULL": [
                1
            ], 
            "irrelevant_Noun": [
                0
            ], 
            "AM2F": [
                3162
            ], 
            "M1_ADJ": [
                1
            ]
        }, 
        "location1": [
            6
        ], 
        "location2": [
            7
        ], 
        "sentence": "2 ) no game - it has a cool screen - why not use it ."
    }, 
    "fcc6060d8953928ffecfa28e3e7a7871": {
        "(15, 1)": {
            "WBF": [
                1562
            ], 
            "BM1F": [
                2866
            ], 
            "M1": [
                2501
            ], 
            "irrelevant_Adj": [
                0
            ], 
            "M2": [
                744
            ], 
            "WBO": [
                1623, 
                841, 
                275, 
                1005, 
                2909, 
                2317, 
                275, 
                2866, 
                2602, 
                3010
            ], 
            "WBL": [
                1884
            ], 
            "irrelevant_Noun": [
                0
            ], 
            "M1_ADJ": [
                0
            ]
        }, 
        "location1": [
            15
        ], 
        "location2": [
            1
        ], 
        "sentence": "the screen is large , defined , and easy to read , and the silver unit is naturally cool ."
    }
}