{
    "e17e18380718fc3b0a9d1deacbd92ff8": {
        "location1": [
            37
        ], 
        "location2": [
            39
        ], 
        "(37, 39)": {
            "AM2L": [
                1565
            ], 
            "WBFL": [
                1779
            ], 
            "BM1F": [
                2866
            ], 
            "M1": [
                784
            ], 
            "irrelevant_Adj": [
                1
            ], 
            "M2": [
                1176
            ], 
            "BM1L": [
                1971
            ], 
            "AM2F": [
                2939
            ], 
            "irrelevant_Noun": [
                1
            ], 
            "M1_ADJ": [
                1
            ]
        }, 
        "sentence": "this player is an overall disappointment with a couple of big flaw that potential buyer should be wary of ; and all reader need to know about a third party software company that resolve virtually all of the creative mediasource file transfer issue ."
    }, 
    "f17720aeafd313670cd2350bf2e39041": {
        "(38, 1)": {
            "AM2L": [
                286
            ], 
            "AM2F": [
                2019
            ], 
            "WBF": [
                316
            ], 
            "BM1F": [
                1734
            ], 
            "M1": [
                1176
            ], 
            "irrelevant_Adj": [
                1
            ], 
            "M2": [
                784
            ], 
            "WBO": [
                3043, 
                528, 
                1854, 
                1864, 
                2160, 
                1669, 
                1876, 
                275, 
                3172, 
                522, 
                1935, 
                784, 
                3183, 
                1944, 
                3229, 
                1896, 
                2909, 
                1753, 
                2359, 
                3230, 
                2162, 
                1566, 
                936, 
                1881, 
                555, 
                3144, 
                2653, 
                3229, 
                3041, 
                2909, 
                2453, 
                2019, 
                566
            ], 
            "WBL": [
                1875
            ], 
            "irrelevant_Noun": [
                1
            ], 
            "M1_ADJ": [
                0
            ]
        }, 
        "location1": [
            14, 
            38
        ], 
        "location2": [
            1
        ], 
        "(14, 1)": {
            "AM2L": [
                1944
            ], 
            "AM2F": [
                3183
            ], 
            "WBF": [
                316
            ], 
            "BM1F": [
                1734
            ], 
            "M1": [
                1176
            ], 
            "irrelevant_Adj": [
                1
            ], 
            "M2": [
                784
            ], 
            "WBO": [
                3043, 
                528, 
                1854, 
                1864, 
                2160, 
                1669, 
                1876, 
                275, 
                3172
            ], 
            "WBL": [
                1935
            ], 
            "irrelevant_Noun": [
                1
            ], 
            "M1_ADJ": [
                0
            ]
        }, 
        "sentence": "m3u file are used by most mp3 player like musicmatch and winamp , but not creative - without notmad you need to manually recreate your playlist ) ; it does n't care what software you use to rip or catalog your music - creative or any other company - all my 12.5 gb of music were transferred to the zen with correct tag - hooray !"
    }
}