{
    "dddabe0a6ff5deb6dc9e3641be46c42d": {
        "location1": [
            27
        ], 
        "location2": [
            16
        ], 
        "(27, 16)": {
            "AM2L": [
                1999
            ], 
            "AM2F": [
                3168
            ], 
            "WBF": [
                1917
            ], 
            "BM1F": [
                46
            ], 
            "M1": [
                3222
            ], 
            "irrelevant_Adj": [
                1
            ], 
            "M2": [
                784
            ], 
            "BM1L": [
                2866
            ], 
            "WBO": [
                2282, 
                328, 
                2404, 
                3114, 
                3168, 
                402, 
                3201
            ], 
            "WBL": [
                2609
            ], 
            "irrelevant_Noun": [
                0
            ], 
            "M1_ADJ": [
                0
            ]
        }, 
        "sentence": "i know this unit will have problem in the future and the $ 40 for the 2 year `` no question asked `` replacement warranty will be worth it , since creative will only warrant it for 90 day - which in itself is totally ridiculous !"
    }, 
    "ef25a24c12ae7b697445f8d181fbe847": {
        "location1": [
            43
        ], 
        "location2": [
            42
        ], 
        "(43, 42)": {
            "AM2L": [
                413
            ], 
            "BM1F": [
                1971
            ], 
            "M1": [
                3222
            ], 
            "irrelevant_Adj": [
                1
            ], 
            "M2": [
                784
            ], 
            "BM1L": [
                1949
            ], 
            "WBNULL": [
                1
            ], 
            "irrelevant_Noun": [
                0
            ], 
            "AM2F": [
                1371
            ], 
            "M1_ADJ": [
                0
            ]
        }, 
        "sentence": "like it 's predecessor , the quickly revised nx , this player boast a decent size and weight , a relatively-intuitive navigational system that categorizes based on id3 tag , and excellent sound ( widely known to be better than ipod - not surprising considering the number of year creative has been in the audio peripheral business ) ."
    }
}