{
    "1815e3af4f811c08b874fb48013a9edc": {
        "location1": [
            9
        ], 
        "location2": [
            13
        ], 
        "(9, 13)": {
            "AM2L": [
                1061
            ], 
            "AM2F": [
                1971
            ], 
            "WBF": [
                1371
            ], 
            "BM1F": [
                325
            ], 
            "M1": [
                784
            ], 
            "irrelevant_Adj": [
                1
            ], 
            "M2": [
                1949
            ], 
            "BM1L": [
                3138
            ], 
            "WBO": [
                1496
            ], 
            "WBL": [
                150
            ], 
            "irrelevant_Noun": [
                0
            ], 
            "M1_ADJ": [
                1
            ]
        }, 
        "sentence": "the eax feature are pretty cool , as well , as creative has included a number of eq adjustment that , for example , compensate for the extraneous noise encountered in a car or on a train ."
    }, 
    "ef25a24c12ae7b697445f8d181fbe847": {
        "(43, 40)": {
            "AM2L": [
                413
            ], 
            "AM2F": [
                1371
            ], 
            "WBF": [
                1971
            ], 
            "BM1F": [
                2866
            ], 
            "M1": [
                1949
            ], 
            "irrelevant_Adj": [
                1
            ], 
            "M2": [
                784
            ], 
            "BM1L": [
                717
            ], 
            "WBO": [
                3222
            ], 
            "WBL": [
                3222
            ], 
            "irrelevant_Noun": [
                0
            ], 
            "M1_ADJ": [
                0
            ]
        }, 
        "location1": [
            43
        ], 
        "location2": [
            40
        ], 
        "sentence": "like it 's predecessor , the quickly revised nx , this player boast a decent size and weight , a relatively-intuitive navigational system that categorizes based on id3 tag , and excellent sound ( widely known to be better than ipod - not surprising considering the number of year creative has been in the audio peripheral business ) ."
    }
}