{
    "2462352e4d26f43439fa478ab33dff17": {
        "location1": [
            34
        ], 
        "location2": [
            26
        ], 
        "(34, 26)": {
            "AM2L": [
                1998
            ], 
            "AM2F": [
                4
            ], 
            "WBF": [
                2418
            ], 
            "BM1F": [
                1878
            ], 
            "M1": [
                2094
            ], 
            "irrelevant_Adj": [
                1
            ], 
            "M2": [
                784
            ], 
            "BM1L": [
                2331
            ], 
            "WBO": [
                2866, 
                877, 
                2384, 
                964
            ], 
            "WBL": [
                1074
            ], 
            "irrelevant_Noun": [
                0
            ], 
            "M1_ADJ": [
                0
            ]
        }, 
        "sentence": "after i had it a couple week , it got into a state where it could never find the device , no matter how often i rebooted my pc , reset the device , reloaded driver , etc , etc . creative 's online support was no help at all ."
    }
}