{
    "af4ff3b60fd17fb4f6c20eea30e59606": {
        "location1": [
            10
        ], 
        "location2": [
            11
        ], 
        "(10, 11)": {
            "AM2L": [
                211
            ], 
            "BM1F": [
                2878
            ], 
            "M1": [
                784
            ], 
            "irrelevant_Adj": [
                1
            ], 
            "M2": [
                1975
            ], 
            "BM1L": [
                1449
            ], 
            "WBNULL": [
                1
            ], 
            "irrelevant_Noun": [
                0
            ], 
            "AM2F": [
                2659
            ], 
            "M1_ADJ": [
                1
            ]
        }, 
        "sentence": "for those of us that like to tinker , i think creative offer some advantage ."
    }
}