{
    "bdc192fe7f1f8ae65e2026ddd253541b": {
        "(7, 24)": {
            "WBF": [
                1864
            ], 
            "BM1F": [
                2034
            ], 
            "M1": [
                784
            ], 
            "irrelevant_Adj": [
                1
            ], 
            "M2": [
                1759
            ], 
            "BM1L": [
                407
            ], 
            "WBO": [
                2160, 
                316, 
                3075, 
                1320, 
                275, 
                1375, 
                2866, 
                434, 
                2676, 
                2281, 
                1971, 
                286, 
                2160
            ], 
            "WBL": [
                2866
            ], 
            "irrelevant_Noun": [
                0
            ], 
            "M1_ADJ": [
                1
            ]
        }, 
        "location1": [
            7
        ], 
        "location2": [
            24
        ], 
        "sentence": "it 's really a shame , because otherwise , creative mp3 player are very good , and have the best sound quality of any player on the market ."
    }
}