{
    "e17e18380718fc3b0a9d1deacbd92ff8": {
        "location1": [
            37
        ], 
        "location2": [
            5
        ], 
        "(37, 5)": {
            "AM2L": [
                1176
            ], 
            "AM2F": [
                1779
            ], 
            "WBF": [
                3181
            ], 
            "BM1F": [
                2046
            ], 
            "M1": [
                908
            ], 
            "irrelevant_Adj": [
                1
            ], 
            "M2": [
                784
            ], 
            "BM1L": [
                273
            ], 
            "WBO": [
                150, 
                764, 
                1971, 
                440, 
                1211, 
                2864, 
                2200, 
                525, 
                2587, 
                402, 
                3116, 
                1971, 
                275, 
                242, 
                2319, 
                1896, 
                2909, 
                1610, 
                154, 
                150, 
                2880, 
                2086, 
                2653, 
                675, 
                2864, 
                2421, 
                3087, 
                242
            ], 
            "WBL": [
                2866
            ], 
            "irrelevant_Noun": [
                0
            ], 
            "M1_ADJ": [
                0
            ]
        }, 
        "sentence": "this player is an overall disappointment with a couple of big flaw that potential buyer should be wary of ; and all reader need to know about a third party software company that resolve virtually all of the creative mediasource file transfer issue ."
    }
}