{
    "14d20e2bcf29b6bcafa9483b929a2de6": {
        "location1": [
            1
        ], 
        "location2": [
            33
        ], 
        "(1, 33)": {
            "AM2L": [
                1288
            ], 
            "AM2F": [
                25
            ], 
            "WBF": [
                1779
            ], 
            "BM1F": [
                8
            ], 
            "M1": [
                784
            ], 
            "irrelevant_Adj": [
                1
            ], 
            "M2": [
                2934
            ], 
            "WBO": [
                2653, 
                1562, 
                1982, 
                2909, 
                2453, 
                566, 
                515, 
                1875, 
                1463, 
                3229, 
                316, 
                2722, 
                1261, 
                2499, 
                522, 
                1449, 
                3043, 
                1876, 
                2909, 
                2453, 
                1878, 
                574, 
                415, 
                1449, 
                479, 
                2866, 
                3236, 
                67
            ], 
            "WBL": [
                75
            ], 
            "irrelevant_Noun": [
                0
            ], 
            "M1_ADJ": [
                1
            ]
        }, 
        "sentence": "1. creative mediasource software is ok to rip , catalog & burn music if you are starting from scratch ; but i used musicmatch to rip my cd before i bought the zen ( 278 cd ; 3,400 track ; 12.5 gb of music all ripped at 128bps ) and guess what ?"
    }
}