{
    "2462352e4d26f43439fa478ab33dff17": {
        "(34, 37)": {
            "AM2L": [
                1917
            ], 
            "AM2F": [
                3117
            ], 
            "WBF": [
                4
            ], 
            "BM1F": [
                1074
            ], 
            "M1": [
                784
            ], 
            "irrelevant_Adj": [
                1
            ], 
            "M2": [
                2797
            ], 
            "BM1L": [
                1074
            ], 
            "WBO": [
                1998
            ], 
            "WBL": [
                1998
            ], 
            "irrelevant_Noun": [
                0
            ], 
            "M1_ADJ": [
                1
            ]
        }, 
        "location1": [
            34
        ], 
        "location2": [
            37
        ], 
        "sentence": "after i had it a couple week , it got into a state where it could never find the device , no matter how often i rebooted my pc , reset the device , reloaded driver , etc , etc . creative 's online support was no help at all ."
    }, 
    "b53d62b6c1ff43f2a9f455b5b47ac453": {
        "(0, 3)": {
            "WBF": [
                1615
            ], 
            "AM2L": [
                1562
            ], 
            "M1": [
                784
            ], 
            "irrelevant_Adj": [
                1
            ], 
            "M2": [
                2797
            ], 
            "WBO": [
                800
            ], 
            "WBL": [
                800
            ], 
            "irrelevant_Noun": [
                0
            ], 
            "AM2F": [
                3132
            ], 
            "M1_ADJ": [
                1
            ]
        }, 
        "location1": [
            0
        ], 
        "location2": [
            3
        ], 
        "sentence": "creative lab customer support website is useless ."
    }, 
    "ea590102fe54b3305e3c92c7f680c4d9": {
        "(0, 9)": {
            "WBF": [
                3236
            ], 
            "AM2L": [
                1971
            ], 
            "M1": [
                784
            ], 
            "irrelevant_Adj": [
                1
            ], 
            "M2": [
                2797
            ], 
            "WBO": [
                1166, 
                2784, 
                1261, 
                723, 
                2281
            ], 
            "WBL": [
                2242
            ], 
            "irrelevant_Noun": [
                0
            ], 
            "AM2F": [
                891
            ], 
            "M1_ADJ": [
                1
            ]
        }, 
        "location1": [
            0
        ], 
        "location2": [
            9
        ], 
        "sentence": "creative zen feedback suffers from construction quality , poor product support , difficulty of using the scroll wheel and reasonably consistent feedback about problem with the headphone jack ."
    }, 
    "9962a0395a42bef512fbadba4dcc1ee1": {
        "(2, 5)": {
            "AM2L": [
                3012
            ], 
            "AM2F": [
                1562
            ], 
            "WBF": [
                4
            ], 
            "BM1F": [
                1987
            ], 
            "M1": [
                784
            ], 
            "irrelevant_Adj": [
                1
            ], 
            "M2": [
                2797
            ], 
            "BM1L": [
                1166
            ], 
            "WBO": [
                2242
            ], 
            "WBL": [
                2242
            ], 
            "irrelevant_Noun": [
                0
            ], 
            "M1_ADJ": [
                1
            ]
        }, 
        "location1": [
            2
        ], 
        "location2": [
            5
        ], 
        "sentence": "feedback on creative 's product support is universally poor ; this is not limited to the zen , it applies to all the company 's product ."
    }, 
    "8b9a6cd9df31ff13ae9cf191b5e2455f": {
        "(5, 7)": {
            "AM2L": [
                1566
            ], 
            "WBFL": [
                2847
            ], 
            "BM1F": [
                1026
            ], 
            "M1": [
                784
            ], 
            "irrelevant_Adj": [
                1
            ], 
            "M2": [
                2797
            ], 
            "BM1L": [
                252
            ], 
            "AM2F": [
                154
            ], 
            "irrelevant_Noun": [
                0
            ], 
            "M1_ADJ": [
                1
            ]
        }, 
        "location1": [
            5
        ], 
        "location2": [
            7
        ], 
        "sentence": "but i 've already emailed creative tech support about it , and gotten timely response - they will fix it for me if necessary .. ."
    }
}