{
    "1815e3af4f811c08b874fb48013a9edc": {
        "(9, 32)": {
            "WBF": [
                1371
            ], 
            "BM1F": [
                325
            ], 
            "M1": [
                784
            ], 
            "irrelevant_Adj": [
                1
            ], 
            "M2": [
                2938
            ], 
            "BM1L": [
                3138
            ], 
            "WBO": [
                1496, 
                150, 
                1949, 
                1971, 
                1061, 
                206, 
                2864, 
                1232, 
                1088, 
                682, 
                1232, 
                2866, 
                1121, 
                1918, 
                1035, 
                1490, 
                150, 
                553, 
                2019
            ], 
            "WBL": [
                150
            ], 
            "irrelevant_Noun": [
                0
            ], 
            "M1_ADJ": [
                1
            ]
        }, 
        "location1": [
            9
        ], 
        "location2": [
            32
        ], 
        "sentence": "the eax feature are pretty cool , as well , as creative has included a number of eq adjustment that , for example , compensate for the extraneous noise encountered in a car or on a train ."
    }
}