{
    "8812abd94f2f4829367b5c99303eebd1": {
        "(10, 24)": {
            "AM2L": [
                2481
            ], 
            "AM2F": [
                852
            ], 
            "WBF": [
                1864
            ], 
            "BM1F": [
                2866
            ], 
            "M1": [
                784
            ], 
            "irrelevant_Adj": [
                1
            ], 
            "M2": [
                315
            ], 
            "BM1L": [
                2864
            ], 
            "WBO": [
                1587, 
                1375, 
                2866, 
                434, 
                2676, 
                2281, 
                1971, 
                2874, 
                72, 
                1295
            ], 
            "WBL": [
                1558
            ], 
            "irrelevant_Noun": [
                0
            ], 
            "M1_ADJ": [
                1
            ]
        }, 
        "location1": [
            10
        ], 
        "location2": [
            24
        ], 
        "sentence": "all review i 've seen seem to indicate that the creative mp3 jukebox have the best sound quality of these 2nd generation jukeboxed ( ipod , archos , dell , samsung ) ."
    }
}