{
    "dddabe0a6ff5deb6dc9e3641be46c42d": {
        "(27, 3)": {
            "AM2L": [
                1999
            ], 
            "AM2F": [
                3168
            ], 
            "WBF": [
                3168
            ], 
            "BM1F": [
                2882
            ], 
            "M1": [
                3010
            ], 
            "irrelevant_Adj": [
                1
            ], 
            "M2": [
                784
            ], 
            "BM1L": [
                1610
            ], 
            "WBO": [
                1375, 
                2236, 
                1490, 
                2866, 
                1278, 
                275, 
                2866, 
                101, 
                1232, 
                2866, 
                46, 
                3222, 
                1917, 
                2282, 
                328, 
                2404, 
                3114, 
                3168, 
                402, 
                3201
            ], 
            "WBL": [
                2609
            ], 
            "irrelevant_Noun": [
                0
            ], 
            "M1_ADJ": [
                0
            ]
        }, 
        "location1": [
            27
        ], 
        "location2": [
            3
        ], 
        "sentence": "i know this unit will have problem in the future and the $ 40 for the 2 year `` no question asked `` replacement warranty will be worth it , since creative will only warrant it for 90 day - which in itself is totally ridiculous !"
    }, 
    "aeaf53d9981fcdae134d914c14c3bf3a": {
        "(7, 5)": {
            "AM2L": [
                2019
            ], 
            "WBFL": [
                1437
            ], 
            "BM1F": [
                1333
            ], 
            "M1": [
                3010
            ], 
            "irrelevant_Adj": [
                1
            ], 
            "M2": [
                784
            ], 
            "BM1L": [
                150
            ], 
            "AM2F": [
                1615
            ], 
            "irrelevant_Noun": [
                0
            ], 
            "M1_ADJ": [
                0
            ]
        }, 
        "location1": [
            7
        ], 
        "location2": [
            5
        ], 
        "sentence": "overall it is a great unit & hopefully creative lab or some other vendor will soon come out with some accessory for it ."
    }
}