{
    "ea590102fe54b3305e3c92c7f680c4d9": {
        "(0, 5)": {
            "WBF": [
                3236
            ], 
            "AM2L": [
                2178
            ], 
            "M1": [
                784
            ], 
            "irrelevant_Adj": [
                1
            ], 
            "M2": [
                723
            ], 
            "WBO": [
                1166
            ], 
            "WBL": [
                1261
            ], 
            "irrelevant_Noun": [
                0
            ], 
            "AM2F": [
                2281
            ], 
            "M1_ADJ": [
                1
            ]
        }, 
        "location1": [
            0
        ], 
        "location2": [
            5
        ], 
        "sentence": "creative zen feedback suffers from construction quality , poor product support , difficulty of using the scroll wheel and reasonably consistent feedback about problem with the headphone jack ."
    }
}