{
    "af4ff3b60fd17fb4f6c20eea30e59606": {
        "(10, 13)": {
            "WBF": [
                1975
            ], 
            "BM1F": [
                2878
            ], 
            "M1": [
                784
            ], 
            "irrelevant_Adj": [
                1
            ], 
            "M2": [
                211
            ], 
            "BM1L": [
                1449
            ], 
            "WBO": [
                2659
            ], 
            "WBL": [
                2659
            ], 
            "irrelevant_Noun": [
                0
            ], 
            "M1_ADJ": [
                1
            ]
        }, 
        "location1": [
            10
        ], 
        "location2": [
            13
        ], 
        "sentence": "for those of us that like to tinker , i think creative offer some advantage ."
    }, 
    "4147498480996841498df2bb40d27af6": {
        "location1": [
            7
        ], 
        "location2": [
            11
        ], 
        "(7, 11)": {
            "AM2L": [
                2866
            ], 
            "AM2F": [
                2045
            ], 
            "WBF": [
                1562
            ], 
            "BM1F": [
                1261
            ], 
            "M1": [
                784
            ], 
            "irrelevant_Adj": [
                1
            ], 
            "M2": [
                211
            ], 
            "BM1L": [
                113
            ], 
            "WBO": [
                150
            ], 
            "WBL": [
                1333
            ], 
            "irrelevant_Noun": [
                0
            ], 
            "M1_ADJ": [
                1
            ]
        }, 
        "sentence": "5 ) the cheap , user-replaceable battery ( $ 50 from creative ) is a great advantage over the ipod 's battery which cost $ 100 to replace ."
    }
}