{
    "6bcac49498fd30b88131b83404d6bfaf": {
        "(4, 2)": {
            "AM2L": [
                2882
            ], 
            "WBFL": [
                337
            ], 
            "BM1F": [
                2690
            ], 
            "M1": [
                1258
            ], 
            "irrelevant_Adj": [
                1
            ], 
            "M2": [
                784
            ], 
            "BM1L": [
                2036
            ], 
            "AM2F": [
                1287
            ], 
            "irrelevant_Noun": [
                0
            ], 
            "M1_ADJ": [
                0
            ]
        }, 
        "location1": [
            4
        ], 
        "location2": [
            2
        ], 
        "sentence": "our special friend at creative gave this thing good sound quality , great feature , long battery life , and an unbeatable price ."
    }
}