{
    "faecff2a9f98008034e071e9ea118f8f": {
        "(21, 6)": {
            "AM2L": [
                2659
            ], 
            "AM2F": [
                1371
            ], 
            "WBF": [
                1573
            ], 
            "BM1F": [
                2868
            ], 
            "M1": [
                1386
            ], 
            "irrelevant_Adj": [
                1
            ], 
            "M2": [
                784
            ], 
            "BM1L": [
                2864
            ], 
            "WBO": [
                936, 
                1881, 
                3191, 
                221, 
                150, 
                1849, 
                1971, 
                3049, 
                2866, 
                877, 
                2909
            ], 
            "WBL": [
                2864
            ], 
            "irrelevant_Noun": [
                0
            ], 
            "M1_ADJ": [
                0
            ]
        }, 
        "location1": [
            21
        ], 
        "location2": [
            6
        ], 
        "sentence": "enough people have reported that their headphone jack does n't work after a month of using the device to believe that creative has some inbuilt manufacturing or quality control problem ."
    }, 
    "ea590102fe54b3305e3c92c7f680c4d9": {
        "(0, 24)": {
            "WBF": [
                3236
            ], 
            "M1": [
                784
            ], 
            "irrelevant_Adj": [
                1
            ], 
            "M2": [
                1386
            ], 
            "WBO": [
                1166, 
                2784, 
                1261, 
                723, 
                2281, 
                2178, 
                2242, 
                2797, 
                891, 
                1971, 
                3049, 
                2866, 
                2506, 
                3146, 
                275, 
                2328, 
                718, 
                1166, 
                154, 
                2236
            ], 
            "WBL": [
                2866
            ], 
            "irrelevant_Noun": [
                0
            ], 
            "AM2F": [
                1573
            ], 
            "M1_ADJ": [
                1
            ]
        }, 
        "location1": [
            0
        ], 
        "location2": [
            24
        ], 
        "sentence": "creative zen feedback suffers from construction quality , poor product support , difficulty of using the scroll wheel and reasonably consistent feedback about problem with the headphone jack ."
    }
}