{
    "2462352e4d26f43439fa478ab33dff17": {
        "location1": [
            34
        ], 
        "location2": [
            40
        ], 
        "(34, 40)": {
            "AM2L": [
                242
            ], 
            "AM2F": [
                337
            ], 
            "WBF": [
                4
            ], 
            "BM1F": [
                1074
            ], 
            "M1": [
                784
            ], 
            "irrelevant_Adj": [
                1
            ], 
            "M2": [
                1399
            ], 
            "BM1L": [
                1074
            ], 
            "WBO": [
                1998, 
                2797
            ], 
            "WBL": [
                1917
            ], 
            "irrelevant_Noun": [
                0
            ], 
            "M1_ADJ": [
                1
            ]
        }, 
        "sentence": "after i had it a couple week , it got into a state where it could never find the device , no matter how often i rebooted my pc , reset the device , reloaded driver , etc , etc . creative 's online support was no help at all ."
    }
}