{
    "55dab1cfdddd4a895855e44900c1da52": {
        "(3, 1)": {
            "AM2L": [
                1987
            ], 
            "WBFL": [
                1851
            ], 
            "BM1F": [
                2506
            ], 
            "M1": [
                523
            ], 
            "irrelevant_Adj": [
                0
            ], 
            "M2": [
                793
            ], 
            "AM2F": [
                2862
            ], 
            "irrelevant_Noun": [
                0
            ], 
            "M1_ADJ": [
                0
            ]
        }, 
        "location1": [
            3
        ], 
        "location2": [
            1
        ], 
        "sentence": "* scroll button more cumbersome than on earlier model ."
    }
}