{
    "f8e21ab1b8a57bce5633ca8027b19bb4": {
        "location1": [
            22
        ], 
        "location2": [
            8
        ], 
        "(22, 8)": {
            "AM2L": [
                3049
            ], 
            "AM2F": [
                3192
            ], 
            "WBF": [
                437
            ], 
            "BM1F": [
                2594
            ], 
            "M1": [
                1875
            ], 
            "irrelevant_Adj": [
                0
            ], 
            "M2": [
                793
            ], 
            "BM1L": [
                2909
            ], 
            "WBO": [
                2680, 
                3229, 
                543, 
                5, 
                931, 
                2882, 
                1987, 
                2866, 
                1558, 
                1094
            ], 
            "WBL": [
                150
            ], 
            "irrelevant_Noun": [
                0
            ], 
            "M1_ADJ": [
                0
            ]
        }, 
        "sentence": "the zen is an outstanding way to shuttle music between source , you can 't do this on the ipod ( except for a cumbersome work-around using the ipod as a hard drive instead of a player ) ."
    }
}