{
    "046321e6f46dfb8659079eb3d885696d": {
        "(9, 10)": {
            "AM2L": [
                2291
            ], 
            "BM1F": [
                1057
            ], 
            "M1": [
                827
            ], 
            "irrelevant_Adj": [
                0
            ], 
            "M2": [
                723
            ], 
            "BM1L": [
                1232
            ], 
            "WBNULL": [
                1
            ], 
            "irrelevant_Noun": [
                0
            ], 
            "AM2F": [
                2734
            ], 
            "M1_ADJ": [
                1
            ]
        }, 
        "location1": [
            9
        ], 
        "location2": [
            10
        ], 
        "sentence": "other plus : changable battery , load of presets for environment , decent construction , still quite small and light despite being slightly bigger than an ipod ."
    }
}