{
    "ef25a24c12ae7b697445f8d181fbe847": {
        "(12, 15)": {
            "AM2L": [
                2377
            ], 
            "AM2F": [
                150
            ], 
            "WBF": [
                2617
            ], 
            "BM1F": [
                150
            ], 
            "M1": [
                827
            ], 
            "irrelevant_Adj": [
                0
            ], 
            "M2": [
                3135
            ], 
            "BM1L": [
                463
            ], 
            "WBO": [
                275
            ], 
            "WBL": [
                275
            ], 
            "irrelevant_Noun": [
                0
            ], 
            "M1_ADJ": [
                1
            ]
        }, 
        "location1": [
            12
        ], 
        "location2": [
            15
        ], 
        "sentence": "like it 's predecessor , the quickly revised nx , this player boast a decent size and weight , a relatively-intuitive navigational system that categorizes based on id3 tag , and excellent sound ( widely known to be better than ipod - not surprising considering the number of year creative has been in the audio peripheral business ) ."
    }
}