{
    "913332dbee7c09d79b4e2d89d50983e3": {
        "(20, 23)": {
            "AM2L": [
                275
            ], 
            "AM2F": [
                2824
            ], 
            "WBF": [
                275
            ], 
            "BM1F": [
                150
            ], 
            "M1": [
                836
            ], 
            "irrelevant_Adj": [
                0
            ], 
            "M2": [
                2008
            ], 
            "BM1L": [
                1261
            ], 
            "WBO": [
                1512
            ], 
            "WBL": [
                1512
            ], 
            "irrelevant_Noun": [
                0
            ], 
            "M1_ADJ": [
                1
            ]
        }, 
        "location1": [
            20
        ], 
        "location2": [
            23
        ], 
        "sentence": "had there been strange noise , or obvious defect , i would have accepted a replacement , but this is clearly from a defective and inferior operating system and i for one do not intend on waiting for patch ."
    }
}