{
    "21ebed2a97f528417ad5da338ef26ef7": {
        "location1": [
            53
        ], 
        "location2": [
            41
        ], 
        "(53, 41)": {
            "AM2L": [
                2977
            ], 
            "AM2F": [
                1064
            ], 
            "WBF": [
                1333
            ], 
            "BM1F": [
                2506
            ], 
            "M1": [
                523
            ], 
            "irrelevant_Adj": [
                1
            ], 
            "M2": [
                888
            ], 
            "BM1L": [
                2866
            ], 
            "WBO": [
                2676, 
                275, 
                1572, 
                1389, 
                1758, 
                1864, 
                2160, 
                150
            ], 
            "WBL": [
                1971
            ], 
            "irrelevant_Noun": [
                0
            ], 
            "M1_ADJ": [
                0
            ]
        }, 
        "sentence": "now here the stuff you should know starting with the good thing : the screen is really big and the blue light in the back is perfect , fast as hell in music transfer , control are easy to use after mastering the scroll button , great sound and ive heard many mp3 player , a ton of different equilizer type deal on here ."
    }
}