{
    "a35aae065a501637e0500caa8560e498": {
        "(19, 20)": {
            "AM2L": [
                1566
            ], 
            "BM1F": [
                1297
            ], 
            "M1": [
                888
            ], 
            "irrelevant_Adj": [
                1
            ], 
            "M2": [
                3060
            ], 
            "BM1L": [
                543
            ], 
            "WBNULL": [
                1
            ], 
            "irrelevant_Noun": [
                0
            ], 
            "AM2F": [
                3181
            ], 
            "M1_ADJ": [
                1
            ]
        }, 
        "location1": [
            10, 
            19
        ], 
        "location2": [
            20
        ], 
        "(10, 20)": {
            "AM2L": [
                1566
            ], 
            "AM2F": [
                3181
            ], 
            "WBF": [
                2215
            ], 
            "BM1F": [
                95
            ], 
            "M1": [
                888
            ], 
            "irrelevant_Adj": [
                1
            ], 
            "M2": [
                3060
            ], 
            "BM1L": [
                3181
            ], 
            "WBO": [
                3152, 
                1562, 
                2220, 
                1320, 
                3229, 
                543
            ], 
            "WBL": [
                888
            ], 
            "irrelevant_Noun": [
                0
            ], 
            "M1_ADJ": [
                1
            ]
        }, 
        "sentence": "with eax on , you can modify your sound , with 4 different presets , which is pretty good , you can get different variation with it ."
    }
}