{
    "8aa5d60d1152572e6165890c76430ad6": {
        "(0, 1)": {
            "AM2L": [
                3186
            ], 
            "M1": [
                890
            ], 
            "irrelevant_Adj": [
                0
            ], 
            "M2": [
                1887
            ], 
            "WBNULL": [
                1
            ], 
            "irrelevant_Noun": [
                0
            ], 
            "AM2F": [
                1449
            ], 
            "M1_ADJ": [
                1
            ]
        }, 
        "(7, 1)": {
            "AM2L": [
                1449
            ], 
            "AM2F": [
                522
            ], 
            "WBF": [
                1449
            ], 
            "BM1F": [
                890
            ], 
            "M1": [
                1887
            ], 
            "irrelevant_Adj": [
                0
            ], 
            "M2": [
                890
            ], 
            "WBO": [
                3186, 
                1881
            ], 
            "WBL": [
                2491
            ], 
            "irrelevant_Noun": [
                0
            ], 
            "M1_ADJ": [
                0
            ]
        }, 
        "location1": [
            0, 
            7
        ], 
        "location2": [
            1
        ], 
        "sentence": "difficult navigation - i wo n't necessarily say `` difficult , `` but i do n't enjoy the scrollwheel to navigate ."
    }
}