{
    "0908662baf8f85d175cd9e342db17d3e": {
        "(17, 12)": {
            "AM2F": [
                1386
            ], 
            "WBF": [
                2991
            ], 
            "BM1F": [
                1185
            ], 
            "M1": [
                995
            ], 
            "irrelevant_Adj": [
                1
            ], 
            "M2": [
                888
            ], 
            "BM1L": [
                1449
            ], 
            "WBO": [
                2650
            ], 
            "WBL": [
                3041
            ], 
            "irrelevant_Noun": [
                0
            ], 
            "M1_ADJ": [
                0
            ]
        }, 
        "location1": [
            17
        ], 
        "location2": [
            8, 
            12
        ], 
        "(17, 8)": {
            "AM2F": [
                1386
            ], 
            "WBF": [
                522
            ], 
            "BM1F": [
                2794
            ], 
            "M1": [
                995
            ], 
            "irrelevant_Adj": [
                1
            ], 
            "M2": [
                888
            ], 
            "BM1L": [
                2866
            ], 
            "WBO": [
                1449, 
                1185, 
                995, 
                2991, 
                2650
            ], 
            "WBL": [
                3041
            ], 
            "irrelevant_Noun": [
                0
            ], 
            "M1_ADJ": [
                0
            ]
        }, 
        "sentence": "the sound is great even with the supplied earbuds -- but i find earbuds uncomfortable so i use different headphone ."
    }
}