{
    "ca72c2fb4eef254b80c4d2051a89c457": {
        "(3, 4)": {
            "AM2L": [
                1864
            ], 
            "BM1F": [
                160
            ], 
            "M1": [
                896
            ], 
            "irrelevant_Adj": [
                0
            ], 
            "M2": [
                2281
            ], 
            "BM1L": [
                1062
            ], 
            "WBNULL": [
                1
            ], 
            "irrelevant_Noun": [
                0
            ], 
            "AM2F": [
                1971
            ], 
            "M1_ADJ": [
                1
            ]
        }, 
        "location1": [
            3
        ], 
        "location2": [
            4
        ], 
        "sentence": "* eax equalizer accentuates dimished quality of mp3 file ."
    }
}