{
    "53a91a3802fc40bbba3c21c7e9355215": {
        "(2, 7)": {
            "AM2L": [
                563
            ], 
            "AM2F": [
                1971
            ], 
            "WBF": [
                1710
            ], 
            "BM1F": [
                1566
            ], 
            "M1": [
                937
            ], 
            "irrelevant_Adj": [
                1
            ], 
            "M2": [
                1604
            ], 
            "BM1L": [
                1126
            ], 
            "WBO": [
                2220
            ], 
            "WBL": [
                2882
            ], 
            "irrelevant_Noun": [
                0
            ], 
            "M1_ADJ": [
                1
            ]
        }, 
        "location1": [
            2
        ], 
        "location2": [
            7
        ], 
        "sentence": "f ) it doesnt look pretty -- spending this kind of cash , you want something that has the asthetics bit down , of course"
    }
}