{
    "c990b6b1103f5a85ae4afcfa4dd6d607": {
        "location1": [
            2
        ], 
        "location2": [
            1, 
            11
        ], 
        "(2, 11)": {
            "AM2L": [
                2864
            ], 
            "AM2F": [
                1563
            ], 
            "WBF": [
                640
            ], 
            "BM1F": [
                562
            ], 
            "M1": [
                937
            ], 
            "irrelevant_Adj": [
                1
            ], 
            "M2": [
                562
            ], 
            "BM1L": [
                1878
            ], 
            "WBO": [
                1770, 
                1815, 
                3117, 
                1591, 
                1160
            ], 
            "WBL": [
                2866
            ], 
            "irrelevant_Noun": [
                0
            ], 
            "M1_ADJ": [
                1
            ]
        }, 
        "(2, 1)": {
            "AM2L": [
                1770
            ], 
            "BM1F": [
                1878
            ], 
            "M1": [
                562
            ], 
            "irrelevant_Adj": [
                1
            ], 
            "M2": [
                937
            ], 
            "AM2F": [
                640
            ], 
            "irrelevant_Noun": [
                0
            ], 
            "WBNULL": [
                1
            ], 
            "M1_ADJ": [
                0
            ]
        }, 
        "sentence": "my case doesnt close ... maybe mine was just faulty , but the case isnt that great ."
    }
}