{
    "2155dae2420356df58f64bd1e973732d": {
        "(16, 21)": {
            "AM2L": [
                1987
            ], 
            "AM2F": [
                1317
            ], 
            "WBF": [
                3191
            ], 
            "BM1F": [
                3029
            ], 
            "M1": [
                937
            ], 
            "irrelevant_Adj": [
                1
            ], 
            "M2": [
                1681
            ], 
            "BM1L": [
                1662
            ], 
            "WBO": [
                3181
            ], 
            "WBL": [
                2866
            ], 
            "irrelevant_Noun": [
                0
            ], 
            "M1_ADJ": [
                1
            ]
        }, 
        "location1": [
            16
        ], 
        "location2": [
            21
        ], 
        "sentence": "d ) software is another great misfortune -- hard to operate , crash frequently , screwed my music library up , doesnt work with mp4s , the list goes on and on"
    }
}