{
    "77d109e2cb75e81b27de5ba3fb01ee7b": {
        "(1, 2)": {
            "AM2L": [
                2161
            ], 
            "BM1F": [
                2866
            ], 
            "M1": [
                987
            ], 
            "irrelevant_Adj": [
                0
            ], 
            "M2": [
                2162
            ], 
            "AM2F": [
                1946
            ], 
            "irrelevant_Noun": [
                0
            ], 
            "WBNULL": [
                1
            ], 
            "M1_ADJ": [
                1
            ]
        }, 
        "location1": [
            1
        ], 
        "location2": [
            2
        ], 
        "sentence": "the dynamic playlist ( `` now playing `` , i belive creative call it ) feel very awkward at time and some menus simply take to long to get to and operate .. ."
    }
}