{
    "dd00a38d580f6f271c19d5bf9766fffb": {
        "(12, 19)": {
            "WBF": [
                1887
            ], 
            "BM1F": [
                247
            ], 
            "M1": [
                1005
            ], 
            "irrelevant_Adj": [
                0
            ], 
            "M2": [
                654
            ], 
            "BM1L": [
                275
            ], 
            "WBO": [
                1971, 
                150, 
                1623
            ], 
            "WBL": [
                2637
            ], 
            "irrelevant_Noun": [
                0
            ], 
            "M1_ADJ": [
                1
            ]
        }, 
        "location1": [
            12
        ], 
        "location2": [
            19
        ], 
        "sentence": "2 ) the player user interface ( ui ) is intuitive to use , and allows easy navigation of a large or small collection ."
    }
}