{
    "21ebed2a97f528417ad5da338ef26ef7": {
        "location1": [
            34
        ], 
        "location2": [
            40
        ], 
        "(34, 40)": {
            "AM2L": [
                1333
            ], 
            "AM2F": [
                523
            ], 
            "WBF": [
                2909
            ], 
            "BM1F": [
                316
            ], 
            "M1": [
                1005
            ], 
            "irrelevant_Adj": [
                0
            ], 
            "M2": [
                2506
            ], 
            "BM1L": [
                735
            ], 
            "WBO": [
                3041, 
                221
            ], 
            "WBL": [
                2866
            ], 
            "irrelevant_Noun": [
                0
            ], 
            "M1_ADJ": [
                1
            ]
        }, 
        "sentence": "now here the stuff you should know starting with the good thing : the screen is really big and the blue light in the back is perfect , fast as hell in music transfer , control are easy to use after mastering the scroll button , great sound and ive heard many mp3 player , a ton of different equilizer type deal on here ."
    }, 
    "a7a2a63d634d00419baf9b30a158cbe5": {
        "(4, 1)": {
            "AM2L": [
                3041
            ], 
            "AM2F": [
                2909
            ], 
            "WBF": [
                3146
            ], 
            "BM1F": [
                2866
            ], 
            "M1": [
                2506
            ], 
            "irrelevant_Adj": [
                0
            ], 
            "M2": [
                1005
            ], 
            "WBO": [
                1562
            ], 
            "WBL": [
                1562
            ], 
            "irrelevant_Noun": [
                0
            ], 
            "M1_ADJ": [
                0
            ]
        }, 
        "location1": [
            4
        ], 
        "location2": [
            1
        ], 
        "sentence": "the scroll wheel is easy to use and work great for me , however many have complained that the wheel is cumbersome and difficult to operate ."
    }, 
    "3ecab0f0f7b012bc1f10a6dda17f52bd": {
        "(0, 15)": {
            "WBF": [
                1050
            ], 
            "M1": [
                1005
            ], 
            "irrelevant_Adj": [
                0
            ], 
            "M2": [
                2506
            ], 
            "WBO": [
                2909, 
                1885, 
                2890, 
                258, 
                1449, 
                0, 
                2212, 
                150, 
                2767, 
                523, 
                433
            ], 
            "WBL": [
                2894
            ], 
            "irrelevant_Noun": [
                0
            ], 
            "AM2F": [
                2279
            ], 
            "M1_ADJ": [
                1
            ]
        }, 
        "location1": [
            0
        ], 
        "location2": [
            15
        ], 
        "sentence": "easy enough to navigate through , although i 'd prefer a sturdier button besides the thumbwheel scroll / pushbutton ."
    }
}