{
    "05b005a587509a9b418bc7b414f03e1b": {
        "location1": [
            7
        ], 
        "location2": [
            2
        ], 
        "(7, 2)": {
            "AM2L": [
                1885
            ], 
            "AM2F": [
                2909
            ], 
            "WBF": [
                551
            ], 
            "BM1F": [
                1446
            ], 
            "M1": [
                2747
            ], 
            "irrelevant_Adj": [
                0
            ], 
            "M2": [
                1005
            ], 
            "BM1L": [
                2234
            ], 
            "WBO": [
                1232
            ], 
            "WBL": [
                2225
            ], 
            "irrelevant_Noun": [
                0
            ], 
            "M1_ADJ": [
                0
            ]
        }, 
        "sentence": "pro : huge storage capacity for the price , easy to navigate , can modify existing playlist on the fly , has a removable battery"
    }
}