{
    "fba2cf23926fa2aa67d2e28a09f712df": {
        "(27, 3)": {
            "AM2L": [
                2909
            ], 
            "AM2F": [
                2666
            ], 
            "WBF": [
                3147
            ], 
            "BM1F": [
                2882
            ], 
            "M1": [
                2242
            ], 
            "irrelevant_Adj": [
                0
            ], 
            "M2": [
                1050
            ], 
            "BM1L": [
                1723
            ], 
            "WBO": [
                1449, 
                1199, 
                1322, 
                1566, 
                1333, 
                2676, 
                1005, 
                2909, 
                3041, 
                1075, 
                2885, 
                1449, 
                227, 
                2864, 
                2866, 
                2653, 
                3117, 
                1881, 
                2866, 
                434
            ], 
            "WBL": [
                1397
            ], 
            "irrelevant_Noun": [
                0
            ], 
            "M1_ADJ": [
                0
            ]
        }, 
        "location1": [
            27
        ], 
        "location2": [
            3
        ], 
        "sentence": "i loved this product when i first got it - great sound , easy to use ( even though i agree that the software was n't the best ) and held enough song to suit any mood ."
    }
}