{
    "ea750d90f9785597047a0e1fba8c7a2e": {
        "location1": [
            9
        ], 
        "location2": [
            12
        ], 
        "(9, 12)": {
            "AM2L": [
                52
            ], 
            "AM2F": [
                1562
            ], 
            "WBF": [
                337
            ], 
            "BM1F": [
                1720
            ], 
            "M1": [
                1050
            ], 
            "irrelevant_Adj": [
                0
            ], 
            "M2": [
                1768
            ], 
            "BM1L": [
                1562
            ], 
            "WBO": [
                23
            ], 
            "WBL": [
                23
            ], 
            "irrelevant_Noun": [
                0
            ], 
            "M1_ADJ": [
                1
            ]
        }, 
        "sentence": "with my sennheiser 497 headphone , the volume is loud enough at 12 ( max is 20 ) ."
    }
}