{
    "e781c09e3c443732c8f53703efb0b736": {
        "(3, 12)": {
            "AM2L": [
                2296
            ], 
            "AM2F": [
                553
            ], 
            "WBF": [
                3097
            ], 
            "BM1F": [
                2265
            ], 
            "M1": [
                1050
            ], 
            "irrelevant_Adj": [
                0
            ], 
            "M2": [
                2335
            ], 
            "BM1L": [
                1935
            ], 
            "WBO": [
                3147, 
                710, 
                2909, 
                1625, 
                1386
            ], 
            "WBL": [
                1119
            ], 
            "irrelevant_Noun": [
                0
            ], 
            "M1_ADJ": [
                1
            ]
        }, 
        "location1": [
            3
        ], 
        "location2": [
            12
        ], 
        "sentence": "* does not provide enough volume when connected to larger headphone , or external receiver ( car radio ) ."
    }
}