{
    "fba2cf23926fa2aa67d2e28a09f712df": {
        "(27, 20)": {
            "AM2L": [
                2909
            ], 
            "AM2F": [
                2666
            ], 
            "WBF": [
                3117
            ], 
            "BM1F": [
                2866
            ], 
            "M1": [
                2653
            ], 
            "irrelevant_Adj": [
                0
            ], 
            "M2": [
                1050
            ], 
            "BM1L": [
                2864
            ], 
            "WBO": [
                1881, 
                2866, 
                434
            ], 
            "WBL": [
                1397
            ], 
            "irrelevant_Noun": [
                0
            ], 
            "M1_ADJ": [
                0
            ]
        }, 
        "location1": [
            27
        ], 
        "location2": [
            20
        ], 
        "sentence": "i loved this product when i first got it - great sound , easy to use ( even though i agree that the software was n't the best ) and held enough song to suit any mood ."
    }, 
    "6d07f4207f4fb66fa8b28f912a9de794": {
        "(6, 3)": {
            "AM2L": [
                3117
            ], 
            "AM2F": [
                1566
            ], 
            "WBF": [
                3117
            ], 
            "BM1F": [
                2866
            ], 
            "M1": [
                2653
            ], 
            "irrelevant_Adj": [
                0
            ], 
            "M2": [
                1050
            ], 
            "BM1L": [
                2886
            ], 
            "WBO": [
                827
            ], 
            "WBL": [
                827
            ], 
            "irrelevant_Noun": [
                0
            ], 
            "M1_ADJ": [
                0
            ]
        }, 
        "location1": [
            6
        ], 
        "location2": [
            3
        ], 
        "sentence": "i thought the software was decent enough - it was n't complicated to learn at all ."
    }
}