{
    "39e04a3877da6e2dd43afd9b1587c5f3": {
        "(6, 2)": {
            "AM2L": [
                1971
            ], 
            "AM2F": [
                654
            ], 
            "WBF": [
                1449
            ], 
            "BM1F": [
                2747
            ], 
            "M1": [
                2682
            ], 
            "irrelevant_Adj": [
                1
            ], 
            "M2": [
                1056
            ], 
            "BM1L": [
                1446
            ], 
            "WBO": [
                1695
            ], 
            "WBL": [
                1878
            ], 
            "irrelevant_Noun": [
                0
            ], 
            "M1_ADJ": [
                0
            ]
        }, 
        "location1": [
            6
        ], 
        "location2": [
            2
        ], 
        "sentence": "huge storage space , i loaded my entire collection of music , which isnt that much , 400 song , and still have 26 gb , out of the 28 provided to you ."
    }
}