{
    "8eb5d2fca4a827e8e326a4df00c9b809": {
        "location1": [
            10
        ], 
        "location2": [
            6
        ], 
        "(10, 6)": {
            "AM2L": [
                1971
            ], 
            "AM2F": [
                654
            ], 
            "WBF": [
                1971
            ], 
            "BM1F": [
                266
            ], 
            "M1": [
                271
            ], 
            "irrelevant_Adj": [
                1
            ], 
            "M2": [
                1056
            ], 
            "BM1L": [
                273
            ], 
            "WBO": [
                2666
            ], 
            "WBL": [
                1878
            ], 
            "irrelevant_Noun": [
                0
            ], 
            "M1_ADJ": [
                0
            ]
        }, 
        "sentence": "the memory will hold an amazing amount of song , my entire collection of cd 's will all fit on this great little tiny piece of digital fun ."
    }
}