{
    "8d1f6697eefabe40a2bed7c33818a32d": {
        "(4, 2)": {
            "AM2L": [
                654
            ], 
            "WBFL": [
                1878
            ], 
            "BM1F": [
                440
            ], 
            "M1": [
                2747
            ], 
            "irrelevant_Adj": [
                1
            ], 
            "M2": [
                1056
            ], 
            "BM1L": [
                23
            ], 
            "AM2F": [
                574
            ], 
            "irrelevant_Noun": [
                0
            ], 
            "M1_ADJ": [
                0
            ]
        }, 
        "location1": [
            4
        ], 
        "location2": [
            2
        ], 
        "sentence": "12 ) big storage - my entire cd collection in one small device ( 5717 song , 491 album and counting ) !"
    }, 
    "39e04a3877da6e2dd43afd9b1587c5f3": {
        "(6, 1)": {
            "AM2L": [
                1971
            ], 
            "AM2F": [
                654
            ], 
            "WBF": [
                2682
            ], 
            "BM1F": [
                1446
            ], 
            "M1": [
                2747
            ], 
            "irrelevant_Adj": [
                1
            ], 
            "M2": [
                1056
            ], 
            "WBO": [
                1449
            ], 
            "WBL": [
                1878
            ], 
            "irrelevant_Noun": [
                0
            ], 
            "M1_ADJ": [
                0
            ]
        }, 
        "location1": [
            6
        ], 
        "location2": [
            1
        ], 
        "sentence": "huge storage space , i loaded my entire collection of music , which isnt that much , 400 song , and still have 26 gb , out of the 28 provided to you ."
    }
}