{
    "b48feb7e6209e47420ac1cab656ae710": {
        "location1": [
            10
        ], 
        "location2": [
            11
        ], 
        "(10, 11)": {
            "AM2L": [
                1004
            ], 
            "BM1F": [
                2866
            ], 
            "M1": [
                1056
            ], 
            "irrelevant_Adj": [
                1
            ], 
            "M2": [
                2237
            ], 
            "BM1L": [
                1245
            ], 
            "WBNULL": [
                1
            ], 
            "irrelevant_Noun": [
                1
            ], 
            "AM2F": [
                3075
            ], 
            "M1_ADJ": [
                1
            ]
        }, 
        "sentence": "the software is quick & easy to use & i found the entire process very easily mastered ."
    }
}