{
    "8eb5d2fca4a827e8e326a4df00c9b809": {
        "(10, 1)": {
            "AM2L": [
                1971
            ], 
            "AM2F": [
                654
            ], 
            "WBF": [
                3168
            ], 
            "BM1F": [
                2866
            ], 
            "M1": [
                1792
            ], 
            "irrelevant_Adj": [
                1
            ], 
            "M2": [
                1056
            ], 
            "WBO": [
                1424, 
                273, 
                266, 
                271, 
                1971
            ], 
            "WBL": [
                1878
            ], 
            "irrelevant_Noun": [
                0
            ], 
            "M1_ADJ": [
                0
            ]
        }, 
        "location1": [
            10
        ], 
        "location2": [
            1
        ], 
        "sentence": "the memory will hold an amazing amount of song , my entire collection of cd 's will all fit on this great little tiny piece of digital fun ."
    }
}