{
    "f2411c8e4e34052a33a2a92ad250283e": {
        "(9, 24)": {
            "AM2L": [
                393
            ], 
            "AM2F": [
                1566
            ], 
            "WBF": [
                1232
            ], 
            "BM1F": [
                4
            ], 
            "M1": [
                1092
            ], 
            "irrelevant_Adj": [
                0
            ], 
            "M2": [
                2306
            ], 
            "BM1L": [
                1566
            ], 
            "WBO": [
                2866, 
                629, 
                2864, 
                1566, 
                1562, 
                1490, 
                275, 
                1566, 
                4, 
                1935, 
                2325
            ], 
            "WBL": [
                2909
            ], 
            "irrelevant_Noun": [
                0
            ], 
            "M1_ADJ": [
                1
            ]
        }, 
        "location1": [
            9
        ], 
        "location2": [
            24
        ], 
        "sentence": "i gave the zen 5 star because it 's excellent for the class that it is in and it 's not really appropriate to rate it based on player in a different class ."
    }
}