{
    "5a9e2c56b3e4e5359842e5b8ef87d675": {
        "(4, 15)": {
            "WBF": [
                2676
            ], 
            "BM1F": [
                522
            ], 
            "M1": [
                1096
            ], 
            "irrelevant_Adj": [
                0
            ], 
            "M2": [
                524
            ], 
            "BM1L": [
                1211
            ], 
            "WBO": [
                2281, 
                1380, 
                2617, 
                275, 
                2225, 
                1744, 
                1566
            ], 
            "WBL": [
                1320
            ], 
            "irrelevant_Noun": [
                0
            ], 
            "M1_ADJ": [
                1
            ]
        }, 
        "location1": [
            4
        ], 
        "location2": [
            15
        ], 
        "sentence": "lot of flaw , but exceptional sound quality , hd size , and price make it a good buy ."
    }
}