{
    "26afbb728550c0df1149e771bc94d54b": {
        "location1": [
            4
        ], 
        "location2": [
            26
        ], 
        "(4, 26)": {
            "AM2L": [
                150
            ], 
            "AM2F": [
                1774
            ], 
            "WBF": [
                275
            ], 
            "BM1F": [
                1562
            ], 
            "M1": [
                1092
            ], 
            "irrelevant_Adj": [
                0
            ], 
            "M2": [
                400
            ], 
            "BM1L": [
                2281
            ], 
            "WBO": [
                1449, 
                2, 
                1277, 
                3181, 
                2864, 
                2764, 
                2866, 
                3010, 
                1710, 
                744, 
                2501, 
                1562, 
                490, 
                275, 
                1005, 
                2909, 
                2317, 
                275
            ], 
            "WBL": [
                2402
            ], 
            "irrelevant_Noun": [
                0
            ], 
            "M1_ADJ": [
                1
            ]
        }, 
        "sentence": "the sound quality is excellent ( and i 'm fussy with that stuff ) , the unit look cool , screen is bright and easy to read , and the replaceable battery mean a major advantage over the ipod ( besides the price , but everyone know that ) ."
    }, 
    "57a292f9d802d5e4ae08672ca7c95a16": {
        "(1, 2)": {
            "AM2L": [
                31
            ], 
            "BM1F": [
                121
            ], 
            "M1": [
                1092
            ], 
            "irrelevant_Adj": [
                0
            ], 
            "M2": [
                400
            ], 
            "AM2F": [
                1664
            ], 
            "irrelevant_Noun": [
                0
            ], 
            "WBNULL": [
                1
            ], 
            "M1_ADJ": [
                1
            ]
        }, 
        "location1": [
            1
        ], 
        "location2": [
            2
        ], 
        "sentence": "6 ) excellent battery life - 14 hour beat ipod 's ."
    }, 
    "00678fc65cf74c7bbfb5bf91f2796a34": {
        "(8, 13)": {
            "AM2L": [
                2400
            ], 
            "AM2F": [
                1562
            ], 
            "WBF": [
                2866
            ], 
            "BM1F": [
                1562
            ], 
            "M1": [
                1092
            ], 
            "irrelevant_Adj": [
                0
            ], 
            "M2": [
                400
            ], 
            "BM1L": [
                1664
            ], 
            "WBO": [
                1132
            ], 
            "WBL": [
                2866
            ], 
            "irrelevant_Noun": [
                0
            ], 
            "M1_ADJ": [
                1
            ]
        }, 
        "(8, 5)": {
            "AM2L": [
                1132
            ], 
            "AM2F": [
                2866
            ], 
            "WBF": [
                1664
            ], 
            "BM1F": [
                2866
            ], 
            "M1": [
                400
            ], 
            "irrelevant_Adj": [
                0
            ], 
            "M2": [
                1092
            ], 
            "BM1L": [
                1092
            ], 
            "WBO": [
                1562
            ], 
            "WBL": [
                1562
            ], 
            "irrelevant_Noun": [
                0
            ], 
            "M1_ADJ": [
                0
            ]
        }, 
        "sentence": "the sound is excellent , the battery life is excellent , the fact that the battery is replacable is excellent , and finally the price , $ 200 cheaper than the 40gb ipod , is excellent .", 
        "(29, 13)": {
            "WBF": [
                1562
            ], 
            "BM1F": [
                2866
            ], 
            "M1": [
                400
            ], 
            "irrelevant_Adj": [
                0
            ], 
            "M2": [
                1092
            ], 
            "BM1L": [
                2864
            ], 
            "WBO": [
                2400, 
                1562, 
                1092, 
                275, 
                1184, 
                2866, 
                2225, 
                53, 
                602, 
                2862, 
                2866, 
                103
            ], 
            "WBL": [
                1562
            ], 
            "irrelevant_Noun": [
                0
            ], 
            "M1_ADJ": [
                0
            ]
        }, 
        "(17, 13)": {
            "AM2L": [
                1184
            ], 
            "AM2F": [
                275
            ], 
            "WBF": [
                1562
            ], 
            "BM1F": [
                2866
            ], 
            "M1": [
                400
            ], 
            "irrelevant_Adj": [
                0
            ], 
            "M2": [
                1092
            ], 
            "BM1L": [
                2864
            ], 
            "WBO": [
                2400
            ], 
            "WBL": [
                1562
            ], 
            "irrelevant_Noun": [
                0
            ], 
            "M1_ADJ": [
                0
            ]
        }, 
        "location2": [
            5, 
            13
        ], 
        "(3, 5)": {
            "AM2L": [
                1562
            ], 
            "WBFL": [
                2866
            ], 
            "BM1F": [
                1562
            ], 
            "M1": [
                1092
            ], 
            "irrelevant_Adj": [
                0
            ], 
            "M2": [
                400
            ], 
            "BM1L": [
                2676
            ], 
            "AM2F": [
                1664
            ], 
            "irrelevant_Noun": [
                0
            ], 
            "M1_ADJ": [
                1
            ]
        }, 
        "(29, 5)": {
            "WBF": [
                1664
            ], 
            "BM1F": [
                2866
            ], 
            "M1": [
                400
            ], 
            "irrelevant_Adj": [
                0
            ], 
            "M2": [
                1092
            ], 
            "BM1L": [
                1092
            ], 
            "WBO": [
                1562, 
                1092, 
                2866, 
                1132, 
                2864, 
                2866, 
                400, 
                1562, 
                2400, 
                1562, 
                1092, 
                275, 
                1184, 
                2866, 
                2225, 
                53, 
                602, 
                2862, 
                2866, 
                103
            ], 
            "WBL": [
                1562
            ], 
            "irrelevant_Noun": [
                0
            ], 
            "M1_ADJ": [
                0
            ]
        }, 
        "(3, 13)": {
            "AM2L": [
                2400
            ], 
            "AM2F": [
                1562
            ], 
            "WBF": [
                2866
            ], 
            "BM1F": [
                1562
            ], 
            "M1": [
                1092
            ], 
            "irrelevant_Adj": [
                0
            ], 
            "M2": [
                400
            ], 
            "BM1L": [
                2676
            ], 
            "WBO": [
                400, 
                1664, 
                1562, 
                1092, 
                2866, 
                1132
            ], 
            "WBL": [
                2866
            ], 
            "irrelevant_Noun": [
                0
            ], 
            "M1_ADJ": [
                1
            ]
        }, 
        "(17, 5)": {
            "AM2L": [
                1184
            ], 
            "AM2F": [
                275
            ], 
            "WBF": [
                1664
            ], 
            "BM1F": [
                2866
            ], 
            "M1": [
                400
            ], 
            "irrelevant_Adj": [
                0
            ], 
            "M2": [
                1092
            ], 
            "BM1L": [
                1092
            ], 
            "WBO": [
                1562, 
                1092, 
                2866, 
                1132, 
                2864, 
                2866, 
                400, 
                1562
            ], 
            "WBL": [
                1562
            ], 
            "irrelevant_Noun": [
                0
            ], 
            "M1_ADJ": [
                0
            ]
        }, 
        "location1": [
            3, 
            8, 
            17, 
            29
        ]
    }
}