{
    "8569a7dfb307c605d7ba9f01dc118762": {
        "(0, 5)": {
            "WBF": [
                2676
            ], 
            "AM2L": [
                1144
            ], 
            "M1": [
                1092
            ], 
            "irrelevant_Adj": [
                0
            ], 
            "M2": [
                1875
            ], 
            "WBO": [
                1449
            ], 
            "WBL": [
                2866
            ], 
            "irrelevant_Noun": [
                0
            ], 
            "AM2F": [
                2410
            ], 
            "M1_ADJ": [
                1
            ]
        }, 
        "location1": [
            0
        ], 
        "location2": [
            5
        ], 
        "sentence": "excellent sound - i found the music reproduced faithfully through the jukebox ."
    }
}