{
    "68dfe1e6439e1d2fafdd1dcf2ce1d498": {
        "(16, 10)": {
            "AM2F": [
                1918
            ], 
            "WBF": [
                1232
            ], 
            "BM1F": [
                2862
            ], 
            "M1": [
                2483
            ], 
            "irrelevant_Adj": [
                0
            ], 
            "M2": [
                1119
            ], 
            "BM1L": [
                1851
            ], 
            "WBO": [
                672, 
                275
            ], 
            "WBL": [
                2037
            ], 
            "irrelevant_Noun": [
                0
            ], 
            "M1_ADJ": [
                0
            ]
        }, 
        "location1": [
            16
        ], 
        "location2": [
            10
        ], 
        "sentence": "the sound is great , and the volume is more than satisfactory for commute and shutting out external noise ."
    }
}