{
    "e781c09e3c443732c8f53703efb0b736": {
        "(11, 4)": {
            "AM2L": [
                553
            ], 
            "AM2F": [
                2335
            ], 
            "WBF": [
                3147
            ], 
            "BM1F": [
                1050
            ], 
            "M1": [
                3097
            ], 
            "irrelevant_Adj": [
                0
            ], 
            "M2": [
                1119
            ], 
            "BM1L": [
                2265
            ], 
            "WBO": [
                710, 
                2909, 
                1625
            ], 
            "WBL": [
                2019
            ], 
            "irrelevant_Noun": [
                0
            ], 
            "M1_ADJ": [
                0
            ]
        }, 
        "location1": [
            11
        ], 
        "location2": [
            4
        ], 
        "sentence": "* does not provide enough volume when connected to larger headphone , or external receiver ( car radio ) ."
    }, 
    "68dfe1e6439e1d2fafdd1dcf2ce1d498": {
        "(16, 6)": {
            "AM2F": [
                1918
            ], 
            "WBF": [
                1562
            ], 
            "BM1F": [
                2866
            ], 
            "M1": [
                3097
            ], 
            "irrelevant_Adj": [
                0
            ], 
            "M2": [
                1119
            ], 
            "BM1L": [
                275
            ], 
            "WBO": [
                1851, 
                2862, 
                2483, 
                1232, 
                672, 
                275
            ], 
            "WBL": [
                2037
            ], 
            "irrelevant_Noun": [
                0
            ], 
            "M1_ADJ": [
                0
            ]
        }, 
        "location1": [
            16
        ], 
        "location2": [
            6
        ], 
        "sentence": "the sound is great , and the volume is more than satisfactory for commute and shutting out external noise ."
    }
}