{
    "3bf21a4b29d090cbd158c4195701fcd2": {
        "location1": [
            26
        ], 
        "location2": [
            27
        ], 
        "(26, 27)": {
            "BM1F": [
                325
            ], 
            "M1": [
                1119
            ], 
            "irrelevant_Adj": [
                0
            ], 
            "M2": [
                2687
            ], 
            "BM1L": [
                3138
            ], 
            "WBNULL": [
                1
            ], 
            "irrelevant_Noun": [
                0
            ], 
            "M1_ADJ": [
                1
            ]
        }, 
        "sentence": "1 ) great sound ( > 98db signal-to-noise ratio beat ipod 's `` unspecified `` ratio ) and good power output allow the zen xtra to drive large head-phones as well as external speaker ."
    }
}