{
    "fc1353a755e02d2292608b3ddaa8e8fa": {
        "location1": [
            10
        ], 
        "location2": [
            11
        ], 
        "(10, 11)": {
            "AM2L": [
                1566
            ], 
            "BM1F": [
                1690
            ], 
            "M1": [
                1120
            ], 
            "irrelevant_Adj": [
                1
            ], 
            "M2": [
                2219
            ], 
            "BM1L": [
                150
            ], 
            "WBNULL": [
                1
            ], 
            "irrelevant_Noun": [
                0
            ], 
            "AM2F": [
                1987
            ], 
            "M1_ADJ": [
                1
            ]
        }, 
        "sentence": "my `` fast forward `` button work , but it takes a little extra pressure on it to make it go ."
    }
}