{
    "381645b8c5e4a5a766692ae2bb576665": {
        "(13, 6)": {
            "AM2F": [
                2242
            ], 
            "WBF": [
                2160
            ], 
            "BM1F": [
                1615
            ], 
            "M1": [
                1864
            ], 
            "irrelevant_Adj": [
                0
            ], 
            "M2": [
                1188
            ], 
            "BM1L": [
                784
            ], 
            "WBO": [
                275, 
                1566, 
                1562
            ], 
            "WBL": [
                150
            ], 
            "irrelevant_Noun": [
                0
            ], 
            "M1_ADJ": [
                0
            ]
        }, 
        "location1": [
            13
        ], 
        "location2": [
            6
        ], 
        "sentence": "this is my second creative lab mp3 player , and it is definitely a fine product ."
    }, 
    "25e9ac3314edbb22f429a90632829517": {
        "(5, 9)": {
            "AM2L": [
                1562
            ], 
            "AM2F": [
                2160
            ], 
            "WBF": [
                1946
            ], 
            "BM1F": [
                3195
            ], 
            "M1": [
                1188
            ], 
            "irrelevant_Adj": [
                0
            ], 
            "M2": [
                1864
            ], 
            "BM1L": [
                2653
            ], 
            "WBO": [
                275
            ], 
            "WBL": [
                2866
            ], 
            "irrelevant_Noun": [
                0
            ], 
            "M1_ADJ": [
                1
            ]
        }, 
        "location1": [
            5
        ], 
        "location2": [
            9
        ], 
        "sentence": "i have the software working fine now and the mp3 player is fantastic ."
    }
}