{
    "fba2cf23926fa2aa67d2e28a09f712df": {
        "(6, 20)": {
            "AM2L": [
                1881
            ], 
            "AM2F": [
                3117
            ], 
            "WBF": [
                1322
            ], 
            "BM1F": [
                1449
            ], 
            "M1": [
                1199
            ], 
            "irrelevant_Adj": [
                1
            ], 
            "M2": [
                2653
            ], 
            "BM1L": [
                3147
            ], 
            "WBO": [
                1566, 
                1333, 
                2676, 
                1005, 
                2909, 
                3041, 
                1075, 
                2885, 
                1449, 
                227
            ], 
            "WBL": [
                2866
            ], 
            "irrelevant_Noun": [
                0
            ], 
            "M1_ADJ": [
                1
            ]
        }, 
        "location1": [
            6
        ], 
        "location2": [
            20
        ], 
        "sentence": "i loved this product when i first got it - great sound , easy to use ( even though i agree that the software was n't the best ) and held enough song to suit any mood ."
    }, 
    "f36365781e2d87d761d5f6c5b23a90ab": {
        "(13, 9)": {
            "AM2F": [
                2147
            ], 
            "WBF": [
                2236
            ], 
            "BM1F": [
                1348
            ], 
            "M1": [
                2653
            ], 
            "irrelevant_Adj": [
                1
            ], 
            "M2": [
                1199
            ], 
            "BM1L": [
                2160
            ], 
            "WBO": [
                1490
            ], 
            "WBL": [
                2866
            ], 
            "irrelevant_Noun": [
                0
            ], 
            "M1_ADJ": [
                0
            ]
        }, 
        "location1": [
            13
        ], 
        "location2": [
            9
        ], 
        "sentence": "in fact , each of my creative mp3 player had software problem in the first place ."
    }, 
    "7967db31bc77438a94a846ddeb630669": {
        "location1": [
            19
        ], 
        "location2": [
            2
        ], 
        "(19, 2)": {
            "AM2L": [
                1562
            ], 
            "AM2F": [
                1566
            ], 
            "WBF": [
                3043
            ], 
            "BM1F": [
                2866
            ], 
            "M1": [
                2653
            ], 
            "irrelevant_Adj": [
                1
            ], 
            "M2": [
                1199
            ], 
            "BM1L": [
                1184
            ], 
            "WBO": [
                2909, 
                2280, 
                242, 
                2866, 
                2666, 
                1551, 
                1566, 
                1562, 
                3064, 
                1512, 
                2909, 
                1571, 
                1987
            ], 
            "WBL": [
                1659
            ], 
            "irrelevant_Noun": [
                0
            ], 
            "M1_ADJ": [
                0
            ]
        }, 
        "sentence": "finally the software used to put all the song into it is vastly inferior to itunes on two level , first it is poorly integrated into the overall player and clunky to use especially with tagging and second the wma audio format suck , flat out suck in term of sound quality compared with the vastly superior aac format the apple ipod us and it stick you with one of the sub par paid music service such as napster instead of allowing to use the itunes store , which , if you ever plan to pay for your music , is by far the best ."
    }
}