{
    "b1ea002e94262c6b402e3f320e945036": {
        "location1": [
            21
        ], 
        "location2": [
            14
        ], 
        "(21, 14)": {
            "AM2F": [
                820
            ], 
            "WBF": [
                2650
            ], 
            "BM1F": [
                2866
            ], 
            "M1": [
                562
            ], 
            "irrelevant_Adj": [
                1
            ], 
            "M2": [
                1199
            ], 
            "BM1L": [
                1490
            ], 
            "WBO": [
                1449, 
                882, 
                1881
            ], 
            "WBL": [
                221
            ], 
            "irrelevant_Noun": [
                0
            ], 
            "M1_ADJ": [
                0
            ]
        }, 
        "sentence": "the front cover can pop off easily but i always have mine in the case so i did n't notice after first day ."
    }
}