{
    "bc8cb26f2e111e60b22ac940195a192f": {
        "(23, 24)": {
            "BM1F": [
                2664
            ], 
            "M1": [
                1216
            ], 
            "irrelevant_Adj": [
                0
            ], 
            "M2": [
                1887
            ], 
            "BM1L": [
                400
            ], 
            "WBNULL": [
                1
            ], 
            "irrelevant_Noun": [
                0
            ], 
            "AM2F": [
                3146
            ], 
            "M1_ADJ": [
                1
            ]
        }, 
        "location1": [
            23
        ], 
        "location2": [
            24
        ], 
        "sentence": "short warranty ( 3 month , so i got the extended warranty at best buy ) , occasional freeze up ( easily fixed by popping out battery ) , somewhat flimsy navigation wheel ."
    }
}