{
    "4d48c9058303e08948d73947903087dd": {
        "location1": [
            8
        ], 
        "location2": [
            7
        ], 
        "(8, 7)": {
            "BM1F": [
                3075
            ], 
            "M1": [
                3046
            ], 
            "irrelevant_Adj": [
                0
            ], 
            "M2": [
                1259
            ], 
            "BM1L": [
                1935
            ], 
            "WBNULL": [
                1
            ], 
            "irrelevant_Noun": [
                0
            ], 
            "M1_ADJ": [
                0
            ]
        }, 
        "sentence": "the general button placement is not very user friendly ."
    }, 
    "a8ca5ff27bcb6526b194c97f24e7c6f2": {
        "location1": [
            17
        ], 
        "location2": [
            16
        ], 
        "(17, 16)": {
            "AM2L": [
                1478
            ], 
            "BM1F": [
                3075
            ], 
            "M1": [
                3046
            ], 
            "irrelevant_Adj": [
                0
            ], 
            "M2": [
                1259
            ], 
            "BM1L": [
                150
            ], 
            "WBNULL": [
                1
            ], 
            "irrelevant_Noun": [
                0
            ], 
            "AM2F": [
                2160
            ], 
            "M1_ADJ": [
                0
            ]
        }, 
        "sentence": "took me a few try to get use to the navigation , but it 's a very user friendly player imo ."
    }
}