{
    "a8ca5ff27bcb6526b194c97f24e7c6f2": {
        "location1": [
            17
        ], 
        "location2": [
            7
        ], 
        "(17, 7)": {
            "AM2L": [
                1478
            ], 
            "AM2F": [
                2160
            ], 
            "WBF": [
                2909
            ], 
            "BM1F": [
                1297
            ], 
            "M1": [
                3041
            ], 
            "irrelevant_Adj": [
                0
            ], 
            "M2": [
                1259
            ], 
            "BM1L": [
                2909
            ], 
            "WBO": [
                2866, 
                1887, 
                522, 
                1566, 
                4, 
                150
            ], 
            "WBL": [
                3046
            ], 
            "irrelevant_Noun": [
                0
            ], 
            "M1_ADJ": [
                0
            ]
        }, 
        "sentence": "took me a few try to get use to the navigation , but it 's a very user friendly player imo ."
    }
}