{
    "3dad728919e1b406d7295e3ca95a61fa": {
        "location1": [
            14
        ], 
        "location2": [
            25
        ], 
        "(14, 25)": {
            "AM2L": [
                2909
            ], 
            "AM2F": [
                2521
            ], 
            "WBF": [
                766
            ], 
            "BM1F": [
                2866
            ], 
            "M1": [
                1262
            ], 
            "irrelevant_Adj": [
                0
            ], 
            "M2": [
                400
            ], 
            "BM1L": [
                2864
            ], 
            "WBO": [
                3152, 
                1562, 
                2835, 
                1972, 
                2909, 
                1375, 
                166
            ], 
            "WBL": [
                2866
            ], 
            "irrelevant_Noun": [
                0
            ], 
            "M1_ADJ": [
                1
            ]
        }, 
        "sentence": "the one other thing i observed while i had the nomad is that the front cover , which is taken off to have access to the battery , seemed to come undone very easily ."
    }, 
    "700f48300fa8def127637b87e04b7e68": {
        "(7, 16)": {
            "AM2L": [
                402
            ], 
            "AM2F": [
                758
            ], 
            "WBF": [
                2156
            ], 
            "BM1F": [
                2866
            ], 
            "M1": [
                1262
            ], 
            "irrelevant_Adj": [
                0
            ], 
            "M2": [
                400
            ], 
            "BM1L": [
                2390
            ], 
            "WBO": [
                275, 
                2873, 
                3117, 
                1999, 
                1994
            ], 
            "WBL": [
                2866
            ], 
            "irrelevant_Noun": [
                0
            ], 
            "M1_ADJ": [
                1
            ]
        }, 
        "location1": [
            7
        ], 
        "location2": [
            16
        ], 
        "sentence": "it was easy enough to remove the front plate , and there was only one way the battery could be inserted ."
    }, 
    "16ac12ea22acb0865fbe839e4b386158": {
        "(1, 10)": {
            "AM2L": [
                1216
            ], 
            "AM2F": [
                1167
            ], 
            "WBF": [
                766
            ], 
            "BM1F": [
                2866
            ], 
            "M1": [
                1262
            ], 
            "irrelevant_Adj": [
                0
            ], 
            "M2": [
                400
            ], 
            "WBO": [
                3152, 
                3229, 
                2390, 
                2909, 
                2834
            ], 
            "WBL": [
                2866
            ], 
            "irrelevant_Noun": [
                0
            ], 
            "M1_ADJ": [
                1
            ]
        }, 
        "location1": [
            1
        ], 
        "location2": [
            10
        ], 
        "sentence": "the front cover ( which you remove to take out the battery ) feel flimsy but when snapped on , the device still feel pretty solid ."
    }
}