{
    "700f48300fa8def127637b87e04b7e68": {
        "(7, 14)": {
            "AM2L": [
                400
            ], 
            "AM2F": [
                2866
            ], 
            "WBF": [
                2156
            ], 
            "BM1F": [
                2866
            ], 
            "M1": [
                1262
            ], 
            "irrelevant_Adj": [
                0
            ], 
            "M2": [
                3123
            ], 
            "BM1L": [
                2390
            ], 
            "WBO": [
                275, 
                2873, 
                3117
            ], 
            "WBL": [
                1994
            ], 
            "irrelevant_Noun": [
                1
            ], 
            "M1_ADJ": [
                1
            ]
        }, 
        "location1": [
            7
        ], 
        "location2": [
            14
        ], 
        "sentence": "it was easy enough to remove the front plate , and there was only one way the battery could be inserted ."
    }
}