{
    "df460eaf582c2debf712f5605d908023": {
        "(56, 34)": {
            "WBF": [
                1490
            ], 
            "BM1F": [
                1105
            ], 
            "M1": [
                1656
            ], 
            "irrelevant_Adj": [
                0
            ], 
            "M2": [
                1265
            ], 
            "BM1L": [
                3075
            ], 
            "WBO": [
                675, 
                1902, 
                2909, 
                524, 
                2242, 
                1261, 
                222, 
                1449, 
                1375, 
                2868, 
                346, 
                2676, 
                554, 
                275, 
                1185, 
                1566, 
                1490, 
                1758
            ], 
            "WBL": [
                1063
            ], 
            "irrelevant_Noun": [
                0
            ], 
            "M1_ADJ": [
                0
            ]
        }, 
        "location1": [
            56
        ], 
        "location2": [
            34
        ], 
        "sentence": "my gut tell me the nomad will in the long run be , at best , a 40gb portable hard drive , albeit one on which i can 't create folder , or , at worst , a very expensive lesson in company never to buy product from again ( i have their audigy sound card and find it in many way equally frustrating ) ."
    }
}