{
    "a885b5a985f79263561e8a12ab307a35": {
        "(2, 3)": {
            "AM2L": [
                2866
            ], 
            "BM1F": [
                150
            ], 
            "M1": [
                1320
            ], 
            "irrelevant_Adj": [
                0
            ], 
            "M2": [
                524
            ], 
            "BM1L": [
                2046
            ], 
            "WBNULL": [
                1
            ], 
            "irrelevant_Noun": [
                0
            ], 
            "AM2F": [
                1232
            ], 
            "M1_ADJ": [
                1
            ]
        }, 
        "location1": [
            2
        ], 
        "location2": [
            3
        ], 
        "sentence": "overall , a good buy for the price ."
    }, 
    "5a9e2c56b3e4e5359842e5b8ef87d675": {
        "location1": [
            14
        ], 
        "location2": [
            15
        ], 
        "(14, 15)": {
            "BM1F": [
                150
            ], 
            "M1": [
                1320
            ], 
            "irrelevant_Adj": [
                0
            ], 
            "M2": [
                524
            ], 
            "BM1L": [
                1566
            ], 
            "WBNULL": [
                1
            ], 
            "irrelevant_Noun": [
                0
            ], 
            "M1_ADJ": [
                1
            ]
        }, 
        "sentence": "lot of flaw , but exceptional sound quality , hd size , and price make it a good buy ."
    }
}