{
    "68a8302a084952a7e1cf8fe9f3f14b4e": {
        "(5, 7)": {
            "AM2L": [
                2866
            ], 
            "WBFL": [
                803
            ], 
            "BM1F": [
                2659
            ], 
            "M1": [
                1320
            ], 
            "irrelevant_Adj": [
                0
            ], 
            "M2": [
                2017
            ], 
            "BM1L": [
                1375
            ], 
            "AM2F": [
                3181
            ], 
            "irrelevant_Noun": [
                1
            ], 
            "M1_ADJ": [
                1
            ]
        }, 
        "location1": [
            5
        ], 
        "location2": [
            7, 
            16
        ], 
        "(5, 16)": {
            "AM2L": [
                1074
            ], 
            "AM2F": [
                2162
            ], 
            "WBF": [
                803
            ], 
            "BM1F": [
                2659
            ], 
            "M1": [
                1320
            ], 
            "irrelevant_Adj": [
                0
            ], 
            "M2": [
                2017
            ], 
            "BM1L": [
                1375
            ], 
            "WBO": [
                2017, 
                3181, 
                2866, 
                3010, 
                325, 
                3138, 
                2676
            ], 
            "WBL": [
                1886
            ], 
            "irrelevant_Noun": [
                1
            ], 
            "M1_ADJ": [
                1
            ]
        }, 
        "sentence": "you of course have some good customization option with the unit as well ( sound presets , navigating option , playlist , etc ) ."
    }
}