{
    "8448fda5701874e7c112eea37250d87a": {
        "(3, 10)": {
            "AM2L": [
                784
            ], 
            "AM2F": [
                1971
            ], 
            "WBF": [
                170
            ], 
            "BM1F": [
                1971
            ], 
            "M1": [
                1320
            ], 
            "irrelevant_Adj": [
                0
            ], 
            "M2": [
                2054
            ], 
            "BM1L": [
                1616
            ], 
            "WBO": [
                2882, 
                1562, 
                1851
            ], 
            "WBL": [
                273
            ], 
            "irrelevant_Noun": [
                0
            ], 
            "M1_ADJ": [
                1
            ]
        }, 
        "location1": [
            3
        ], 
        "location2": [
            10
        ], 
        "sentence": "5 ) lack of good accessory - this is more of an oversight of creative 's marketing ."
    }
}