{
    "2e3f4a9da60918bdc961149cf8e14d7f": {
        "(11, 4)": {
            "AM2L": [
                1232
            ], 
            "AM2F": [
                179
            ], 
            "WBF": [
                1655
            ], 
            "BM1F": [
                437
            ], 
            "M1": [
                2666
            ], 
            "irrelevant_Adj": [
                0
            ], 
            "M2": [
                1320
            ], 
            "BM1L": [
                2091
            ], 
            "WBO": [
                2862, 
                2864, 
                1987
            ], 
            "WBL": [
                877
            ], 
            "irrelevant_Noun": [
                0
            ], 
            "M1_ADJ": [
                0
            ]
        }, 
        "location1": [
            11
        ], 
        "location2": [
            4
        ], 
        "sentence": "11 ) minimal pause between song - less than that on other device - good achievement for a hard-drive based player"
    }, 
    "0cee0a56b66cdebe9d6e2c1f4c4a4f1d": {
        "location1": [
            4
        ], 
        "location2": [
            21
        ], 
        "(4, 21)": {
            "WBF": [
                2836
            ], 
            "BM1F": [
                2522
            ], 
            "M1": [
                1320
            ], 
            "irrelevant_Adj": [
                0
            ], 
            "M2": [
                2666
            ], 
            "BM1L": [
                1664
            ], 
            "WBO": [
                3075, 
                1729, 
                2901, 
                2909, 
                595, 
                1566, 
                3036, 
                1865, 
                2284, 
                275, 
                2873, 
                1562, 
                1917
            ], 
            "WBL": [
                437
            ], 
            "irrelevant_Noun": [
                0
            ], 
            "M1_ADJ": [
                1
            ]
        }, 
        "sentence": "the battery life seems good , takes very lttle time to charge , it uploads mp3s quickly and there is no delay between song ."
    }, 
    "2505b3eb37eb261c8202ec3d03ef5c52": {
        "(18, 2)": {
            "WBF": [
                1075
            ], 
            "BM1F": [
                2866
            ], 
            "M1": [
                2666
            ], 
            "irrelevant_Adj": [
                0
            ], 
            "M2": [
                1320
            ], 
            "BM1L": [
                2456
            ], 
            "WBO": [
                3181, 
                1878, 
                12, 
                3040, 
                711, 
                1562, 
                2734, 
                3075, 
                2283, 
                275, 
                2866, 
                2281
            ], 
            "WBL": [
                3075
            ], 
            "irrelevant_Noun": [
                0
            ], 
            "M1_ADJ": [
                0
            ]
        }, 
        "location1": [
            18
        ], 
        "location2": [
            2
        ], 
        "sentence": "ripping the song , even with my 1.1 usb connection is still very quick , and the quality is very good ."
    }
}