{
    "ee31d7df41f71e9ae037cdf06e1512c9": {
        "(23, 14)": {
            "AM2L": [
                150
            ], 
            "AM2F": [
                325
            ], 
            "WBF": [
                574
            ], 
            "BM1F": [
                2866
            ], 
            "M1": [
                2680
            ], 
            "irrelevant_Adj": [
                0
            ], 
            "M2": [
                1320
            ], 
            "BM1L": [
                325
            ], 
            "WBO": [
                275, 
                2866, 
                3236, 
                3220, 
                2676
            ], 
            "WBL": [
                325
            ], 
            "irrelevant_Noun": [
                0
            ], 
            "M1_ADJ": [
                0
            ]
        }, 
        "location1": [
            11, 
            23
        ], 
        "location2": [
            14
        ], 
        "(11, 14)": {
            "AM2L": [
                275
            ], 
            "AM2F": [
                574
            ], 
            "WBF": [
                325
            ], 
            "BM1F": [
                325
            ], 
            "M1": [
                1320
            ], 
            "irrelevant_Adj": [
                0
            ], 
            "M2": [
                2680
            ], 
            "BM1L": [
                1591
            ], 
            "WBO": [
                2866
            ], 
            "WBL": [
                2866
            ], 
            "irrelevant_Noun": [
                0
            ], 
            "M1_ADJ": [
                1
            ]
        }, 
        "sentence": "to my ear , a 160 kbps wma file sound just as good as the source cd , and the zen xtra sound just as good as a portable cd player ."
    }
}