{
    "d2a9bfb1e9ed4d4734bd522814d495e6": {
        "(9, 21)": {
            "WBF": [
                2676
            ], 
            "BM1F": [
                2862
            ], 
            "M1": [
                1320
            ], 
            "irrelevant_Adj": [
                0
            ], 
            "M2": [
                2242
            ], 
            "BM1L": [
                1851
            ], 
            "WBO": [
                1987, 
                150, 
                2188, 
                74, 
                2160, 
                2909, 
                2429, 
                1490
            ], 
            "WBL": [
                1320
            ], 
            "irrelevant_Noun": [
                0
            ], 
            "M1_ADJ": [
                1
            ]
        }, 
        "sentence": "although the sound-quality is good , it takes more than good sound on a portable-mp 3 player to result in a good product .", 
        "location2": [
            21
        ], 
        "location1": [
            4, 
            9, 
            20
        ], 
        "(4, 21)": {
            "WBF": [
                1566
            ], 
            "BM1F": [
                1562
            ], 
            "M1": [
                1320
            ], 
            "irrelevant_Adj": [
                0
            ], 
            "M2": [
                2242
            ], 
            "BM1L": [
                2677
            ], 
            "WBO": [
                2836, 
                1851, 
                2862, 
                1320, 
                2676, 
                1987, 
                150, 
                2188, 
                74, 
                2160, 
                2909, 
                2429, 
                1490
            ], 
            "WBL": [
                1320
            ], 
            "irrelevant_Noun": [
                0
            ], 
            "M1_ADJ": [
                1
            ]
        }, 
        "(20, 21)": {
            "BM1F": [
                150
            ], 
            "M1": [
                1320
            ], 
            "irrelevant_Adj": [
                0
            ], 
            "M2": [
                2242
            ], 
            "BM1L": [
                1490
            ], 
            "WBNULL": [
                1
            ], 
            "irrelevant_Noun": [
                0
            ], 
            "M1_ADJ": [
                1
            ]
        }
    }, 
    "ada231d490de7ffd5bb32453d86341b0": {
        "(10, 7)": {
            "AM2L": [
                1774
            ], 
            "AM2F": [
                1449
            ], 
            "WBF": [
                1562
            ], 
            "BM1F": [
                2882
            ], 
            "M1": [
                2242
            ], 
            "irrelevant_Adj": [
                0
            ], 
            "M2": [
                1320
            ], 
            "BM1L": [
                2864
            ], 
            "WBO": [
                3075
            ], 
            "WBL": [
                3075
            ], 
            "irrelevant_Noun": [
                0
            ], 
            "M1_ADJ": [
                0
            ]
        }, 
        "location1": [
            10
        ], 
        "location2": [
            7
        ], 
        "sentence": "well i have to say that this product is very good i mean it might be a little big but it still fit in your pocket ."
    }, 
    "e31dd62f55c1c30d4c665bd6ad5606e1": {
        "(4, 16)": {
            "AM2L": [
                1562
            ], 
            "AM2F": [
                3152
            ], 
            "WBF": [
                1014
            ], 
            "BM1F": [
                1935
            ], 
            "M1": [
                1320
            ], 
            "irrelevant_Adj": [
                0
            ], 
            "M2": [
                2242
            ], 
            "BM1L": [
                1562
            ], 
            "WBO": [
                275, 
                2866, 
                964, 
                1371, 
                2958, 
                3195, 
                3181, 
                2032
            ], 
            "WBL": [
                448
            ], 
            "irrelevant_Noun": [
                0
            ], 
            "M1_ADJ": [
                1
            ]
        }, 
        "location1": [
            4
        ], 
        "location2": [
            16
        ], 
        "sentence": "the software is not good either and the driver has trouble working with other sound blaster product , which is very dumb ."
    }
}