{
    "3fd077cfdb53680671d6b273e8b56c20": {
        "location1": [
            1
        ], 
        "location2": [
            15
        ], 
        "(1, 15)": {
            "AM2L": [
                890
            ], 
            "AM2F": [
                1851
            ], 
            "WBF": [
                2160
            ], 
            "BM1F": [
                150
            ], 
            "M1": [
                1320
            ], 
            "irrelevant_Adj": [
                0
            ], 
            "M2": [
                3123
            ], 
            "WBO": [
                337, 
                150, 
                1333, 
                2225, 
                3181, 
                2857, 
                2653, 
                2864, 
                1745, 
                2456
            ], 
            "WBL": [
                2942
            ], 
            "irrelevant_Noun": [
                1
            ], 
            "M1_ADJ": [
                1
            ]
        }, 
        "sentence": "a good player at a great price with terrible software that makes ripping and transferring way more difficult than it should be ."
    }
}