{
    "de8c0ea32caab8f743c60c243bf98ff9": {
        "(5, 7)": {
            "AM2L": [
                3191
            ], 
            "WBFL": [
                275
            ], 
            "BM1F": [
                3075
            ], 
            "M1": [
                1320
            ], 
            "irrelevant_Adj": [
                0
            ], 
            "M2": [
                1720
            ], 
            "BM1L": [
                1562
            ], 
            "AM2F": [
                275
            ], 
            "irrelevant_Noun": [
                0
            ], 
            "M1_ADJ": [
                1
            ]
        }, 
        "location1": [
            5
        ], 
        "location2": [
            7
        ], 
        "sentence": "but the sound is very good ( and loud ) and work well on my portable speaker ."
    }
}