{
    "b24bda91f521ad2ca3847636eaba7568": {
        "(4, 5)": {
            "AM2L": [
                1201
            ], 
            "BM1F": [
                150
            ], 
            "M1": [
                1320
            ], 
            "irrelevant_Adj": [
                0
            ], 
            "M2": [
                562
            ], 
            "BM1L": [
                3181
            ], 
            "WBNULL": [
                1
            ], 
            "irrelevant_Noun": [
                0
            ], 
            "AM2F": [
                2864
            ], 
            "M1_ADJ": [
                1
            ]
        }, 
        "location1": [
            4
        ], 
        "location2": [
            5
        ], 
        "sentence": "it comes with a good case that fit it snuggly ."
    }, 
    "4609198e9495aeb97d0e1704b1f11136": {
        "(4, 33)": {
            "AM2L": [
                1987
            ], 
            "AM2F": [
                1562
            ], 
            "WBF": [
                1712
            ], 
            "BM1F": [
                1451
            ], 
            "M1": [
                1320
            ], 
            "irrelevant_Adj": [
                0
            ], 
            "M2": [
                562
            ], 
            "BM1L": [
                2862
            ], 
            "WBO": [
                2160, 
                406, 
                457, 
                374, 
                2501, 
                1463, 
                3229, 
                6, 
                2317, 
                154, 
                2866, 
                2160, 
                2659, 
                1375, 
                685, 
                154, 
                2866, 
                1616, 
                1971, 
                150, 
                3086, 
                1427, 
                1232, 
                2866, 
                1130
            ], 
            "WBL": [
                2866
            ], 
            "irrelevant_Noun": [
                0
            ], 
            "M1_ADJ": [
                1
            ]
        }, 
        "(39, 33)": {
            "AM2L": [
                2866
            ], 
            "AM2F": [
                407
            ], 
            "WBF": [
                1562
            ], 
            "BM1F": [
                2866
            ], 
            "M1": [
                562
            ], 
            "irrelevant_Adj": [
                0
            ], 
            "M2": [
                1320
            ], 
            "BM1L": [
                3147
            ], 
            "WBO": [
                1987, 
                522
            ], 
            "WBL": [
                1562
            ], 
            "irrelevant_Noun": [
                0
            ], 
            "M1_ADJ": [
                0
            ]
        }, 
        "location1": [
            4, 
            39
        ], 
        "location2": [
            33
        ], 
        "sentence": "much cheaper than i-pod good looking player ( beautiful blue back-lit screen ) if you 've read about the player , some have complained about the lack of a viewing hole for the face when the case is on , but this is good because the face does n't get damaged / scratched fast transfer rate"
    }, 
    "8a31ba51febce8f3d665f6e34835eb2d": {
        "(24, 10)": {
            "AM2F": [
                1386
            ], 
            "WBF": [
                1562
            ], 
            "BM1F": [
                561
            ], 
            "M1": [
                562
            ], 
            "irrelevant_Adj": [
                0
            ], 
            "M2": [
                1320
            ], 
            "BM1L": [
                2864
            ], 
            "WBO": [
                2325, 
                2260, 
                275, 
                2909, 
                1773, 
                1569, 
                2866, 
                1999, 
                170, 
                3229
            ], 
            "WBL": [
                1094
            ], 
            "irrelevant_Noun": [
                0
            ], 
            "M1_ADJ": [
                0
            ]
        }, 
        "location1": [
            24
        ], 
        "location2": [
            10
        ], 
        "sentence": "the free ( i didnt know they still did that ) carrying case is really protective , and to me its the only accessory you need ( except good headphone ) ."
    }, 
    "b6ad3734805d45028aacb33df91f1f38": {
        "(29, 23)": {
            "AM2F": [
                2259
            ], 
            "WBF": [
                1562
            ], 
            "BM1F": [
                2866
            ], 
            "M1": [
                562
            ], 
            "irrelevant_Adj": [
                0
            ], 
            "M2": [
                1320
            ], 
            "BM1L": [
                1014
            ], 
            "WBO": [
                2768, 
                275
            ], 
            "WBL": [
                3075
            ], 
            "irrelevant_Noun": [
                0
            ], 
            "M1_ADJ": [
                0
            ]
        }, 
        "location1": [
            29
        ], 
        "location2": [
            6, 
            23
        ], 
        "(29, 6)": {
            "AM2F": [
                2259
            ], 
            "WBF": [
                1935
            ], 
            "BM1F": [
                2866
            ], 
            "M1": [
                562
            ], 
            "irrelevant_Adj": [
                0
            ], 
            "M2": [
                1320
            ], 
            "BM1L": [
                154
            ], 
            "WBO": [
                1377, 
                150, 
                3174, 
                522, 
                2864, 
                4, 
                1935, 
                2325, 
                150, 
                440, 
                824, 
                2909, 
                1773, 
                1014, 
                2866, 
                562, 
                1562, 
                2768, 
                275
            ], 
            "WBL": [
                3075
            ], 
            "irrelevant_Noun": [
                0
            ], 
            "M1_ADJ": [
                0
            ]
        }, 
        "sentence": "people also have complained about the case not having a window , but that 's not really a big deal to me either -- the case is sturdy and offer very good protection ."
    }
}