{
    "445b54a1e60413834b2b823f3b73a305": {
        "(6, 7)": {
            "AM2L": [
                1014
            ], 
            "BM1F": [
                286
            ], 
            "M1": [
                1320
            ], 
            "irrelevant_Adj": [
                0
            ], 
            "M2": [
                410
            ], 
            "BM1L": [
                1881
            ], 
            "WBNULL": [
                1
            ], 
            "irrelevant_Noun": [
                0
            ], 
            "AM2F": [
                1566
            ], 
            "M1_ADJ": [
                1
            ]
        }, 
        "location1": [
            6
        ], 
        "location2": [
            7
        ], 
        "sentence": "the quick sync is n't any good becuase it either need to be configured properly or just is n't very useful ."
    }
}