{
    "21ebed2a97f528417ad5da338ef26ef7": {
        "(10, 3)": {
            "AM2L": [
                2866
            ], 
            "AM2F": [
                2876
            ], 
            "WBF": [
                3229
            ], 
            "BM1F": [
                2866
            ], 
            "M1": [
                2764
            ], 
            "irrelevant_Adj": [
                0
            ], 
            "M2": [
                1320
            ], 
            "BM1L": [
                1401
            ], 
            "WBO": [
                2587, 
                1610, 
                2722
            ], 
            "WBL": [
                2866
            ], 
            "irrelevant_Noun": [
                0
            ], 
            "M1_ADJ": [
                0
            ]
        }, 
        "location1": [
            10
        ], 
        "location2": [
            3
        ], 
        "sentence": "now here the stuff you should know starting with the good thing : the screen is really big and the blue light in the back is perfect , fast as hell in music transfer , control are easy to use after mastering the scroll button , great sound and ive heard many mp3 player , a ton of different equilizer type deal on here ."
    }
}