{
    "6bc32f701b31d3e1398b32992b827143": {
        "(22, 24)": {
            "WBFL": [
                577
            ], 
            "BM1F": [
                150
            ], 
            "M1": [
                1320
            ], 
            "irrelevant_Adj": [
                0
            ], 
            "M2": [
                2549
            ], 
            "BM1L": [
                2909
            ], 
            "AM2F": [
                1325
            ], 
            "irrelevant_Noun": [
                0
            ], 
            "M1_ADJ": [
                1
            ]
        }, 
        "location1": [
            22
        ], 
        "location2": [
            24
        ], 
        "sentence": "8 ) creative mediasource , although not as sleek looking as window mediaplayer , is effective in organizing your collection and is linked to a good cddb service ( gracenotes ) ."
    }
}