{
    "e24082bf48b6d19d32244d020b13478a": {
        "location1": [
            24
        ], 
        "location2": [
            3
        ], 
        "(24, 3)": {
            "WBF": [
                150
            ], 
            "BM1F": [
                2159
            ], 
            "M1": [
                373
            ], 
            "irrelevant_Adj": [
                0
            ], 
            "M2": [
                1320
            ], 
            "BM1L": [
                1449
            ], 
            "WBO": [
                2819, 
                2021, 
                3229, 
                3204, 
                2814, 
                2864, 
                3229, 
                3143, 
                2514, 
                823, 
                583, 
                1490, 
                1262, 
                1971, 
                2866, 
                2021, 
                1566
            ], 
            "WBL": [
                2864
            ], 
            "irrelevant_Noun": [
                0
            ], 
            "M1_ADJ": [
                0
            ]
        }, 
        "sentence": "when i played back a symphony orchestra you would swear that you were seated dead center in front of the orchestra - it 's that good !"
    }, 
    "21ebed2a97f528417ad5da338ef26ef7": {
        "location1": [
            10
        ], 
        "location2": [
            23
        ], 
        "(10, 23)": {
            "AM2L": [
                2104
            ], 
            "AM2F": [
                1562
            ], 
            "WBF": [
                2876
            ], 
            "BM1F": [
                2866
            ], 
            "M1": [
                1320
            ], 
            "irrelevant_Adj": [
                0
            ], 
            "M2": [
                373
            ], 
            "BM1L": [
                3181
            ], 
            "WBO": [
                2866, 
                2501, 
                1562, 
                2325, 
                440, 
                275, 
                2866, 
                457, 
                1665
            ], 
            "WBL": [
                2866
            ], 
            "irrelevant_Noun": [
                0
            ], 
            "M1_ADJ": [
                1
            ]
        }, 
        "sentence": "now here the stuff you should know starting with the good thing : the screen is really big and the blue light in the back is perfect , fast as hell in music transfer , control are easy to use after mastering the scroll button , great sound and ive heard many mp3 player , a ton of different equilizer type deal on here ."
    }
}