{
    "b6ad3734805d45028aacb33df91f1f38": {
        "(29, 30)": {
            "BM1F": [
                3075
            ], 
            "M1": [
                1320
            ], 
            "irrelevant_Adj": [
                0
            ], 
            "M2": [
                2259
            ], 
            "BM1L": [
                1975
            ], 
            "WBNULL": [
                1
            ], 
            "irrelevant_Noun": [
                0
            ], 
            "M1_ADJ": [
                1
            ]
        }, 
        "location1": [
            29
        ], 
        "location2": [
            30
        ], 
        "sentence": "people also have complained about the case not having a window , but that 's not really a big deal to me either -- the case is sturdy and offer very good protection ."
    }
}