{
    "b9bfe35c56e22b2e41d54ff0d9f5e938": {
        "(29, 11)": {
            "AM2L": [
                1566
            ], 
            "AM2F": [
                325
            ], 
            "WBF": [
                1558
            ], 
            "BM1F": [
                1728
            ], 
            "M1": [
                1659
            ], 
            "irrelevant_Adj": [
                0
            ], 
            "M2": [
                1333
            ], 
            "BM1L": [
                2866
            ], 
            "WBO": [
                1449, 
                3117, 
                153, 
                2909, 
                1297, 
                2882, 
                103, 
                1847, 
                275, 
                2866, 
                434, 
                2082, 
                1562, 
                1566
            ], 
            "WBL": [
                325
            ], 
            "irrelevant_Noun": [
                0
            ], 
            "M1_ADJ": [
                0
            ]
        }, 
        "location1": [
            29
        ], 
        "location2": [
            11
        ], 
        "sentence": "for a price that 's still less than even the lowest level ipod i was able to get this 40gb monster , and the best part is it work as great as it was advertised to and then some ."
    }
}