{
    "370f2f08bb8ba98db88f94c031ba3f60": {
        "(6, 11)": {
            "AM2L": [
                2633
            ], 
            "AM2F": [
                1669
            ], 
            "WBF": [
                1566
            ], 
            "BM1F": [
                2676
            ], 
            "M1": [
                1333
            ], 
            "irrelevant_Adj": [
                0
            ], 
            "M2": [
                2017
            ], 
            "BM1L": [
                275
            ], 
            "WBO": [
                254
            ], 
            "WBL": [
                1758
            ], 
            "irrelevant_Noun": [
                1
            ], 
            "M1_ADJ": [
                1
            ]
        }, 
        "location1": [
            6
        ], 
        "location2": [
            11
        ], 
        "sentence": "the player is fast and sound great , it also has many option like slowing or speeding up the music , or making it sound like you 're hearing the music in a huge auditorium ."
    }
}