{
    "92198989402e17a45ecbf5ef78c65e91": {
        "(26, 23)": {
            "AM2F": [
                2225
            ], 
            "WBF": [
                3031
            ], 
            "BM1F": [
                2501
            ], 
            "M1": [
                1198
            ], 
            "irrelevant_Adj": [
                0
            ], 
            "M2": [
                1333
            ], 
            "BM1L": [
                1907
            ], 
            "WBO": [
                275
            ], 
            "WBL": [
                275
            ], 
            "irrelevant_Noun": [
                0
            ], 
            "M1_ADJ": [
                0
            ]
        }, 
        "location1": [
            0, 
            26
        ], 
        "location2": [
            23
        ], 
        "(0, 23)": {
            "WBF": [
                2676
            ], 
            "AM2L": [
                275
            ], 
            "M1": [
                1333
            ], 
            "irrelevant_Adj": [
                0
            ], 
            "M2": [
                1198
            ], 
            "WBO": [
                3075, 
                1706, 
                400, 
                1664, 
                1449, 
                2466, 
                2157, 
                1566, 
                1232, 
                23, 
                1442, 
                3075, 
                1156, 
                2346, 
                2306, 
                2389, 
                400, 
                2747, 
                2617
            ], 
            "WBL": [
                2501
            ], 
            "irrelevant_Noun": [
                0
            ], 
            "AM2F": [
                3031
            ], 
            "M1_ADJ": [
                1
            ]
        }, 
        "sentence": "great sound , very long battery life ( i routinely play it for 12 + hour ) , very fast recharges rate , removable battery , storage size , nice screen , firmware update , and great price ."
    }
}