{
    "aeaf53d9981fcdae134d914c14c3bf3a": {
        "(4, 19)": {
            "AM2L": [
                1566
            ], 
            "AM2F": [
                1232
            ], 
            "WBF": [
                3010
            ], 
            "BM1F": [
                150
            ], 
            "M1": [
                1333
            ], 
            "irrelevant_Adj": [
                0
            ], 
            "M2": [
                170
            ], 
            "BM1L": [
                1562
            ], 
            "WBO": [
                1437, 
                784, 
                1615, 
                2019, 
                2659, 
                2032, 
                3070, 
                3168, 
                2669, 
                663, 
                2037
            ], 
            "WBL": [
                2659
            ], 
            "irrelevant_Noun": [
                0
            ], 
            "M1_ADJ": [
                1
            ]
        }, 
        "location1": [
            4
        ], 
        "location2": [
            19
        ], 
        "sentence": "overall it is a great unit & hopefully creative lab or some other vendor will soon come out with some accessory for it ."
    }
}