{
    "21ebed2a97f528417ad5da338ef26ef7": {
        "(42, 41)": {
            "AM2L": [
                275
            ], 
            "BM1F": [
                2506
            ], 
            "M1": [
                523
            ], 
            "irrelevant_Adj": [
                0
            ], 
            "M2": [
                1333
            ], 
            "BM1L": [
                2866
            ], 
            "WBNULL": [
                1
            ], 
            "irrelevant_Noun": [
                0
            ], 
            "AM2F": [
                2676
            ], 
            "M1_ADJ": [
                0
            ]
        }, 
        "location1": [
            42
        ], 
        "location2": [
            41
        ], 
        "sentence": "now here the stuff you should know starting with the good thing : the screen is really big and the blue light in the back is perfect , fast as hell in music transfer , control are easy to use after mastering the scroll button , great sound and ive heard many mp3 player , a ton of different equilizer type deal on here ."
    }
}