{
    "2155dae2420356df58f64bd1e973732d": {
        "(4, 9)": {
            "AM2L": [
                2505
            ], 
            "AM2F": [
                1256
            ], 
            "WBF": [
                1825
            ], 
            "BM1F": [
                282
            ], 
            "M1": [
                1333
            ], 
            "irrelevant_Adj": [
                0
            ], 
            "M2": [
                776
            ], 
            "BM1L": [
                1562
            ], 
            "WBO": [
                1363
            ], 
            "WBL": [
                2006
            ], 
            "irrelevant_Noun": [
                0
            ], 
            "M1_ADJ": [
                1
            ]
        }, 
        "location1": [
            4
        ], 
        "location2": [
            9
        ], 
        "sentence": "d ) software is another great misfortune -- hard to operate , crash frequently , screwed my music library up , doesnt work with mp4s , the list goes on and on"
    }
}