{
    "aeaf53d9981fcdae134d914c14c3bf3a": {
        "(4, 5)": {
            "AM2L": [
                784
            ], 
            "BM1F": [
                150
            ], 
            "M1": [
                1333
            ], 
            "irrelevant_Adj": [
                0
            ], 
            "M2": [
                3010
            ], 
            "BM1L": [
                1562
            ], 
            "WBNULL": [
                1
            ], 
            "irrelevant_Noun": [
                0
            ], 
            "AM2F": [
                1437
            ], 
            "M1_ADJ": [
                1
            ]
        }, 
        "location1": [
            4
        ], 
        "location2": [
            5
        ], 
        "sentence": "overall it is a great unit & hopefully creative lab or some other vendor will soon come out with some accessory for it ."
    }, 
    "294fb4d5c0dbd66ee87636a29c8f6923": {
        "(3, 1)": {
            "AM2L": [
                1878
            ], 
            "WBFL": [
                3191
            ], 
            "BM1F": [
                2866
            ], 
            "M1": [
                3010
            ], 
            "irrelevant_Adj": [
                0
            ], 
            "M2": [
                1333
            ], 
            "AM2F": [
                3181
            ], 
            "irrelevant_Noun": [
                0
            ], 
            "M1_ADJ": [
                0
            ]
        }, 
        "location1": [
            3
        ], 
        "location2": [
            1
        ], 
        "sentence": "the unit work great with my cassette adapter for my car & is also easily worked without taking your eye off the road !"
    }
}