{
    "92198989402e17a45ecbf5ef78c65e91": {
        "(26, 16)": {
            "AM2F": [
                2225
            ], 
            "WBF": [
                2389
            ], 
            "BM1F": [
                2346
            ], 
            "M1": [
                2306
            ], 
            "irrelevant_Adj": [
                0
            ], 
            "M2": [
                1333
            ], 
            "BM1L": [
                1156
            ], 
            "WBO": [
                400, 
                2747, 
                2617, 
                1907, 
                2501, 
                1198
            ], 
            "WBL": [
                275
            ], 
            "irrelevant_Noun": [
                0
            ], 
            "M1_ADJ": [
                0
            ]
        }, 
        "location1": [
            0, 
            26
        ], 
        "location2": [
            16
        ], 
        "(0, 16)": {
            "WBF": [
                2676
            ], 
            "AM2L": [
                400
            ], 
            "M1": [
                1333
            ], 
            "irrelevant_Adj": [
                0
            ], 
            "M2": [
                2306
            ], 
            "WBO": [
                3075, 
                1706, 
                400, 
                1664, 
                1449, 
                2466, 
                2157, 
                1566, 
                1232, 
                23, 
                1442, 
                3075
            ], 
            "WBL": [
                2346
            ], 
            "irrelevant_Noun": [
                0
            ], 
            "AM2F": [
                2389
            ], 
            "M1_ADJ": [
                1
            ]
        }, 
        "sentence": "great sound , very long battery life ( i routinely play it for 12 + hour ) , very fast recharges rate , removable battery , storage size , nice screen , firmware update , and great price ."
    }
}