{
    "eec2ea24e9d430dfa7c739b7564618f7": {
        "(9, 10)": {
            "AM2L": [
                1297
            ], 
            "BM1F": [
                150
            ], 
            "M1": [
                1333
            ], 
            "irrelevant_Adj": [
                0
            ], 
            "M2": [
                1864
            ], 
            "BM1L": [
                275
            ], 
            "WBNULL": [
                1
            ], 
            "irrelevant_Noun": [
                0
            ], 
            "AM2F": [
                2160
            ], 
            "M1_ADJ": [
                1
            ]
        }, 
        "(5, 10)": {
            "AM2L": [
                1297
            ], 
            "AM2F": [
                2160
            ], 
            "WBF": [
                824
            ], 
            "BM1F": [
                150
            ], 
            "M1": [
                1333
            ], 
            "irrelevant_Adj": [
                0
            ], 
            "M2": [
                1864
            ], 
            "BM1L": [
                3108
            ], 
            "WBO": [
                275
            ], 
            "WBL": [
                1333
            ], 
            "irrelevant_Noun": [
                0
            ], 
            "M1_ADJ": [
                1
            ]
        }, 
        "location1": [
            5, 
            9
        ], 
        "location2": [
            10
        ], 
        "sentence": "but if you want a great deal and a great mp3 player , get the nomad ."
    }, 
    "21ebed2a97f528417ad5da338ef26ef7": {
        "(42, 48)": {
            "AM2L": [
                150
            ], 
            "AM2F": [
                2160
            ], 
            "WBF": [
                2676
            ], 
            "BM1F": [
                523
            ], 
            "M1": [
                1333
            ], 
            "irrelevant_Adj": [
                0
            ], 
            "M2": [
                1864
            ], 
            "BM1L": [
                2506
            ], 
            "WBO": [
                275, 
                1572
            ], 
            "WBL": [
                1758
            ], 
            "irrelevant_Noun": [
                0
            ], 
            "M1_ADJ": [
                1
            ]
        }, 
        "location1": [
            42
        ], 
        "location2": [
            48
        ], 
        "sentence": "now here the stuff you should know starting with the good thing : the screen is really big and the blue light in the back is perfect , fast as hell in music transfer , control are easy to use after mastering the scroll button , great sound and ive heard many mp3 player , a ton of different equilizer type deal on here ."
    }, 
    "68a9b8ffda36ad44922fd9094de3d7c5": {
        "location1": [
            5, 
            29
        ], 
        "location2": [
            38
        ], 
        "(29, 38)": {
            "AM2F": [
                2160
            ], 
            "WBF": [
                2676
            ], 
            "BM1F": [
                150
            ], 
            "M1": [
                1333
            ], 
            "irrelevant_Adj": [
                0
            ], 
            "M2": [
                1864
            ], 
            "BM1L": [
                275
            ], 
            "WBO": [
                3152, 
                1562, 
                242, 
                2864, 
                1767
            ], 
            "WBL": [
                150
            ], 
            "irrelevant_Noun": [
                0
            ], 
            "M1_ADJ": [
                1
            ]
        }, 
        "(5, 38)": {
            "AM2F": [
                2160
            ], 
            "WBF": [
                2160
            ], 
            "BM1F": [
                150
            ], 
            "M1": [
                1333
            ], 
            "irrelevant_Adj": [
                0
            ], 
            "M2": [
                1864
            ], 
            "BM1L": [
                2882
            ], 
            "WBO": [
                2864, 
                454, 
                2866, 
                1451, 
                364, 
                3181, 
                1005, 
                2909, 
                3041, 
                275, 
                2999, 
                1163, 
                2653, 
                2864, 
                1562, 
                2605, 
                2909, 
                2999, 
                275, 
                3041, 
                275, 
                150, 
                1333, 
                2676, 
                3152, 
                1562, 
                242, 
                2864, 
                1767
            ], 
            "WBL": [
                150
            ], 
            "irrelevant_Noun": [
                0
            ], 
            "M1_ADJ": [
                1
            ]
        }, 
        "sentence": "all in all this a great player that blow the i-pod away , with easy to use and understand feature , software that is simple to understand and use , and a great sound ( which is all that matter in a mp3 player ) ."
    }
}