{
    "fba2cf23926fa2aa67d2e28a09f712df": {
        "location1": [
            9
        ], 
        "location2": [
            28
        ], 
        "(9, 28)": {
            "AM2L": [
                2785
            ], 
            "AM2F": [
                2909
            ], 
            "WBF": [
                2676
            ], 
            "BM1F": [
                1566
            ], 
            "M1": [
                1333
            ], 
            "irrelevant_Adj": [
                0
            ], 
            "M2": [
                2666
            ], 
            "BM1L": [
                1322
            ], 
            "WBO": [
                1005, 
                2909, 
                3041, 
                1075, 
                2885, 
                1449, 
                227, 
                2864, 
                2866, 
                2653, 
                3117, 
                1881, 
                2866, 
                434, 
                275
            ], 
            "WBL": [
                1050
            ], 
            "irrelevant_Noun": [
                0
            ], 
            "M1_ADJ": [
                1
            ]
        }, 
        "sentence": "i loved this product when i first got it - great sound , easy to use ( even though i agree that the software was n't the best ) and held enough song to suit any mood ."
    }, 
    "8eb5d2fca4a827e8e326a4df00c9b809": {
        "(20, 8)": {
            "AM2L": [
                2906
            ], 
            "AM2F": [
                1690
            ], 
            "WBF": [
                1878
            ], 
            "BM1F": [
                1971
            ], 
            "M1": [
                2666
            ], 
            "irrelevant_Adj": [
                0
            ], 
            "M2": [
                1333
            ], 
            "BM1L": [
                271
            ], 
            "WBO": [
                1056, 
                654, 
                1971, 
                574, 
                4, 
                3168, 
                242, 
                1201
            ], 
            "WBL": [
                2882
            ], 
            "irrelevant_Noun": [
                0
            ], 
            "M1_ADJ": [
                0
            ]
        }, 
        "location1": [
            20
        ], 
        "location2": [
            8
        ], 
        "sentence": "the memory will hold an amazing amount of song , my entire collection of cd 's will all fit on this great little tiny piece of digital fun ."
    }
}