{
    "370f2f08bb8ba98db88f94c031ba3f60": {
        "(6, 18)": {
            "AM2L": [
                1746
            ], 
            "AM2F": [
                2019
            ], 
            "WBF": [
                1566
            ], 
            "BM1F": [
                2676
            ], 
            "M1": [
                1333
            ], 
            "irrelevant_Adj": [
                0
            ], 
            "M2": [
                1875
            ], 
            "BM1L": [
                275
            ], 
            "WBO": [
                254, 
                1371, 
                1758, 
                2017, 
                1669, 
                2633, 
                2019, 
                2697
            ], 
            "WBL": [
                2866
            ], 
            "irrelevant_Noun": [
                0
            ], 
            "M1_ADJ": [
                1
            ]
        }, 
        "(6, 28)": {
            "AM2L": [
                150
            ], 
            "AM2F": [
                1490
            ], 
            "WBF": [
                1566
            ], 
            "BM1F": [
                2676
            ], 
            "M1": [
                1333
            ], 
            "irrelevant_Adj": [
                0
            ], 
            "M2": [
                1875
            ], 
            "BM1L": [
                275
            ], 
            "WBO": [
                254, 
                1371, 
                1758, 
                2017, 
                1669, 
                2633, 
                2019, 
                2697, 
                3029, 
                2866, 
                1875, 
                2019, 
                1746, 
                1566, 
                2676, 
                1669, 
                3229, 
                3
            ], 
            "WBL": [
                2866
            ], 
            "irrelevant_Noun": [
                0
            ], 
            "M1_ADJ": [
                1
            ]
        }, 
        "location1": [
            6
        ], 
        "location2": [
            18, 
            28
        ], 
        "sentence": "the player is fast and sound great , it also has many option like slowing or speeding up the music , or making it sound like you 're hearing the music in a huge auditorium ."
    }, 
    "21ebed2a97f528417ad5da338ef26ef7": {
        "(42, 30)": {
            "AM2L": [
                275
            ], 
            "AM2F": [
                2676
            ], 
            "WBF": [
                2939
            ], 
            "BM1F": [
                1490
            ], 
            "M1": [
                1875
            ], 
            "irrelevant_Adj": [
                0
            ], 
            "M2": [
                1333
            ], 
            "BM1L": [
                1398
            ], 
            "WBO": [
                735, 
                316, 
                1005, 
                2909, 
                3041, 
                221, 
                1764, 
                2866
            ], 
            "WBL": [
                523
            ], 
            "irrelevant_Noun": [
                0
            ], 
            "M1_ADJ": [
                0
            ]
        }, 
        "location1": [
            42
        ], 
        "location2": [
            30
        ], 
        "sentence": "now here the stuff you should know starting with the good thing : the screen is really big and the blue light in the back is perfect , fast as hell in music transfer , control are easy to use after mastering the scroll button , great sound and ive heard many mp3 player , a ton of different equilizer type deal on here ."
    }, 
    "2155dae2420356df58f64bd1e973732d": {
        "location1": [
            4
        ], 
        "location2": [
            13
        ], 
        "(4, 13)": {
            "AM2L": [
                3029
            ], 
            "AM2F": [
                1662
            ], 
            "WBF": [
                1825
            ], 
            "BM1F": [
                282
            ], 
            "M1": [
                1333
            ], 
            "irrelevant_Adj": [
                0
            ], 
            "M2": [
                1875
            ], 
            "BM1L": [
                1562
            ], 
            "WBO": [
                1363, 
                2909, 
                2006, 
                776, 
                1256
            ], 
            "WBL": [
                1878
            ], 
            "irrelevant_Noun": [
                0
            ], 
            "M1_ADJ": [
                1
            ]
        }, 
        "sentence": "d ) software is another great misfortune -- hard to operate , crash frequently , screwed my music library up , doesnt work with mp4s , the list goes on and on"
    }
}