{
    "92198989402e17a45ecbf5ef78c65e91": {
        "(0, 12)": {
            "WBF": [
                2676
            ], 
            "AM2L": [
                1156
            ], 
            "M1": [
                1333
            ], 
            "irrelevant_Adj": [
                0
            ], 
            "M2": [
                1442
            ], 
            "WBO": [
                3075, 
                1706, 
                400, 
                1664, 
                1449, 
                2466, 
                2157, 
                1566
            ], 
            "WBL": [
                23
            ], 
            "irrelevant_Noun": [
                0
            ], 
            "AM2F": [
                3075
            ], 
            "M1_ADJ": [
                1
            ]
        }, 
        "location1": [
            0, 
            26
        ], 
        "location2": [
            12
        ], 
        "(26, 12)": {
            "AM2F": [
                2225
            ], 
            "WBF": [
                3075
            ], 
            "BM1F": [
                23
            ], 
            "M1": [
                1442
            ], 
            "irrelevant_Adj": [
                0
            ], 
            "M2": [
                1333
            ], 
            "BM1L": [
                1232
            ], 
            "WBO": [
                1156, 
                2346, 
                2306, 
                2389, 
                400, 
                2747, 
                2617, 
                1907, 
                2501, 
                1198
            ], 
            "WBL": [
                275
            ], 
            "irrelevant_Noun": [
                0
            ], 
            "M1_ADJ": [
                0
            ]
        }, 
        "sentence": "great sound , very long battery life ( i routinely play it for 12 + hour ) , very fast recharges rate , removable battery , storage size , nice screen , firmware update , and great price ."
    }, 
    "b054d89158181f39fbacb882681b0a47": {
        "(5, 9)": {
            "AM2L": [
                4
            ], 
            "AM2F": [
                1566
            ], 
            "WBF": [
                1566
            ], 
            "BM1F": [
                1562
            ], 
            "M1": [
                1333
            ], 
            "irrelevant_Adj": [
                0
            ], 
            "M2": [
                1442
            ], 
            "BM1L": [
                1664
            ], 
            "WBO": [
                213
            ], 
            "WBL": [
                31
            ], 
            "irrelevant_Noun": [
                0
            ], 
            "M1_ADJ": [
                1
            ]
        }, 
        "location1": [
            5
        ], 
        "location2": [
            9
        ], 
        "sentence": "even the battery life is great - it advertises 14 hour , it 's actually a little less but still good ."
    }
}