{
    "68dfe1e6439e1d2fafdd1dcf2ce1d498": {
        "(3, 17)": {
            "WBF": [
                275
            ], 
            "BM1F": [
                1562
            ], 
            "M1": [
                1333
            ], 
            "irrelevant_Adj": [
                0
            ], 
            "M2": [
                1918
            ], 
            "BM1L": [
                2676
            ], 
            "WBO": [
                2866, 
                3097, 
                1562, 
                1851, 
                2862, 
                2483, 
                1232, 
                672, 
                275, 
                2593
            ], 
            "WBL": [
                1119
            ], 
            "irrelevant_Noun": [
                0
            ], 
            "M1_ADJ": [
                1
            ]
        }, 
        "location1": [
            3
        ], 
        "location2": [
            17
        ], 
        "sentence": "the sound is great , and the volume is more than satisfactory for commute and shutting out external noise ."
    }
}