{
    "294fb4d5c0dbd66ee87636a29c8f6923": {
        "(3, 18)": {
            "AM2L": [
                2866
            ], 
            "AM2F": [
                1972
            ], 
            "WBF": [
                3181
            ], 
            "BM1F": [
                3191
            ], 
            "M1": [
                1333
            ], 
            "irrelevant_Adj": [
                0
            ], 
            "M2": [
                1124
            ], 
            "BM1L": [
                3010
            ], 
            "WBO": [
                1878, 
                565, 
                192, 
                1232, 
                1878, 
                553, 
                1562, 
                254, 
                1004, 
                3193, 
                3183
            ], 
            "WBL": [
                3230
            ], 
            "irrelevant_Noun": [
                0
            ], 
            "M1_ADJ": [
                1
            ]
        }, 
        "location1": [
            3
        ], 
        "location2": [
            18
        ], 
        "sentence": "the unit work great with my cassette adapter for my car & is also easily worked without taking your eye off the road !"
    }
}