{
    "ef17800065343e65f25e6b2d1f306115": {
        "(4, 1)": {
            "AM2L": [
                3229
            ], 
            "AM2F": [
                2650
            ], 
            "WBF": [
                2301
            ], 
            "BM1F": [
                2866
            ], 
            "M1": [
                3097
            ], 
            "irrelevant_Adj": [
                0
            ], 
            "M2": [
                1333
            ], 
            "WBO": [
                1562
            ], 
            "WBL": [
                1562
            ], 
            "irrelevant_Noun": [
                0
            ], 
            "M1_ADJ": [
                0
            ]
        }, 
        "location1": [
            4
        ], 
        "location2": [
            1
        ], 
        "sentence": "the volume range is great , so you can blast it if you want ."
    }, 
    "68dfe1e6439e1d2fafdd1dcf2ce1d498": {
        "location1": [
            3
        ], 
        "location2": [
            6
        ], 
        "(3, 6)": {
            "AM2L": [
                1851
            ], 
            "AM2F": [
                1562
            ], 
            "WBF": [
                275
            ], 
            "BM1F": [
                1562
            ], 
            "M1": [
                1333
            ], 
            "irrelevant_Adj": [
                0
            ], 
            "M2": [
                3097
            ], 
            "BM1L": [
                2676
            ], 
            "WBO": [
                2866
            ], 
            "WBL": [
                2866
            ], 
            "irrelevant_Noun": [
                0
            ], 
            "M1_ADJ": [
                1
            ]
        }, 
        "sentence": "the sound is great , and the volume is more than satisfactory for commute and shutting out external noise ."
    }
}