{
    "dfeaf50d5e3cca7bf889853664f868cd": {
        "location1": [
            10
        ], 
        "location2": [
            18
        ], 
        "(10, 18)": {
            "WBF": [
                2153
            ], 
            "BM1F": [
                1971
            ], 
            "M1": [
                1363
            ], 
            "irrelevant_Adj": [
                0
            ], 
            "M2": [
                750
            ], 
            "BM1L": [
                2037
            ], 
            "WBO": [
                275, 
                2280, 
                2659, 
                2467
            ], 
            "WBL": [
                2866
            ], 
            "irrelevant_Noun": [
                0
            ], 
            "M1_ADJ": [
                1
            ]
        }, 
        "sentence": "cheap construction - they should have made the player out of hard plastic and put some rubber on the corner ."
    }
}