{
    "c2ead43cc4af6f210ad3be6a5066613c": {
        "(4, 9)": {
            "AM2L": [
                1878
            ], 
            "AM2F": [
                415
            ], 
            "WBF": [
                963
            ], 
            "BM1F": [
                2866
            ], 
            "M1": [
                1363
            ], 
            "irrelevant_Adj": [
                0
            ], 
            "M2": [
                1852
            ], 
            "BM1L": [
                1837
            ], 
            "WBO": [
                1591
            ], 
            "WBL": [
                1994
            ], 
            "irrelevant_Noun": [
                0
            ], 
            "M1_ADJ": [
                1
            ]
        }, 
        "location1": [
            4
        ], 
        "location2": [
            9
        ], 
        "sentence": "in that model the hard drive just died one morning before my class ."
    }
}