{
    "7ab7a3fdf39cb28801ac1dcd470adf13": {
        "(11, 12)": {
            "AM2L": [
                2866
            ], 
            "BM1F": [
                2866
            ], 
            "M1": [
                1363
            ], 
            "irrelevant_Adj": [
                0
            ], 
            "M2": [
                748
            ], 
            "BM1L": [
                1899
            ], 
            "WBNULL": [
                1
            ], 
            "irrelevant_Noun": [
                0
            ], 
            "AM2F": [
                1931
            ], 
            "M1_ADJ": [
                1
            ]
        }, 
        "location1": [
            11
        ], 
        "location2": [
            12
        ], 
        "sentence": "but this is * not documented * in the zen manual - neither the hard copy nor the cd version ."
    }
}