{
    "aa3b4b93145f716321721fa859b6e463": {
        "(30, 29)": {
            "BM1F": [
                3230
            ], 
            "M1": [
                2094
            ], 
            "irrelevant_Adj": [
                0
            ], 
            "M2": [
                1363
            ], 
            "BM1L": [
                1987
            ], 
            "WBNULL": [
                1
            ], 
            "irrelevant_Noun": [
                0
            ], 
            "AM2F": [
                963
            ], 
            "M1_ADJ": [
                0
            ]
        }, 
        "location1": [
            30
        ], 
        "location2": [
            29
        ], 
        "sentence": "the cd ripping to mp3 is so easy , and you can even rip the cd directly to the mp3 player , so it wo n't take up space on your pc hard drive ."
    }
}