{
    "0c4de298f25d33f98c423488a7bd4745": {
        "location1": [
            13
        ], 
        "location2": [
            5
        ], 
        "(13, 5)": {
            "AM2L": [
                1591
            ], 
            "AM2F": [
                963
            ], 
            "WBF": [
                1490
            ], 
            "BM1F": [
                150
            ], 
            "M1": [
                562
            ], 
            "irrelevant_Adj": [
                0
            ], 
            "M2": [
                1363
            ], 
            "BM1L": [
                1490
            ], 
            "WBO": [
                528, 
                489, 
                522, 
                1994
            ], 
            "WBL": [
                2866
            ], 
            "irrelevant_Noun": [
                0
            ], 
            "M1_ADJ": [
                0
            ]
        }, 
        "sentence": "always carried it in a case in by briefcase but one day the hard drive just zapped ."
    }
}