{
    "2e3f4a9da60918bdc961149cf8e14d7f": {
        "(15, 2)": {
            "AM2L": [
                2160
            ], 
            "AM2F": [
                393
            ], 
            "WBF": [
                437
            ], 
            "BM1F": [
                1816
            ], 
            "M1": [
                2091
            ], 
            "irrelevant_Adj": [
                0
            ], 
            "M2": [
                1364
            ], 
            "BM1L": [
                21
            ], 
            "WBO": [
                2666, 
                1655, 
                2862, 
                2864, 
                1987, 
                2032, 
                877, 
                1320, 
                179
            ], 
            "WBL": [
                150
            ], 
            "irrelevant_Noun": [
                0
            ], 
            "M1_ADJ": [
                0
            ]
        }, 
        "location1": [
            15
        ], 
        "location2": [
            2
        ], 
        "sentence": "11 ) minimal pause between song - less than that on other device - good achievement for a hard-drive based player"
    }
}