{
    "1d1779b5fd4631148758949a356271bc": {
        "location1": [
            8
        ], 
        "location2": [
            16
        ], 
        "(8, 16)": {
            "AM2L": [
                2659
            ], 
            "AM2F": [
                1669
            ], 
            "WBF": [
                963
            ], 
            "BM1F": [
                150
            ], 
            "M1": [
                1363
            ], 
            "irrelevant_Adj": [
                0
            ], 
            "M2": [
                694
            ], 
            "BM1L": [
                1669
            ], 
            "WBO": [
                3147, 
                3229, 
                709, 
                1566
            ], 
            "WBL": [
                3230
            ], 
            "irrelevant_Noun": [
                0
            ], 
            "M1_ADJ": [
                1
            ]
        }, 
        "sentence": "3 ) it does not work automatically like a hard drive when you connect it to your computer , like some player"
    }
}