{
    "f8e21ab1b8a57bce5633ca8027b19bb4": {
        "(29, 26)": {
            "AM2L": [
                1535
            ], 
            "AM2F": [
                963
            ], 
            "WBF": [
                325
            ], 
            "BM1F": [
                2866
            ], 
            "M1": [
                1558
            ], 
            "irrelevant_Adj": [
                0
            ], 
            "M2": [
                1363
            ], 
            "BM1L": [
                3049
            ], 
            "WBO": [
                150
            ], 
            "WBL": [
                150
            ], 
            "irrelevant_Noun": [
                0
            ], 
            "M1_ADJ": [
                0
            ]
        }, 
        "(29, 18)": {
            "AM2L": [
                1535
            ], 
            "AM2F": [
                963
            ], 
            "WBF": [
                1094
            ], 
            "BM1F": [
                2866
            ], 
            "M1": [
                1558
            ], 
            "irrelevant_Adj": [
                0
            ], 
            "M2": [
                1363
            ], 
            "BM1L": [
                1987
            ], 
            "WBO": [
                1232, 
                150, 
                793, 
                3192, 
                3049, 
                2866, 
                1558
            ], 
            "WBL": [
                150
            ], 
            "irrelevant_Noun": [
                0
            ], 
            "M1_ADJ": [
                0
            ]
        }, 
        "location1": [
            29
        ], 
        "location2": [
            18, 
            26
        ], 
        "sentence": "the zen is an outstanding way to shuttle music between source , you can 't do this on the ipod ( except for a cumbersome work-around using the ipod as a hard drive instead of a player ) ."
    }
}