{
    "e36d6c54ed710942569ac8dc47ef1c8b": {
        "(14, 3)": {
            "AM2L": [
                2864
            ], 
            "AM2F": [
                2653
            ], 
            "WBF": [
                2864
            ], 
            "BM1F": [
                2975
            ], 
            "M1": [
                2876
            ], 
            "irrelevant_Adj": [
                0
            ], 
            "M2": [
                1422
            ], 
            "BM1L": [
                1999
            ], 
            "WBO": [
                2740, 
                1773, 
                1261, 
                1308, 
                1566, 
                112, 
                2718
            ], 
            "WBL": [
                2866
            ], 
            "irrelevant_Noun": [
                1
            ], 
            "M1_ADJ": [
                0
            ]
        }, 
        "location1": [
            14
        ], 
        "location2": [
            3
        ], 
        "sentence": "the only two thing that stop me from giving it 5 star are the ho-hum software that comes with the system , and the traveling case it comes with ."
    }
}