{
    "bb25f76c14b817eebcf952611ddb3014": {
        "(28, 31)": {
            "WBF": [
                887
            ], 
            "BM1F": [
                2866
            ], 
            "M1": [
                1446
            ], 
            "irrelevant_Adj": [
                0
            ], 
            "M2": [
                2225
            ], 
            "BM1L": [
                1592
            ], 
            "WBO": [
                1490
            ], 
            "WBL": [
                1490
            ], 
            "irrelevant_Noun": [
                0
            ], 
            "M1_ADJ": [
                1
            ]
        }, 
        "location1": [
            28
        ], 
        "location2": [
            31
        ], 
        "sentence": "the control are somewhat harder to use than the ipod , but i have gotten use to them , and even at the beginning did not think would justify the huge difference in price ."
    }, 
    "05b005a587509a9b418bc7b414f03e1b": {
        "(1, 6)": {
            "AM2L": [
                2909
            ], 
            "AM2F": [
                1005
            ], 
            "WBF": [
                2747
            ], 
            "BM1F": [
                2234
            ], 
            "M1": [
                1446
            ], 
            "irrelevant_Adj": [
                0
            ], 
            "M2": [
                2225
            ], 
            "WBO": [
                551
            ], 
            "WBL": [
                2866
            ], 
            "irrelevant_Noun": [
                0
            ], 
            "M1_ADJ": [
                1
            ]
        }, 
        "location1": [
            1
        ], 
        "location2": [
            6
        ], 
        "sentence": "pro : huge storage capacity for the price , easy to navigate , can modify existing playlist on the fly , has a removable battery"
    }
}