{
    "8121831049060e4e814eb90a284743c5": {
        "location1": [
            0
        ], 
        "location2": [
            10
        ], 
        "(0, 10)": {
            "WBF": [
                2523
            ], 
            "AM2L": [
                1333
            ], 
            "M1": [
                1572
            ], 
            "irrelevant_Adj": [
                0
            ], 
            "M2": [
                2225
            ], 
            "WBO": [
                1024, 
                242, 
                2866, 
                315, 
                852, 
                1558
            ], 
            "WBL": [
                1320
            ], 
            "irrelevant_Noun": [
                0
            ], 
            "AM2F": [
                275
            ], 
            "M1_ADJ": [
                1
            ]
        }, 
        "sentence": "ive seen em all , the archos , dell , ipod , everything ... good price and great sound makes this one the best in my opinion ."
    }
}