{
    "8121831049060e4e814eb90a284743c5": {
        "location1": [
            0
        ], 
        "location2": [
            2
        ], 
        "(0, 2)": {
            "AM2L": [
                2866
            ], 
            "WBFL": [
                2523
            ], 
            "M1": [
                1572
            ], 
            "irrelevant_Adj": [
                0
            ], 
            "M2": [
                1024
            ], 
            "AM2F": [
                242
            ], 
            "irrelevant_Noun": [
                0
            ], 
            "M1_ADJ": [
                1
            ]
        }, 
        "sentence": "ive seen em all , the archos , dell , ipod , everything ... good price and great sound makes this one the best in my opinion ."
    }
}