{
    "b2e9195b55b3d4ac0429cebac50af3a0": {
        "(9, 5)": {
            "AM2L": [
                1971
            ], 
            "AM2F": [
                1949
            ], 
            "WBF": [
                2934
            ], 
            "BM1F": [
                1296
            ], 
            "M1": [
                237
            ], 
            "irrelevant_Adj": [
                0
            ], 
            "M2": [
                1623
            ], 
            "BM1L": [
                591
            ], 
            "WBO": [
                1515
            ], 
            "WBL": [
                1232
            ], 
            "irrelevant_Noun": [
                0
            ], 
            "M1_ADJ": [
                0
            ]
        }, 
        "location1": [
            9
        ], 
        "location2": [
            5
        ], 
        "sentence": "-- > too difficult to change genre / album / track information for large number of track ."
    }
}