{
    "5edd2e3912aadfe55b64bee98b5416f2": {
        "(7, 15)": {
            "AM2L": [
                150
            ], 
            "AM2F": [
                3117
            ], 
            "WBF": [
                2617
            ], 
            "BM1F": [
                2866
            ], 
            "M1": [
                1625
            ], 
            "irrelevant_Adj": [
                0
            ], 
            "M2": [
                976
            ], 
            "BM1L": [
                3181
            ], 
            "WBO": [
                1498, 
                1987, 
                2866, 
                2458
            ], 
            "WBL": [
                2866
            ], 
            "irrelevant_Noun": [
                0
            ], 
            "M1_ADJ": [
                1
            ]
        }, 
        "location1": [
            7
        ], 
        "location2": [
            15
        ], 
        "sentence": "i was willing to live with the larger size ( inconvenient on the road ) but the durability was a big zero ."
    }
}