{
    "4669d00c8621e9a0281e783c77782dd4": {
        "location1": [
            3
        ], 
        "location2": [
            14
        ], 
        "(3, 14)": {
            "AM2L": [
                3152
            ], 
            "AM2F": [
                379
            ], 
            "WBF": [
                2862
            ], 
            "BM1F": [
                1562
            ], 
            "M1": [
                1625
            ], 
            "irrelevant_Adj": [
                0
            ], 
            "M2": [
                457
            ], 
            "BM1L": [
                1636
            ], 
            "WBO": [
                2866, 
                2223, 
                1837, 
                2866, 
                1951, 
                275, 
                1371
            ], 
            "WBL": [
                490
            ], 
            "irrelevant_Noun": [
                0
            ], 
            "M1_ADJ": [
                1
            ]
        }, 
        "sentence": "the lcd is larger than the previous model , the nx , and has a bright blue backlight which illuminates the screen more successfully than the nx 's green backlight did ."
    }
}