{
    "6d0ac44003c8f03b17f4e1adcc23e886": {
        "(3, 10)": {
            "AM2L": [
                1896
            ], 
            "AM2F": [
                1449
            ], 
            "WBF": [
                275
            ], 
            "BM1F": [
                1562
            ], 
            "M1": [
                1623
            ], 
            "irrelevant_Adj": [
                0
            ], 
            "M2": [
                1514
            ], 
            "BM1L": [
                2501
            ], 
            "WBO": [
                490, 
                275, 
                1371
            ], 
            "WBL": [
                2866
            ], 
            "irrelevant_Noun": [
                0
            ], 
            "M1_ADJ": [
                1
            ]
        }, 
        "location1": [
            3
        ], 
        "location2": [
            10
        ], 
        "sentence": "the screen is large and bright and has all the info i need where i need it ."
    }
}