{
    "4eb5f2954876bf5f8cf65bf5ee5d832b": {
        "(15, 2)": {
            "AM2L": [
                1864
            ], 
            "AM2F": [
                1792
            ], 
            "WBF": [
                275
            ], 
            "BM1F": [
                2866
            ], 
            "M1": [
                2225
            ], 
            "irrelevant_Adj": [
                0
            ], 
            "M2": [
                1623
            ], 
            "BM1L": [
                717
            ], 
            "WBO": [
                2694, 
                2882, 
                1810, 
                402, 
                2866, 
                434, 
                524, 
                2037, 
                2873
            ], 
            "WBL": [
                150
            ], 
            "irrelevant_Noun": [
                0
            ], 
            "M1_ADJ": [
                0
            ]
        }, 
        "location1": [
            15
        ], 
        "location2": [
            2
        ], 
        "sentence": "considering the price and specs , this might be the best buy out there for a large memory mp3 player ."
    }
}