{
    "4eb5f2954876bf5f8cf65bf5ee5d832b": {
        "location1": [
            15
        ], 
        "location2": [
            18
        ], 
        "(15, 18)": {
            "WBF": [
                1792
            ], 
            "BM1F": [
                150
            ], 
            "M1": [
                1623
            ], 
            "irrelevant_Adj": [
                0
            ], 
            "M2": [
                2160
            ], 
            "BM1L": [
                1232
            ], 
            "WBO": [
                1864
            ], 
            "WBL": [
                1864
            ], 
            "irrelevant_Noun": [
                0
            ], 
            "M1_ADJ": [
                1
            ]
        }, 
        "sentence": "considering the price and specs , this might be the best buy out there for a large memory mp3 player ."
    }, 
    "dd00a38d580f6f271c19d5bf9766fffb": {
        "location1": [
            16
        ], 
        "location2": [
            2
        ], 
        "(16, 2)": {
            "AM2L": [
                2637
            ], 
            "AM2F": [
                2019
            ], 
            "WBF": [
                3046
            ], 
            "BM1F": [
                2866
            ], 
            "M1": [
                2160
            ], 
            "irrelevant_Adj": [
                0
            ], 
            "M2": [
                1623
            ], 
            "BM1L": [
                46
            ], 
            "WBO": [
                1544, 
                2982, 
                1562, 
                1554, 
                2909, 
                3041, 
                275, 
                247, 
                1005, 
                1887
            ], 
            "WBL": [
                150
            ], 
            "irrelevant_Noun": [
                0
            ], 
            "M1_ADJ": [
                0
            ]
        }, 
        "sentence": "2 ) the player user interface ( ui ) is intuitive to use , and allows easy navigation of a large or small collection ."
    }
}