{
    "3bf21a4b29d090cbd158c4195701fcd2": {
        "(21, 2)": {
            "AM2L": [
                325
            ], 
            "AM2F": [
                1384
            ], 
            "WBF": [
                148
            ], 
            "BM1F": [
                1333
            ], 
            "M1": [
                2676
            ], 
            "irrelevant_Adj": [
                0
            ], 
            "M2": [
                1623
            ], 
            "BM1L": [
                8
            ], 
            "WBO": [
                2599, 
                2310, 
                404, 
                1558, 
                4, 
                3025, 
                2310, 
                275, 
                1320, 
                2203, 
                2042, 
                244, 
                2866, 
                3236, 
                3220
            ], 
            "WBL": [
                963
            ], 
            "irrelevant_Noun": [
                0
            ], 
            "M1_ADJ": [
                0
            ]
        }, 
        "location1": [
            21
        ], 
        "location2": [
            2
        ], 
        "sentence": "1 ) great sound ( > 98db signal-to-noise ratio beat ipod 's `` unspecified `` ratio ) and good power output allow the zen xtra to drive large head-phones as well as external speaker ."
    }
}