{
    "e781c09e3c443732c8f53703efb0b736": {
        "(8, 13)": {
            "AM2F": [
                2296
            ], 
            "WBF": [
                1386
            ], 
            "BM1F": [
                2909
            ], 
            "M1": [
                1625
            ], 
            "irrelevant_Adj": [
                0
            ], 
            "M2": [
                553
            ], 
            "BM1L": [
                710
            ], 
            "WBO": [
                2019
            ], 
            "WBL": [
                2335
            ], 
            "irrelevant_Noun": [
                0
            ], 
            "M1_ADJ": [
                1
            ]
        }, 
        "location1": [
            8
        ], 
        "location2": [
            13
        ], 
        "sentence": "* does not provide enough volume when connected to larger headphone , or external receiver ( car radio ) ."
    }
}