{
    "dd00a38d580f6f271c19d5bf9766fffb": {
        "location1": [
            16
        ], 
        "location2": [
            13
        ], 
        "(16, 13)": {
            "AM2L": [
                2637
            ], 
            "AM2F": [
                2019
            ], 
            "WBF": [
                1971
            ], 
            "BM1F": [
                1005
            ], 
            "M1": [
                1887
            ], 
            "irrelevant_Adj": [
                0
            ], 
            "M2": [
                1623
            ], 
            "BM1L": [
                247
            ], 
            "WBO": [
                150
            ], 
            "WBL": [
                150
            ], 
            "irrelevant_Noun": [
                0
            ], 
            "M1_ADJ": [
                0
            ]
        }, 
        "sentence": "2 ) the player user interface ( ui ) is intuitive to use , and allows easy navigation of a large or small collection ."
    }
}