{
    "fcc6060d8953928ffecfa28e3e7a7871": {
        "(3, 11)": {
            "AM2L": [
                1562
            ], 
            "AM2F": [
                3010
            ], 
            "WBF": [
                841
            ], 
            "BM1F": [
                1562
            ], 
            "M1": [
                1623
            ], 
            "irrelevant_Adj": [
                0
            ], 
            "M2": [
                2602
            ], 
            "BM1L": [
                2501
            ], 
            "WBO": [
                275, 
                1005, 
                2909, 
                2317
            ], 
            "WBL": [
                2866
            ], 
            "irrelevant_Noun": [
                0
            ], 
            "M1_ADJ": [
                1
            ]
        }, 
        "location1": [
            3
        ], 
        "location2": [
            11
        ], 
        "sentence": "the screen is large , defined , and easy to read , and the silver unit is naturally cool ."
    }
}