{
    "8eb5d2fca4a827e8e326a4df00c9b809": {
        "(21, 11)": {
            "AM2L": [
                2136
            ], 
            "AM2F": [
                2906
            ], 
            "WBF": [
                1971
            ], 
            "BM1F": [
                1056
            ], 
            "M1": [
                654
            ], 
            "irrelevant_Adj": [
                1
            ], 
            "M2": [
                1690
            ], 
            "BM1L": [
                1878
            ], 
            "WBO": [
                574, 
                4, 
                3168, 
                242, 
                1201, 
                1987
            ], 
            "WBL": [
                1333
            ], 
            "irrelevant_Noun": [
                0
            ], 
            "M1_ADJ": [
                0
            ]
        }, 
        "location1": [
            21
        ], 
        "location2": [
            11
        ], 
        "sentence": "the memory will hold an amazing amount of song , my entire collection of cd 's will all fit on this great little tiny piece of digital fun ."
    }
}