{
    "a54036bc903c3a1cd6a4d867969199de": {
        "(6, 1)": {
            "AM2L": [
                441
            ], 
            "AM2F": [
                444
            ], 
            "WBF": [
                1562
            ], 
            "BM1F": [
                2866
            ], 
            "M1": [
                2617
            ], 
            "irrelevant_Adj": [
                1
            ], 
            "M2": [
                1690
            ], 
            "WBO": [
                2637
            ], 
            "WBL": [
                150
            ], 
            "irrelevant_Noun": [
                0
            ], 
            "M1_ADJ": [
                0
            ]
        }, 
        "location1": [
            6
        ], 
        "location2": [
            1
        ], 
        "sentence": "the size is small ( just a little bit bigger than an i-pod . )"
    }, 
    "f041070426ec31a080e77c74f9f5ee0c": {
        "(5, 2)": {
            "AM2L": [
                441
            ], 
            "AM2F": [
                444
            ], 
            "WBF": [
                1562
            ], 
            "BM1F": [
                2866
            ], 
            "M1": [
                2617
            ], 
            "irrelevant_Adj": [
                1
            ], 
            "M2": [
                1690
            ], 
            "BM1L": [
                8
            ], 
            "WBO": [
                150
            ], 
            "WBL": [
                150
            ], 
            "irrelevant_Noun": [
                0
            ], 
            "M1_ADJ": [
                0
            ]
        }, 
        "(15, 2)": {
            "AM2L": [
                1851
            ], 
            "AM2F": [
                444
            ], 
            "WBF": [
                1562
            ], 
            "BM1F": [
                2866
            ], 
            "M1": [
                2617
            ], 
            "irrelevant_Adj": [
                1
            ], 
            "M2": [
                1690
            ], 
            "BM1L": [
                8
            ], 
            "WBO": [
                150, 
                1690, 
                444, 
                441, 
                2862, 
                2866, 
                1558, 
                275, 
                1566
            ], 
            "WBL": [
                150
            ], 
            "irrelevant_Noun": [
                0
            ], 
            "M1_ADJ": [
                0
            ]
        }, 
        "location1": [
            5, 
            15
        ], 
        "location2": [
            2
        ], 
        "sentence": "1 . the size is a little bit bigger than the ipod , and it weighs a little bit more ."
    }
}