{
    "673dd22fb3775b937ed0c3edfc1eeeaa": {
        "(3, 4)": {
            "AM2L": [
                1726
            ], 
            "BM1F": [
                150
            ], 
            "M1": [
                1724
            ], 
            "irrelevant_Adj": [
                0
            ], 
            "M2": [
                2225
            ], 
            "BM1L": [
                3181
            ], 
            "WBNULL": [
                1
            ], 
            "irrelevant_Noun": [
                0
            ], 
            "AM2F": [
                664
            ], 
            "M1_ADJ": [
                1
            ]
        }, 
        "location1": [
            3
        ], 
        "location2": [
            4
        ], 
        "sentence": "but with a low price , comes lower quality ."
    }, 
    "5fd8c0085bdee242af47218a4dee27e1": {
        "location1": [
            14
        ], 
        "location2": [
            15
        ], 
        "(14, 15)": {
            "AM2L": [
                1449
            ], 
            "BM1F": [
                275
            ], 
            "M1": [
                1724
            ], 
            "irrelevant_Adj": [
                0
            ], 
            "M2": [
                2225
            ], 
            "BM1L": [
                2281
            ], 
            "WBNULL": [
                1
            ], 
            "irrelevant_Noun": [
                0
            ], 
            "AM2F": [
                258
            ], 
            "M1_ADJ": [
                1
            ]
        }, 
        "sentence": "i am willing to overlook it 's problem to get superior sound quality and low price , although i feel the player has a lot of room for improvement ."
    }
}