{
    "b9bfe35c56e22b2e41d54ff0d9f5e938": {
        "(10, 24)": {
            "AM2L": [
                1566
            ], 
            "AM2F": [
                1562
            ], 
            "WBF": [
                1659
            ], 
            "BM1F": [
                2866
            ], 
            "M1": [
                1728
            ], 
            "irrelevant_Adj": [
                0
            ], 
            "M2": [
                2082
            ], 
            "BM1L": [
                1075
            ], 
            "WBO": [
                1558, 
                1449, 
                3117, 
                153, 
                2909, 
                1297, 
                2882, 
                103, 
                1847, 
                275
            ], 
            "WBL": [
                434
            ], 
            "irrelevant_Noun": [
                0
            ], 
            "M1_ADJ": [
                1
            ]
        }, 
        "location1": [
            10
        ], 
        "location2": [
            24
        ], 
        "sentence": "for a price that 's still less than even the lowest level ipod i was able to get this 40gb monster , and the best part is it work as great as it was advertised to and then some ."
    }
}