{
    "b9bfe35c56e22b2e41d54ff0d9f5e938": {
        "location1": [
            10
        ], 
        "location2": [
            20
        ], 
        "(10, 20)": {
            "AM2L": [
                2866
            ], 
            "AM2F": [
                275
            ], 
            "WBF": [
                1659
            ], 
            "BM1F": [
                2866
            ], 
            "M1": [
                1728
            ], 
            "irrelevant_Adj": [
                0
            ], 
            "M2": [
                1847
            ], 
            "BM1L": [
                1075
            ], 
            "WBO": [
                1558, 
                1449, 
                3117, 
                153, 
                2909, 
                1297
            ], 
            "WBL": [
                103
            ], 
            "irrelevant_Noun": [
                1
            ], 
            "M1_ADJ": [
                1
            ]
        }, 
        "sentence": "for a price that 's still less than even the lowest level ipod i was able to get this 40gb monster , and the best part is it work as great as it was advertised to and then some ."
    }
}