{
    "9f6a7f7178e78442ace2e798b1feb157": {
        "(9, 7)": {
            "AM2L": [
                1449
            ], 
            "WBFL": [
                275
            ], 
            "BM1F": [
                400
            ], 
            "M1": [
                1664
            ], 
            "irrelevant_Adj": [
                0
            ], 
            "M2": [
                1726
            ], 
            "BM1L": [
                1708
            ], 
            "AM2F": [
                2225
            ], 
            "irrelevant_Noun": [
                0
            ], 
            "M1_ADJ": [
                0
            ]
        }, 
        "location1": [
            9
        ], 
        "location2": [
            7
        ], 
        "sentence": "my two main requirement were longer battery life and lower price : i found both ."
    }
}