{
    "673dd22fb3775b937ed0c3edfc1eeeaa": {
        "(6, 4)": {
            "WBFL": [
                664
            ], 
            "BM1F": [
                1724
            ], 
            "M1": [
                2225
            ], 
            "irrelevant_Adj": [
                0
            ], 
            "M2": [
                1726
            ], 
            "BM1L": [
                150
            ], 
            "AM2F": [
                2281
            ], 
            "irrelevant_Noun": [
                0
            ], 
            "M1_ADJ": [
                0
            ]
        }, 
        "location1": [
            6
        ], 
        "location2": [
            4
        ], 
        "sentence": "but with a low price , comes lower quality ."
    }, 
    "9f6a7f7178e78442ace2e798b1feb157": {
        "(9, 10)": {
            "AM2L": [
                1245
            ], 
            "BM1F": [
                275
            ], 
            "M1": [
                1726
            ], 
            "irrelevant_Adj": [
                0
            ], 
            "M2": [
                2225
            ], 
            "BM1L": [
                1664
            ], 
            "WBNULL": [
                1
            ], 
            "irrelevant_Noun": [
                0
            ], 
            "AM2F": [
                1449
            ], 
            "M1_ADJ": [
                1
            ]
        }, 
        "location1": [
            9
        ], 
        "location2": [
            10
        ], 
        "sentence": "my two main requirement were longer battery life and lower price : i found both ."
    }
}