{
    "c797f7ccd54badc9e0db79b7ce27861a": {
        "(27, 34)": {
            "WBF": [
                1133
            ], 
            "BM1F": [
                2975
            ], 
            "M1": [
                1742
            ], 
            "irrelevant_Adj": [
                1
            ], 
            "M2": [
                1922
            ], 
            "BM1L": [
                2866
            ], 
            "WBO": [
                1987, 
                3162, 
                1449
            ], 
            "WBL": [
                2866
            ], 
            "irrelevant_Noun": [
                0
            ], 
            "M1_ADJ": [
                1
            ]
        }, 
        "location1": [
            27
        ], 
        "location2": [
            34
        ], 
        "sentence": "price , along with the replaceable battery ( which i understand apple charge a small fortune to replace - as well as the hassle of returning it ) were the two main factor on why i picked the nomad ."
    }, 
    "27f13efb1c6d5d29bb29db0c4901feed": {
        "(1, 5)": {
            "AM2L": [
                3236
            ], 
            "AM2F": [
                1587
            ], 
            "WBF": [
                2236
            ], 
            "BM1F": [
                2866
            ], 
            "M1": [
                1742
            ], 
            "irrelevant_Adj": [
                1
            ], 
            "M2": [
                1922
            ], 
            "WBO": [
                3181
            ], 
            "WBL": [
                2866
            ], 
            "irrelevant_Noun": [
                0
            ], 
            "M1_ADJ": [
                1
            ]
        }, 
        "location1": [
            1
        ], 
        "location2": [
            5
        ], 
        "sentence": "the main problem with the nomad jukebox zen xtra 30 gb is the software ."
    }
}