{
    "a361394cdc6999e5a0fe06836b4e3951": {
        "(2, 3)": {
            "AM2L": [
                2653
            ], 
            "BM1F": [
                1878
            ], 
            "M1": [
                1742
            ], 
            "irrelevant_Adj": [
                1
            ], 
            "M2": [
                694
            ], 
            "BM1L": [
                1987
            ], 
            "WBNULL": [
                1
            ], 
            "irrelevant_Noun": [
                0
            ], 
            "AM2F": [
                2866
            ], 
            "M1_ADJ": [
                1
            ]
        }, 
        "location1": [
            2
        ], 
        "location2": [
            3
        ], 
        "sentence": "on my main computer the software did not work right ."
    }
}