{
    "c797f7ccd54badc9e0db79b7ce27861a": {
        "(27, 5)": {
            "AM2L": [
                1987
            ], 
            "AM2F": [
                1133
            ], 
            "WBF": [
                3152
            ], 
            "BM1F": [
                2402
            ], 
            "M1": [
                400
            ], 
            "irrelevant_Adj": [
                1
            ], 
            "M2": [
                1742
            ], 
            "BM1L": [
                2866
            ], 
            "WBO": [
                1449, 
                2999, 
                307, 
                595, 
                150, 
                2637, 
                1243, 
                2909, 
                2401, 
                325, 
                3138, 
                325, 
                2866, 
                1373, 
                1971, 
                2436, 
                1566, 
                3143
            ], 
            "WBL": [
                2975
            ], 
            "irrelevant_Noun": [
                0
            ], 
            "M1_ADJ": [
                0
            ]
        }, 
        "location1": [
            27
        ], 
        "location2": [
            5
        ], 
        "sentence": "price , along with the replaceable battery ( which i understand apple charge a small fortune to replace - as well as the hassle of returning it ) were the two main factor on why i picked the nomad ."
    }, 
    "9f6a7f7178e78442ace2e798b1feb157": {
        "location1": [
            2
        ], 
        "location2": [
            6
        ], 
        "(2, 6)": {
            "AM2L": [
                275
            ], 
            "AM2F": [
                1664
            ], 
            "WBF": [
                2413
            ], 
            "BM1F": [
                2975
            ], 
            "M1": [
                1742
            ], 
            "irrelevant_Adj": [
                1
            ], 
            "M2": [
                400
            ], 
            "BM1L": [
                1878
            ], 
            "WBO": [
                3143
            ], 
            "WBL": [
                1708
            ], 
            "irrelevant_Noun": [
                0
            ], 
            "M1_ADJ": [
                1
            ]
        }, 
        "sentence": "my two main requirement were longer battery life and lower price : i found both ."
    }
}