{
    "e94a730e46252bda318d9e3325bfd892": {
        "location1": [
            7
        ], 
        "location2": [
            2
        ], 
        "(7, 2)": {
            "AM2F": [
                2236
            ], 
            "WBF": [
                2522
            ], 
            "BM1F": [
                1386
            ], 
            "M1": [
                1573
            ], 
            "irrelevant_Adj": [
                0
            ], 
            "M2": [
                1743
            ], 
            "BM1L": [
                2866
            ], 
            "WBO": [
                2909
            ], 
            "WBL": [
                150
            ], 
            "irrelevant_Noun": [
                0
            ], 
            "M1_ADJ": [
                0
            ]
        }, 
        "sentence": "the headphone jack seems to be a major problem ."
    }
}