{
    "26afbb728550c0df1149e771bc94d54b": {
        "location1": [
            29
        ], 
        "location2": [
            38
        ], 
        "(29, 38)": {
            "AM2L": [
                2864
            ], 
            "AM2F": [
                1610
            ], 
            "WBF": [
                211
            ], 
            "BM1F": [
                150
            ], 
            "M1": [
                1743
            ], 
            "irrelevant_Adj": [
                0
            ], 
            "M2": [
                1082
            ], 
            "BM1L": [
                1774
            ], 
            "WBO": [
                2045, 
                2866, 
                1558, 
                433, 
                2866
            ], 
            "WBL": [
                522
            ], 
            "irrelevant_Noun": [
                0
            ], 
            "M1_ADJ": [
                1
            ]
        }, 
        "sentence": "the sound quality is excellent ( and i 'm fussy with that stuff ) , the unit look cool , screen is bright and easy to read , and the replaceable battery mean a major advantage over the ipod ( besides the price , but everyone know that ) ."
    }
}