{
    "3d4574448c311e0ea8e5b1e7ad6fcdda": {
        "(2, 3)": {
            "AM2L": [
                1348
            ], 
            "BM1F": [
                2866
            ], 
            "M1": [
                1743
            ], 
            "irrelevant_Adj": [
                0
            ], 
            "M2": [
                2236
            ], 
            "BM1L": [
                522
            ], 
            "WBNULL": [
                1
            ], 
            "irrelevant_Noun": [
                0
            ], 
            "AM2F": [
                1449
            ], 
            "M1_ADJ": [
                1
            ]
        }, 
        "location1": [
            2
        ], 
        "location2": [
            3
        ], 
        "sentence": "but the major problem i had was with the software ."
    }, 
    "e94a730e46252bda318d9e3325bfd892": {
        "(7, 8)": {
            "BM1F": [
                150
            ], 
            "M1": [
                1743
            ], 
            "irrelevant_Adj": [
                0
            ], 
            "M2": [
                2236
            ], 
            "BM1L": [
                402
            ], 
            "WBNULL": [
                1
            ], 
            "irrelevant_Noun": [
                0
            ], 
            "M1_ADJ": [
                1
            ]
        }, 
        "location1": [
            7
        ], 
        "location2": [
            8
        ], 
        "sentence": "the headphone jack seems to be a major problem ."
    }
}