{
    "b2d4e633a50cce494eea7a203213e6b5": {
        "location1": [
            11
        ], 
        "location2": [
            13
        ], 
        "(11, 13)": {
            "AM2L": [
                522
            ], 
            "WBFL": [
                888
            ], 
            "BM1F": [
                2416
            ], 
            "M1": [
                1758
            ], 
            "irrelevant_Adj": [
                1
            ], 
            "M2": [
                1864
            ], 
            "BM1L": [
                1449
            ], 
            "AM2F": [
                2160
            ], 
            "irrelevant_Noun": [
                0
            ], 
            "M1_ADJ": [
                1
            ]
        }, 
        "sentence": "before asking for the zen xtra specifically for christmas i researched many different mp3 player but finally decided on this one , and now that i have it i could n't be happier and i 'm convinced it 's the best one out there ."
    }, 
    "21ebed2a97f528417ad5da338ef26ef7": {
        "(47, 48)": {
            "AM2L": [
                150
            ], 
            "BM1F": [
                1389
            ], 
            "M1": [
                1758
            ], 
            "irrelevant_Adj": [
                1
            ], 
            "M2": [
                1864
            ], 
            "BM1L": [
                1572
            ], 
            "WBNULL": [
                1
            ], 
            "irrelevant_Noun": [
                0
            ], 
            "AM2F": [
                2160
            ], 
            "M1_ADJ": [
                1
            ]
        }, 
        "location1": [
            47
        ], 
        "location2": [
            48
        ], 
        "sentence": "now here the stuff you should know starting with the good thing : the screen is really big and the blue light in the back is perfect , fast as hell in music transfer , control are easy to use after mastering the scroll button , great sound and ive heard many mp3 player , a ton of different equilizer type deal on here ."
    }
}