{
    "21ebed2a97f528417ad5da338ef26ef7": {
        "location1": [
            47
        ], 
        "location2": [
            20
        ], 
        "(47, 20)": {
            "AM2L": [
                2160
            ], 
            "AM2F": [
                1864
            ], 
            "WBF": [
                1490
            ], 
            "BM1F": [
                457
            ], 
            "M1": [
                1665
            ], 
            "irrelevant_Adj": [
                1
            ], 
            "M2": [
                1758
            ], 
            "BM1L": [
                2866
            ], 
            "WBO": [
                2866, 
                373, 
                1562, 
                2104, 
                1156, 
                325, 
                1398, 
                1490, 
                1875, 
                2939, 
                735, 
                316, 
                1005, 
                2909, 
                3041, 
                221, 
                1764, 
                2866, 
                2506, 
                523, 
                1333, 
                2676, 
                275
            ], 
            "WBL": [
                1389
            ], 
            "irrelevant_Noun": [
                0
            ], 
            "M1_ADJ": [
                0
            ]
        }, 
        "sentence": "now here the stuff you should know starting with the good thing : the screen is really big and the blue light in the back is perfect , fast as hell in music transfer , control are easy to use after mastering the scroll button , great sound and ive heard many mp3 player , a ton of different equilizer type deal on here ."
    }
}