{
    "21ebed2a97f528417ad5da338ef26ef7": {
        "location1": [
            47
        ], 
        "location2": [
            54
        ], 
        "(47, 54)": {
            "AM2L": [
                824
            ], 
            "AM2F": [
                2977
            ], 
            "WBF": [
                1864
            ], 
            "BM1F": [
                1389
            ], 
            "M1": [
                1758
            ], 
            "irrelevant_Adj": [
                1
            ], 
            "M2": [
                1064
            ], 
            "BM1L": [
                1572
            ], 
            "WBO": [
                2160, 
                150, 
                2916
            ], 
            "WBL": [
                888
            ], 
            "irrelevant_Noun": [
                0
            ], 
            "M1_ADJ": [
                1
            ]
        }, 
        "sentence": "now here the stuff you should know starting with the good thing : the screen is really big and the blue light in the back is perfect , fast as hell in music transfer , control are easy to use after mastering the scroll button , great sound and ive heard many mp3 player , a ton of different equilizer type deal on here ."
    }
}