{
    "df460eaf582c2debf712f5605d908023": {
        "location1": [
            53
        ], 
        "location2": [
            40
        ], 
        "(53, 40)": {
            "AM2L": [
                1063
            ], 
            "AM2F": [
                3123
            ], 
            "WBF": [
                1261
            ], 
            "BM1F": [
                524
            ], 
            "M1": [
                2242
            ], 
            "irrelevant_Adj": [
                1
            ], 
            "M2": [
                1758
            ], 
            "BM1L": [
                2909
            ], 
            "WBO": [
                222, 
                1449, 
                1375, 
                2868, 
                346, 
                2676, 
                554, 
                275, 
                1185
            ], 
            "WBL": [
                1490
            ], 
            "irrelevant_Noun": [
                0
            ], 
            "M1_ADJ": [
                0
            ]
        }, 
        "sentence": "my gut tell me the nomad will in the long run be , at best , a 40gb portable hard drive , albeit one on which i can 't create folder , or , at worst , a very expensive lesson in company never to buy product from again ( i have their audigy sound card and find it in many way equally frustrating ) ."
    }, 
    "baf85a0b553ca7fd741513aae4904839": {
        "(10, 25)": {
            "AM2L": [
                837
            ], 
            "AM2F": [
                1562
            ], 
            "WBF": [
                2032
            ], 
            "BM1F": [
                1971
            ], 
            "M1": [
                1758
            ], 
            "irrelevant_Adj": [
                1
            ], 
            "M2": [
                2242
            ], 
            "BM1L": [
                2864
            ], 
            "WBO": [
                2100, 
                3158, 
                1375, 
                2199, 
                1401, 
                3158, 
                1375, 
                1348, 
                2866, 
                2479, 
                1106
            ], 
            "WBL": [
                2866
            ], 
            "irrelevant_Noun": [
                0
            ], 
            "M1_ADJ": [
                1
            ]
        }, 
        "location1": [
            10
        ], 
        "location2": [
            25
        ], 
        "sentence": "i 'm convinced by my own experience and that of many other people who have posted here who have had the same experience that the product is defectively designed , and will not hold up to normal use ."
    }
}