{
    "851613aef4dc3542de9dbdae5f08f0c4": {
        "location1": [
            36
        ], 
        "location2": [
            24, 
            43
        ], 
        "(36, 43)": {
            "AM2L": [
                2866
            ], 
            "AM2F": [
                1987
            ], 
            "WBF": [
                1971
            ], 
            "BM1F": [
                2666
            ], 
            "M1": [
                1758
            ], 
            "irrelevant_Adj": [
                1
            ], 
            "M2": [
                1228
            ], 
            "BM1L": [
                2866
            ], 
            "WBO": [
                1878, 
                2666, 
                3149
            ], 
            "WBL": [
                1551
            ], 
            "irrelevant_Noun": [
                0
            ], 
            "M1_ADJ": [
                1
            ]
        }, 
        "(36, 24)": {
            "AM2L": [
                1878
            ], 
            "AM2F": [
                1971
            ], 
            "WBF": [
                2760
            ], 
            "BM1F": [
                1917
            ], 
            "M1": [
                1228
            ], 
            "irrelevant_Adj": [
                1
            ], 
            "M2": [
                1758
            ], 
            "BM1L": [
                1176
            ], 
            "WBO": [
                275, 
                1566, 
                4, 
                393, 
                1987, 
                2866, 
                2908, 
                1971
            ], 
            "WBL": [
                2666
            ], 
            "irrelevant_Noun": [
                0
            ], 
            "M1_ADJ": [
                0
            ]
        }, 
        "sentence": "the con are n't really a big deal to me ... except one con that does annoy me is the way it store file ... no folder structure ... and it 's based on the title of the song ... many of my song where seperated into folder ( on the pc ) ... and a few had same title ... so i had to change the title to make sure that i did n't have any that might be the same as another ."
    }, 
    "df460eaf582c2debf712f5605d908023": {
        "(53, 27)": {
            "AM2L": [
                1063
            ], 
            "AM2F": [
                3123
            ], 
            "WBF": [
                2019
            ], 
            "BM1F": [
                779
            ], 
            "M1": [
                1228
            ], 
            "irrelevant_Adj": [
                1
            ], 
            "M2": [
                1758
            ], 
            "BM1L": [
                5
            ], 
            "WBO": [
                337, 
                3200, 
                150, 
                3075, 
                1105, 
                1656, 
                1490, 
                675, 
                1902, 
                2909, 
                524, 
                2242, 
                1261, 
                222, 
                1449, 
                1375, 
                2868, 
                346, 
                2676, 
                554, 
                275, 
                1185
            ], 
            "WBL": [
                1490
            ], 
            "irrelevant_Noun": [
                0
            ], 
            "M1_ADJ": [
                0
            ]
        }, 
        "location1": [
            53
        ], 
        "location2": [
            27
        ], 
        "sentence": "my gut tell me the nomad will in the long run be , at best , a 40gb portable hard drive , albeit one on which i can 't create folder , or , at worst , a very expensive lesson in company never to buy product from again ( i have their audigy sound card and find it in many way equally frustrating ) ."
    }
}