{
    "3e406d6f8231c62cced3fc27d645b1b8": {
        "(5, 7)": {
            "AM2L": [
                1773
            ], 
            "WBFL": [
                1864
            ], 
            "BM1F": [
                150
            ], 
            "M1": [
                1781
            ], 
            "irrelevant_Adj": [
                0
            ], 
            "M2": [
                2160
            ], 
            "BM1L": [
                2882
            ], 
            "AM2F": [
                1232
            ], 
            "irrelevant_Noun": [
                0
            ], 
            "M1_ADJ": [
                1
            ]
        }, 
        "location1": [
            5
        ], 
        "location2": [
            7
        ], 
        "sentence": "what really made this a mediocre mp3 player for me was the software ."
    }
}