{
    "a0fdee29f22fcfa33ef66cdb8b74405c": {
        "location1": [
            11
        ], 
        "location2": [
            25
        ], 
        "(11, 25)": {
            "AM2F": [
                192
            ], 
            "WBF": [
                2862
            ], 
            "BM1F": [
                1917
            ], 
            "M1": [
                1851
            ], 
            "irrelevant_Adj": [
                1
            ], 
            "M2": [
                159
            ], 
            "BM1L": [
                2836
            ], 
            "WBO": [
                46, 
                2019, 
                74, 
                1442, 
                337, 
                1854, 
                2909, 
                1269, 
                2342, 
                3076
            ], 
            "WBL": [
                1496
            ], 
            "irrelevant_Noun": [
                0
            ], 
            "M1_ADJ": [
                1
            ]
        }, 
        "sentence": "the battery stay charged for a long time , and takes no more than 2 or 3 hour at most to fully recharge via the included ac adapter ."
    }
}