{
    "b9c3cfb01eca2d647b08e3a4c809cc68": {
        "(7, 16)": {
            "AM2L": [
                2218
            ], 
            "AM2F": [
                1232
            ], 
            "WBF": [
                1971
            ], 
            "BM1F": [
                3191
            ], 
            "M1": [
                1854
            ], 
            "irrelevant_Adj": [
                1
            ], 
            "M2": [
                797
            ], 
            "BM1L": [
                1566
            ], 
            "WBO": [
                2866, 
                2901, 
                522, 
                2873, 
                1562
            ], 
            "WBL": [
                1640
            ], 
            "irrelevant_Noun": [
                0
            ], 
            "M1_ADJ": [
                1
            ]
        }, 
        "location1": [
            7
        ], 
        "location2": [
            16
        ], 
        "sentence": "the scroll wheel is finicky ; it work most of the time but there is a learning curve for pressing it just right ; new user say they have 50 % - 75 % success rate ; some find it so frustrating that they just return the device ."
    }
}