{
    "b9c3cfb01eca2d647b08e3a4c809cc68": {
        "location1": [
            7
        ], 
        "location2": [
            29
        ], 
        "(7, 29)": {
            "AM2L": [
                2659
            ], 
            "AM2F": [
                2306
            ], 
            "WBF": [
                1971
            ], 
            "BM1F": [
                3191
            ], 
            "M1": [
                1854
            ], 
            "irrelevant_Adj": [
                1
            ], 
            "M2": [
                2779
            ], 
            "BM1L": [
                1566
            ], 
            "WBO": [
                2866, 
                2901, 
                522, 
                2873, 
                1562, 
                150, 
                1640, 
                797, 
                1232, 
                2218, 
                1566, 
                1591, 
                2447, 
                1903, 
                3046, 
                2491, 
                2875, 
                1375
            ], 
            "WBL": [
                133
            ], 
            "irrelevant_Noun": [
                0
            ], 
            "M1_ADJ": [
                1
            ]
        }, 
        "sentence": "the scroll wheel is finicky ; it work most of the time but there is a learning curve for pressing it just right ; new user say they have 50 % - 75 % success rate ; some find it so frustrating that they just return the device ."
    }
}