{
    "074a0ef9795ec5883cc9095904d96eb4": {
        "(8, 5)": {
            "AM2L": [
                1712
            ], 
            "AM2F": [
                334
            ], 
            "WBF": [
                1935
            ], 
            "BM1F": [
                2831
            ], 
            "M1": [
                511
            ], 
            "irrelevant_Adj": [
                1
            ], 
            "M2": [
                1854
            ], 
            "BM1L": [
                150
            ], 
            "WBO": [
                2866
            ], 
            "WBL": [
                2866
            ], 
            "irrelevant_Noun": [
                0
            ], 
            "M1_ADJ": [
                0
            ]
        }, 
        "location1": [
            8
        ], 
        "location2": [
            5
        ], 
        "sentence": "first , the con ... a tad bulky ... not the most asthetic looking player ... and does n't support a folder stucture ."
    }
}