{
    "c08ea81dfd0032ff6d47afa0112ba4c1": {
        "(2, 8)": {
            "AM2L": [
                1875
            ], 
            "AM2F": [
                1232
            ], 
            "WBF": [
                2439
            ], 
            "BM1F": [
                867
            ], 
            "M1": [
                1854
            ], 
            "irrelevant_Adj": [
                1
            ], 
            "M2": [
                3236
            ], 
            "BM1L": [
                46
            ], 
            "WBO": [
                1308, 
                1614
            ], 
            "WBL": [
                2866
            ], 
            "irrelevant_Noun": [
                0
            ], 
            "M1_ADJ": [
                1
            ]
        }, 
        "location1": [
            2
        ], 
        "location2": [
            8
        ], 
        "sentence": "2 . despite most reviewer giving kudos to the zen for music quality , i experienced a flaw using eax ."
    }, 
    "f17720aeafd313670cd2350bf2e39041": {
        "location1": [
            5
        ], 
        "location2": [
            53
        ], 
        "(5, 53)": {
            "AM2L": [
                752
            ], 
            "AM2F": [
                3181
            ], 
            "WBF": [
                1864
            ], 
            "BM1F": [
                528
            ], 
            "M1": [
                1854
            ], 
            "irrelevant_Adj": [
                1
            ], 
            "M2": [
                3236
            ], 
            "BM1L": [
                3043
            ], 
            "WBO": [
                2160, 
                1669, 
                1876, 
                275, 
                3172, 
                522, 
                1935, 
                784, 
                3183, 
                1944, 
                3229, 
                1896, 
                2909, 
                1753, 
                2359, 
                3230, 
                2162, 
                1566, 
                936, 
                1881, 
                555, 
                3144, 
                2653, 
                3229, 
                3041, 
                2909, 
                2453, 
                2019, 
                566, 
                3230, 
                1875, 
                784, 
                2019, 
                286, 
                2032, 
                675, 
                242, 
                1878, 
                25, 
                1288, 
                1971, 
                1875, 
                3143, 
                2941
            ], 
            "WBL": [
                2866
            ], 
            "irrelevant_Noun": [
                0
            ], 
            "M1_ADJ": [
                1
            ]
        }, 
        "sentence": "m3u file are used by most mp3 player like musicmatch and winamp , but not creative - without notmad you need to manually recreate your playlist ) ; it does n't care what software you use to rip or catalog your music - creative or any other company - all my 12.5 gb of music were transferred to the zen with correct tag - hooray !"
    }
}