{
    "c35cec64272467bc85a2e0ad72807549": {
        "location1": [
            10
        ], 
        "location2": [
            18
        ], 
        "(10, 18)": {
            "AM2F": [
                2871
            ], 
            "WBF": [
                3174
            ], 
            "BM1F": [
                2609
            ], 
            "M1": [
                1854
            ], 
            "irrelevant_Adj": [
                1
            ], 
            "M2": [
                554
            ], 
            "BM1L": [
                686
            ], 
            "WBO": [
                3046, 
                931, 
                1881, 
                1293
            ], 
            "WBL": [
                1197
            ], 
            "irrelevant_Noun": [
                0
            ], 
            "M1_ADJ": [
                1
            ]
        }, 
        "sentence": "it does n't have firewire , not a real complaint since most window user do n't generally have firewire card themselves ."
    }
}