{
    "c8196ec4c983af49734af374c87665fd": {
        "(11, 31)": {
            "AM2L": [
                2866
            ], 
            "AM2F": [
                275
            ], 
            "WBF": [
                2160
            ], 
            "BM1F": [
                1932
            ], 
            "M1": [
                1864
            ], 
            "irrelevant_Adj": [
                1
            ], 
            "M2": [
                2072
            ], 
            "BM1L": [
                150
            ], 
            "WBO": [
                3147, 
                3229, 
                3041, 
                2866, 
                1386, 
                2875, 
                1305, 
                3229, 
                1490, 
                2866, 
                481, 
                522, 
                1555, 
                78, 
                939, 
                1490
            ], 
            "WBL": [
                1907
            ], 
            "irrelevant_Noun": [
                1
            ], 
            "M1_ADJ": [
                1
            ]
        }, 
        "location1": [
            11
        ], 
        "location2": [
            31
        ], 
        "sentence": "on the subject of headphone , this thing seems like a normal mp3 player when you use the headphone they give you in the box , but invest 30 dollar in a nice pair and the sound quality goes up through the roof !"
    }
}