{
    "381645b8c5e4a5a766692ae2bb576665": {
        "location1": [
            6
        ], 
        "location2": [
            5
        ], 
        "(6, 5)": {
            "AM2L": [
                275
            ], 
            "BM1F": [
                784
            ], 
            "M1": [
                1615
            ], 
            "irrelevant_Adj": [
                1
            ], 
            "M2": [
                1864
            ], 
            "BM1L": [
                2516
            ], 
            "WBNULL": [
                1
            ], 
            "irrelevant_Noun": [
                0
            ], 
            "AM2F": [
                2160
            ], 
            "M1_ADJ": [
                0
            ]
        }, 
        "sentence": "this is my second creative lab mp3 player , and it is definitely a fine product ."
    }
}