{
    "4eb5f2954876bf5f8cf65bf5ee5d832b": {
        "location1": [
            17
        ], 
        "location2": [
            16
        ], 
        "(17, 16)": {
            "BM1F": [
                1623
            ], 
            "M1": [
                1792
            ], 
            "irrelevant_Adj": [
                1
            ], 
            "M2": [
                1864
            ], 
            "BM1L": [
                150
            ], 
            "WBNULL": [
                1
            ], 
            "irrelevant_Noun": [
                0
            ], 
            "AM2F": [
                2160
            ], 
            "M1_ADJ": [
                0
            ]
        }, 
        "sentence": "considering the price and specs , this might be the best buy out there for a large memory mp3 player ."
    }, 
    "d1f779c0a4484ba66d43fb877ca475d8": {
        "(2, 8)": {
            "AM2L": [
                1870
            ], 
            "AM2F": [
                1232
            ], 
            "WBF": [
                2160
            ], 
            "BM1F": [
                2882
            ], 
            "M1": [
                1864
            ], 
            "irrelevant_Adj": [
                1
            ], 
            "M2": [
                1792
            ], 
            "BM1L": [
                3181
            ], 
            "WBO": [
                3229, 
                1297
            ], 
            "WBL": [
                1851
            ], 
            "irrelevant_Noun": [
                0
            ], 
            "M1_ADJ": [
                1
            ]
        }, 
        "location1": [
            2
        ], 
        "location2": [
            8
        ], 
        "sentence": "with this mp3 player you get much more memory for much less than an ipod ."
    }
}