{
    "68a9b8ffda36ad44922fd9094de3d7c5": {
        "(38, 18)": {
            "AM2F": [
                2160
            ], 
            "WBF": [
                2653
            ], 
            "BM1F": [
                2999
            ], 
            "M1": [
                1163
            ], 
            "irrelevant_Adj": [
                1
            ], 
            "M2": [
                1864
            ], 
            "BM1L": [
                275
            ], 
            "WBO": [
                2864, 
                1562, 
                2605, 
                2909, 
                2999, 
                275, 
                3041, 
                275, 
                150, 
                1333, 
                2676, 
                3152, 
                1562, 
                242, 
                2864, 
                1767
            ], 
            "WBL": [
                150
            ], 
            "irrelevant_Noun": [
                0
            ], 
            "M1_ADJ": [
                0
            ]
        }, 
        "location1": [
            38
        ], 
        "location2": [
            18
        ], 
        "sentence": "all in all this a great player that blow the i-pod away , with easy to use and understand feature , software that is simple to understand and use , and a great sound ( which is all that matter in a mp3 player ) ."
    }
}