{
    "9182663809b6095073a7d5f7266c9609": {
        "(11, 16)": {
            "AM2L": [
                756
            ], 
            "AM2F": [
                1566
            ], 
            "WBF": [
                2160
            ], 
            "BM1F": [
                2882
            ], 
            "M1": [
                1864
            ], 
            "irrelevant_Adj": [
                1
            ], 
            "M2": [
                1844
            ], 
            "BM1L": [
                2653
            ], 
            "WBO": [
                1562
            ], 
            "WBL": [
                2866
            ], 
            "irrelevant_Noun": [
                0
            ], 
            "M1_ADJ": [
                1
            ]
        }, 
        "location1": [
            11
        ], 
        "location2": [
            16
        ], 
        "sentence": "so once i worked out the problem with the software this mp3 player is worth the money it cost ."
    }
}