{
    "9182663809b6095073a7d5f7266c9609": {
        "(11, 6)": {
            "AM2L": [
                1562
            ], 
            "AM2F": [
                2160
            ], 
            "WBF": [
                3181
            ], 
            "BM1F": [
                2866
            ], 
            "M1": [
                2236
            ], 
            "irrelevant_Adj": [
                1
            ], 
            "M2": [
                1864
            ], 
            "BM1L": [
                2037
            ], 
            "WBO": [
                2866
            ], 
            "WBL": [
                2882
            ], 
            "irrelevant_Noun": [
                0
            ], 
            "M1_ADJ": [
                0
            ]
        }, 
        "location1": [
            11
        ], 
        "location2": [
            6
        ], 
        "sentence": "so once i worked out the problem with the software this mp3 player is worth the money it cost ."
    }, 
    "f36365781e2d87d761d5f6c5b23a90ab": {
        "(6, 10)": {
            "AM2L": [
                2866
            ], 
            "AM2F": [
                1490
            ], 
            "WBF": [
                2160
            ], 
            "BM1F": [
                784
            ], 
            "M1": [
                1864
            ], 
            "irrelevant_Adj": [
                1
            ], 
            "M2": [
                2236
            ], 
            "BM1L": [
                1878
            ], 
            "WBO": [
                1348
            ], 
            "WBL": [
                2653
            ], 
            "irrelevant_Noun": [
                0
            ], 
            "M1_ADJ": [
                1
            ]
        }, 
        "location1": [
            6
        ], 
        "location2": [
            10
        ], 
        "sentence": "in fact , each of my creative mp3 player had software problem in the first place ."
    }
}