{
    "f17720aeafd313670cd2350bf2e39041": {
        "location1": [
            6
        ], 
        "location2": [
            23
        ], 
        "(6, 23)": {
            "AM2L": [
                936
            ], 
            "AM2F": [
                1566
            ], 
            "WBF": [
                2160
            ], 
            "BM1F": [
                1854
            ], 
            "M1": [
                1864
            ], 
            "irrelevant_Adj": [
                1
            ], 
            "M2": [
                2162
            ], 
            "BM1L": [
                528
            ], 
            "WBO": [
                1669, 
                1876, 
                275, 
                3172, 
                522, 
                1935, 
                784, 
                3183, 
                1944, 
                3229, 
                1896, 
                2909, 
                1753
            ], 
            "WBL": [
                3230
            ], 
            "irrelevant_Noun": [
                0
            ], 
            "M1_ADJ": [
                1
            ]
        }, 
        "sentence": "m3u file are used by most mp3 player like musicmatch and winamp , but not creative - without notmad you need to manually recreate your playlist ) ; it does n't care what software you use to rip or catalog your music - creative or any other company - all my 12.5 gb of music were transferred to the zen with correct tag - hooray !"
    }
}