{
    "d3ce1590bf181d8757fe6b288af73a66": {
        "(6, 7)": {
            "BM1F": [
                2882
            ], 
            "M1": [
                1864
            ], 
            "irrelevant_Adj": [
                1
            ], 
            "M2": [
                2160
            ], 
            "BM1L": [
                3181
            ], 
            "WBNULL": [
                1
            ], 
            "irrelevant_Noun": [
                0
            ], 
            "M1_ADJ": [
                1
            ]
        }, 
        "location1": [
            6
        ], 
        "location2": [
            7
        ], 
        "sentence": "i have no complaint with this mp3 player ."
    }, 
    "68a9b8ffda36ad44922fd9094de3d7c5": {
        "location1": [
            38
        ], 
        "location2": [
            6, 
            39
        ], 
        "(38, 6)": {
            "AM2F": [
                2160
            ], 
            "WBF": [
                2864
            ], 
            "BM1F": [
                1333
            ], 
            "M1": [
                2160
            ], 
            "irrelevant_Adj": [
                1
            ], 
            "M2": [
                1864
            ], 
            "BM1L": [
                150
            ], 
            "WBO": [
                454, 
                2866, 
                1451, 
                364, 
                3181, 
                1005, 
                2909, 
                3041, 
                275, 
                2999, 
                1163, 
                2653, 
                2864, 
                1562, 
                2605, 
                2909, 
                2999, 
                275, 
                3041, 
                275, 
                150, 
                1333, 
                2676, 
                3152, 
                1562, 
                242, 
                2864, 
                1767
            ], 
            "WBL": [
                150
            ], 
            "irrelevant_Noun": [
                0
            ], 
            "M1_ADJ": [
                0
            ]
        }, 
        "(38, 39)": {
            "BM1F": [
                150
            ], 
            "M1": [
                1864
            ], 
            "irrelevant_Adj": [
                1
            ], 
            "M2": [
                2160
            ], 
            "BM1L": [
                1490
            ], 
            "WBNULL": [
                1
            ], 
            "irrelevant_Noun": [
                0
            ], 
            "M1_ADJ": [
                1
            ]
        }, 
        "sentence": "all in all this a great player that blow the i-pod away , with easy to use and understand feature , software that is simple to understand and use , and a great sound ( which is all that matter in a mp3 player ) ."
    }, 
    "937380945b7a721b7403148d0d455e73": {
        "(9, 10)": {
            "AM2L": [
                2866
            ], 
            "BM1F": [
                1320
            ], 
            "M1": [
                1864
            ], 
            "irrelevant_Adj": [
                1
            ], 
            "M2": [
                2160
            ], 
            "BM1L": [
                3075
            ], 
            "WBNULL": [
                1
            ], 
            "irrelevant_Noun": [
                0
            ], 
            "AM2F": [
                522
            ], 
            "M1_ADJ": [
                1
            ]
        }, 
        "location1": [
            9
        ], 
        "location2": [
            10
        ], 
        "sentence": "the nomad jukebox zen xtra is a very good mp3 player but the software is it gets hurt ."
    }, 
    "eec2ea24e9d430dfa7c739b7564618f7": {
        "location1": [
            10
        ], 
        "location2": [
            11
        ], 
        "(10, 11)": {
            "AM2L": [
                2866
            ], 
            "BM1F": [
                1333
            ], 
            "M1": [
                1864
            ], 
            "irrelevant_Adj": [
                1
            ], 
            "M2": [
                2160
            ], 
            "BM1L": [
                150
            ], 
            "WBNULL": [
                1
            ], 
            "irrelevant_Noun": [
                0
            ], 
            "AM2F": [
                1297
            ], 
            "M1_ADJ": [
                1
            ]
        }, 
        "sentence": "but if you want a great deal and a great mp3 player , get the nomad ."
    }, 
    "eb5f7f84fb72e7589f2fbebf5436ab11": {
        "(4, 5)": {
            "AM2L": [
                2876
            ], 
            "BM1F": [
                2032
            ], 
            "M1": [
                1864
            ], 
            "irrelevant_Adj": [
                1
            ], 
            "M2": [
                2160
            ], 
            "BM1L": [
                74
            ], 
            "WBNULL": [
                1
            ], 
            "irrelevant_Noun": [
                0
            ], 
            "AM2F": [
                2882
            ], 
            "M1_ADJ": [
                1
            ]
        }, 
        "location1": [
            4
        ], 
        "location2": [
            5
        ], 
        "sentence": "unlike my 3 other mp3 player , this thing will only work properly if you have id3 tag on all of your track ."
    }, 
    "aa3b4b93145f716321721fa859b6e463": {
        "(4, 19)": {
            "AM2L": [
                1566
            ], 
            "AM2F": [
                2650
            ], 
            "WBF": [
                1562
            ], 
            "BM1F": [
                2909
            ], 
            "M1": [
                1864
            ], 
            "irrelevant_Adj": [
                1
            ], 
            "M2": [
                2160
            ], 
            "BM1L": [
                2456
            ], 
            "WBO": [
                2650, 
                1005, 
                275, 
                3229, 
                543, 
                1075, 
                2453, 
                2866, 
                574, 
                900, 
                2909
            ], 
            "WBL": [
                1864
            ], 
            "irrelevant_Noun": [
                0
            ], 
            "M1_ADJ": [
                1
            ]
        }, 
        "location1": [
            4, 
            18
        ], 
        "location2": [
            19
        ], 
        "(18, 19)": {
            "AM2L": [
                1566
            ], 
            "BM1F": [
                2866
            ], 
            "M1": [
                1864
            ], 
            "irrelevant_Adj": [
                1
            ], 
            "M2": [
                2160
            ], 
            "BM1L": [
                2909
            ], 
            "WBNULL": [
                1
            ], 
            "irrelevant_Noun": [
                0
            ], 
            "AM2F": [
                2650
            ], 
            "M1_ADJ": [
                1
            ]
        }, 
        "sentence": "the cd ripping to mp3 is so easy , and you can even rip the cd directly to the mp3 player , so it wo n't take up space on your pc hard drive ."
    }, 
    "bdc192fe7f1f8ae65e2026ddd253541b": {
        "(8, 9)": {
            "AM2L": [
                3075
            ], 
            "BM1F": [
                784
            ], 
            "M1": [
                1864
            ], 
            "irrelevant_Adj": [
                1
            ], 
            "M2": [
                2160
            ], 
            "BM1L": [
                2034
            ], 
            "WBNULL": [
                1
            ], 
            "irrelevant_Noun": [
                0
            ], 
            "AM2F": [
                316
            ], 
            "M1_ADJ": [
                1
            ]
        }, 
        "(8, 21)": {
            "AM2L": [
                2866
            ], 
            "AM2F": [
                1987
            ], 
            "WBF": [
                2160
            ], 
            "BM1F": [
                784
            ], 
            "M1": [
                1864
            ], 
            "irrelevant_Adj": [
                1
            ], 
            "M2": [
                2160
            ], 
            "BM1L": [
                2034
            ], 
            "WBO": [
                316, 
                3075, 
                1320, 
                275, 
                1375, 
                2866, 
                434, 
                2676, 
                2281
            ], 
            "WBL": [
                286
            ], 
            "irrelevant_Noun": [
                0
            ], 
            "M1_ADJ": [
                1
            ]
        }, 
        "location1": [
            8
        ], 
        "location2": [
            9, 
            21
        ], 
        "sentence": "it 's really a shame , because otherwise , creative mp3 player are very good , and have the best sound quality of any player on the market ."
    }, 
    "f685a3a0947843463825e1bb031ce248": {
        "(5, 6)": {
            "AM2L": [
                3058
            ], 
            "BM1F": [
                1381
            ], 
            "M1": [
                1864
            ], 
            "irrelevant_Adj": [
                1
            ], 
            "M2": [
                2160
            ], 
            "BM1L": [
                1637
            ], 
            "WBNULL": [
                1
            ], 
            "irrelevant_Noun": [
                0
            ], 
            "AM2F": [
                2866
            ], 
            "M1_ADJ": [
                1
            ]
        }, 
        "location1": [
            5
        ], 
        "location2": [
            6
        ], 
        "sentence": "compared to other leading hdd mp3 player , the value per gb is the top ."
    }, 
    "5d8a1adbeeaf90d9f03da0b3810f9ee5": {
        "(8, 9)": {
            "AM2L": [
                1669
            ], 
            "BM1F": [
                2866
            ], 
            "M1": [
                1864
            ], 
            "irrelevant_Adj": [
                1
            ], 
            "M2": [
                2160
            ], 
            "BM1L": [
                275
            ], 
            "WBNULL": [
                1
            ], 
            "irrelevant_Noun": [
                0
            ], 
            "AM2F": [
                3191
            ], 
            "M1_ADJ": [
                1
            ]
        }, 
        "location1": [
            8
        ], 
        "location2": [
            9
        ], 
        "sentence": "the software could n't be better and the mp3 player work like a dream , i could n't give this anything but a 5 , i wish there was a 6 ."
    }, 
    "c8196ec4c983af49734af374c87665fd": {
        "(11, 12)": {
            "AM2L": [
                3229
            ], 
            "BM1F": [
                1932
            ], 
            "M1": [
                1864
            ], 
            "irrelevant_Adj": [
                1
            ], 
            "M2": [
                2160
            ], 
            "BM1L": [
                150
            ], 
            "WBNULL": [
                1
            ], 
            "irrelevant_Noun": [
                0
            ], 
            "AM2F": [
                3147
            ], 
            "M1_ADJ": [
                1
            ]
        }, 
        "location1": [
            11
        ], 
        "location2": [
            12
        ], 
        "sentence": "on the subject of headphone , this thing seems like a normal mp3 player when you use the headphone they give you in the box , but invest 30 dollar in a nice pair and the sound quality goes up through the roof !"
    }, 
    "21ebed2a97f528417ad5da338ef26ef7": {
        "location1": [
            48
        ], 
        "location2": [
            49
        ], 
        "(48, 49)": {
            "AM2L": [
                2916
            ], 
            "BM1F": [
                1758
            ], 
            "M1": [
                1864
            ], 
            "irrelevant_Adj": [
                1
            ], 
            "M2": [
                2160
            ], 
            "BM1L": [
                1389
            ], 
            "WBNULL": [
                1
            ], 
            "irrelevant_Noun": [
                0
            ], 
            "AM2F": [
                150
            ], 
            "M1_ADJ": [
                1
            ]
        }, 
        "sentence": "now here the stuff you should know starting with the good thing : the screen is really big and the blue light in the back is perfect , fast as hell in music transfer , control are easy to use after mastering the scroll button , great sound and ive heard many mp3 player , a ton of different equilizer type deal on here ."
    }, 
    "f17720aeafd313670cd2350bf2e39041": {
        "(6, 7)": {
            "AM2L": [
                1876
            ], 
            "BM1F": [
                1854
            ], 
            "M1": [
                1864
            ], 
            "irrelevant_Adj": [
                1
            ], 
            "M2": [
                2160
            ], 
            "BM1L": [
                528
            ], 
            "WBNULL": [
                1
            ], 
            "irrelevant_Noun": [
                0
            ], 
            "AM2F": [
                1669
            ], 
            "M1_ADJ": [
                1
            ]
        }, 
        "location1": [
            6
        ], 
        "location2": [
            7
        ], 
        "sentence": "m3u file are used by most mp3 player like musicmatch and winamp , but not creative - without notmad you need to manually recreate your playlist ) ; it does n't care what software you use to rip or catalog your music - creative or any other company - all my 12.5 gb of music were transferred to the zen with correct tag - hooray !"
    }, 
    "381645b8c5e4a5a766692ae2bb576665": {
        "(6, 7)": {
            "AM2L": [
                1566
            ], 
            "BM1F": [
                1615
            ], 
            "M1": [
                1864
            ], 
            "irrelevant_Adj": [
                1
            ], 
            "M2": [
                2160
            ], 
            "BM1L": [
                784
            ], 
            "WBNULL": [
                1
            ], 
            "irrelevant_Noun": [
                0
            ], 
            "AM2F": [
                275
            ], 
            "M1_ADJ": [
                1
            ]
        }, 
        "location1": [
            6
        ], 
        "location2": [
            7
        ], 
        "sentence": "this is my second creative lab mp3 player , and it is definitely a fine product ."
    }, 
    "4eb5f2954876bf5f8cf65bf5ee5d832b": {
        "(17, 18)": {
            "BM1F": [
                1792
            ], 
            "M1": [
                1864
            ], 
            "irrelevant_Adj": [
                1
            ], 
            "M2": [
                2160
            ], 
            "BM1L": [
                1623
            ], 
            "WBNULL": [
                1
            ], 
            "irrelevant_Noun": [
                0
            ], 
            "M1_ADJ": [
                1
            ]
        }, 
        "location1": [
            17
        ], 
        "location2": [
            18
        ], 
        "sentence": "considering the price and specs , this might be the best buy out there for a large memory mp3 player ."
    }, 
    "25e9ac3314edbb22f429a90632829517": {
        "(9, 10)": {
            "AM2L": [
                1152
            ], 
            "BM1F": [
                2866
            ], 
            "M1": [
                1864
            ], 
            "irrelevant_Adj": [
                1
            ], 
            "M2": [
                2160
            ], 
            "BM1L": [
                275
            ], 
            "WBNULL": [
                1
            ], 
            "irrelevant_Noun": [
                0
            ], 
            "AM2F": [
                1562
            ], 
            "M1_ADJ": [
                1
            ]
        }, 
        "location1": [
            9
        ], 
        "location2": [
            10
        ], 
        "sentence": "i have the software working fine now and the mp3 player is fantastic ."
    }, 
    "d1f779c0a4484ba66d43fb877ca475d8": {
        "(2, 3)": {
            "AM2L": [
                1297
            ], 
            "BM1F": [
                2882
            ], 
            "M1": [
                1864
            ], 
            "irrelevant_Adj": [
                1
            ], 
            "M2": [
                2160
            ], 
            "BM1L": [
                3181
            ], 
            "WBNULL": [
                1
            ], 
            "irrelevant_Noun": [
                0
            ], 
            "AM2F": [
                3229
            ], 
            "M1_ADJ": [
                1
            ]
        }, 
        "location1": [
            2
        ], 
        "location2": [
            3
        ], 
        "sentence": "with this mp3 player you get much more memory for much less than an ipod ."
    }, 
    "b2d4e633a50cce494eea7a203213e6b5": {
        "(13, 14)": {
            "AM2L": [
                1184
            ], 
            "BM1F": [
                888
            ], 
            "M1": [
                1864
            ], 
            "irrelevant_Adj": [
                1
            ], 
            "M2": [
                2160
            ], 
            "BM1L": [
                1758
            ], 
            "WBNULL": [
                1
            ], 
            "irrelevant_Noun": [
                0
            ], 
            "AM2F": [
                522
            ], 
            "M1_ADJ": [
                1
            ]
        }, 
        "location1": [
            13
        ], 
        "location2": [
            14
        ], 
        "sentence": "before asking for the zen xtra specifically for christmas i researched many different mp3 player but finally decided on this one , and now that i have it i could n't be happier and i 'm convinced it 's the best one out there ."
    }, 
    "d7971a11f5508d7b68fd3dc153dd2301": {
        "(16, 17)": {
            "AM2L": [
                2864
            ], 
            "BM1F": [
                2032
            ], 
            "M1": [
                1864
            ], 
            "irrelevant_Adj": [
                1
            ], 
            "M2": [
                2160
            ], 
            "BM1L": [
                286
            ], 
            "WBNULL": [
                1
            ], 
            "irrelevant_Noun": [
                0
            ], 
            "AM2F": [
                337
            ], 
            "M1_ADJ": [
                1
            ]
        }, 
        "location1": [
            16
        ], 
        "location2": [
            17
        ], 
        "sentence": "well surely this is a product that i recommend someone in getting rather than any other mp3 player ( at that size and the price ) ."
    }, 
    "3e406d6f8231c62cced3fc27d645b1b8": {
        "(6, 7)": {
            "AM2L": [
                1773
            ], 
            "BM1F": [
                1781
            ], 
            "M1": [
                1864
            ], 
            "irrelevant_Adj": [
                1
            ], 
            "M2": [
                2160
            ], 
            "BM1L": [
                150
            ], 
            "WBNULL": [
                1
            ], 
            "irrelevant_Noun": [
                0
            ], 
            "AM2F": [
                1232
            ], 
            "M1_ADJ": [
                1
            ]
        }, 
        "location1": [
            6
        ], 
        "location2": [
            7
        ], 
        "sentence": "what really made this a mediocre mp3 player for me was the software ."
    }, 
    "6907bb010dae76e44e07aab7d20e448a": {
        "location1": [
            24
        ], 
        "location2": [
            25
        ], 
        "(24, 25)": {
            "AM2L": [
                3111
            ], 
            "BM1F": [
                393
            ], 
            "M1": [
                1864
            ], 
            "irrelevant_Adj": [
                1
            ], 
            "M2": [
                2160
            ], 
            "BM1L": [
                1365
            ], 
            "WBNULL": [
                1
            ], 
            "irrelevant_Noun": [
                0
            ], 
            "AM2F": [
                275
            ], 
            "M1_ADJ": [
                1
            ]
        }, 
        "sentence": "so far i have no complaint and i recommend this to anyone who wants quality over appearance , also anyone who wants a harddrive based mp3 player and wants to pay next to nothing ."
    }, 
    "9d4a8bd6c0f5e3a37a676f91296665f3": {
        "(11, 12)": {
            "BM1F": [
                1903
            ], 
            "M1": [
                1864
            ], 
            "irrelevant_Adj": [
                1
            ], 
            "M2": [
                2160
            ], 
            "BM1L": [
                1878
            ], 
            "WBNULL": [
                1
            ], 
            "irrelevant_Noun": [
                0
            ], 
            "M1_ADJ": [
                1
            ]
        }, 
        "location1": [
            11
        ], 
        "location2": [
            12
        ], 
        "sentence": "all in all though i 'm very happy with my new mp3 player ."
    }, 
    "9182663809b6095073a7d5f7266c9609": {
        "(11, 12)": {
            "AM2L": [
                3201
            ], 
            "BM1F": [
                2882
            ], 
            "M1": [
                1864
            ], 
            "irrelevant_Adj": [
                1
            ], 
            "M2": [
                2160
            ], 
            "BM1L": [
                2653
            ], 
            "WBNULL": [
                1
            ], 
            "irrelevant_Noun": [
                0
            ], 
            "AM2F": [
                1562
            ], 
            "M1_ADJ": [
                1
            ]
        }, 
        "location1": [
            11
        ], 
        "location2": [
            12
        ], 
        "sentence": "so once i worked out the problem with the software this mp3 player is worth the money it cost ."
    }, 
    "f36365781e2d87d761d5f6c5b23a90ab": {
        "(6, 7)": {
            "AM2L": [
                2653
            ], 
            "BM1F": [
                784
            ], 
            "M1": [
                1864
            ], 
            "irrelevant_Adj": [
                1
            ], 
            "M2": [
                2160
            ], 
            "BM1L": [
                1878
            ], 
            "WBNULL": [
                1
            ], 
            "irrelevant_Noun": [
                0
            ], 
            "AM2F": [
                1348
            ], 
            "M1_ADJ": [
                1
            ]
        }, 
        "location1": [
            6
        ], 
        "location2": [
            7
        ], 
        "sentence": "in fact , each of my creative mp3 player had software problem in the first place ."
    }
}