{
    "d7971a11f5508d7b68fd3dc153dd2301": {
        "(16, 20)": {
            "AM2L": [
                2866
            ], 
            "AM2F": [
                275
            ], 
            "WBF": [
                2160
            ], 
            "BM1F": [
                2032
            ], 
            "M1": [
                1864
            ], 
            "irrelevant_Adj": [
                1
            ], 
            "M2": [
                2617
            ], 
            "BM1L": [
                286
            ], 
            "WBO": [
                337
            ], 
            "WBL": [
                2864
            ], 
            "irrelevant_Noun": [
                0
            ], 
            "M1_ADJ": [
                1
            ]
        }, 
        "location1": [
            16
        ], 
        "location2": [
            20
        ], 
        "sentence": "well surely this is a product that i recommend someone in getting rather than any other mp3 player ( at that size and the price ) ."
    }
}