{
    "b2d4e633a50cce494eea7a203213e6b5": {
        "location1": [
            13
        ], 
        "location2": [
            4
        ], 
        "(13, 4)": {
            "AM2L": [
                522
            ], 
            "AM2F": [
                2160
            ], 
            "WBF": [
                3220
            ], 
            "BM1F": [
                2866
            ], 
            "M1": [
                3236
            ], 
            "irrelevant_Adj": [
                1
            ], 
            "M2": [
                1864
            ], 
            "BM1L": [
                1232
            ], 
            "WBO": [
                2692, 
                1232, 
                619, 
                1449, 
                2416
            ], 
            "WBL": [
                888
            ], 
            "irrelevant_Noun": [
                0
            ], 
            "M1_ADJ": [
                0
            ]
        }, 
        "sentence": "before asking for the zen xtra specifically for christmas i researched many different mp3 player but finally decided on this one , and now that i have it i could n't be happier and i 'm convinced it 's the best one out there ."
    }, 
    "f17720aeafd313670cd2350bf2e39041": {
        "(6, 53)": {
            "AM2L": [
                752
            ], 
            "AM2F": [
                3181
            ], 
            "WBF": [
                2160
            ], 
            "BM1F": [
                1854
            ], 
            "M1": [
                1864
            ], 
            "irrelevant_Adj": [
                1
            ], 
            "M2": [
                3236
            ], 
            "BM1L": [
                528
            ], 
            "WBO": [
                1669, 
                1876, 
                275, 
                3172, 
                522, 
                1935, 
                784, 
                3183, 
                1944, 
                3229, 
                1896, 
                2909, 
                1753, 
                2359, 
                3230, 
                2162, 
                1566, 
                936, 
                1881, 
                555, 
                3144, 
                2653, 
                3229, 
                3041, 
                2909, 
                2453, 
                2019, 
                566, 
                3230, 
                1875, 
                784, 
                2019, 
                286, 
                2032, 
                675, 
                242, 
                1878, 
                25, 
                1288, 
                1971, 
                1875, 
                3143, 
                2941
            ], 
            "WBL": [
                2866
            ], 
            "irrelevant_Noun": [
                0
            ], 
            "M1_ADJ": [
                1
            ]
        }, 
        "location1": [
            6
        ], 
        "location2": [
            53
        ], 
        "sentence": "m3u file are used by most mp3 player like musicmatch and winamp , but not creative - without notmad you need to manually recreate your playlist ) ; it does n't care what software you use to rip or catalog your music - creative or any other company - all my 12.5 gb of music were transferred to the zen with correct tag - hooray !"
    }, 
    "937380945b7a721b7403148d0d455e73": {
        "(9, 3)": {
            "AM2L": [
                522
            ], 
            "AM2F": [
                2160
            ], 
            "WBF": [
                3220
            ], 
            "BM1F": [
                1587
            ], 
            "M1": [
                3236
            ], 
            "irrelevant_Adj": [
                1
            ], 
            "M2": [
                1864
            ], 
            "BM1L": [
                1922
            ], 
            "WBO": [
                1562, 
                150
            ], 
            "WBL": [
                1320
            ], 
            "irrelevant_Noun": [
                0
            ], 
            "M1_ADJ": [
                0
            ]
        }, 
        "location1": [
            9
        ], 
        "location2": [
            3
        ], 
        "sentence": "the nomad jukebox zen xtra is a very good mp3 player but the software is it gets hurt ."
    }, 
    "513d68e23304b9a241c2496abf036c5b": {
        "(13, 3)": {
            "AM2L": [
                2909
            ], 
            "AM2F": [
                1176
            ], 
            "WBF": [
                3220
            ], 
            "BM1F": [
                2866
            ], 
            "M1": [
                3236
            ], 
            "irrelevant_Adj": [
                1
            ], 
            "M2": [
                1864
            ], 
            "BM1L": [
                2824
            ], 
            "WBO": [
                3038, 
                1457, 
                2832, 
                2864, 
                316, 
                1029
            ], 
            "WBL": [
                2866
            ], 
            "irrelevant_Noun": [
                0
            ], 
            "M1_ADJ": [
                0
            ]
        }, 
        "location1": [
            13
        ], 
        "location2": [
            3
        ], 
        "sentence": "navigation system - the zen xtra us id3 tag that are embedded in the mp3 file to organize your song ."
    }
}