{
    "07c7902d501403f2cfb77c7bc163b9a5": {
        "(18, 9)": {
            "AM2L": [
                931
            ], 
            "AM2F": [
                1176
            ], 
            "WBF": [
                2864
            ], 
            "BM1F": [
                1457
            ], 
            "M1": [
                2832
            ], 
            "irrelevant_Adj": [
                1
            ], 
            "M2": [
                1864
            ], 
            "BM1L": [
                1896
            ], 
            "WBO": [
                2836, 
                150, 
                3153, 
                2909, 
                931
            ], 
            "WBL": [
                3230
            ], 
            "irrelevant_Noun": [
                0
            ], 
            "M1_ADJ": [
                0
            ]
        }, 
        "location1": [
            18
        ], 
        "location2": [
            9
        ], 
        "sentence": "my only complaint would be that you need id3 tag & that takes a while to do if your mp3 file do n't have them ."
    }, 
    "f17720aeafd313670cd2350bf2e39041": {
        "location1": [
            6
        ], 
        "location2": [
            56
        ], 
        "(6, 56)": {
            "AM2F": [
                1435
            ], 
            "WBF": [
                2160
            ], 
            "BM1F": [
                1854
            ], 
            "M1": [
                1864
            ], 
            "irrelevant_Adj": [
                1
            ], 
            "M2": [
                2832
            ], 
            "BM1L": [
                528
            ], 
            "WBO": [
                1669, 
                1876, 
                275, 
                3172, 
                522, 
                1935, 
                784, 
                3183, 
                1944, 
                3229, 
                1896, 
                2909, 
                1753, 
                2359, 
                3230, 
                2162, 
                1566, 
                936, 
                1881, 
                555, 
                3144, 
                2653, 
                3229, 
                3041, 
                2909, 
                2453, 
                2019, 
                566, 
                3230, 
                1875, 
                784, 
                2019, 
                286, 
                2032, 
                675, 
                242, 
                1878, 
                25, 
                1288, 
                1971, 
                1875, 
                3143, 
                2941, 
                2909, 
                2866, 
                3236
            ], 
            "WBL": [
                752
            ], 
            "irrelevant_Noun": [
                0
            ], 
            "M1_ADJ": [
                1
            ]
        }, 
        "sentence": "m3u file are used by most mp3 player like musicmatch and winamp , but not creative - without notmad you need to manually recreate your playlist ) ; it does n't care what software you use to rip or catalog your music - creative or any other company - all my 12.5 gb of music were transferred to the zen with correct tag - hooray !"
    }, 
    "eb5f7f84fb72e7589f2fbebf5436ab11": {
        "(4, 16)": {
            "AM2L": [
                242
            ], 
            "AM2F": [
                1987
            ], 
            "WBF": [
                2160
            ], 
            "BM1F": [
                2032
            ], 
            "M1": [
                1864
            ], 
            "irrelevant_Adj": [
                1
            ], 
            "M2": [
                2832
            ], 
            "BM1L": [
                74
            ], 
            "WBO": [
                2882, 
                2876, 
                3168, 
                1999, 
                3191, 
                2255, 
                1463, 
                3229
            ], 
            "WBL": [
                1457
            ], 
            "irrelevant_Noun": [
                0
            ], 
            "M1_ADJ": [
                1
            ]
        }, 
        "location1": [
            4
        ], 
        "location2": [
            16
        ], 
        "sentence": "unlike my 3 other mp3 player , this thing will only work properly if you have id3 tag on all of your track ."
    }, 
    "513d68e23304b9a241c2496abf036c5b": {
        "location1": [
            13
        ], 
        "location2": [
            7
        ], 
        "(13, 7)": {
            "AM2L": [
                2909
            ], 
            "AM2F": [
                1176
            ], 
            "WBF": [
                2864
            ], 
            "BM1F": [
                1457
            ], 
            "M1": [
                2832
            ], 
            "irrelevant_Adj": [
                1
            ], 
            "M2": [
                1864
            ], 
            "BM1L": [
                3038
            ], 
            "WBO": [
                316, 
                1029
            ], 
            "WBL": [
                2866
            ], 
            "irrelevant_Noun": [
                0
            ], 
            "M1_ADJ": [
                0
            ]
        }, 
        "sentence": "navigation system - the zen xtra us id3 tag that are embedded in the mp3 file to organize your song ."
    }
}