{
    "ca88fee0f48f7e3af6abbce6bb924179": {
        "(3, 5)": {
            "AM2L": [
                1065
            ], 
            "WBFL": [
                2793
            ], 
            "BM1F": [
                2882
            ], 
            "M1": [
                1870
            ], 
            "irrelevant_Adj": [
                0
            ], 
            "M2": [
                2136
            ], 
            "BM1L": [
                713
            ], 
            "AM2F": [
                1971
            ], 
            "irrelevant_Noun": [
                0
            ], 
            "M1_ADJ": [
                1
            ]
        }, 
        "location1": [
            3
        ], 
        "location2": [
            5
        ], 
        "sentence": "please consider this much superior piece of equipment before plopping down half a grand for an ipod ."
    }
}