{
    "d65b4f9868df8c7ec371d1551ba95d22": {
        "(13, 17)": {
            "AM2L": [
                203
            ], 
            "AM2F": [
                2909
            ], 
            "WBF": [
                1766
            ], 
            "BM1F": [
                2919
            ], 
            "M1": [
                1870
            ], 
            "irrelevant_Adj": [
                0
            ], 
            "M2": [
                3123
            ], 
            "BM1L": [
                1562
            ], 
            "WBO": [
                1490
            ], 
            "WBL": [
                2866
            ], 
            "irrelevant_Noun": [
                1
            ], 
            "M1_ADJ": [
                1
            ]
        }, 
        "location1": [
            13
        ], 
        "location2": [
            17
        ], 
        "sentence": "the cut-outs for the control is not thought out as there is too much material in the way to adequately access the control , especially the scroll wheel ."
    }
}