{
    "d0b9db1d064aee4b746b67671efad50e": {
        "location1": [
            7
        ], 
        "location2": [
            10
        ], 
        "(7, 10)": {
            "AM2L": [
                2783
            ], 
            "AM2F": [
                1994
            ], 
            "WBF": [
                1386
            ], 
            "BM1F": [
                524
            ], 
            "M1": [
                1903
            ], 
            "irrelevant_Adj": [
                1
            ], 
            "M2": [
                2738
            ], 
            "BM1L": [
                2909
            ], 
            "WBO": [
                2866
            ], 
            "WBL": [
                2866
            ], 
            "irrelevant_Noun": [
                0
            ], 
            "M1_ADJ": [
                1
            ]
        }, 
        "sentence": "you 're going to need to buy new headphone , the stock one suck"
    }
}