{
    "241e92f11d46769e40d74aa4b77795f6": {
        "location1": [
            1
        ], 
        "location2": [
            9
        ], 
        "(1, 9)": {
            "AM2L": [
                758
            ], 
            "AM2F": [
                3220
            ], 
            "WBF": [
                2027
            ], 
            "BM1F": [
                2866
            ], 
            "M1": [
                1903
            ], 
            "irrelevant_Adj": [
                1
            ], 
            "M2": [
                3236
            ], 
            "WBO": [
                2653, 
                2864, 
                2573, 
                3181
            ], 
            "WBL": [
                1922
            ], 
            "irrelevant_Noun": [
                0
            ], 
            "M1_ADJ": [
                1
            ]
        }, 
        "sentence": "the new organizer software that ship with the nomad zen xtra could n't be easier to use ."
    }
}