{
    "d0b9db1d064aee4b746b67671efad50e": {
        "(7, 4)": {
            "AM2L": [
                2866
            ], 
            "AM2F": [
                1386
            ], 
            "WBF": [
                2909
            ], 
            "BM1F": [
                2909
            ], 
            "M1": [
                1896
            ], 
            "irrelevant_Adj": [
                1
            ], 
            "M2": [
                1903
            ], 
            "BM1L": [
                1318
            ], 
            "WBO": [
                524
            ], 
            "WBL": [
                524
            ], 
            "irrelevant_Noun": [
                0
            ], 
            "M1_ADJ": [
                0
            ]
        }, 
        "location1": [
            7
        ], 
        "location2": [
            4
        ], 
        "sentence": "you 're going to need to buy new headphone , the stock one suck"
    }, 
    "f1ec074964c5a280f73dfd66022b0269": {
        "(11, 8)": {
            "AM2F": [
                2160
            ], 
            "WBF": [
                1971
            ], 
            "BM1F": [
                1490
            ], 
            "M1": [
                1896
            ], 
            "irrelevant_Adj": [
                1
            ], 
            "M2": [
                1903
            ], 
            "BM1L": [
                288
            ], 
            "WBO": [
                150
            ], 
            "WBL": [
                150
            ], 
            "irrelevant_Noun": [
                0
            ], 
            "M1_ADJ": [
                0
            ]
        }, 
        "location1": [
            11
        ], 
        "location2": [
            8
        ], 
        "sentence": "i really do recommend this to anyone in need of a new player ."
    }, 
    "00b26e308a4b8730247f6846646d008a": {
        "(21, 44)": {
            "AM2L": [
                286
            ], 
            "AM2F": [
                1232
            ], 
            "WBF": [
                1558
            ], 
            "BM1F": [
                2866
            ], 
            "M1": [
                1903
            ], 
            "irrelevant_Adj": [
                1
            ], 
            "M2": [
                1896
            ], 
            "BM1L": [
                325
            ], 
            "WBO": [
                1935, 
                2909, 
                1793, 
                1566, 
                936, 
                1881, 
                2608, 
                3181, 
                725, 
                1681, 
                2118, 
                1949, 
                200, 
                468, 
                1009, 
                1669, 
                2866, 
                1558, 
                3152
            ], 
            "WBL": [
                1878
            ], 
            "irrelevant_Noun": [
                0
            ], 
            "M1_ADJ": [
                1
            ]
        }, 
        "location1": [
            21
        ], 
        "location2": [
            44
        ], 
        "sentence": "its far more difficult to select song and has no easy to use on the fly playlist creation such as the new ipod not to mention it does n't sinc with contact list , phone number , address book , ect . like the ipod ( which eliminated my need for any kind of palm device ) ."
    }
}