{
    "00b26e308a4b8730247f6846646d008a": {
        "(21, 34)": {
            "AM2L": [
                468
            ], 
            "AM2F": [
                200
            ], 
            "WBF": [
                1558
            ], 
            "BM1F": [
                2866
            ], 
            "M1": [
                1903
            ], 
            "irrelevant_Adj": [
                1
            ], 
            "M2": [
                1949
            ], 
            "BM1L": [
                325
            ], 
            "WBO": [
                1935, 
                2909, 
                1793, 
                1566, 
                936, 
                1881, 
                2608, 
                3181, 
                725
            ], 
            "WBL": [
                2118
            ], 
            "irrelevant_Noun": [
                0
            ], 
            "M1_ADJ": [
                1
            ]
        }, 
        "location1": [
            21
        ], 
        "location2": [
            34
        ], 
        "sentence": "its far more difficult to select song and has no easy to use on the fly playlist creation such as the new ipod not to mention it does n't sinc with contact list , phone number , address book , ect . like the ipod ( which eliminated my need for any kind of palm device ) ."
    }
}