{
    "1e7796b52864f44323808bc0290064a3": {
        "(5, 9)": {
            "AM2L": [
                776
            ], 
            "AM2F": [
                1917
            ], 
            "WBF": [
                2653
            ], 
            "BM1F": [
                275
            ], 
            "M1": [
                1903
            ], 
            "irrelevant_Adj": [
                1
            ], 
            "M2": [
                1821
            ], 
            "BM1L": [
                964
            ], 
            "WBO": [
                1490
            ], 
            "WBL": [
                33
            ], 
            "irrelevant_Noun": [
                0
            ], 
            "M1_ADJ": [
                1
            ]
        }, 
        "location1": [
            5
        ], 
        "location2": [
            9
        ], 
        "sentence": "i uploaded the driver and new software in 15 minute - no crash or problem ."
    }
}