{
    "b9c3cfb01eca2d647b08e3a4c809cc68": {
        "location1": [
            22
        ], 
        "location2": [
            41
        ], 
        "(22, 41)": {
            "WBF": [
                3046
            ], 
            "BM1F": [
                2447
            ], 
            "M1": [
                1903
            ], 
            "irrelevant_Adj": [
                1
            ], 
            "M2": [
                877
            ], 
            "BM1L": [
                1591
            ], 
            "WBO": [
                2491, 
                2875, 
                1375, 
                113, 
                133, 
                2779, 
                2306, 
                2659, 
                1185, 
                1566, 
                2650, 
                1265, 
                2864, 
                2875, 
                1591
            ], 
            "WBL": [
                2866
            ], 
            "irrelevant_Noun": [
                0
            ], 
            "M1_ADJ": [
                1
            ]
        }, 
        "sentence": "the scroll wheel is finicky ; it work most of the time but there is a learning curve for pressing it just right ; new user say they have 50 % - 75 % success rate ; some find it so frustrating that they just return the device ."
    }, 
    "00b26e308a4b8730247f6846646d008a": {
        "location1": [
            21
        ], 
        "location2": [
            50
        ], 
        "(21, 50)": {
            "WBF": [
                1558
            ], 
            "BM1F": [
                2866
            ], 
            "M1": [
                1903
            ], 
            "irrelevant_Adj": [
                1
            ], 
            "M2": [
                877
            ], 
            "BM1L": [
                325
            ], 
            "WBO": [
                1935, 
                2909, 
                1793, 
                1566, 
                936, 
                1881, 
                2608, 
                3181, 
                725, 
                1681, 
                2118, 
                1949, 
                200, 
                468, 
                1009, 
                1669, 
                2866, 
                1558, 
                3152, 
                1020, 
                1878, 
                1896, 
                1232, 
                286, 
                1604
            ], 
            "WBL": [
                2074
            ], 
            "irrelevant_Noun": [
                0
            ], 
            "M1_ADJ": [
                1
            ]
        }, 
        "sentence": "its far more difficult to select song and has no easy to use on the fly playlist creation such as the new ipod not to mention it does n't sinc with contact list , phone number , address book , ect . like the ipod ( which eliminated my need for any kind of palm device ) ."
    }
}