{
    "f6f88d89f1bb907351dcee2f580dfcba": {
        "(42, 4)": {
            "AM2L": [
                931
            ], 
            "AM2F": [
                1449
            ], 
            "WBF": [
                437
            ], 
            "BM1F": [
                1816
            ], 
            "M1": [
                2742
            ], 
            "irrelevant_Adj": [
                1
            ], 
            "M2": [
                1906
            ], 
            "BM1L": [
                1371
            ], 
            "WBO": [
                2934, 
                3147, 
                1684, 
                2909, 
                1875, 
                2864, 
                730, 
                1261, 
                1994, 
                2934, 
                2909, 
                2866, 
                1906, 
                2866, 
                1285, 
                1562, 
                1591, 
                150, 
                1404, 
                150, 
                2628, 
                345, 
                636, 
                1463, 
                1449, 
                260, 
                1935, 
                1684, 
                1232, 
                2866, 
                2249, 
                1261, 
                1994, 
                2934
            ], 
            "WBL": [
                2866
            ], 
            "irrelevant_Noun": [
                0
            ], 
            "M1_ADJ": [
                0
            ]
        }, 
        "location1": [
            18, 
            42
        ], 
        "location2": [
            4
        ], 
        "(18, 4)": {
            "AM2L": [
                1285
            ], 
            "AM2F": [
                2866
            ], 
            "WBF": [
                437
            ], 
            "BM1F": [
                1816
            ], 
            "M1": [
                2742
            ], 
            "irrelevant_Adj": [
                1
            ], 
            "M2": [
                1906
            ], 
            "BM1L": [
                1371
            ], 
            "WBO": [
                2934, 
                3147, 
                1684, 
                2909, 
                1875, 
                2864, 
                730, 
                1261, 
                1994, 
                2934
            ], 
            "WBL": [
                2866
            ], 
            "irrelevant_Noun": [
                0
            ], 
            "M1_ADJ": [
                0
            ]
        }, 
        "sentence": "the zen has minimal stoppage between track ; when listening to music that continues from one track to the next the gap is just a hesitation - a slightly audible click ; if i am not listening for the progress from one track to the next i do n't even notice the click ."
    }
}