{
    "7f29f0fe969c8fc60fdc28661dd9739a": {
        "(16, 7)": {
            "AM2L": [
                1830
            ], 
            "AM2F": [
                1578
            ], 
            "WBF": [
                337
            ], 
            "BM1F": [
                1878
            ], 
            "M1": [
                2162
            ], 
            "irrelevant_Adj": [
                0
            ], 
            "M2": [
                1907
            ], 
            "BM1L": [
                1490
            ], 
            "WBO": [
                2866, 
                1842, 
                275, 
                2866, 
                2300
            ], 
            "WBL": [
                150
            ], 
            "irrelevant_Noun": [
                0
            ], 
            "M1_ADJ": [
                0
            ]
        }, 
        "location1": [
            16
        ], 
        "location2": [
            7
        ], 
        "sentence": "i have over 2000 file in my playlist at the moment and the random does a nice job mixing it up ."
    }, 
    "0a00b74b0ff92b29a1f105bc7d87ff27": {
        "location1": [
            16
        ], 
        "location2": [
            0
        ], 
        "(16, 0)": {
            "WBF": [
                543
            ], 
            "AM2L": [
                2019
            ], 
            "M1": [
                2162
            ], 
            "irrelevant_Adj": [
                0
            ], 
            "M2": [
                1907
            ], 
            "WBO": [
                402, 
                1294, 
                1987, 
                2866, 
                1219, 
                3152, 
                1562, 
                150, 
                444, 
                648, 
                522, 
                2734
            ], 
            "WBL": [
                2325
            ], 
            "irrelevant_Noun": [
                0
            ], 
            "AM2F": [
                467
            ], 
            "M1_ADJ": [
                0
            ]
        }, 
        "sentence": "playlist can be generated on the fly ( which is a bit clunky but still a really nice bonus ) or by using the software , and there are a bevy of eq option ."
    }
}