{
    "92198989402e17a45ecbf5ef78c65e91": {
        "location1": [
            21
        ], 
        "location2": [
            27
        ], 
        "(21, 27)": {
            "WBF": [
                2501
            ], 
            "BM1F": [
                2617
            ], 
            "M1": [
                1907
            ], 
            "irrelevant_Adj": [
                0
            ], 
            "M2": [
                2225
            ], 
            "BM1L": [
                2747
            ], 
            "WBO": [
                1198, 
                3031
            ], 
            "WBL": [
                1333
            ], 
            "irrelevant_Noun": [
                0
            ], 
            "M1_ADJ": [
                1
            ]
        }, 
        "sentence": "great sound , very long battery life ( i routinely play it for 12 + hour ) , very fast recharges rate , removable battery , storage size , nice screen , firmware update , and great price ."
    }
}