{
    "c8196ec4c983af49734af374c87665fd": {
        "(30, 34)": {
            "AM2L": [
                1317
            ], 
            "AM2F": [
                2281
            ], 
            "WBF": [
                2072
            ], 
            "BM1F": [
                150
            ], 
            "M1": [
                1907
            ], 
            "irrelevant_Adj": [
                0
            ], 
            "M2": [
                2676
            ], 
            "BM1L": [
                1490
            ], 
            "WBO": [
                275
            ], 
            "WBL": [
                2866
            ], 
            "irrelevant_Noun": [
                0
            ], 
            "M1_ADJ": [
                1
            ]
        }, 
        "location1": [
            30
        ], 
        "location2": [
            34
        ], 
        "sentence": "on the subject of headphone , this thing seems like a normal mp3 player when you use the headphone they give you in the box , but invest 30 dollar in a nice pair and the sound quality goes up through the roof !"
    }, 
    "c4e796d80648ecc51b638ffb194b05b7": {
        "(5, 1)": {
            "AM2L": [
                1449
            ], 
            "AM2F": [
                221
            ], 
            "WBF": [
                2281
            ], 
            "BM1F": [
                2866
            ], 
            "M1": [
                2676
            ], 
            "irrelevant_Adj": [
                0
            ], 
            "M2": [
                1907
            ], 
            "WBO": [
                1562
            ], 
            "WBL": [
                254
            ], 
            "irrelevant_Noun": [
                0
            ], 
            "M1_ADJ": [
                0
            ]
        }, 
        "location1": [
            5
        ], 
        "location2": [
            1
        ], 
        "sentence": "the sound quality is also nice ... after i hooked up my sony headphone instead of those factory earbuds it comes with ."
    }, 
    "92198989402e17a45ecbf5ef78c65e91": {
        "location1": [
            21
        ], 
        "location2": [
            1
        ], 
        "(21, 1)": {
            "AM2L": [
                1198
            ], 
            "AM2F": [
                2501
            ], 
            "WBF": [
                3075
            ], 
            "BM1F": [
                1333
            ], 
            "M1": [
                2676
            ], 
            "irrelevant_Adj": [
                0
            ], 
            "M2": [
                1907
            ], 
            "WBO": [
                1706, 
                400, 
                1664, 
                1449, 
                2466, 
                2157, 
                1566, 
                1232, 
                23, 
                1442, 
                3075, 
                1156, 
                2346, 
                2306, 
                2389, 
                400
            ], 
            "WBL": [
                2617
            ], 
            "irrelevant_Noun": [
                0
            ], 
            "M1_ADJ": [
                0
            ]
        }, 
        "sentence": "great sound , very long battery life ( i routinely play it for 12 + hour ) , very fast recharges rate , removable battery , storage size , nice screen , firmware update , and great price ."
    }
}