{
    "0a6d08e7c3843ce6c1cd49c684cfb9e0": {
        "(7, 12)": {
            "AM2L": [
                2866
            ], 
            "AM2F": [
                522
            ], 
            "WBF": [
                1458
            ], 
            "BM1F": [
                150
            ], 
            "M1": [
                1907
            ], 
            "irrelevant_Adj": [
                0
            ], 
            "M2": [
                649
            ], 
            "BM1L": [
                3117
            ], 
            "WBO": [
                2909
            ], 
            "WBL": [
                1655
            ], 
            "irrelevant_Noun": [
                0
            ], 
            "M1_ADJ": [
                1
            ]
        }, 
        "location1": [
            7
        ], 
        "location2": [
            12
        ], 
        "sentence": "scroll button - the scroll wheel was a nice idea to keep less clutter , but the button would sometimes get stuck or keep scrolling ."
    }
}