{
    "92198989402e17a45ecbf5ef78c65e91": {
        "(21, 19)": {
            "AM2L": [
                1198
            ], 
            "WBFL": [
                2617
            ], 
            "BM1F": [
                400
            ], 
            "M1": [
                2747
            ], 
            "irrelevant_Adj": [
                0
            ], 
            "M2": [
                1907
            ], 
            "BM1L": [
                2389
            ], 
            "AM2F": [
                2501
            ], 
            "irrelevant_Noun": [
                0
            ], 
            "M1_ADJ": [
                0
            ]
        }, 
        "location1": [
            21
        ], 
        "location2": [
            19
        ], 
        "sentence": "great sound , very long battery life ( i routinely play it for 12 + hour ) , very fast recharges rate , removable battery , storage size , nice screen , firmware update , and great price ."
    }
}