{
    "6bff76f5401264648b027c7bc10b42de": {
        "(15, 12)": {
            "AM2L": [
                3147
            ], 
            "AM2F": [
                1232
            ], 
            "WBF": [
                3152
            ], 
            "BM1F": [
                2866
            ], 
            "M1": [
                2160
            ], 
            "irrelevant_Adj": [
                0
            ], 
            "M2": [
                1907
            ], 
            "BM1L": [
                1971
            ], 
            "WBO": [
                1562
            ], 
            "WBL": [
                1562
            ], 
            "irrelevant_Noun": [
                0
            ], 
            "M1_ADJ": [
                0
            ]
        }, 
        "location1": [
            15
        ], 
        "location2": [
            12
        ], 
        "sentence": "all the button & neccessary lil ' gadget are on the side of the player which is nice for when you are holding it in the palm of your hand ."
    }, 
    "c8196ec4c983af49734af374c87665fd": {
        "(30, 12)": {
            "AM2L": [
                275
            ], 
            "AM2F": [
                2072
            ], 
            "WBF": [
                3147
            ], 
            "BM1F": [
                1864
            ], 
            "M1": [
                2160
            ], 
            "irrelevant_Adj": [
                0
            ], 
            "M2": [
                1907
            ], 
            "BM1L": [
                1932
            ], 
            "WBO": [
                3229, 
                3041, 
                2866, 
                1386, 
                2875, 
                1305, 
                3229, 
                1490, 
                2866, 
                481, 
                522, 
                1555, 
                78, 
                939
            ], 
            "WBL": [
                150
            ], 
            "irrelevant_Noun": [
                0
            ], 
            "M1_ADJ": [
                0
            ]
        }, 
        "location1": [
            30
        ], 
        "location2": [
            12
        ], 
        "sentence": "on the subject of headphone , this thing seems like a normal mp3 player when you use the headphone they give you in the box , but invest 30 dollar in a nice pair and the sound quality goes up through the roof !"
    }
}