{
    "0a00b74b0ff92b29a1f105bc7d87ff27": {
        "location1": [
            16
        ], 
        "location2": [
            27
        ], 
        "(16, 27)": {
            "AM2L": [
                1061
            ], 
            "AM2F": [
                1971
            ], 
            "WBF": [
                467
            ], 
            "BM1F": [
                2325
            ], 
            "M1": [
                1907
            ], 
            "irrelevant_Adj": [
                0
            ], 
            "M2": [
                439
            ], 
            "BM1L": [
                150
            ], 
            "WBO": [
                2019, 
                528, 
                3049, 
                2866, 
                2653, 
                275, 
                2873
            ], 
            "WBL": [
                150
            ], 
            "irrelevant_Noun": [
                0
            ], 
            "M1_ADJ": [
                1
            ]
        }, 
        "sentence": "playlist can be generated on the fly ( which is a bit clunky but still a really nice bonus ) or by using the software , and there are a bevy of eq option ."
    }
}