{
    "7f29f0fe969c8fc60fdc28661dd9739a": {
        "(16, 4)": {
            "AM2L": [
                1830
            ], 
            "AM2F": [
                1578
            ], 
            "WBF": [
                1490
            ], 
            "BM1F": [
                54
            ], 
            "M1": [
                1176
            ], 
            "irrelevant_Adj": [
                0
            ], 
            "M2": [
                1907
            ], 
            "BM1L": [
                2045
            ], 
            "WBO": [
                1878, 
                2162, 
                337, 
                2866, 
                1842, 
                275, 
                2866, 
                2300
            ], 
            "WBL": [
                150
            ], 
            "irrelevant_Noun": [
                1
            ], 
            "M1_ADJ": [
                0
            ]
        }, 
        "location1": [
            16
        ], 
        "location2": [
            4
        ], 
        "sentence": "i have over 2000 file in my playlist at the moment and the random does a nice job mixing it up ."
    }
}