{
    "c8196ec4c983af49734af374c87665fd": {
        "(30, 4)": {
            "AM2L": [
                275
            ], 
            "AM2F": [
                2072
            ], 
            "WBF": [
                2882
            ], 
            "BM1F": [
                1971
            ], 
            "M1": [
                1386
            ], 
            "irrelevant_Adj": [
                0
            ], 
            "M2": [
                1907
            ], 
            "BM1L": [
                2774
            ], 
            "WBO": [
                2876, 
                2522, 
                1669, 
                150, 
                1932, 
                1864, 
                2160, 
                3147, 
                3229, 
                3041, 
                2866, 
                1386, 
                2875, 
                1305, 
                3229, 
                1490, 
                2866, 
                481, 
                522, 
                1555, 
                78, 
                939
            ], 
            "WBL": [
                150
            ], 
            "irrelevant_Noun": [
                0
            ], 
            "M1_ADJ": [
                0
            ]
        }, 
        "location1": [
            30
        ], 
        "location2": [
            4, 
            17
        ], 
        "(30, 17)": {
            "AM2L": [
                275
            ], 
            "AM2F": [
                2072
            ], 
            "WBF": [
                2875
            ], 
            "BM1F": [
                2866
            ], 
            "M1": [
                1386
            ], 
            "irrelevant_Adj": [
                0
            ], 
            "M2": [
                1907
            ], 
            "BM1L": [
                3041
            ], 
            "WBO": [
                1305, 
                3229, 
                1490, 
                2866, 
                481, 
                522, 
                1555, 
                78, 
                939
            ], 
            "WBL": [
                150
            ], 
            "irrelevant_Noun": [
                0
            ], 
            "M1_ADJ": [
                0
            ]
        }, 
        "sentence": "on the subject of headphone , this thing seems like a normal mp3 player when you use the headphone they give you in the box , but invest 30 dollar in a nice pair and the sound quality goes up through the roof !"
    }, 
    "c4e796d80648ecc51b638ffb194b05b7": {
        "(5, 12)": {
            "AM2L": [
                1971
            ], 
            "AM2F": [
                1535
            ], 
            "WBF": [
                221
            ], 
            "BM1F": [
                254
            ], 
            "M1": [
                1907
            ], 
            "irrelevant_Adj": [
                0
            ], 
            "M2": [
                1386
            ], 
            "BM1L": [
                1562
            ], 
            "WBO": [
                1449, 
                1433, 
                3029
            ], 
            "WBL": [
                2667
            ], 
            "irrelevant_Noun": [
                0
            ], 
            "M1_ADJ": [
                1
            ]
        }, 
        "location1": [
            5
        ], 
        "location2": [
            12
        ], 
        "sentence": "the sound quality is also nice ... after i hooked up my sony headphone instead of those factory earbuds it comes with ."
    }
}