{
    "201737d869c21044e5ddeaabacc4115b": {
        "location1": [
            10
        ], 
        "location2": [
            11
        ], 
        "(10, 11)": {
            "BM1F": [
                413
            ], 
            "M1": [
                1907
            ], 
            "irrelevant_Adj": [
                0
            ], 
            "M2": [
                1120
            ], 
            "BM1L": [
                1375
            ], 
            "WBNULL": [
                1
            ], 
            "irrelevant_Noun": [
                0
            ], 
            "M1_ADJ": [
                1
            ]
        }, 
        "sentence": "4 ) no fm or voice recording - these would have been nice extra ."
    }
}