{
    "6bff76f5401264648b027c7bc10b42de": {
        "(15, 24)": {
            "AM2L": [
                3230
            ], 
            "AM2F": [
                1971
            ], 
            "WBF": [
                1232
            ], 
            "BM1F": [
                1562
            ], 
            "M1": [
                1907
            ], 
            "irrelevant_Adj": [
                0
            ], 
            "M2": [
                2074
            ], 
            "BM1L": [
                3152
            ], 
            "WBO": [
                3147, 
                3229, 
                316, 
                1425, 
                1566
            ], 
            "WBL": [
                2866
            ], 
            "irrelevant_Noun": [
                0
            ], 
            "M1_ADJ": [
                1
            ]
        }, 
        "location1": [
            15
        ], 
        "location2": [
            24
        ], 
        "sentence": "all the button & neccessary lil ' gadget are on the side of the player which is nice for when you are holding it in the palm of your hand ."
    }, 
    "0e5f67b050553dd76a766dd94211c505": {
        "(0, 1)": {
            "AM2L": [
                3010
            ], 
            "M1": [
                1907
            ], 
            "irrelevant_Adj": [
                0
            ], 
            "M2": [
                2074
            ], 
            "WBNULL": [
                1
            ], 
            "irrelevant_Noun": [
                0
            ], 
            "AM2F": [
                2618
            ], 
            "M1_ADJ": [
                1
            ]
        }, 
        "location1": [
            0
        ], 
        "location2": [
            1
        ], 
        "sentence": "nice palm sized unit , somewhat bigger then the ipod but not an issue if you 're not going to try & jog with it or something ."
    }
}