{
    "c8196ec4c983af49734af374c87665fd": {
        "(10, 27)": {
            "AM2L": [
                150
            ], 
            "AM2F": [
                1490
            ], 
            "WBF": [
                1864
            ], 
            "BM1F": [
                150
            ], 
            "M1": [
                1932
            ], 
            "irrelevant_Adj": [
                0
            ], 
            "M2": [
                939
            ], 
            "BM1L": [
                1669
            ], 
            "WBO": [
                2160, 
                3147, 
                3229, 
                3041, 
                2866, 
                1386, 
                2875, 
                1305, 
                3229, 
                1490, 
                2866, 
                481, 
                522
            ], 
            "WBL": [
                78
            ], 
            "irrelevant_Noun": [
                0
            ], 
            "M1_ADJ": [
                1
            ]
        }, 
        "location1": [
            10
        ], 
        "location2": [
            27
        ], 
        "sentence": "on the subject of headphone , this thing seems like a normal mp3 player when you use the headphone they give you in the box , but invest 30 dollar in a nice pair and the sound quality goes up through the roof !"
    }
}