{
    "c8196ec4c983af49734af374c87665fd": {
        "(10, 12)": {
            "AM2L": [
                3229
            ], 
            "WBFL": [
                1864
            ], 
            "BM1F": [
                150
            ], 
            "M1": [
                1932
            ], 
            "irrelevant_Adj": [
                0
            ], 
            "M2": [
                2160
            ], 
            "BM1L": [
                1669
            ], 
            "AM2F": [
                3147
            ], 
            "irrelevant_Noun": [
                0
            ], 
            "M1_ADJ": [
                1
            ]
        }, 
        "location1": [
            10
        ], 
        "location2": [
            12
        ], 
        "sentence": "on the subject of headphone , this thing seems like a normal mp3 player when you use the headphone they give you in the box , but invest 30 dollar in a nice pair and the sound quality goes up through the roof !"
    }
}