{
    "702438ed98f2b97a5f63641e00164027": {
        "(22, 31)": {
            "WBF": [
                1285
            ], 
            "BM1F": [
                150
            ], 
            "M1": [
                1942
            ], 
            "irrelevant_Adj": [
                0
            ], 
            "M2": [
                2160
            ], 
            "BM1L": [
                1644
            ], 
            "WBO": [
                437, 
                2866, 
                2076, 
                275, 
                392
            ], 
            "WBL": [
                2866
            ], 
            "irrelevant_Noun": [
                0
            ], 
            "M1_ADJ": [
                1
            ]
        }, 
        "(22, 4)": {
            "AM2L": [
                437
            ], 
            "AM2F": [
                1285
            ], 
            "WBF": [
                1562
            ], 
            "BM1F": [
                2866
            ], 
            "M1": [
                2160
            ], 
            "irrelevant_Adj": [
                0
            ], 
            "M2": [
                1942
            ], 
            "BM1L": [
                1971
            ], 
            "WBO": [
                2866, 
                609, 
                1449, 
                1375, 
                1079, 
                2523, 
                2866, 
                1262, 
                2076, 
                2367, 
                2909, 
                638, 
                1490, 
                753
            ], 
            "WBL": [
                150
            ], 
            "irrelevant_Noun": [
                0
            ], 
            "M1_ADJ": [
                0
            ]
        }, 
        "location1": [
            22
        ], 
        "location2": [
            4, 
            31
        ], 
        "sentence": "the construction of the player is the cheesiest i have ever seen -- the front panel refused to clip in correctly , leaving a noticeable gap between the panel and base of the player ."
    }
}