{
    "eb88968921d7cb163079768a48fd733a": {
        "(18, 24)": {
            "AM2L": [
                3109
            ], 
            "AM2F": [
                1449
            ], 
            "WBF": [
                2653
            ], 
            "BM1F": [
                4
            ], 
            "M1": [
                1944
            ], 
            "irrelevant_Adj": [
                0
            ], 
            "M2": [
                1163
            ], 
            "BM1L": [
                586
            ], 
            "WBO": [
                407, 
                1971
            ], 
            "WBL": [
                210
            ], 
            "irrelevant_Noun": [
                0
            ], 
            "M1_ADJ": [
                1
            ]
        }, 
        "location1": [
            18
        ], 
        "location2": [
            24
        ], 
        "sentence": "the software interface supplied was very easy to use but i went ahead and got red chair 's `` notmad `` software because of some advanced feature i wanted ."
    }
}