{
    "c3343c3835f3c03085268bc260ac595b": {
        "(17, 10)": {
            "WBF": [
                522
            ], 
            "BM1F": [
                2866
            ], 
            "M1": [
                2901
            ], 
            "irrelevant_Adj": [
                0
            ], 
            "M2": [
                1944
            ], 
            "BM1L": [
                1349
            ], 
            "WBO": [
                1449, 
                931, 
                1881
            ], 
            "WBL": [
                526
            ], 
            "irrelevant_Noun": [
                1
            ], 
            "M1_ADJ": [
                0
            ]
        }, 
        "location1": [
            17
        ], 
        "location2": [
            10
        ], 
        "sentence": "software definitely suck , hang up my notebook about half the time , but i do n't mind buying notmad ."
    }
}