{
    "c5fb91677140916fcce268347c2b912b": {
        "(18, 6)": {
            "AM2L": [
                2734
            ], 
            "AM2F": [
                1769
            ], 
            "WBF": [
                2653
            ], 
            "BM1F": [
                784
            ], 
            "M1": [
                1779
            ], 
            "irrelevant_Adj": [
                0
            ], 
            "M2": [
                1944
            ], 
            "BM1L": [
                2866
            ], 
            "WBO": [
                1562, 
                185, 
                2325, 
                2459, 
                867, 
                3144, 
                2033, 
                1375
            ], 
            "WBL": [
                2885
            ], 
            "irrelevant_Noun": [
                0
            ], 
            "M1_ADJ": [
                0
            ]
        }, 
        "location1": [
            18
        ], 
        "location2": [
            6
        ], 
        "sentence": "as i mentioned before , the creative mediasource software is actually really robust despite what others have said , though notmad may still work better ."
    }
}