{
    "009a83596167fefb74ee4f99f3da73be": {
        "(10, 12)": {
            "AM2L": [
                1562
            ], 
            "WBFL": [
                380
            ], 
            "BM1F": [
                1625
            ], 
            "M1": [
                1947
            ], 
            "irrelevant_Adj": [
                0
            ], 
            "M2": [
                2501
            ], 
            "BM1L": [
                150
            ], 
            "AM2F": [
                3152
            ], 
            "irrelevant_Noun": [
                0
            ], 
            "M1_ADJ": [
                1
            ]
        }, 
        "location1": [
            10
        ], 
        "location2": [
            12
        ], 
        "sentence": "the xtra improves upon the zen nx with a larger , now-blue backlit screen , which is infinitely better ."
    }
}