{
    "bf0a5e500cc50d952088360876e9fd68": {
        "(1, 6)": {
            "AM2L": [
                204
            ], 
            "AM2F": [
                2909
            ], 
            "WBF": [
                2876
            ], 
            "BM1F": [
                2866
            ], 
            "M1": [
                1999
            ], 
            "irrelevant_Adj": [
                1
            ], 
            "M2": [
                2017
            ], 
            "WBO": [
                1828
            ], 
            "WBL": [
                273
            ], 
            "irrelevant_Noun": [
                1
            ], 
            "M1_ADJ": [
                1
            ]
        }, 
        "location1": [
            1
        ], 
        "location2": [
            6
        ], 
        "sentence": "the only thing missing is an option to adjust the balance ."
    }
}