{
    "ecc2a0ecdcd48e0d7d52b66af830f9f0": {
        "(15, 14)": {
            "AM2L": [
                2866
            ], 
            "BM1F": [
                13
            ], 
            "M1": [
                2718
            ], 
            "irrelevant_Adj": [
                1
            ], 
            "M2": [
                1999
            ], 
            "BM1L": [
                2864
            ], 
            "WBNULL": [
                1
            ], 
            "irrelevant_Noun": [
                0
            ], 
            "AM2F": [
                1232
            ], 
            "M1_ADJ": [
                0
            ]
        }, 
        "location1": [
            15
        ], 
        "location2": [
            10, 
            14
        ], 
        "(15, 10)": {
            "AM2L": [
                2866
            ], 
            "AM2F": [
                1232
            ], 
            "WBF": [
                932
            ], 
            "BM1F": [
                13
            ], 
            "M1": [
                2718
            ], 
            "irrelevant_Adj": [
                1
            ], 
            "M2": [
                1999
            ], 
            "BM1L": [
                95
            ], 
            "WBO": [
                2864
            ], 
            "WBL": [
                2718
            ], 
            "irrelevant_Noun": [
                0
            ], 
            "M1_ADJ": [
                0
            ]
        }, 
        "sentence": "i would have liked to have given it 4 1/2 star docking that 1/2 star only for the size ."
    }, 
    "b7a4b4086ff6f9e114fd0bbca4c9e6cc": {
        "location1": [
            25
        ], 
        "location2": [
            6
        ], 
        "(25, 6)": {
            "AM2L": [
                2866
            ], 
            "AM2F": [
                1348
            ], 
            "WBF": [
                325
            ], 
            "BM1F": [
                112
            ], 
            "M1": [
                2718
            ], 
            "irrelevant_Adj": [
                1
            ], 
            "M2": [
                1999
            ], 
            "BM1L": [
                2882
            ], 
            "WBO": [
                1449, 
                6, 
                2523, 
                1940, 
                1971, 
                2866, 
                2236, 
                2100, 
                1375, 
                2399, 
                785, 
                1378, 
                2045, 
                522, 
                325
            ], 
            "WBL": [
                6
            ], 
            "irrelevant_Noun": [
                0
            ], 
            "M1_ADJ": [
                0
            ]
        }, 
        "sentence": "overall , i 'm giving this 5 star as i 've seen nothing of the problem people have repeatedly cried havoc over , but as i 've only had the player for a while i leave room for doubt if the headphone jack , hissing , or scroll wheel problem show up with me too ."
    }, 
    "375771ef80624dd9cee2e3d841e87373": {
        "(3, 5)": {
            "AM2L": [
                2909
            ], 
            "WBFL": [
                74
            ], 
            "BM1F": [
                1566
            ], 
            "M1": [
                1999
            ], 
            "irrelevant_Adj": [
                1
            ], 
            "M2": [
                2718
            ], 
            "BM1L": [
                1287
            ], 
            "AM2F": [
                971
            ], 
            "irrelevant_Noun": [
                0
            ], 
            "M1_ADJ": [
                1
            ]
        }, 
        "location1": [
            3
        ], 
        "location2": [
            5
        ], 
        "sentence": "i gave it only 3 star due to the fact that the 1st one broke when i dropped it from a fairly short distance ( less than 2 ft ) ."
    }, 
    "e36d6c54ed710942569ac8dc47ef1c8b": {
        "location1": [
            1
        ], 
        "location2": [
            11
        ], 
        "(1, 11)": {
            "AM2L": [
                2866
            ], 
            "AM2F": [
                316
            ], 
            "WBF": [
                2975
            ], 
            "BM1F": [
                2866
            ], 
            "M1": [
                1999
            ], 
            "irrelevant_Adj": [
                1
            ], 
            "M2": [
                2718
            ], 
            "WBO": [
                2876, 
                2864, 
                2740, 
                1773, 
                1261, 
                1308
            ], 
            "WBL": [
                112
            ], 
            "irrelevant_Noun": [
                0
            ], 
            "M1_ADJ": [
                1
            ]
        }, 
        "sentence": "the only two thing that stop me from giving it 5 star are the ho-hum software that comes with the system , and the traveling case it comes with ."
    }
}