{
    "eb5f7f84fb72e7589f2fbebf5436ab11": {
        "(3, 16)": {
            "AM2L": [
                242
            ], 
            "AM2F": [
                1987
            ], 
            "WBF": [
                1864
            ], 
            "BM1F": [
                74
            ], 
            "M1": [
                2032
            ], 
            "irrelevant_Adj": [
                1
            ], 
            "M2": [
                2832
            ], 
            "BM1L": [
                1878
            ], 
            "WBO": [
                2160, 
                2882, 
                2876, 
                3168, 
                1999, 
                3191, 
                2255, 
                1463, 
                3229
            ], 
            "WBL": [
                1457
            ], 
            "irrelevant_Noun": [
                0
            ], 
            "M1_ADJ": [
                1
            ]
        }, 
        "location1": [
            3
        ], 
        "location2": [
            16
        ], 
        "sentence": "unlike my 3 other mp3 player , this thing will only work properly if you have id3 tag on all of your track ."
    }, 
    "f17720aeafd313670cd2350bf2e39041": {
        "location1": [
            41
        ], 
        "location2": [
            56
        ], 
        "(41, 56)": {
            "AM2F": [
                1435
            ], 
            "WBF": [
                675
            ], 
            "BM1F": [
                286
            ], 
            "M1": [
                2032
            ], 
            "irrelevant_Adj": [
                1
            ], 
            "M2": [
                2832
            ], 
            "BM1L": [
                2019
            ], 
            "WBO": [
                242, 
                1878, 
                25, 
                1288, 
                1971, 
                1875, 
                3143, 
                2941, 
                2909, 
                2866, 
                3236
            ], 
            "WBL": [
                752
            ], 
            "irrelevant_Noun": [
                0
            ], 
            "M1_ADJ": [
                1
            ]
        }, 
        "sentence": "m3u file are used by most mp3 player like musicmatch and winamp , but not creative - without notmad you need to manually recreate your playlist ) ; it does n't care what software you use to rip or catalog your music - creative or any other company - all my 12.5 gb of music were transferred to the zen with correct tag - hooray !"
    }
}