{
    "8c911f0be96ba4560218d1f4847f02a8": {
        "(1, 2)": {
            "AM2L": [
                3236
            ], 
            "BM1F": [
                1490
            ], 
            "M1": [
                2032
            ], 
            "irrelevant_Adj": [
                1
            ], 
            "M2": [
                3190
            ], 
            "AM2F": [
                2866
            ], 
            "irrelevant_Noun": [
                0
            ], 
            "WBNULL": [
                1
            ], 
            "M1_ADJ": [
                1
            ]
        }, 
        "location1": [
            1
        ], 
        "location2": [
            2
        ], 
        "sentence": "in other word , the zen is not a convenient data storage device ; only buy the capacity you need for your music collection ( see point 1. for some sizing information ) ."
    }
}