{
    "aeaf53d9981fcdae134d914c14c3bf3a": {
        "(11, 12)": {
            "AM2L": [
                2669
            ], 
            "BM1F": [
                2659
            ], 
            "M1": [
                2032
            ], 
            "irrelevant_Adj": [
                1
            ], 
            "M2": [
                3070
            ], 
            "BM1L": [
                2019
            ], 
            "WBNULL": [
                1
            ], 
            "irrelevant_Noun": [
                0
            ], 
            "AM2F": [
                3168
            ], 
            "M1_ADJ": [
                1
            ]
        }, 
        "location1": [
            11
        ], 
        "location2": [
            12
        ], 
        "sentence": "overall it is a great unit & hopefully creative lab or some other vendor will soon come out with some accessory for it ."
    }
}