{
    "ead02770ba3fff710bbb69f23f20558b": {
        "(15, 4)": {
            "AM2L": [
                308
            ], 
            "AM2F": [
                401
            ], 
            "WBF": [
                1232
            ], 
            "BM1F": [
                1597
            ], 
            "M1": [
                2470
            ], 
            "irrelevant_Adj": [
                1
            ], 
            "M2": [
                2032
            ], 
            "BM1L": [
                3168
            ], 
            "WBO": [
                2866, 
                2225, 
                1971, 
                150, 
                2404, 
                400, 
                1591
            ], 
            "WBL": [
                286
            ], 
            "irrelevant_Noun": [
                0
            ], 
            "M1_ADJ": [
                0
            ]
        }, 
        "location1": [
            15
        ], 
        "location2": [
            4
        ], 
        "sentence": "the zennx will keep running for the price of a replacement battery , just like any other battery-powered appliance ."
    }
}