{
    "e31dd62f55c1c30d4c665bd6ad5606e1": {
        "(13, 10)": {
            "AM2L": [
                448
            ], 
            "AM2F": [
                2676
            ], 
            "WBF": [
                3195
            ], 
            "BM1F": [
                1371
            ], 
            "M1": [
                2958
            ], 
            "irrelevant_Adj": [
                1
            ], 
            "M2": [
                2032
            ], 
            "BM1L": [
                964
            ], 
            "WBO": [
                3181
            ], 
            "WBL": [
                3181
            ], 
            "irrelevant_Noun": [
                0
            ], 
            "M1_ADJ": [
                0
            ]
        }, 
        "location1": [
            13
        ], 
        "location2": [
            10
        ], 
        "sentence": "the software is not good either and the driver has trouble working with other sound blaster product , which is very dumb ."
    }
}