{
    "033b35286cae2ac0ec2fc080f51e500c": {
        "(16, 42)": {
            "WBF": [
                1865
            ], 
            "BM1F": [
                2862
            ], 
            "M1": [
                2032
            ], 
            "irrelevant_Adj": [
                1
            ], 
            "M2": [
                1145
            ], 
            "BM1L": [
                1625
            ], 
            "WBO": [
                522, 
                2734, 
                1665, 
                2866, 
                2653, 
                2836, 
                2659, 
                2901, 
                2909, 
                1297, 
                3043, 
                2909, 
                1770, 
                18, 
                1812, 
                275, 
                2882, 
                2876, 
                3204, 
                843, 
                402, 
                868
            ], 
            "WBL": [
                1994
            ], 
            "irrelevant_Noun": [
                0
            ], 
            "M1_ADJ": [
                1
            ]
        }, 
        "location1": [
            16
        ], 
        "location2": [
            42
        ], 
        "sentence": "there are a couple thing i didnt like though but nothing serious : a little larger than other mp3s but still light , the software takes some time to get used to ( maybe 10-15 min ) , and this thing would definitely be destroyed with one fall ."
    }
}