{
    "3dad728919e1b406d7295e3ca95a61fa": {
        "location1": [
            2
        ], 
        "location2": [
            10
        ], 
        "(2, 10)": {
            "AM2L": [
                2864
            ], 
            "AM2F": [
                1562
            ], 
            "WBF": [
                2876
            ], 
            "BM1F": [
                1994
            ], 
            "M1": [
                2032
            ], 
            "irrelevant_Adj": [
                1
            ], 
            "M2": [
                1922
            ], 
            "BM1L": [
                2866
            ], 
            "WBO": [
                1449, 
                1956, 
                3153, 
                1449
            ], 
            "WBL": [
                2866
            ], 
            "irrelevant_Noun": [
                0
            ], 
            "M1_ADJ": [
                1
            ]
        }, 
        "sentence": "the one other thing i observed while i had the nomad is that the front cover , which is taken off to have access to the battery , seemed to come undone very easily ."
    }, 
    "aa33d939f98b42cddc9a95271279c4a3": {
        "(0, 8)": {
            "WBF": [
                2833
            ], 
            "AM2L": [
                2008
            ], 
            "M1": [
                2032
            ], 
            "irrelevant_Adj": [
                1
            ], 
            "M2": [
                1922
            ], 
            "WBO": [
                2236, 
                2429, 
                1449, 
                2878
            ], 
            "WBL": [
                2866
            ], 
            "irrelevant_Noun": [
                0
            ], 
            "AM2F": [
                4
            ], 
            "M1_ADJ": [
                1
            ]
        }, 
        "location1": [
            0
        ], 
        "location2": [
            8
        ], 
        "sentence": "other tagging problem result ( i think ) from the nomad 's operating system ."
    }
}