{
    "f8e21ab1b8a57bce5633ca8027b19bb4": {
        "(4, 1)": {
            "AM2L": [
                2909
            ], 
            "AM2F": [
                3123
            ], 
            "WBF": [
                1562
            ], 
            "BM1F": [
                2866
            ], 
            "M1": [
                3236
            ], 
            "irrelevant_Adj": [
                0
            ], 
            "M2": [
                2043
            ], 
            "WBO": [
                273
            ], 
            "WBL": [
                273
            ], 
            "irrelevant_Noun": [
                0
            ], 
            "M1_ADJ": [
                0
            ]
        }, 
        "location1": [
            4
        ], 
        "location2": [
            1
        ], 
        "sentence": "the zen is an outstanding way to shuttle music between source , you can 't do this on the ipod ( except for a cumbersome work-around using the ipod as a hard drive instead of a player ) ."
    }
}