{
    "83c0f79f8710192a88e6b91256723401": {
        "(22, 15)": {
            "AM2L": [
                325
            ], 
            "AM2F": [
                2237
            ], 
            "WBF": [
                523
            ], 
            "BM1F": [
                2866
            ], 
            "M1": [
                2418
            ], 
            "irrelevant_Adj": [
                0
            ], 
            "M2": [
                2071
            ], 
            "BM1L": [
                1421
            ], 
            "WBO": [
                522, 
                2864, 
                3117
            ], 
            "WBL": [
                1142
            ], 
            "irrelevant_Noun": [
                0
            ], 
            "M1_ADJ": [
                0
            ]
        }, 
        "location1": [
            22
        ], 
        "location2": [
            15
        ], 
        "sentence": "the unit itself did lock up a few time and i had to hit the reset button but that was a fairly painless process as well ."
    }
}