{
    "ef25a24c12ae7b697445f8d181fbe847": {
        "location1": [
            49
        ], 
        "location2": [
            40
        ], 
        "(49, 40)": {
            "AM2F": [
                520
            ], 
            "WBF": [
                1971
            ], 
            "BM1F": [
                2866
            ], 
            "M1": [
                1949
            ], 
            "irrelevant_Adj": [
                1
            ], 
            "M2": [
                2111
            ], 
            "BM1L": [
                717
            ], 
            "WBO": [
                3222, 
                784, 
                1371, 
                413, 
                1490
            ], 
            "WBL": [
                347
            ], 
            "irrelevant_Noun": [
                0
            ], 
            "M1_ADJ": [
                0
            ]
        }, 
        "sentence": "like it 's predecessor , the quickly revised nx , this player boast a decent size and weight , a relatively-intuitive navigational system that categorizes based on id3 tag , and excellent sound ( widely known to be better than ipod - not surprising considering the number of year creative has been in the audio peripheral business ) ."
    }
}