{
    "f7e215562ee1a9103ae0258748c464f7": {
        "location1": [
            15
        ], 
        "location2": [
            18
        ], 
        "(15, 18)": {
            "AM2L": [
                2866
            ], 
            "AM2F": [
                1232
            ], 
            "WBF": [
                2281
            ], 
            "BM1F": [
                2653
            ], 
            "M1": [
                2158
            ], 
            "irrelevant_Adj": [
                0
            ], 
            "M2": [
                3058
            ], 
            "BM1L": [
                275
            ], 
            "WBO": [
                275
            ], 
            "WBL": [
                275
            ], 
            "irrelevant_Noun": [
                0
            ], 
            "M1_ADJ": [
                1
            ]
        }, 
        "sentence": "i can highly recommend this product because of its ease of use ( hardware and software ) , playback quality and value for the price ."
    }
}