{
    "ea590102fe54b3305e3c92c7f680c4d9": {
        "(7, 25)": {
            "WBF": [
                2242
            ], 
            "BM1F": [
                2281
            ], 
            "M1": [
                2178
            ], 
            "irrelevant_Adj": [
                0
            ], 
            "M2": [
                1573
            ], 
            "BM1L": [
                723
            ], 
            "WBO": [
                2797, 
                891, 
                1971, 
                3049, 
                2866, 
                2506, 
                3146, 
                275, 
                2328, 
                718, 
                1166, 
                154, 
                2236, 
                3181
            ], 
            "WBL": [
                1386
            ], 
            "irrelevant_Noun": [
                0
            ], 
            "M1_ADJ": [
                1
            ]
        }, 
        "location1": [
            7
        ], 
        "location2": [
            25
        ], 
        "sentence": "creative zen feedback suffers from construction quality , poor product support , difficulty of using the scroll wheel and reasonably consistent feedback about problem with the headphone jack ."
    }
}