{
    "ea590102fe54b3305e3c92c7f680c4d9": {
        "(7, 6)": {
            "AM2L": [
                2797
            ], 
            "BM1F": [
                723
            ], 
            "M1": [
                2281
            ], 
            "irrelevant_Adj": [
                0
            ], 
            "M2": [
                2178
            ], 
            "BM1L": [
                1261
            ], 
            "WBNULL": [
                1
            ], 
            "irrelevant_Noun": [
                0
            ], 
            "AM2F": [
                2242
            ], 
            "M1_ADJ": [
                0
            ]
        }, 
        "location1": [
            7
        ], 
        "location2": [
            6
        ], 
        "sentence": "creative zen feedback suffers from construction quality , poor product support , difficulty of using the scroll wheel and reasonably consistent feedback about problem with the headphone jack ."
    }
}