{
    "ea590102fe54b3305e3c92c7f680c4d9": {
        "location1": [
            7
        ], 
        "location2": [
            10
        ], 
        "(7, 10)": {
            "AM2L": [
                3049
            ], 
            "AM2F": [
                1971
            ], 
            "WBF": [
                2242
            ], 
            "BM1F": [
                2281
            ], 
            "M1": [
                2178
            ], 
            "irrelevant_Adj": [
                0
            ], 
            "M2": [
                891
            ], 
            "BM1L": [
                723
            ], 
            "WBO": [
                2797
            ], 
            "WBL": [
                2797
            ], 
            "irrelevant_Noun": [
                0
            ], 
            "M1_ADJ": [
                1
            ]
        }, 
        "sentence": "creative zen feedback suffers from construction quality , poor product support , difficulty of using the scroll wheel and reasonably consistent feedback about problem with the headphone jack ."
    }
}