{
    "0274c135b199dbc2203f17aa3978816d": {
        "(2, 7)": {
            "WBF": [
                864
            ], 
            "BM1F": [
                2866
            ], 
            "M1": [
                2178
            ], 
            "irrelevant_Adj": [
                0
            ], 
            "M2": [
                562
            ], 
            "BM1L": [
                2880
            ], 
            "WBO": [
                730
            ], 
            "WBL": [
                2866
            ], 
            "irrelevant_Noun": [
                0
            ], 
            "M1_ADJ": [
                1
            ]
        }, 
        "location1": [
            2
        ], 
        "location2": [
            7
        ], 
        "sentence": "third , the poor design continues with the case ."
    }
}