{
    "9962a0395a42bef512fbadba4dcc1ee1": {
        "(8, 21)": {
            "AM2L": [
                2242
            ], 
            "AM2F": [
                4
            ], 
            "WBF": [
                2882
            ], 
            "BM1F": [
                3012
            ], 
            "M1": [
                2178
            ], 
            "irrelevant_Adj": [
                0
            ], 
            "M2": [
                675
            ], 
            "BM1L": [
                1562
            ], 
            "WBO": [
                1562, 
                1935, 
                1675, 
                2909, 
                2866, 
                3236, 
                1566, 
                310, 
                2909
            ], 
            "WBL": [
                2866
            ], 
            "irrelevant_Noun": [
                0
            ], 
            "M1_ADJ": [
                1
            ]
        }, 
        "location1": [
            8
        ], 
        "location2": [
            21
        ], 
        "sentence": "feedback on creative 's product support is universally poor ; this is not limited to the zen , it applies to all the company 's product ."
    }
}