{
    "b2c12395e7baa4db094eb94137f35655": {
        "(21, 5)": {
            "AM2L": [
                522
            ], 
            "AM2F": [
                2296
            ], 
            "WBF": [
                2943
            ], 
            "BM1F": [
                426
            ], 
            "M1": [
                1221
            ], 
            "irrelevant_Adj": [
                0
            ], 
            "M2": [
                2187
            ], 
            "BM1L": [
                2866
            ], 
            "WBO": [
                3010, 
                3181, 
                1566, 
                1566, 
                3193, 
                3138, 
                3147, 
                1449, 
                2551, 
                1566, 
                1987, 
                2921
            ], 
            "WBL": [
                150
            ], 
            "irrelevant_Noun": [
                0
            ], 
            "M1_ADJ": [
                0
            ]
        }, 
        "location1": [
            21
        ], 
        "location2": [
            5
        ], 
        "sentence": "i 've tried the belkin fm transmitter unit with it & it worked well when i set it on top of a portable radio , but was awful trying to use in the car which is somewhat of a disappointment ."
    }
}