{
    "5752d425fd230241f15f09a3ca7c1c62": {
        "location1": [
            12
        ], 
        "location2": [
            6
        ], 
        "(12, 6)": {
            "AM2L": [
                2160
            ], 
            "AM2F": [
                574
            ], 
            "WBF": [
                1987
            ], 
            "BM1F": [
                2676
            ], 
            "M1": [
                2281
            ], 
            "irrelevant_Adj": [
                0
            ], 
            "M2": [
                2187
            ], 
            "BM1L": [
                150
            ], 
            "WBO": [
                2078, 
                3181
            ], 
            "WBL": [
                2605
            ], 
            "irrelevant_Noun": [
                0
            ], 
            "M1_ADJ": [
                0
            ]
        }, 
        "sentence": "i was unable achieve a sound quality on par with my simple portable cd player with `` bass boost . ``"
    }
}