{
    "df460eaf582c2debf712f5605d908023": {
        "location1": [
            16
        ], 
        "location2": [
            40
        ], 
        "(16, 40)": {
            "AM2L": [
                222
            ], 
            "AM2F": [
                1261
            ], 
            "WBF": [
                1363
            ], 
            "BM1F": [
                103
            ], 
            "M1": [
                2187
            ], 
            "irrelevant_Adj": [
                0
            ], 
            "M2": [
                2242
            ], 
            "BM1L": [
                150
            ], 
            "WBO": [
                963, 
                236, 
                1994, 
                1987, 
                3152, 
                1449, 
                543, 
                5, 
                779, 
                1228, 
                2019, 
                337, 
                3200, 
                150, 
                3075, 
                1105, 
                1656, 
                1490, 
                675, 
                1902
            ], 
            "WBL": [
                524
            ], 
            "irrelevant_Noun": [
                0
            ], 
            "M1_ADJ": [
                1
            ]
        }, 
        "sentence": "my gut tell me the nomad will in the long run be , at best , a 40gb portable hard drive , albeit one on which i can 't create folder , or , at worst , a very expensive lesson in company never to buy product from again ( i have their audigy sound card and find it in many way equally frustrating ) ."
    }
}