{
    "4669d00c8621e9a0281e783c77782dd4": {
        "location1": [
            6
        ], 
        "location2": [
            15, 
            27
        ], 
        "(6, 27)": {
            "AM2F": [
                882
            ], 
            "WBF": [
                1837
            ], 
            "BM1F": [
                2866
            ], 
            "M1": [
                2223
            ], 
            "irrelevant_Adj": [
                1
            ], 
            "M2": [
                379
            ], 
            "BM1L": [
                2862
            ], 
            "WBO": [
                2866, 
                1951, 
                275, 
                1371, 
                150, 
                490, 
                457, 
                379, 
                3152, 
                1468, 
                2866, 
                2501, 
                1851, 
                2780, 
                2862, 
                2866, 
                1951
            ], 
            "WBL": [
                1336
            ], 
            "irrelevant_Noun": [
                0
            ], 
            "M1_ADJ": [
                1
            ]
        }, 
        "(6, 15)": {
            "AM2L": [
                1468
            ], 
            "AM2F": [
                3152
            ], 
            "WBF": [
                1837
            ], 
            "BM1F": [
                2866
            ], 
            "M1": [
                2223
            ], 
            "irrelevant_Adj": [
                1
            ], 
            "M2": [
                379
            ], 
            "BM1L": [
                2862
            ], 
            "WBO": [
                2866, 
                1951, 
                275, 
                1371, 
                150
            ], 
            "WBL": [
                457
            ], 
            "irrelevant_Noun": [
                0
            ], 
            "M1_ADJ": [
                1
            ]
        }, 
        "sentence": "the lcd is larger than the previous model , the nx , and has a bright blue backlight which illuminates the screen more successfully than the nx 's green backlight did ."
    }
}