{
    "f68ec80438a497aca071cd7853ac8434": {
        "(7, 41)": {
            "WBF": [
                562
            ], 
            "BM1F": [
                2266
            ], 
            "M1": [
                2260
            ], 
            "irrelevant_Adj": [
                0
            ], 
            "M2": [
                1188
            ], 
            "BM1L": [
                2866
            ], 
            "WBO": [
                258, 
                1449, 
                1375, 
                967, 
                1566, 
                154, 
                74, 
                1231, 
                1261, 
                1878, 
                866, 
                528, 
                171, 
                325, 
                3138, 
                325, 
                1375, 
                2159, 
                1566, 
                2039, 
                1490, 
                78, 
                1137, 
                3129, 
                528, 
                864, 
                275, 
                1566, 
                1371, 
                729
            ], 
            "WBL": [
                3191
            ], 
            "irrelevant_Noun": [
                0
            ], 
            "M1_ADJ": [
                1
            ]
        }, 
        "location1": [
            7
        ], 
        "location2": [
            41
        ], 
        "sentence": "i use it primarily in the provided protective case although i have dropped it about 3 foot from my desk ( by accident ) as well as have played it outdoors in - 30 fahrenheit weather ( by design ) and it has continued to work fine ."
    }
}