{
    "8a31ba51febce8f3d665f6e34835eb2d": {
        "(13, 25)": {
            "WBF": [
                275
            ], 
            "BM1F": [
                2325
            ], 
            "M1": [
                2260
            ], 
            "irrelevant_Adj": [
                0
            ], 
            "M2": [
                1386
            ], 
            "BM1L": [
                1562
            ], 
            "WBO": [
                2909, 
                1773, 
                1569, 
                2866, 
                1999, 
                170, 
                3229, 
                1896
            ], 
            "WBL": [
                1320
            ], 
            "irrelevant_Noun": [
                0
            ], 
            "M1_ADJ": [
                1
            ]
        }, 
        "location1": [
            13
        ], 
        "location2": [
            25
        ], 
        "sentence": "the free ( i didnt know they still did that ) carrying case is really protective , and to me its the only accessory you need ( except good headphone ) ."
    }
}