{
    "f68ec80438a497aca071cd7853ac8434": {
        "location1": [
            7
        ], 
        "location2": [
            19
        ], 
        "(7, 19)": {
            "AM2L": [
                171
            ], 
            "AM2F": [
                528
            ], 
            "WBF": [
                562
            ], 
            "BM1F": [
                2266
            ], 
            "M1": [
                2260
            ], 
            "irrelevant_Adj": [
                0
            ], 
            "M2": [
                866
            ], 
            "BM1L": [
                2866
            ], 
            "WBO": [
                258, 
                1449, 
                1375, 
                967, 
                1566, 
                154, 
                74, 
                1231
            ], 
            "WBL": [
                1878
            ], 
            "irrelevant_Noun": [
                0
            ], 
            "M1_ADJ": [
                1
            ]
        }, 
        "sentence": "i use it primarily in the provided protective case although i have dropped it about 3 foot from my desk ( by accident ) as well as have played it outdoors in - 30 fahrenheit weather ( by design ) and it has continued to work fine ."
    }
}