{
    "50815ed54fda64a996bb08d62d2a7a46": {
        "(5, 12)": {
            "AM2L": [
                2322
            ], 
            "AM2F": [
                282
            ], 
            "WBF": [
                2170
            ], 
            "BM1F": [
                150
            ], 
            "M1": [
                2322
            ], 
            "irrelevant_Adj": [
                0
            ], 
            "M2": [
                562
            ], 
            "BM1L": [
                2402
            ], 
            "WBO": [
                275, 
                2873, 
                1562
            ], 
            "WBL": [
                1642
            ], 
            "irrelevant_Noun": [
                0
            ], 
            "M1_ADJ": [
                1
            ]
        }, 
        "location1": [
            5, 
            14
        ], 
        "location2": [
            12
        ], 
        "(14, 12)": {
            "WBFL": [
                282
            ], 
            "BM1F": [
                1642
            ], 
            "M1": [
                562
            ], 
            "irrelevant_Adj": [
                0
            ], 
            "M2": [
                2322
            ], 
            "BM1L": [
                150
            ], 
            "AM2F": [
                2170
            ], 
            "irrelevant_Noun": [
                0
            ], 
            "M1_ADJ": [
                0
            ]
        }, 
        "sentence": "the battery is replaceable ( a real plus ) and there is a leather case ( another real plus ) ."
    }
}