{
    "26afbb728550c0df1149e771bc94d54b": {
        "(25, 33)": {
            "AM2L": [
                2866
            ], 
            "AM2F": [
                433
            ], 
            "WBF": [
                400
            ], 
            "BM1F": [
                2866
            ], 
            "M1": [
                2402
            ], 
            "irrelevant_Adj": [
                0
            ], 
            "M2": [
                1558
            ], 
            "BM1L": [
                275
            ], 
            "WBO": [
                1774, 
                150, 
                1743, 
                211
            ], 
            "WBL": [
                2866
            ], 
            "irrelevant_Noun": [
                0
            ], 
            "M1_ADJ": [
                1
            ]
        }, 
        "location1": [
            25
        ], 
        "location2": [
            33
        ], 
        "sentence": "the sound quality is excellent ( and i 'm fussy with that stuff ) , the unit look cool , screen is bright and easy to read , and the replaceable battery mean a major advantage over the ipod ( besides the price , but everyone know that ) ."
    }, 
    "65b5c536d6d91c394bc8b7ba532235ab": {
        "(2, 14)": {
            "WBF": [
                400
            ], 
            "BM1F": [
                4
            ], 
            "M1": [
                2402
            ], 
            "irrelevant_Adj": [
                0
            ], 
            "M2": [
                1558
            ], 
            "BM1L": [
                3237
            ], 
            "WBO": [
                3117, 
                2866, 
                830, 
                1133, 
                1490, 
                1878, 
                2272, 
                1971
            ], 
            "WBL": [
                2045
            ], 
            "irrelevant_Noun": [
                0
            ], 
            "M1_ADJ": [
                1
            ]
        }, 
        "location1": [
            2
        ], 
        "location2": [
            14
        ], 
        "sentence": "zennx 's replaceable battery was the deciding factor in my purchase of zennx over ipod ."
    }
}