{
    "c797f7ccd54badc9e0db79b7ce27861a": {
        "(4, 34)": {
            "WBF": [
                400
            ], 
            "BM1F": [
                2866
            ], 
            "M1": [
                2402
            ], 
            "irrelevant_Adj": [
                0
            ], 
            "M2": [
                1922
            ], 
            "BM1L": [
                3181
            ], 
            "WBO": [
                3152, 
                1449, 
                2999, 
                307, 
                595, 
                150, 
                2637, 
                1243, 
                2909, 
                2401, 
                325, 
                3138, 
                325, 
                2866, 
                1373, 
                1971, 
                2436, 
                1566, 
                3143, 
                2866, 
                2975, 
                1742, 
                1133, 
                1987, 
                3162, 
                1449
            ], 
            "WBL": [
                2866
            ], 
            "irrelevant_Noun": [
                0
            ], 
            "M1_ADJ": [
                1
            ]
        }, 
        "location1": [
            4
        ], 
        "location2": [
            34
        ], 
        "sentence": "price , along with the replaceable battery ( which i understand apple charge a small fortune to replace - as well as the hassle of returning it ) were the two main factor on why i picked the nomad ."
    }
}