{
    "26afbb728550c0df1149e771bc94d54b": {
        "(25, 16)": {
            "AM2L": [
                1774
            ], 
            "AM2F": [
                400
            ], 
            "WBF": [
                1562
            ], 
            "BM1F": [
                744
            ], 
            "M1": [
                2501
            ], 
            "irrelevant_Adj": [
                0
            ], 
            "M2": [
                2402
            ], 
            "BM1L": [
                1710
            ], 
            "WBO": [
                490, 
                275, 
                1005, 
                2909, 
                2317
            ], 
            "WBL": [
                2866
            ], 
            "irrelevant_Noun": [
                0
            ], 
            "M1_ADJ": [
                0
            ]
        }, 
        "location1": [
            25
        ], 
        "location2": [
            16
        ], 
        "sentence": "the sound quality is excellent ( and i 'm fussy with that stuff ) , the unit look cool , screen is bright and easy to read , and the replaceable battery mean a major advantage over the ipod ( besides the price , but everyone know that ) ."
    }
}