{
    "f53180de30a7308dfce4f7c6df47edae": {
        "(4, 18)": {
            "WBF": [
                528
            ], 
            "BM1F": [
                1562
            ], 
            "M1": [
                2400
            ], 
            "irrelevant_Adj": [
                0
            ], 
            "M2": [
                1558
            ], 
            "BM1L": [
                400
            ], 
            "WBO": [
                2866, 
                3046, 
                407, 
                784, 
                1540, 
                1566, 
                2909, 
                402, 
                3015, 
                307
            ], 
            "WBL": [
                2866
            ], 
            "irrelevant_Noun": [
                0
            ], 
            "M1_ADJ": [
                1
            ]
        }, 
        "location1": [
            4
        ], 
        "location2": [
            18
        ], 
        "sentence": "first , the battery is replacable by the user , because creative intended it to be - unlike apple with the ipod ."
    }, 
    "00678fc65cf74c7bbfb5bf91f2796a34": {
        "(15, 27)": {
            "AM2L": [
                1092
            ], 
            "AM2F": [
                1562
            ], 
            "WBF": [
                1562
            ], 
            "BM1F": [
                1562
            ], 
            "M1": [
                2400
            ], 
            "irrelevant_Adj": [
                0
            ], 
            "M2": [
                1558
            ], 
            "BM1L": [
                400
            ], 
            "WBO": [
                1092, 
                275, 
                1184, 
                2866, 
                2225, 
                53, 
                602, 
                2862
            ], 
            "WBL": [
                103
            ], 
            "irrelevant_Noun": [
                0
            ], 
            "M1_ADJ": [
                1
            ]
        }, 
        "location1": [
            15
        ], 
        "location2": [
            27
        ], 
        "sentence": "the sound is excellent , the battery life is excellent , the fact that the battery is replacable is excellent , and finally the price , $ 200 cheaper than the 40gb ipod , is excellent ."
    }
}