{
    "1675736cec8dc2050229791dc016e3c7": {
        "(37, 30)": {
            "AM2L": [
                3229
            ], 
            "AM2F": [
                221
            ], 
            "WBF": [
                275
            ], 
            "BM1F": [
                2866
            ], 
            "M1": [
                2666
            ], 
            "irrelevant_Adj": [
                0
            ], 
            "M2": [
                2516
            ], 
            "BM1L": [
                2890
            ], 
            "WBO": [
                3186, 
                1881, 
                2740
            ], 
            "WBL": [
                2555
            ], 
            "irrelevant_Noun": [
                0
            ], 
            "M1_ADJ": [
                0
            ]
        }, 
        "location1": [
            37
        ], 
        "location2": [
            18, 
            30
        ], 
        "(37, 18)": {
            "AM2L": [
                3229
            ], 
            "AM2F": [
                221
            ], 
            "WBF": [
                2909
            ], 
            "BM1F": [
                1971
            ], 
            "M1": [
                2666
            ], 
            "irrelevant_Adj": [
                0
            ], 
            "M2": [
                2516
            ], 
            "BM1L": [
                1719
            ], 
            "WBO": [
                2673, 
                2890, 
                1566, 
                3168, 
                1297, 
                2762, 
                2303, 
                1318, 
                2890, 
                2866, 
                2666, 
                275, 
                3186, 
                1881, 
                2740
            ], 
            "WBL": [
                2555
            ], 
            "irrelevant_Noun": [
                0
            ], 
            "M1_ADJ": [
                0
            ]
        }, 
        "sentence": "if you hold down the scroll wheel too long ( which is common if you have a lot of song to sort through ) , it will get `` stuck `` rapidly going through the song and wo n't stop until several second after you let your finger off of it ."
    }, 
    "7967db31bc77438a94a846ddeb630669": {
        "location1": [
            36
        ], 
        "location2": [
            8
        ], 
        "(36, 8)": {
            "AM2L": [
                3185
            ], 
            "AM2F": [
                2866
            ], 
            "WBF": [
                1551
            ], 
            "BM1F": [
                2866
            ], 
            "M1": [
                2666
            ], 
            "irrelevant_Adj": [
                0
            ], 
            "M2": [
                2516
            ], 
            "BM1L": [
                242
            ], 
            "WBO": [
                1566, 
                1562, 
                3064, 
                1512, 
                2909, 
                1571, 
                1987, 
                2975, 
                1659, 
                1199, 
                1566, 
                1562, 
                2179, 
                1537, 
                1551, 
                2866, 
                2046, 
                2160, 
                275, 
                648, 
                2909, 
                3041, 
                1071, 
                3181
            ], 
            "WBL": [
                275
            ], 
            "irrelevant_Noun": [
                0
            ], 
            "M1_ADJ": [
                0
            ]
        }, 
        "sentence": "finally the software used to put all the song into it is vastly inferior to itunes on two level , first it is poorly integrated into the overall player and clunky to use especially with tagging and second the wma audio format suck , flat out suck in term of sound quality compared with the vastly superior aac format the apple ipod us and it stick you with one of the sub par paid music service such as napster instead of allowing to use the itunes store , which , if you ever plan to pay for your music , is by far the best ."
    }, 
    "ea2c514a36f45b31b1c75ee1b8e84f0b": {
        "(8, 6)": {
            "AM2L": [
                3040
            ], 
            "WBFL": [
                2101
            ], 
            "BM1F": [
                150
            ], 
            "M1": [
                2666
            ], 
            "irrelevant_Adj": [
                0
            ], 
            "M2": [
                2516
            ], 
            "BM1L": [
                1890
            ], 
            "AM2F": [
                3076
            ], 
            "irrelevant_Noun": [
                0
            ], 
            "M1_ADJ": [
                0
            ]
        }, 
        "location1": [
            8
        ], 
        "location2": [
            6
        ], 
        "sentence": "file transfer are fast , nearly a song per second via usb 2.0 ."
    }, 
    "367132e3bd707c6fcb4fcfefdd6d2de8": {
        "location1": [
            0
        ], 
        "location2": [
            10
        ], 
        "(0, 10)": {
            "WBF": [
                2866
            ], 
            "AM2L": [
                1566
            ], 
            "M1": [
                2516
            ], 
            "irrelevant_Adj": [
                0
            ], 
            "M2": [
                2666
            ], 
            "WBO": [
                356, 
                2820, 
                1987, 
                784, 
                1657, 
                3229
            ], 
            "WBL": [
                2866
            ], 
            "irrelevant_Noun": [
                0
            ], 
            "AM2F": [
                415
            ], 
            "M1_ADJ": [
                1
            ]
        }, 
        "sentence": "second , the `` automatic `` sync on creative let you review the song before it begin its transfer ."
    }
}