{
    "033b35286cae2ac0ec2fc080f51e500c": {
        "location1": [
            11
        ], 
        "location2": [
            25
        ], 
        "(11, 25)": {
            "AM2L": [
                1297
            ], 
            "AM2F": [
                2909
            ], 
            "WBF": [
                150
            ], 
            "BM1F": [
                1940
            ], 
            "M1": [
                2545
            ], 
            "irrelevant_Adj": [
                0
            ], 
            "M2": [
                2901
            ], 
            "BM1L": [
                522
            ], 
            "WBO": [
                1690, 
                1625, 
                2862, 
                2032, 
                1865, 
                522, 
                2734, 
                1665, 
                2866, 
                2653
            ], 
            "WBL": [
                2659
            ], 
            "irrelevant_Noun": [
                1
            ], 
            "M1_ADJ": [
                1
            ]
        }, 
        "sentence": "there are a couple thing i didnt like though but nothing serious : a little larger than other mp3s but still light , the software takes some time to get used to ( maybe 10-15 min ) , and this thing would definitely be destroyed with one fall ."
    }
}