{
    "20d3a45cf59c04e869a7f7ce2fd28dcf": {
        "location1": [
            6
        ], 
        "location2": [
            14
        ], 
        "(6, 14)": {
            "AM2F": [
                1232
            ], 
            "WBF": [
                723
            ], 
            "BM1F": [
                161
            ], 
            "M1": [
                2577
            ], 
            "irrelevant_Adj": [
                0
            ], 
            "M2": [
                939
            ], 
            "BM1L": [
                2909
            ], 
            "WBO": [
                1987, 
                2661, 
                1449, 
                2069
            ], 
            "WBL": [
                62
            ], 
            "irrelevant_Noun": [
                0
            ], 
            "M1_ADJ": [
                1
            ]
        }, 
        "sentence": "i 'm not willing to accept shoddy construction on something i paid over 250 dollar for ."
    }
}