{
    "bc8cb26f2e111e60b22ac940195a192f": {
        "(0, 25)": {
            "WBF": [
                3114
            ], 
            "M1": [
                2582
            ], 
            "irrelevant_Adj": [
                0
            ], 
            "M2": [
                3146
            ], 
            "WBO": [
                74, 
                1849, 
                2650, 
                1449, 
                1322, 
                2866, 
                1116, 
                3114, 
                337, 
                434, 
                524, 
                1965, 
                1253, 
                3029, 
                1004, 
                1204, 
                528, 
                2183, 
                2037, 
                400, 
                2664
            ], 
            "WBL": [
                1887
            ], 
            "irrelevant_Noun": [
                0
            ], 
            "M1_ADJ": [
                1
            ]
        }, 
        "location1": [
            0
        ], 
        "location2": [
            25
        ], 
        "sentence": "short warranty ( 3 month , so i got the extended warranty at best buy ) , occasional freeze up ( easily fixed by popping out battery ) , somewhat flimsy navigation wheel ."
    }
}