{
    "80bbb11678af660f0125fc0dd5f8324c": {
        "(0, 13)": {
            "WBF": [
                636
            ], 
            "AM2L": [
                3041
            ], 
            "M1": [
                2605
            ], 
            "irrelevant_Adj": [
                0
            ], 
            "M2": [
                166
            ], 
            "WBO": [
                523, 
                373, 
                523, 
                3097, 
                275, 
                917, 
                316, 
                3075, 
                1005
            ], 
            "WBL": [
                2317
            ], 
            "irrelevant_Noun": [
                0
            ], 
            "AM2F": [
                275
            ], 
            "M1_ADJ": [
                1
            ]
        }, 
        "location1": [
            0
        ], 
        "location2": [
            13
        ], 
        "sentence": "simple click button , back button volume and display are very easy to read , access and use ."
    }
}