{
    "a38439d7c15e4548fd748f4b11dd2e65": {
        "(7, 8)": {
            "BM1F": [
                2866
            ], 
            "M1": [
                2605
            ], 
            "irrelevant_Adj": [
                0
            ], 
            "M2": [
                1558
            ], 
            "BM1L": [
                2909
            ], 
            "WBNULL": [
                1
            ], 
            "irrelevant_Noun": [
                0
            ], 
            "AM2F": [
                1994
            ], 
            "M1_ADJ": [
                1
            ]
        }, 
        "location1": [
            7
        ], 
        "location2": [
            8
        ], 
        "sentence": "- the control are much inferior to the simple ipod one ."
    }
}