{
    "2c92d650e105f7df5d4390b5bddf0006": {
        "location1": [
            2
        ], 
        "location2": [
            9
        ], 
        "(2, 9)": {
            "AM2L": [
                827
            ], 
            "AM2F": [
                1562
            ], 
            "WBF": [
                1665
            ], 
            "BM1F": [
                4
            ], 
            "M1": [
                2637
            ], 
            "irrelevant_Adj": [
                0
            ], 
            "M2": [
                917
            ], 
            "BM1L": [
                1566
            ], 
            "WBO": [
                275, 
                1907, 
                1712
            ], 
            "WBL": [
                2866
            ], 
            "irrelevant_Noun": [
                0
            ], 
            "M1_ADJ": [
                1
            ]
        }, 
        "sentence": "it 's small , light and nice looking and the display is decent as well ."
    }
}