{
    "c17dc1715e1475263f7052f45d238a95": {
        "location1": [
            1
        ], 
        "location2": [
            11
        ], 
        "(1, 11)": {
            "WBF": [
                2676
            ], 
            "BM1F": [
                2046
            ], 
            "M1": [
                2637
            ], 
            "irrelevant_Adj": [
                0
            ], 
            "M2": [
                1558
            ], 
            "WBO": [
                1333, 
                275, 
                1655, 
                1105, 
                2862, 
                307
            ], 
            "WBL": [
                2053
            ], 
            "irrelevant_Noun": [
                0
            ], 
            "M1_ADJ": [
                1
            ]
        }, 
        "sentence": "overall : small , sound great , and less expensive than apple 's overpriced ipod !"
    }, 
    "f9ddf9883a3cf622da12c862e0d82fc1": {
        "(2, 7)": {
            "AM2L": [
                1597
            ], 
            "AM2F": [
                522
            ], 
            "WBF": [
                2046
            ], 
            "BM1F": [
                1562
            ], 
            "M1": [
                2637
            ], 
            "irrelevant_Adj": [
                0
            ], 
            "M2": [
                1558
            ], 
            "BM1L": [
                1566
            ], 
            "WBO": [
                441
            ], 
            "WBL": [
                2866
            ], 
            "irrelevant_Noun": [
                0
            ], 
            "M1_ADJ": [
                1
            ]
        }, 
        "location1": [
            2
        ], 
        "location2": [
            7
        ], 
        "sentence": "it is small overall , bigger than the ipod , but keep in mind that this is because different , less expensive but not necessarily inferior technology is used in the zx ."
    }, 
    "329396ddfb82ab13a6d35d524fa8b1d6": {
        "location1": [
            30
        ], 
        "location2": [
            7
        ], 
        "(30, 7)": {
            "AM2L": [
                1971
            ], 
            "AM2F": [
                1948
            ], 
            "WBF": [
                4
            ], 
            "BM1F": [
                2866
            ], 
            "M1": [
                1558
            ], 
            "irrelevant_Adj": [
                0
            ], 
            "M2": [
                2637
            ], 
            "BM1L": [
                2862
            ], 
            "WBO": [
                325, 
                3138, 
                1490, 
                2864, 
                3229, 
                931, 
                1881, 
                2457, 
                1308, 
                3233, 
                150, 
                771, 
                2470, 
                3230, 
                2892, 
                319, 
                1490, 
                624, 
                1039
            ], 
            "WBL": [
                150
            ], 
            "irrelevant_Noun": [
                0
            ], 
            "M1_ADJ": [
                0
            ]
        }, 
        "sentence": "the scroll wheel is better than the ipod 's as well , in that you do n't risk giving yourself a cramp running your thumb around in circle endlessly - just a small nudge of the finger and you 're there ."
    }, 
    "a73d14c0989545fa526660433bb1046c": {
        "location1": [
            17
        ], 
        "location2": [
            7
        ], 
        "(17, 7)": {
            "AM2L": [
                3117
            ], 
            "AM2F": [
                1566
            ], 
            "WBF": [
                1449
            ], 
            "BM1F": [
                2866
            ], 
            "M1": [
                1558
            ], 
            "irrelevant_Adj": [
                0
            ], 
            "M2": [
                2637
            ], 
            "BM1L": [
                2862
            ], 
            "WBO": [
                1877, 
                2491, 
                1449, 
                3117, 
                2806, 
                2909
            ], 
            "WBL": [
                1444
            ], 
            "irrelevant_Noun": [
                0
            ], 
            "M1_ADJ": [
                0
            ]
        }, 
        "sentence": "despite its being slightly larger than the ipod , i must say i was surprised to see how small it was when i unwrapped the box !"
    }, 
    "046321e6f46dfb8659079eb3d885696d": {
        "(13, 22)": {
            "WBF": [
                275
            ], 
            "BM1F": [
                2291
            ], 
            "M1": [
                2637
            ], 
            "irrelevant_Adj": [
                0
            ], 
            "M2": [
                1558
            ], 
            "BM1L": [
                2734
            ], 
            "WBO": [
                1665, 
                867, 
                423, 
                2628, 
                441
            ], 
            "WBL": [
                273
            ], 
            "irrelevant_Noun": [
                0
            ], 
            "M1_ADJ": [
                1
            ]
        }, 
        "location1": [
            13
        ], 
        "location2": [
            22
        ], 
        "sentence": "other plus : changable battery , load of presets for environment , decent construction , still quite small and light despite being slightly bigger than an ipod ."
    }
}