{
    "8d1f6697eefabe40a2bed7c33818a32d": {
        "(9, 16)": {
            "WBF": [
                877
            ], 
            "BM1F": [
                1994
            ], 
            "M1": [
                2637
            ], 
            "irrelevant_Adj": [
                0
            ], 
            "M2": [
                761
            ], 
            "BM1L": [
                1490
            ], 
            "WBO": [
                119, 
                2666, 
                107
            ], 
            "WBL": [
                275
            ], 
            "irrelevant_Noun": [
                0
            ], 
            "M1_ADJ": [
                1
            ]
        }, 
        "location1": [
            9
        ], 
        "location2": [
            16
        ], 
        "sentence": "12 ) big storage - my entire cd collection in one small device ( 5717 song , 491 album and counting ) !"
    }
}