{
    "0a09b863b5f04c01db59378ac1f5c8f2": {
        "location1": [
            15
        ], 
        "location2": [
            22
        ], 
        "(15, 22)": {
            "WBF": [
                1386
            ], 
            "BM1F": [
                2866
            ], 
            "M1": [
                2637
            ], 
            "irrelevant_Adj": [
                0
            ], 
            "M2": [
                573
            ], 
            "BM1L": [
                1971
            ], 
            "WBO": [
                3229, 
                1523, 
                1490
            ], 
            "WBL": [
                992
            ], 
            "irrelevant_Noun": [
                0
            ], 
            "M1_ADJ": [
                1
            ]
        }, 
        "sentence": "the headphone are n't the best , but you can really expect much out of the small headphone you insert in the ear cavity ."
    }
}