{
    "dd00a38d580f6f271c19d5bf9766fffb": {
        "(18, 3)": {
            "AM2F": [
                654
            ], 
            "WBF": [
                1544
            ], 
            "BM1F": [
                2160
            ], 
            "M1": [
                3046
            ], 
            "irrelevant_Adj": [
                0
            ], 
            "M2": [
                2637
            ], 
            "BM1L": [
                2866
            ], 
            "WBO": [
                2982, 
                1562, 
                1554, 
                2909, 
                3041, 
                275, 
                247, 
                1005, 
                1887, 
                1971, 
                150
            ], 
            "WBL": [
                2019
            ], 
            "irrelevant_Noun": [
                0
            ], 
            "M1_ADJ": [
                0
            ]
        }, 
        "location1": [
            18
        ], 
        "location2": [
            3
        ], 
        "sentence": "2 ) the player user interface ( ui ) is intuitive to use , and allows easy navigation of a large or small collection ."
    }
}