{
    "370f2f08bb8ba98db88f94c031ba3f60": {
        "(22, 28)": {
            "AM2L": [
                150
            ], 
            "AM2F": [
                1490
            ], 
            "WBF": [
                1669
            ], 
            "BM1F": [
                1566
            ], 
            "M1": [
                2676
            ], 
            "irrelevant_Adj": [
                1
            ], 
            "M2": [
                1875
            ], 
            "BM1L": [
                1746
            ], 
            "WBO": [
                3229, 
                3
            ], 
            "WBL": [
                2866
            ], 
            "irrelevant_Noun": [
                0
            ], 
            "M1_ADJ": [
                1
            ]
        }, 
        "(5, 18)": {
            "AM2L": [
                1746
            ], 
            "AM2F": [
                2019
            ], 
            "WBF": [
                1333
            ], 
            "BM1F": [
                275
            ], 
            "M1": [
                2676
            ], 
            "irrelevant_Adj": [
                1
            ], 
            "M2": [
                1875
            ], 
            "BM1L": [
                1156
            ], 
            "WBO": [
                1566, 
                254, 
                1371, 
                1758, 
                2017, 
                1669, 
                2633, 
                2019, 
                2697
            ], 
            "WBL": [
                2866
            ], 
            "irrelevant_Noun": [
                0
            ], 
            "M1_ADJ": [
                1
            ]
        }, 
        "sentence": "the player is fast and sound great , it also has many option like slowing or speeding up the music , or making it sound like you 're hearing the music in a huge auditorium .", 
        "location2": [
            18, 
            28
        ], 
        "location1": [
            5, 
            22
        ], 
        "(22, 18)": {
            "AM2L": [
                3229
            ], 
            "AM2F": [
                1669
            ], 
            "WBF": [
                2019
            ], 
            "BM1F": [
                2866
            ], 
            "M1": [
                1875
            ], 
            "irrelevant_Adj": [
                1
            ], 
            "M2": [
                2676
            ], 
            "BM1L": [
                3029
            ], 
            "WBO": [
                1746
            ], 
            "WBL": [
                1566
            ], 
            "irrelevant_Noun": [
                0
            ], 
            "M1_ADJ": [
                0
            ]
        }, 
        "(5, 28)": {
            "AM2L": [
                150
            ], 
            "AM2F": [
                1490
            ], 
            "WBF": [
                1333
            ], 
            "BM1F": [
                275
            ], 
            "M1": [
                2676
            ], 
            "irrelevant_Adj": [
                1
            ], 
            "M2": [
                1875
            ], 
            "BM1L": [
                1156
            ], 
            "WBO": [
                1566, 
                254, 
                1371, 
                1758, 
                2017, 
                1669, 
                2633, 
                2019, 
                2697, 
                3029, 
                2866, 
                1875, 
                2019, 
                1746, 
                1566, 
                2676, 
                1669, 
                3229, 
                3
            ], 
            "WBL": [
                2866
            ], 
            "irrelevant_Noun": [
                0
            ], 
            "M1_ADJ": [
                1
            ]
        }
    }, 
    "21ebed2a97f528417ad5da338ef26ef7": {
        "(43, 30)": {
            "AM2L": [
                1572
            ], 
            "AM2F": [
                275
            ], 
            "WBF": [
                2939
            ], 
            "BM1F": [
                1490
            ], 
            "M1": [
                1875
            ], 
            "irrelevant_Adj": [
                1
            ], 
            "M2": [
                2676
            ], 
            "BM1L": [
                1398
            ], 
            "WBO": [
                735, 
                316, 
                1005, 
                2909, 
                3041, 
                221, 
                1764, 
                2866, 
                2506
            ], 
            "WBL": [
                1333
            ], 
            "irrelevant_Noun": [
                0
            ], 
            "M1_ADJ": [
                0
            ]
        }, 
        "location1": [
            43
        ], 
        "location2": [
            30
        ], 
        "sentence": "now here the stuff you should know starting with the good thing : the screen is really big and the blue light in the back is perfect , fast as hell in music transfer , control are easy to use after mastering the scroll button , great sound and ive heard many mp3 player , a ton of different equilizer type deal on here ."
    }, 
    "7967db31bc77438a94a846ddeb630669": {
        "(48, 72)": {
            "AM2L": [
                2782
            ], 
            "AM2F": [
                2549
            ], 
            "WBF": [
                2281
            ], 
            "BM1F": [
                1971
            ], 
            "M1": [
                2676
            ], 
            "irrelevant_Adj": [
                1
            ], 
            "M2": [
                1875
            ], 
            "BM1L": [
                2856
            ], 
            "WBO": [
                678, 
                3181, 
                2866, 
                3064, 
                2793, 
                151, 
                1239, 
                2866, 
                307, 
                1558, 
                3038, 
                275, 
                1566, 
                2732, 
                3229, 
                3181, 
                1994, 
                1971, 
                2866, 
                2772
            ], 
            "WBL": [
                2069
            ], 
            "irrelevant_Noun": [
                0
            ], 
            "M1_ADJ": [
                1
            ]
        }, 
        "(48, 94)": {
            "AM2L": [
                528
            ], 
            "AM2F": [
                1562
            ], 
            "WBF": [
                2281
            ], 
            "BM1F": [
                1971
            ], 
            "M1": [
                2676
            ], 
            "irrelevant_Adj": [
                1
            ], 
            "M2": [
                1875
            ], 
            "BM1L": [
                2856
            ], 
            "WBO": [
                678, 
                3181, 
                2866, 
                3064, 
                2793, 
                151, 
                1239, 
                2866, 
                307, 
                1558, 
                3038, 
                275, 
                1566, 
                2732, 
                3229, 
                3181, 
                1994, 
                1971, 
                2866, 
                2772, 
                2078, 
                2069, 
                1875, 
                2549, 
                2782, 
                325, 
                1883, 
                1535, 
                1971, 
                246, 
                2909, 
                3041, 
                2866, 
                1571, 
                2748, 
                3152, 
                1463, 
                3229, 
                1079, 
                2151, 
                2909, 
                2092
            ], 
            "WBL": [
                3230
            ], 
            "irrelevant_Noun": [
                0
            ], 
            "M1_ADJ": [
                1
            ]
        }, 
        "location1": [
            48
        ], 
        "location2": [
            72, 
            94
        ], 
        "sentence": "finally the software used to put all the song into it is vastly inferior to itunes on two level , first it is poorly integrated into the overall player and clunky to use especially with tagging and second the wma audio format suck , flat out suck in term of sound quality compared with the vastly superior aac format the apple ipod us and it stick you with one of the sub par paid music service such as napster instead of allowing to use the itunes store , which , if you ever plan to pay for your music , is by far the best ."
    }, 
    "8569a7dfb307c605d7ba9f01dc118762": {
        "(1, 5)": {
            "AM2L": [
                1144
            ], 
            "AM2F": [
                2410
            ], 
            "WBF": [
                1449
            ], 
            "BM1F": [
                1092
            ], 
            "M1": [
                2676
            ], 
            "irrelevant_Adj": [
                1
            ], 
            "M2": [
                1875
            ], 
            "WBO": [
                1245
            ], 
            "WBL": [
                2866
            ], 
            "irrelevant_Noun": [
                0
            ], 
            "M1_ADJ": [
                1
            ]
        }, 
        "location1": [
            1
        ], 
        "location2": [
            5
        ], 
        "sentence": "excellent sound - i found the music reproduced faithfully through the jukebox ."
    }, 
    "25da27d72af155af06e6c5874f503ef7": {
        "(3, 19)": {
            "AM2L": [
                83
            ], 
            "AM2F": [
                1562
            ], 
            "WBF": [
                1562
            ], 
            "BM1F": [
                2866
            ], 
            "M1": [
                2676
            ], 
            "irrelevant_Adj": [
                1
            ], 
            "M2": [
                1875
            ], 
            "BM1L": [
                222
            ], 
            "WBO": [
                367, 
                2866, 
                399, 
                1664, 
                1562, 
                1999, 
                123, 
                1442, 
                275, 
                2864, 
                1562, 
                407
            ], 
            "WBL": [
                1878
            ], 
            "irrelevant_Noun": [
                0
            ], 
            "M1_ADJ": [
                1
            ]
        }, 
        "location1": [
            3
        ], 
        "location2": [
            19
        ], 
        "sentence": "once again , the sound is awesome , the batterly life is only 6-8 hour , and that is because all my music is 320 kbps which does affect the battery life ."
    }, 
    "72aded7ea887df602a8ff0bb7045767d": {
        "location1": [
            1
        ], 
        "location2": [
            7
        ], 
        "(1, 7)": {
            "AM2L": [
                1063
            ], 
            "AM2F": [
                1562
            ], 
            "WBF": [
                2281
            ], 
            "BM1F": [
                2866
            ], 
            "M1": [
                2676
            ], 
            "irrelevant_Adj": [
                1
            ], 
            "M2": [
                1875
            ], 
            "WBO": [
                3181, 
                1576
            ], 
            "WBL": [
                2180
            ], 
            "irrelevant_Noun": [
                0
            ], 
            "M1_ADJ": [
                1
            ]
        }, 
        "sentence": "the sound quality with jazz and pop music is equally superior ."
    }
}