{
    "21ebed2a97f528417ad5da338ef26ef7": {
        "(43, 46)": {
            "AM2L": [
                1864
            ], 
            "AM2F": [
                1758
            ], 
            "WBF": [
                275
            ], 
            "BM1F": [
                1333
            ], 
            "M1": [
                2676
            ], 
            "irrelevant_Adj": [
                1
            ], 
            "M2": [
                1389
            ], 
            "BM1L": [
                523
            ], 
            "WBO": [
                1572
            ], 
            "WBL": [
                1572
            ], 
            "irrelevant_Noun": [
                0
            ], 
            "M1_ADJ": [
                1
            ]
        }, 
        "location1": [
            43
        ], 
        "location2": [
            46
        ], 
        "sentence": "now here the stuff you should know starting with the good thing : the screen is really big and the blue light in the back is perfect , fast as hell in music transfer , control are easy to use after mastering the scroll button , great sound and ive heard many mp3 player , a ton of different equilizer type deal on here ."
    }
}