{
    "72aded7ea887df602a8ff0bb7045767d": {
        "(1, 6)": {
            "AM2L": [
                1562
            ], 
            "AM2F": [
                1875
            ], 
            "WBF": [
                2281
            ], 
            "BM1F": [
                2866
            ], 
            "M1": [
                2676
            ], 
            "irrelevant_Adj": [
                1
            ], 
            "M2": [
                2180
            ], 
            "WBO": [
                3181
            ], 
            "WBL": [
                275
            ], 
            "irrelevant_Noun": [
                0
            ], 
            "M1_ADJ": [
                1
            ]
        }, 
        "location1": [
            1
        ], 
        "location2": [
            6
        ], 
        "sentence": "the sound quality with jazz and pop music is equally superior ."
    }
}