{
    "26afbb728550c0df1149e771bc94d54b": {
        "(1, 14)": {
            "AM2L": [
                2501
            ], 
            "AM2F": [
                744
            ], 
            "WBF": [
                2281
            ], 
            "BM1F": [
                2866
            ], 
            "M1": [
                2676
            ], 
            "irrelevant_Adj": [
                1
            ], 
            "M2": [
                1710
            ], 
            "WBO": [
                1562, 
                1092, 
                275, 
                1449, 
                2, 
                1277, 
                3181, 
                2864, 
                2764
            ], 
            "WBL": [
                3010
            ], 
            "irrelevant_Noun": [
                0
            ], 
            "M1_ADJ": [
                1
            ]
        }, 
        "location1": [
            1
        ], 
        "location2": [
            14
        ], 
        "sentence": "the sound quality is excellent ( and i 'm fussy with that stuff ) , the unit look cool , screen is bright and easy to read , and the replaceable battery mean a major advantage over the ipod ( besides the price , but everyone know that ) ."
    }
}