{
    "ef25a24c12ae7b697445f8d181fbe847": {
        "(28, 40)": {
            "AM2L": [
                3222
            ], 
            "AM2F": [
                1971
            ], 
            "WBF": [
                3165
            ], 
            "BM1F": [
                1092
            ], 
            "M1": [
                2676
            ], 
            "irrelevant_Adj": [
                1
            ], 
            "M2": [
                1949
            ], 
            "BM1L": [
                275
            ], 
            "WBO": [
                1612, 
                2909, 
                402, 
                436, 
                2862, 
                1558, 
                1935, 
                2807
            ], 
            "WBL": [
                2866
            ], 
            "irrelevant_Noun": [
                0
            ], 
            "M1_ADJ": [
                1
            ]
        }, 
        "location1": [
            28
        ], 
        "location2": [
            40
        ], 
        "sentence": "like it 's predecessor , the quickly revised nx , this player boast a decent size and weight , a relatively-intuitive navigational system that categorizes based on id3 tag , and excellent sound ( widely known to be better than ipod - not surprising considering the number of year creative has been in the audio peripheral business ) ."
    }
}