{
    "3bf21a4b29d090cbd158c4195701fcd2": {
        "(2, 27)": {
            "WBF": [
                148
            ], 
            "BM1F": [
                1333
            ], 
            "M1": [
                2676
            ], 
            "irrelevant_Adj": [
                1
            ], 
            "M2": [
                2687
            ], 
            "BM1L": [
                8
            ], 
            "WBO": [
                2599, 
                2310, 
                404, 
                1558, 
                4, 
                3025, 
                2310, 
                275, 
                1320, 
                2203, 
                2042, 
                244, 
                2866, 
                3236, 
                3220, 
                2909, 
                963, 
                1623, 
                1384, 
                325, 
                3138
            ], 
            "WBL": [
                1119
            ], 
            "irrelevant_Noun": [
                0
            ], 
            "M1_ADJ": [
                1
            ]
        }, 
        "location1": [
            2
        ], 
        "location2": [
            27
        ], 
        "sentence": "1 ) great sound ( > 98db signal-to-noise ratio beat ipod 's `` unspecified `` ratio ) and good power output allow the zen xtra to drive large head-phones as well as external speaker ."
    }, 
    "de8c0ea32caab8f743c60c243bf98ff9": {
        "(2, 14)": {
            "WBF": [
                1562
            ], 
            "BM1F": [
                2866
            ], 
            "M1": [
                2676
            ], 
            "irrelevant_Adj": [
                1
            ], 
            "M2": [
                2687
            ], 
            "BM1L": [
                522
            ], 
            "WBO": [
                3075, 
                1320, 
                275, 
                1720, 
                275, 
                3191, 
                3138, 
                1987
            ], 
            "WBL": [
                2187
            ], 
            "irrelevant_Noun": [
                0
            ], 
            "M1_ADJ": [
                1
            ]
        }, 
        "location1": [
            2
        ], 
        "location2": [
            14
        ], 
        "sentence": "but the sound is very good ( and loud ) and work well on my portable speaker ."
    }
}