{
    "21ebed2a97f528417ad5da338ef26ef7": {
        "(43, 40)": {
            "AM2L": [
                1572
            ], 
            "AM2F": [
                275
            ], 
            "WBF": [
                523
            ], 
            "BM1F": [
                2866
            ], 
            "M1": [
                2506
            ], 
            "irrelevant_Adj": [
                1
            ], 
            "M2": [
                2676
            ], 
            "BM1L": [
                1764
            ], 
            "WBO": [
                1333
            ], 
            "WBL": [
                1333
            ], 
            "irrelevant_Noun": [
                0
            ], 
            "M1_ADJ": [
                0
            ]
        }, 
        "location1": [
            43
        ], 
        "location2": [
            40
        ], 
        "sentence": "now here the stuff you should know starting with the good thing : the screen is really big and the blue light in the back is perfect , fast as hell in music transfer , control are easy to use after mastering the scroll button , great sound and ive heard many mp3 player , a ton of different equilizer type deal on here ."
    }
}