{
    "97c7ba01b8d251276d4c9b11594e1473": {
        "(1, 18)": {
            "AM2L": [
                574
            ], 
            "AM2F": [
                1971
            ], 
            "WBF": [
                2281
            ], 
            "BM1F": [
                2866
            ], 
            "M1": [
                2676
            ], 
            "irrelevant_Adj": [
                1
            ], 
            "M2": [
                2709
            ], 
            "WBO": [
                1562, 
                1152, 
                574, 
                2281, 
                275, 
                1566, 
                1562, 
                2325, 
                1333, 
                2909, 
                560, 
                2882, 
                319
            ], 
            "WBL": [
                1971
            ], 
            "irrelevant_Noun": [
                0
            ], 
            "M1_ADJ": [
                1
            ]
        }, 
        "location1": [
            1
        ], 
        "location2": [
            18
        ], 
        "sentence": "the sound quality is fantastic ( cd quality ) and it is really great to carry this around instead of stack of cd 's or tape !"
    }
}