{
    "ee31d7df41f71e9ae037cdf06e1512c9": {
        "(8, 19)": {
            "AM2L": [
                1591
            ], 
            "AM2F": [
                2676
            ], 
            "WBF": [
                1591
            ], 
            "BM1F": [
                1176
            ], 
            "M1": [
                2676
            ], 
            "irrelevant_Adj": [
                1
            ], 
            "M2": [
                3220
            ], 
            "BM1L": [
                3185
            ], 
            "WBO": [
                325, 
                1320, 
                325, 
                2866, 
                2680, 
                574, 
                275
            ], 
            "WBL": [
                3236
            ], 
            "irrelevant_Noun": [
                0
            ], 
            "M1_ADJ": [
                1
            ]
        }, 
        "location1": [
            8, 
            20
        ], 
        "location2": [
            19
        ], 
        "(20, 19)": {
            "AM2L": [
                325
            ], 
            "BM1F": [
                3236
            ], 
            "M1": [
                3220
            ], 
            "irrelevant_Adj": [
                1
            ], 
            "M2": [
                2676
            ], 
            "BM1L": [
                2866
            ], 
            "WBNULL": [
                1
            ], 
            "irrelevant_Noun": [
                0
            ], 
            "AM2F": [
                1591
            ], 
            "M1_ADJ": [
                0
            ]
        }, 
        "sentence": "to my ear , a 160 kbps wma file sound just as good as the source cd , and the zen xtra sound just as good as a portable cd player ."
    }, 
    "2f0c579001ddf9a71892e54a7ae11a15": {
        "(3, 2)": {
            "AM2L": [
                3181
            ], 
            "BM1F": [
                3236
            ], 
            "M1": [
                3220
            ], 
            "irrelevant_Adj": [
                1
            ], 
            "M2": [
                2676
            ], 
            "BM1L": [
                2866
            ], 
            "WBNULL": [
                1
            ], 
            "irrelevant_Noun": [
                0
            ], 
            "AM2F": [
                1333
            ], 
            "M1_ADJ": [
                0
            ]
        }, 
        "location1": [
            3
        ], 
        "location2": [
            2
        ], 
        "sentence": "the zen xtra sound great with good headphone and well recored mp3s ."
    }, 
    "3bf21a4b29d090cbd158c4195701fcd2": {
        "location1": [
            2
        ], 
        "location2": [
            18
        ], 
        "(2, 18)": {
            "AM2L": [
                963
            ], 
            "AM2F": [
                2909
            ], 
            "WBF": [
                148
            ], 
            "BM1F": [
                1333
            ], 
            "M1": [
                2676
            ], 
            "irrelevant_Adj": [
                1
            ], 
            "M2": [
                3220
            ], 
            "BM1L": [
                8
            ], 
            "WBO": [
                2599, 
                2310, 
                404, 
                1558, 
                4, 
                3025, 
                2310, 
                275, 
                1320, 
                2203, 
                2042, 
                244
            ], 
            "WBL": [
                3236
            ], 
            "irrelevant_Noun": [
                0
            ], 
            "M1_ADJ": [
                1
            ]
        }, 
        "sentence": "1 ) great sound ( > 98db signal-to-noise ratio beat ipod 's `` unspecified `` ratio ) and good power output allow the zen xtra to drive large head-phones as well as external speaker ."
    }
}