{
    "18776b75386e5e4b1a8d94034da05d2b": {
        "(1, 22)": {
            "WBF": [
                827
            ], 
            "BM1F": [
                1566
            ], 
            "M1": [
                2676
            ], 
            "irrelevant_Adj": [
                1
            ], 
            "M2": [
                1573
            ], 
            "WBO": [
                522, 
                1449, 
                3204, 
                1073, 
                3229, 
                1297, 
                1770, 
                136, 
                1971, 
                2866, 
                2281, 
                2864, 
                3229, 
                3204, 
                1261, 
                150, 
                2960
            ], 
            "WBL": [
                2037
            ], 
            "irrelevant_Noun": [
                0
            ], 
            "M1_ADJ": [
                1
            ]
        }, 
        "location1": [
            1
        ], 
        "location2": [
            22
        ], 
        "sentence": "it sound decent , but i would estimate you get maybe 80 % of the quality that you would from a true line out jack ."
    }
}