{
    "c8196ec4c983af49734af374c87665fd": {
        "(34, 11)": {
            "AM2L": [
                1317
            ], 
            "AM2F": [
                2281
            ], 
            "WBF": [
                2160
            ], 
            "BM1F": [
                1932
            ], 
            "M1": [
                1864
            ], 
            "irrelevant_Adj": [
                1
            ], 
            "M2": [
                2676
            ], 
            "BM1L": [
                150
            ], 
            "WBO": [
                3147, 
                3229, 
                3041, 
                2866, 
                1386, 
                2875, 
                1305, 
                3229, 
                1490, 
                2866, 
                481, 
                522, 
                1555, 
                78, 
                939, 
                1490, 
                150, 
                1907, 
                2072
            ], 
            "WBL": [
                2866
            ], 
            "irrelevant_Noun": [
                0
            ], 
            "M1_ADJ": [
                0
            ]
        }, 
        "location1": [
            34
        ], 
        "location2": [
            11
        ], 
        "sentence": "on the subject of headphone , this thing seems like a normal mp3 player when you use the headphone they give you in the box , but invest 30 dollar in a nice pair and the sound quality goes up through the roof !"
    }, 
    "21ebed2a97f528417ad5da338ef26ef7": {
        "(43, 48)": {
            "AM2L": [
                150
            ], 
            "AM2F": [
                2160
            ], 
            "WBF": [
                275
            ], 
            "BM1F": [
                1333
            ], 
            "M1": [
                2676
            ], 
            "irrelevant_Adj": [
                1
            ], 
            "M2": [
                1864
            ], 
            "BM1L": [
                523
            ], 
            "WBO": [
                1572
            ], 
            "WBL": [
                1758
            ], 
            "irrelevant_Noun": [
                0
            ], 
            "M1_ADJ": [
                1
            ]
        }, 
        "location1": [
            43
        ], 
        "location2": [
            48
        ], 
        "sentence": "now here the stuff you should know starting with the good thing : the screen is really big and the blue light in the back is perfect , fast as hell in music transfer , control are easy to use after mastering the scroll button , great sound and ive heard many mp3 player , a ton of different equilizer type deal on here ."
    }, 
    "68a9b8ffda36ad44922fd9094de3d7c5": {
        "location1": [
            30
        ], 
        "location2": [
            38
        ], 
        "(30, 38)": {
            "AM2F": [
                2160
            ], 
            "WBF": [
                3152
            ], 
            "BM1F": [
                1333
            ], 
            "M1": [
                2676
            ], 
            "irrelevant_Adj": [
                1
            ], 
            "M2": [
                1864
            ], 
            "BM1L": [
                150
            ], 
            "WBO": [
                1562, 
                242, 
                2864, 
                1767
            ], 
            "WBL": [
                150
            ], 
            "irrelevant_Noun": [
                0
            ], 
            "M1_ADJ": [
                1
            ]
        }, 
        "sentence": "all in all this a great player that blow the i-pod away , with easy to use and understand feature , software that is simple to understand and use , and a great sound ( which is all that matter in a mp3 player ) ."
    }, 
    "bdc192fe7f1f8ae65e2026ddd253541b": {
        "location1": [
            17
        ], 
        "location2": [
            8
        ], 
        "(17, 8)": {
            "AM2L": [
                1971
            ], 
            "AM2F": [
                2281
            ], 
            "WBF": [
                2160
            ], 
            "BM1F": [
                784
            ], 
            "M1": [
                1864
            ], 
            "irrelevant_Adj": [
                1
            ], 
            "M2": [
                2676
            ], 
            "BM1L": [
                2034
            ], 
            "WBO": [
                316, 
                3075, 
                1320, 
                275, 
                1375
            ], 
            "WBL": [
                434
            ], 
            "irrelevant_Noun": [
                0
            ], 
            "M1_ADJ": [
                0
            ]
        }, 
        "sentence": "it 's really a shame , because otherwise , creative mp3 player are very good , and have the best sound quality of any player on the market ."
    }, 
    "8812abd94f2f4829367b5c99303eebd1": {
        "(16, 11)": {
            "AM2L": [
                1971
            ], 
            "AM2F": [
                2281
            ], 
            "WBF": [
                1587
            ], 
            "BM1F": [
                784
            ], 
            "M1": [
                1864
            ], 
            "irrelevant_Adj": [
                1
            ], 
            "M2": [
                2676
            ], 
            "BM1L": [
                2866
            ], 
            "WBO": [
                1375
            ], 
            "WBL": [
                434
            ], 
            "irrelevant_Noun": [
                0
            ], 
            "M1_ADJ": [
                0
            ]
        }, 
        "location1": [
            16
        ], 
        "location2": [
            11
        ], 
        "sentence": "all review i 've seen seem to indicate that the creative mp3 jukebox have the best sound quality of these 2nd generation jukeboxed ( ipod , archos , dell , samsung ) ."
    }
}