{
    "5752d425fd230241f15f09a3ca7c1c62": {
        "location1": [
            5
        ], 
        "location2": [
            17
        ], 
        "(5, 17)": {
            "WBF": [
                2281
            ], 
            "BM1F": [
                150
            ], 
            "M1": [
                2676
            ], 
            "irrelevant_Adj": [
                1
            ], 
            "M2": [
                470
            ], 
            "BM1L": [
                177
            ], 
            "WBO": [
                1987, 
                2078, 
                3181, 
                1878, 
                2605, 
                2187, 
                574, 
                2160
            ], 
            "WBL": [
                398
            ], 
            "irrelevant_Noun": [
                0
            ], 
            "M1_ADJ": [
                1
            ]
        }, 
        "sentence": "i was unable achieve a sound quality on par with my simple portable cd player with `` bass boost . ``"
    }
}