{
    "c4e796d80648ecc51b638ffb194b05b7": {
        "(1, 16)": {
            "AM2L": [
                1566
            ], 
            "AM2F": [
                995
            ], 
            "WBF": [
                2281
            ], 
            "BM1F": [
                2866
            ], 
            "M1": [
                2676
            ], 
            "irrelevant_Adj": [
                1
            ], 
            "M2": [
                1135
            ], 
            "WBO": [
                1562, 
                254, 
                1907, 
                221, 
                1449, 
                1433, 
                3029, 
                1878, 
                2667, 
                1386, 
                1535
            ], 
            "WBL": [
                2884
            ], 
            "irrelevant_Noun": [
                0
            ], 
            "M1_ADJ": [
                1
            ]
        }, 
        "location1": [
            1
        ], 
        "location2": [
            16
        ], 
        "sentence": "the sound quality is also nice ... after i hooked up my sony headphone instead of those factory earbuds it comes with ."
    }
}