{
    "bdc192fe7f1f8ae65e2026ddd253541b": {
        "(17, 4)": {
            "AM2L": [
                1971
            ], 
            "AM2F": [
                2281
            ], 
            "WBF": [
                407
            ], 
            "BM1F": [
                150
            ], 
            "M1": [
                2561
            ], 
            "irrelevant_Adj": [
                1
            ], 
            "M2": [
                2676
            ], 
            "BM1L": [
                2325
            ], 
            "WBO": [
                2034, 
                784, 
                1864, 
                2160, 
                316, 
                3075, 
                1320, 
                275, 
                1375
            ], 
            "WBL": [
                434
            ], 
            "irrelevant_Noun": [
                0
            ], 
            "M1_ADJ": [
                0
            ]
        }, 
        "location1": [
            17
        ], 
        "location2": [
            4
        ], 
        "sentence": "it 's really a shame , because otherwise , creative mp3 player are very good , and have the best sound quality of any player on the market ."
    }
}