{
    "3ecab0f0f7b012bc1f10a6dda17f52bd": {
        "(10, 15)": {
            "AM2F": [
                2279
            ], 
            "WBF": [
                523
            ], 
            "BM1F": [
                150
            ], 
            "M1": [
                2767
            ], 
            "irrelevant_Adj": [
                0
            ], 
            "M2": [
                2506
            ], 
            "BM1L": [
                2212
            ], 
            "WBO": [
                433
            ], 
            "WBL": [
                2894
            ], 
            "irrelevant_Noun": [
                0
            ], 
            "M1_ADJ": [
                1
            ]
        }, 
        "location1": [
            10
        ], 
        "location2": [
            15
        ], 
        "sentence": "easy enough to navigate through , although i 'd prefer a sturdier button besides the thumbwheel scroll / pushbutton ."
    }
}