{
    "7c34e517718ef2880221cd7408e54f54": {
        "(7, 8)": {
            "AM2L": [
                2866
            ], 
            "BM1F": [
                1690
            ], 
            "M1": [
                2767
            ], 
            "irrelevant_Adj": [
                0
            ], 
            "M2": [
                723
            ], 
            "BM1L": [
                150
            ], 
            "WBNULL": [
                1
            ], 
            "irrelevant_Noun": [
                0
            ], 
            "AM2F": [
                1669
            ], 
            "M1_ADJ": [
                1
            ]
        }, 
        "location1": [
            7
        ], 
        "location2": [
            8
        ], 
        "sentence": "the nomad zen could use a little sturdier construction like the archos jukebox or some kind of shock resistant case ."
    }
}