{
    "ca88fee0f48f7e3af6abbce6bb924179": {
        "(4, 7)": {
            "AM2L": [
                2166
            ], 
            "AM2F": [
                415
            ], 
            "WBF": [
                2136
            ], 
            "BM1F": [
                1870
            ], 
            "M1": [
                2793
            ], 
            "irrelevant_Adj": [
                0
            ], 
            "M2": [
                1065
            ], 
            "BM1L": [
                2882
            ], 
            "WBO": [
                1971
            ], 
            "WBL": [
                1971
            ], 
            "irrelevant_Noun": [
                0
            ], 
            "M1_ADJ": [
                1
            ]
        }, 
        "location1": [
            4
        ], 
        "location2": [
            7
        ], 
        "sentence": "please consider this much superior piece of equipment before plopping down half a grand for an ipod ."
    }
}