{
    "5fd8c0085bdee242af47218a4dee27e1": {
        "(10, 27)": {
            "WBF": [
                2676
            ], 
            "BM1F": [
                1297
            ], 
            "M1": [
                2793
            ], 
            "irrelevant_Adj": [
                0
            ], 
            "M2": [
                1488
            ], 
            "BM1L": [
                2909
            ], 
            "WBO": [
                2281, 
                275, 
                1724, 
                2225, 
                258, 
                1449, 
                1167, 
                2866, 
                2160, 
                1371, 
                150, 
                1719, 
                1971
            ], 
            "WBL": [
                1232
            ], 
            "irrelevant_Noun": [
                0
            ], 
            "M1_ADJ": [
                1
            ]
        }, 
        "location1": [
            10
        ], 
        "location2": [
            27
        ], 
        "sentence": "i am willing to overlook it 's problem to get superior sound quality and low price , although i feel the player has a lot of room for improvement ."
    }
}