{
    "ef25a24c12ae7b697445f8d181fbe847": {
        "location1": [
            37
        ], 
        "location2": [
            42
        ], 
        "(37, 42)": {
            "AM2L": [
                1371
            ], 
            "AM2F": [
                784
            ], 
            "WBF": [
                717
            ], 
            "BM1F": [
                1935
            ], 
            "M1": [
                2807
            ], 
            "irrelevant_Adj": [
                0
            ], 
            "M2": [
                3222
            ], 
            "BM1L": [
                1558
            ], 
            "WBO": [
                2866
            ], 
            "WBL": [
                1971
            ], 
            "irrelevant_Noun": [
                0
            ], 
            "M1_ADJ": [
                1
            ]
        }, 
        "sentence": "like it 's predecessor , the quickly revised nx , this player boast a decent size and weight , a relatively-intuitive navigational system that categorizes based on id3 tag , and excellent sound ( widely known to be better than ipod - not surprising considering the number of year creative has been in the audio peripheral business ) ."
    }
}