{
    "3fd077cfdb53680671d6b273e8b56c20": {
        "(8, 6)": {
            "AM2L": [
                2864
            ], 
            "WBFL": [
                3181
            ], 
            "BM1F": [
                1333
            ], 
            "M1": [
                2225
            ], 
            "irrelevant_Adj": [
                0
            ], 
            "M2": [
                2857
            ], 
            "BM1L": [
                150
            ], 
            "AM2F": [
                2653
            ], 
            "irrelevant_Noun": [
                0
            ], 
            "M1_ADJ": [
                0
            ]
        }, 
        "location1": [
            8
        ], 
        "location2": [
            6
        ], 
        "sentence": "a good player at a great price with terrible software that makes ripping and transferring way more difficult than it should be ."
    }
}