{
    "e17e18380718fc3b0a9d1deacbd92ff8": {
        "location1": [
            27
        ], 
        "location2": [
            30
        ], 
        "(27, 30)": {
            "AM2L": [
                2421
            ], 
            "AM2F": [
                2864
            ], 
            "WBF": [
                2086
            ], 
            "BM1F": [
                150
            ], 
            "M1": [
                2880
            ], 
            "irrelevant_Adj": [
                1
            ], 
            "M2": [
                675
            ], 
            "BM1L": [
                154
            ], 
            "WBO": [
                2653
            ], 
            "WBL": [
                2653
            ], 
            "irrelevant_Noun": [
                0
            ], 
            "M1_ADJ": [
                1
            ]
        }, 
        "sentence": "this player is an overall disappointment with a couple of big flaw that potential buyer should be wary of ; and all reader need to know about a third party software company that resolve virtually all of the creative mediasource file transfer issue ."
    }
}