{
    "54724dd286a492837cf9f736f866a74a": {
        "(0, 21)": {
            "WBF": [
                784
            ], 
            "M1": [
                2880
            ], 
            "irrelevant_Adj": [
                1
            ], 
            "M2": [
                694
            ], 
            "WBO": [
                2653, 
                247, 
                3229, 
                2909, 
                1597, 
                2975, 
                3174, 
                2003, 
                2909, 
                1710, 
                337, 
                475, 
                2866, 
                727, 
                1987, 
                2866, 
                2160
            ], 
            "WBL": [
                2866
            ], 
            "irrelevant_Noun": [
                0
            ], 
            "M1_ADJ": [
                1
            ]
        }, 
        "location1": [
            0
        ], 
        "location2": [
            21
        ], 
        "sentence": "third , creative software allows you to keep two window open to look at both the content on the player and the computer ."
    }
}