{
    "6bcac49498fd30b88131b83404d6bfaf": {
        "location1": [
            18
        ], 
        "location2": [
            10
        ], 
        "(18, 10)": {
            "AM2F": [
                2225
            ], 
            "WBF": [
                1333
            ], 
            "BM1F": [
                2676
            ], 
            "M1": [
                2281
            ], 
            "irrelevant_Adj": [
                0
            ], 
            "M2": [
                2989
            ], 
            "BM1L": [
                1320
            ], 
            "WBO": [
                1163, 
                1706, 
                400, 
                1664
            ], 
            "WBL": [
                273
            ], 
            "irrelevant_Noun": [
                0
            ], 
            "M1_ADJ": [
                0
            ]
        }, 
        "sentence": "our special friend at creative gave this thing good sound quality , great feature , long battery life , and an unbeatable price ."
    }, 
    "16dccec07487bfb9e777d9b8fc08c377": {
        "(8, 6)": {
            "WBFL": [
                1562
            ], 
            "BM1F": [
                2158
            ], 
            "M1": [
                2281
            ], 
            "irrelevant_Adj": [
                0
            ], 
            "M2": [
                2989
            ], 
            "BM1L": [
                2866
            ], 
            "irrelevant_Noun": [
                0
            ], 
            "M1_ADJ": [
                0
            ]
        }, 
        "location1": [
            8
        ], 
        "location2": [
            6
        ], 
        "sentence": "being a creative product the playback quality is unbeatable ."
    }
}