{
    "25d13607a3d0abce285789e09dc8ffa6": {
        "location1": [
            4
        ], 
        "location2": [
            3
        ], 
        "(4, 3)": {
            "BM1F": [
                1333
            ], 
            "M1": [
                2242
            ], 
            "irrelevant_Adj": [
                0
            ], 
            "M2": [
                2989
            ], 
            "BM1L": [
                1676
            ], 
            "WBNULL": [
                1
            ], 
            "irrelevant_Noun": [
                0
            ], 
            "AM2F": [
                2225
            ], 
            "M1_ADJ": [
                0
            ]
        }, 
        "sentence": "bottom line ... great product , unbeatable price ."
    }, 
    "16dccec07487bfb9e777d9b8fc08c377": {
        "(8, 3)": {
            "WBF": [
                2866
            ], 
            "BM1F": [
                784
            ], 
            "M1": [
                2242
            ], 
            "irrelevant_Adj": [
                0
            ], 
            "M2": [
                2989
            ], 
            "BM1L": [
                150
            ], 
            "WBO": [
                2158
            ], 
            "WBL": [
                1562
            ], 
            "irrelevant_Noun": [
                0
            ], 
            "M1_ADJ": [
                0
            ]
        }, 
        "location1": [
            8
        ], 
        "location2": [
            3
        ], 
        "sentence": "being a creative product the playback quality is unbeatable ."
    }
}