{
    "4147498480996841498df2bb40d27af6": {
        "(3, 16)": {
            "AM2L": [
                756
            ], 
            "AM2F": [
                3152
            ], 
            "WBF": [
                400
            ], 
            "BM1F": [
                601
            ], 
            "M1": [
                3048
            ], 
            "irrelevant_Adj": [
                0
            ], 
            "M2": [
                400
            ], 
            "BM1L": [
                2866
            ], 
            "WBO": [
                113, 
                1261, 
                784, 
                1562, 
                150, 
                1333, 
                211, 
                2045, 
                2866
            ], 
            "WBL": [
                4
            ], 
            "irrelevant_Noun": [
                0
            ], 
            "M1_ADJ": [
                1
            ]
        }, 
        "(3, 4)": {
            "AM2L": [
                1261
            ], 
            "BM1F": [
                601
            ], 
            "M1": [
                3048
            ], 
            "irrelevant_Adj": [
                0
            ], 
            "M2": [
                400
            ], 
            "BM1L": [
                2866
            ], 
            "WBNULL": [
                1
            ], 
            "irrelevant_Noun": [
                0
            ], 
            "AM2F": [
                113
            ], 
            "M1_ADJ": [
                1
            ]
        }, 
        "location1": [
            3
        ], 
        "location2": [
            4, 
            16
        ], 
        "sentence": "5 ) the cheap , user-replaceable battery ( $ 50 from creative ) is a great advantage over the ipod 's battery which cost $ 100 to replace ."
    }
}