{
    "45609991a6c8a115b87b71d4c3620b77": {
        "(3, 7)": {
            "AM2L": [
                2866
            ], 
            "AM2F": [
                2019
            ], 
            "WBF": [
                523
            ], 
            "BM1F": [
                1971
            ], 
            "M1": [
                3062
            ], 
            "irrelevant_Adj": [
                0
            ], 
            "M2": [
                2595
            ], 
            "BM1L": [
                1697
            ], 
            "WBO": [
                1987
            ], 
            "WBL": [
                1994
            ], 
            "irrelevant_Noun": [
                0
            ], 
            "M1_ADJ": [
                1
            ]
        }, 
        "location1": [
            3
        ], 
        "location2": [
            7
        ], 
        "sentence": "the location of various button on one side or the other is somewhat illogical"
    }
}