{
    "d8012015c19cafbf96cbc6cad5741bba": {
        "location1": [
            6
        ], 
        "location2": [
            5
        ], 
        "(6, 5)": {
            "AM2L": [
                1935
            ], 
            "BM1F": [
                2866
            ], 
            "M1": [
                735
            ], 
            "irrelevant_Adj": [
                0
            ], 
            "M2": [
                3141
            ], 
            "BM1L": [
                1971
            ], 
            "WBNULL": [
                1
            ], 
            "irrelevant_Noun": [
                0
            ], 
            "AM2F": [
                275
            ], 
            "M1_ADJ": [
                0
            ]
        }, 
        "sentence": "i find all of the control well-placed and not flimsy in the least ."
    }
}