{
    "f6d65be6923c9fe3a8774db12bb405c2": {
        "(3, 4)": {
            "AM2L": [
                877
            ], 
            "BM1F": [
                150
            ], 
            "M1": [
                3159
            ], 
            "irrelevant_Adj": [
                0
            ], 
            "M2": [
                513
            ], 
            "BM1L": [
                1375
            ], 
            "WBNULL": [
                1
            ], 
            "irrelevant_Noun": [
                0
            ], 
            "AM2F": [
                1971
            ], 
            "M1_ADJ": [
                1
            ]
        }, 
        "location1": [
            3
        ], 
        "location2": [
            4
        ], 
        "sentence": "they have a whole bunch of device that all have the same-sounding name ( and they are long ) ."
    }
}