{
    "ea03c1eca4f4843d18fa28fa8e577b5c": {
        "(16, 9)": {
            "AM2L": [
                1005
            ], 
            "AM2F": [
                541
            ], 
            "WBF": [
                2864
            ], 
            "BM1F": [
                3181
            ], 
            "M1": [
                869
            ], 
            "irrelevant_Adj": [
                0
            ], 
            "M2": [
                120
            ], 
            "BM1L": [
                2119
            ], 
            "WBO": [
                587, 
                242, 
                1971
            ], 
            "WBL": [
                155
            ], 
            "irrelevant_Noun": [
                0
            ], 
            "M1_ADJ": [
                0
            ]
        }, 
        "location1": [
            16
        ], 
        "location2": [
            9
        ], 
        "sentence": "4mp , 4x optical zoom , takes absolutely beautiful photo with detail that challenge all of the above 5mp camera , easy to understand and use ( has a great swivel lcd screen ) , a lot of feature and add-on option , comes with great software ( not to be overlooked ) , and last but by far not least , received my fiance 's stamp of approval ( two thumb up ! )"
    }
}