{
    "ea03c1eca4f4843d18fa28fa8e577b5c": {
        "location1": [
            15
        ], 
        "location2": [
            28
        ], 
        "(15, 28)": {
            "AM2L": [
                1719
            ], 
            "AM2F": [
                150
            ], 
            "WBF": [
                120
            ], 
            "BM1F": [
                2866
            ], 
            "M1": [
                155
            ], 
            "irrelevant_Adj": [
                1
            ], 
            "M2": [
                2501
            ], 
            "BM1L": [
                1971
            ], 
            "WBO": [
                541, 
                1005, 
                2909, 
                2999, 
                275, 
                3041, 
                1371, 
                150, 
                1333
            ], 
            "WBL": [
                1636
            ], 
            "irrelevant_Noun": [
                0
            ], 
            "M1_ADJ": [
                1
            ]
        }, 
        "sentence": "4mp , 4x optical zoom , takes absolutely beautiful photo with detail that challenge all of the above 5mp camera , easy to understand and use ( has a great swivel lcd screen ) , a lot of feature and add-on option , comes with great software ( not to be overlooked ) , and last but by far not least , received my fiance 's stamp of approval ( two thumb up ! )"
    }
}