{
    "ea03c1eca4f4843d18fa28fa8e577b5c": {
        "(34, 39)": {
            "AM2L": [
                2909
            ], 
            "AM2F": [
                1935
            ], 
            "WBF": [
                2017
            ], 
            "BM1F": [
                275
            ], 
            "M1": [
                194
            ], 
            "irrelevant_Adj": [
                0
            ], 
            "M2": [
                2653
            ], 
            "BM1L": [
                1163
            ], 
            "WBO": [
                664
            ], 
            "WBL": [
                1333
            ], 
            "irrelevant_Noun": [
                0
            ], 
            "M1_ADJ": [
                1
            ]
        }, 
        "location1": [
            34
        ], 
        "location2": [
            39
        ], 
        "sentence": "4mp , 4x optical zoom , takes absolutely beautiful photo with detail that challenge all of the above 5mp camera , easy to understand and use ( has a great swivel lcd screen ) , a lot of feature and add-on option , comes with great software ( not to be overlooked ) , and last but by far not least , received my fiance 's stamp of approval ( two thumb up ! )"
    }
}