{
    "b43eea60a6e26ef2d546c1544c0e533f": {
        "(16, 14)": {
            "AM2L": [
                1232
            ], 
            "WBFL": [
                2170
            ], 
            "BM1F": [
                2579
            ], 
            "M1": [
                2203
            ], 
            "irrelevant_Adj": [
                0
            ], 
            "M2": [
                210
            ], 
            "BM1L": [
                275
            ], 
            "AM2F": [
                1272
            ], 
            "irrelevant_Noun": [
                0
            ], 
            "M1_ADJ": [
                0
            ]
        }, 
        "location1": [
            16
        ], 
        "location2": [
            14
        ], 
        "sentence": "range of function - as indicated above - it has something for everyone : point and shoot power plus advanced function for those who are serious about photography ."
    }
}