{
    "41d67c7360f1eaff9b82be88ea00f3d7": {
        "(13, 10)": {
            "AM2L": [
                1665
            ], 
            "AM2F": [
                2233
            ], 
            "WBF": [
                2592
            ], 
            "BM1F": [
                206
            ], 
            "M1": [
                2017
            ], 
            "irrelevant_Adj": [
                0
            ], 
            "M2": [
                295
            ], 
            "BM1L": [
                2866
            ], 
            "WBO": [
                2233
            ], 
            "WBL": [
                2233
            ], 
            "irrelevant_Noun": [
                1
            ], 
            "M1_ADJ": [
                0
            ]
        }, 
        "location1": [
            13
        ], 
        "location2": [
            10
        ], 
        "sentence": "i have yet to try using all of the adjustment option : shutter priority , aperature priority , light metering adjustment , etc . , but all control are well thought out and and the manual is relatively clear ."
    }
}