{
    "9912ee61adbc16ba2940f26778c640d0": {
        "location1": [
            14
        ], 
        "location2": [
            1
        ], 
        "(14, 1)": {
            "WBF": [
                966
            ], 
            "BM1F": [
                2338
            ], 
            "M1": [
                2225
            ], 
            "irrelevant_Adj": [
                0
            ], 
            "M2": [
                360
            ], 
            "WBO": [
                1375, 
                1739, 
                2866, 
                1280, 
                2866, 
                434, 
                390, 
                1490, 
                894
            ], 
            "WBL": [
                796
            ], 
            "irrelevant_Noun": [
                0
            ], 
            "M1_ADJ": [
                0
            ]
        }, 
        "sentence": "recent price drop have made the g3 the best bargain in digital camera currently available ."
    }
}