{
    "28625e5528127fc1474b0e6dad55a8cb": {
        "(3, 11)": {
            "AM2L": [
                703
            ], 
            "AM2F": [
                3075
            ], 
            "WBF": [
                864
            ], 
            "BM1F": [
                150
            ], 
            "M1": [
                406
            ], 
            "irrelevant_Adj": [
                0
            ], 
            "M2": [
                3041
            ], 
            "BM1L": [
                1371
            ], 
            "WBO": [
                1719, 
                1971, 
                1163, 
                3075
            ], 
            "WBL": [
                2909
            ], 
            "irrelevant_Noun": [
                0
            ], 
            "M1_ADJ": [
                1
            ]
        }, 
        "location1": [
            3
        ], 
        "location2": [
            11
        ], 
        "sentence": "it has a beautiful design , lot of feature , very easy to use , very configurable and customizable , and the battery duration is amazing !"
    }, 
    "5e8d37c7fc800e394540cc47e42d3496": {
        "(26, 9)": {
            "AM2L": [
                1566
            ], 
            "AM2F": [
                1490
            ], 
            "WBF": [
                2866
            ], 
            "BM1F": [
                2909
            ], 
            "M1": [
                3041
            ], 
            "irrelevant_Adj": [
                0
            ], 
            "M2": [
                406
            ], 
            "BM1L": [
                1005
            ], 
            "WBO": [
                400, 
                1626, 
                1234, 
                1987, 
                1994, 
                2610, 
                595, 
                2866, 
                2653, 
                1562, 
                3075, 
                3047, 
                275
            ], 
            "WBL": [
                1562
            ], 
            "irrelevant_Noun": [
                0
            ], 
            "M1_ADJ": [
                0
            ]
        }, 
        "location1": [
            26
        ], 
        "location2": [
            9
        ], 
        "sentence": "it gives great picture , the control are easy to use , the battery last forever on one single charge , the software is very user-friendly and it is beautiful in it chrome casing ."
    }, 
    "ea03c1eca4f4843d18fa28fa8e577b5c": {
        "(6, 22)": {
            "AM2L": [
                150
            ], 
            "AM2F": [
                1371
            ], 
            "WBF": [
                2119
            ], 
            "BM1F": [
                157
            ], 
            "M1": [
                406
            ], 
            "irrelevant_Adj": [
                0
            ], 
            "M2": [
                3041
            ], 
            "BM1L": [
                2836
            ], 
            "WBO": [
                3181, 
                869, 
                2864, 
                587, 
                242, 
                1971, 
                2866, 
                155, 
                120, 
                541, 
                1005, 
                2909
            ], 
            "WBL": [
                275
            ], 
            "irrelevant_Noun": [
                0
            ], 
            "M1_ADJ": [
                1
            ]
        }, 
        "location1": [
            6
        ], 
        "location2": [
            22
        ], 
        "sentence": "4mp , 4x optical zoom , takes absolutely beautiful photo with detail that challenge all of the above 5mp camera , easy to understand and use ( has a great swivel lcd screen ) , a lot of feature and add-on option , comes with great software ( not to be overlooked ) , and last but by far not least , received my fiance 's stamp of approval ( two thumb up ! )"
    }
}