{
    "4ee6d1359bfe9bbb24c18ef20aa068d0": {
        "(25, 12)": {
            "AM2L": [
                1863
            ], 
            "AM2F": [
                98
            ], 
            "WBF": [
                3138
            ], 
            "BM1F": [
                1636
            ], 
            "M1": [
                3191
            ], 
            "irrelevant_Adj": [
                0
            ], 
            "M2": [
                434
            ], 
            "BM1L": [
                2866
            ], 
            "WBO": [
                1050, 
                1490, 
                2884, 
                1531, 
                1935, 
                2866, 
                603, 
                98, 
                1863
            ], 
            "WBL": [
                2866
            ], 
            "irrelevant_Noun": [
                0
            ], 
            "M1_ADJ": [
                0
            ]
        }, 
        "location1": [
            25
        ], 
        "location2": [
            12
        ], 
        "sentence": "not perfect ( yes , the viewfinder can get obstructed in instances.but the lcd work well enough in those instance ) , not the cheapest 4.0 mp , but the best 4.0 mp ."
    }
}