{
    "f774d50a8c6d2e482b4e764362bf0ccb": {
        "(9, 16)": {
            "AM2L": [
                1261
            ], 
            "AM2F": [
                893
            ], 
            "WBF": [
                1470
            ], 
            "BM1F": [
                2866
            ], 
            "M1": [
                434
            ], 
            "irrelevant_Adj": [
                0
            ], 
            "M2": [
                1786
            ], 
            "BM1L": [
                716
            ], 
            "WBO": [
                2281, 
                1971, 
                286
            ], 
            "WBL": [
                95
            ], 
            "irrelevant_Noun": [
                0
            ], 
            "M1_ADJ": [
                1
            ]
        }, 
        "location1": [
            9
        ], 
        "location2": [
            16
        ], 
        "sentence": "overall , the g3 delivers what must be considered the best image quality of any current > 4 megapixel digicams , from a detail , tonal balance and color response point of view ."
    }
}