{
    "5d8b5507ce45f152c58e301e745b132e": {
        "location1": [
            8
        ], 
        "location2": [
            2
        ], 
        "(8, 2)": {
            "AM2L": [
                2119
            ], 
            "AM2F": [
                894
            ], 
            "WBF": [
                1005
            ], 
            "BM1F": [
                665
            ], 
            "M1": [
                541
            ], 
            "irrelevant_Adj": [
                0
            ], 
            "M2": [
                434
            ], 
            "BM1L": [
                3075
            ], 
            "WBO": [
                2909, 
                3041
            ], 
            "WBL": [
                2866
            ], 
            "irrelevant_Noun": [
                0
            ], 
            "M1_ADJ": [
                0
            ]
        }, 
        "sentence": "very comfortable camera , easy to use , and the best digital photo you 're going to get at this price ."
    }, 
    "ee59320ea439564bfb6e244ed61ae28d": {
        "location1": [
            6
        ], 
        "location2": [
            8
        ], 
        "(6, 8)": {
            "AM2L": [
                2873
            ], 
            "WBFL": [
                109
            ], 
            "BM1F": [
                2866
            ], 
            "M1": [
                434
            ], 
            "irrelevant_Adj": [
                0
            ], 
            "M2": [
                541
            ], 
            "BM1L": [
                2109
            ], 
            "AM2F": [
                2037
            ], 
            "irrelevant_Noun": [
                0
            ], 
            "M1_ADJ": [
                1
            ]
        }, 
        "sentence": "the canon g3 is perhaps the best 4mp camera out there ."
    }, 
    "861626d0cc4cc5ae19684d4b8d53194c": {
        "(10, 12)": {
            "AM2L": [
                2997
            ], 
            "WBFL": [
                894
            ], 
            "BM1F": [
                2866
            ], 
            "M1": [
                434
            ], 
            "irrelevant_Adj": [
                0
            ], 
            "M2": [
                541
            ], 
            "BM1L": [
                1562
            ], 
            "AM2F": [
                360
            ], 
            "irrelevant_Noun": [
                0
            ], 
            "M1_ADJ": [
                1
            ]
        }, 
        "location1": [
            10
        ], 
        "location2": [
            12
        ], 
        "sentence": "even with these shortcoming , i still think it is the best digital camera available under $ 1200 ."
    }, 
    "dd71767481d19a9a0e0a0368b626b97e": {
        "location1": [
            6
        ], 
        "location2": [
            8
        ], 
        "(6, 8)": {
            "AM2L": [
                2873
            ], 
            "WBFL": [
                894
            ], 
            "BM1F": [
                2866
            ], 
            "M1": [
                434
            ], 
            "irrelevant_Adj": [
                0
            ], 
            "M2": [
                541
            ], 
            "BM1L": [
                1562
            ], 
            "AM2F": [
                2037
            ], 
            "irrelevant_Noun": [
                0
            ], 
            "M1_ADJ": [
                1
            ]
        }, 
        "sentence": "simply , the canon g3 is the best digital camera out there today at this price point ."
    }, 
    "cb31f35d3c35ce640d8c859b871da89a": {
        "(4, 5)": {
            "AM2L": [
                2866
            ], 
            "BM1F": [
                2866
            ], 
            "M1": [
                434
            ], 
            "irrelevant_Adj": [
                0
            ], 
            "M2": [
                541
            ], 
            "BM1L": [
                1562
            ], 
            "WBNULL": [
                1
            ], 
            "irrelevant_Noun": [
                0
            ], 
            "AM2F": [
                1987
            ], 
            "M1_ADJ": [
                1
            ]
        }, 
        "location1": [
            4
        ], 
        "location2": [
            5
        ], 
        "sentence": "overall it is the best camera on the market ."
    }, 
    "6fe1a6cfcc61bb420320d4d66e4e64c4": {
        "(1, 6)": {
            "AM2L": [
                275
            ], 
            "AM2F": [
                360
            ], 
            "WBF": [
                95
            ], 
            "BM1F": [
                2866
            ], 
            "M1": [
                434
            ], 
            "irrelevant_Adj": [
                0
            ], 
            "M2": [
                541
            ], 
            "WBO": [
                1787
            ], 
            "WBL": [
                3239
            ], 
            "irrelevant_Noun": [
                0
            ], 
            "M1_ADJ": [
                1
            ]
        }, 
        "location1": [
            1
        ], 
        "location2": [
            6
        ], 
        "sentence": "the best 4 megapixel/4x optical zoom camera available and fairly easy to use ."
    }, 
    "ab5381ff92d93f31f37a3da98c2c14a6": {
        "location1": [
            7
        ], 
        "location2": [
            10
        ], 
        "(7, 10)": {
            "AM2L": [
                2866
            ], 
            "AM2F": [
                1987
            ], 
            "WBF": [
                1926
            ], 
            "BM1F": [
                2866
            ], 
            "M1": [
                434
            ], 
            "irrelevant_Adj": [
                0
            ], 
            "M2": [
                541
            ], 
            "BM1L": [
                318
            ], 
            "WBO": [
                894
            ], 
            "WBL": [
                894
            ], 
            "irrelevant_Noun": [
                0
            ], 
            "M1_ADJ": [
                1
            ]
        }, 
        "sentence": "all-in-all , i believe this is arguably the best non-slr digital camera on the market ."
    }, 
    "86b3450ce22023f2c9edfbb1431b515e": {
        "(0, 1)": {
            "AM2L": [
                1261
            ], 
            "M1": [
                434
            ], 
            "irrelevant_Adj": [
                0
            ], 
            "M2": [
                541
            ], 
            "WBNULL": [
                1
            ], 
            "irrelevant_Noun": [
                0
            ], 
            "AM2F": [
                1079
            ], 
            "M1_ADJ": [
                1
            ]
        }, 
        "location1": [
            0
        ], 
        "location2": [
            1
        ], 
        "sentence": "best camera ever . from the image quality , color , function , i can say almost everything ."
    }, 
    "9912ee61adbc16ba2940f26778c640d0": {
        "(8, 12)": {
            "AM2L": [
                360
            ], 
            "AM2F": [
                796
            ], 
            "WBF": [
                390
            ], 
            "BM1F": [
                2866
            ], 
            "M1": [
                434
            ], 
            "irrelevant_Adj": [
                0
            ], 
            "M2": [
                541
            ], 
            "BM1L": [
                1280
            ], 
            "WBO": [
                1490
            ], 
            "WBL": [
                894
            ], 
            "irrelevant_Noun": [
                0
            ], 
            "M1_ADJ": [
                1
            ]
        }, 
        "location1": [
            8
        ], 
        "location2": [
            12
        ], 
        "sentence": "recent price drop have made the g3 the best bargain in digital camera currently available ."
    }
}