{
    "8cff8b3bb4b722f290108da2b2fcc548": {
        "(39, 43)": {
            "WBF": [
                3182
            ], 
            "BM1F": [
                289
            ], 
            "M1": [
                436
            ], 
            "irrelevant_Adj": [
                0
            ], 
            "M2": [
                1673
            ], 
            "BM1L": [
                2523
            ], 
            "WBO": [
                1569
            ], 
            "WBL": [
                2420
            ], 
            "irrelevant_Noun": [
                0
            ], 
            "M1_ADJ": [
                1
            ]
        }, 
        "location1": [
            39
        ], 
        "location2": [
            43
        ], 
        "sentence": "i am stunned and amazed at the quality of the raw image i am getting from this g3 ( in conjunction with my professional flash system ) , and can easily put up with the camera limitation , because ive never seen anything better within its resolution limit ."
    }
}