{
    "17ecb94e8bd613415517e78ec1f1c520": {
        "(15, 1)": {
            "AM2L": [
                289
            ], 
            "AM2F": [
                2862
            ], 
            "WBF": [
                1664
            ], 
            "BM1F": [
                2866
            ], 
            "M1": [
                400
            ], 
            "irrelevant_Adj": [
                0
            ], 
            "M2": [
                436
            ], 
            "WBO": [
                1971, 
                2882, 
                541, 
                1562, 
                2974, 
                2864, 
                1971, 
                2866, 
                1914, 
                115
            ], 
            "WBL": [
                1562
            ], 
            "irrelevant_Noun": [
                0
            ], 
            "M1_ADJ": [
                0
            ]
        }, 
        "location1": [
            15
        ], 
        "location2": [
            1
        ], 
        "sentence": "the battery life of this camera is twice that of the nikon 5000 and is better than anything else i 've seen ."
    }
}