{
    "8cff8b3bb4b722f290108da2b2fcc548": {
        "location1": [
            39
        ], 
        "location2": [
            24
        ], 
        "(39, 24)": {
            "AM2L": [
                1569
            ], 
            "AM2F": [
                3182
            ], 
            "WBF": [
                275
            ], 
            "BM1F": [
                1208
            ], 
            "M1": [
                2824
            ], 
            "irrelevant_Adj": [
                0
            ], 
            "M2": [
                436
            ], 
            "BM1L": [
                2244
            ], 
            "WBO": [
                543, 
                1004, 
                2280, 
                3029, 
                3181, 
                2866, 
                541, 
                1674, 
                407, 
                1572, 
                1902
            ], 
            "WBL": [
                289
            ], 
            "irrelevant_Noun": [
                0
            ], 
            "M1_ADJ": [
                0
            ]
        }, 
        "sentence": "i am stunned and amazed at the quality of the raw image i am getting from this g3 ( in conjunction with my professional flash system ) , and can easily put up with the camera limitation , because ive never seen anything better within its resolution limit ."
    }
}