{
    "bf6a7e1803fcb60ab4e76c2f4119489b": {
        "(6, 7)": {
            "AM2L": [
                2862
            ], 
            "BM1F": [
                2834
            ], 
            "M1": [
                436
            ], 
            "irrelevant_Adj": [
                0
            ], 
            "M2": [
                2128
            ], 
            "BM1L": [
                3168
            ], 
            "WBNULL": [
                1
            ], 
            "irrelevant_Noun": [
                0
            ], 
            "AM2F": [
                4
            ], 
            "M1_ADJ": [
                1
            ]
        }, 
        "location1": [
            6
        ], 
        "location2": [
            7
        ], 
        "sentence": "first and foremost , it will take better pic 's than most film camera 's ."
    }
}