{
    "07b3bdbafaec9f6df8f50960a8c49f11": {
        "(23, 9)": {
            "AM2L": [
                2037
            ], 
            "AM2F": [
                541
            ], 
            "WBF": [
                1712
            ], 
            "BM1F": [
                2200
            ], 
            "M1": [
                525
            ], 
            "irrelevant_Adj": [
                0
            ], 
            "M2": [
                436
            ], 
            "BM1L": [
                286
            ], 
            "WBO": [
                1232, 
                150, 
                1200, 
                894, 
                541, 
                337, 
                150, 
                2327, 
                2225, 
                2873
            ], 
            "WBL": [
                1917
            ], 
            "irrelevant_Noun": [
                0
            ], 
            "M1_ADJ": [
                0
            ]
        }, 
        "location1": [
            23
        ], 
        "location2": [
            9
        ], 
        "sentence": "i recommend unreservedly the powershot g3 to any potential buyer looking for a first-class digital camera at a reasonable price - there is no better camera out there - period !"
    }
}