{
    "f11b6493f562e48e09dd1f455dcac0d3": {
        "location1": [
            4
        ], 
        "location2": [
            8
        ], 
        "(4, 8)": {
            "AM2L": [
                1297
            ], 
            "AM2F": [
                3229
            ], 
            "WBF": [
                1208
            ], 
            "BM1F": [
                242
            ], 
            "M1": [
                509
            ], 
            "irrelevant_Adj": [
                0
            ], 
            "M2": [
                541
            ], 
            "BM1L": [
                3181
            ], 
            "WBO": [
                1490
            ], 
            "WBL": [
                2637
            ], 
            "irrelevant_Noun": [
                0
            ], 
            "M1_ADJ": [
                1
            ]
        }, 
        "sentence": "flash - as with all built-in flash in small camera , you get overilluminated main subject with depth being lost ."
    }
}