{
    "00d2f82e48aec8fa7159c18aacd4231e": {
        "location1": [
            11
        ], 
        "location2": [
            13
        ], 
        "(11, 13)": {
            "WBFL": [
                2153
            ], 
            "BM1F": [
                2659
            ], 
            "M1": [
                601
            ], 
            "irrelevant_Adj": [
                0
            ], 
            "M2": [
                2933
            ], 
            "BM1L": [
                1935
            ], 
            "irrelevant_Noun": [
                0
            ], 
            "M1_ADJ": [
                1
            ]
        }, 
        "sentence": "you feel like you are holding something of substance , not some cheap plastic toy ."
    }
}