{
    "5e8d37c7fc800e394540cc47e42d3496": {
        "(29, 19)": {
            "AM2F": [
                564
            ], 
            "WBF": [
                1562
            ], 
            "BM1F": [
                2866
            ], 
            "M1": [
                2653
            ], 
            "irrelevant_Adj": [
                0
            ], 
            "M2": [
                620
            ], 
            "BM1L": [
                595
            ], 
            "WBO": [
                3075, 
                3047, 
                275, 
                1566, 
                1562, 
                406
            ], 
            "WBL": [
                1566
            ], 
            "irrelevant_Noun": [
                0
            ], 
            "M1_ADJ": [
                0
            ]
        }, 
        "location1": [
            29
        ], 
        "location2": [
            19
        ], 
        "sentence": "it gives great picture , the control are easy to use , the battery last forever on one single charge , the software is very user-friendly and it is beautiful in it chrome casing ."
    }
}