{
    "4c5719a60c8bb78b21a56b75862ad9e9": {
        "location1": [
            10
        ], 
        "location2": [
            4
        ], 
        "(10, 4)": {
            "AM2L": [
                1259
            ], 
            "AM2F": [
                275
            ], 
            "WBF": [
                3168
            ], 
            "BM1F": [
                87
            ], 
            "M1": [
                541
            ], 
            "irrelevant_Adj": [
                0
            ], 
            "M2": [
                665
            ], 
            "BM1L": [
                2909
            ], 
            "WBO": [
                1185, 
                2866
            ], 
            "WBL": [
                3075
            ], 
            "irrelevant_Noun": [
                0
            ], 
            "M1_ADJ": [
                0
            ]
        }, 
        "sentence": "those used to 35mm camera will find the g3 very comfortable and friendly to use ."
    }, 
    "5d8b5507ce45f152c58e301e745b132e": {
        "(1, 2)": {
            "AM2L": [
                2909
            ], 
            "BM1F": [
                3075
            ], 
            "M1": [
                665
            ], 
            "irrelevant_Adj": [
                0
            ], 
            "M2": [
                541
            ], 
            "AM2F": [
                1005
            ], 
            "irrelevant_Noun": [
                0
            ], 
            "WBNULL": [
                1
            ], 
            "M1_ADJ": [
                1
            ]
        }, 
        "location1": [
            1
        ], 
        "location2": [
            2
        ], 
        "sentence": "very comfortable camera , easy to use , and the best digital photo you 're going to get at this price ."
    }
}