{
    "5d8b5507ce45f152c58e301e745b132e": {
        "(1, 18)": {
            "WBF": [
                541
            ], 
            "BM1F": [
                3075
            ], 
            "M1": [
                665
            ], 
            "irrelevant_Adj": [
                0
            ], 
            "M2": [
                2225
            ], 
            "WBO": [
                1005, 
                2909, 
                3041, 
                275, 
                2866, 
                434, 
                894, 
                2119, 
                3229, 
                3, 
                1318, 
                2909, 
                1297
            ], 
            "WBL": [
                2882
            ], 
            "irrelevant_Noun": [
                0
            ], 
            "M1_ADJ": [
                1
            ]
        }, 
        "location1": [
            1
        ], 
        "location2": [
            18
        ], 
        "sentence": "very comfortable camera , easy to use , and the best digital photo you 're going to get at this price ."
    }
}