{
    "28625e5528127fc1474b0e6dad55a8cb": {
        "(13, 18)": {
            "AM2L": [
                1562
            ], 
            "AM2F": [
                978
            ], 
            "WBF": [
                275
            ], 
            "BM1F": [
                3075
            ], 
            "M1": [
                703
            ], 
            "irrelevant_Adj": [
                0
            ], 
            "M2": [
                400
            ], 
            "BM1L": [
                3041
            ], 
            "WBO": [
                802
            ], 
            "WBL": [
                2866
            ], 
            "irrelevant_Noun": [
                0
            ], 
            "M1_ADJ": [
                1
            ]
        }, 
        "location1": [
            13
        ], 
        "location2": [
            18
        ], 
        "sentence": "it has a beautiful design , lot of feature , very easy to use , very configurable and customizable , and the battery duration is amazing !"
    }
}