{
    "28625e5528127fc1474b0e6dad55a8cb": {
        "(15, 4)": {
            "AM2L": [
                2866
            ], 
            "AM2F": [
                275
            ], 
            "WBF": [
                1719
            ], 
            "BM1F": [
                406
            ], 
            "M1": [
                864
            ], 
            "irrelevant_Adj": [
                0
            ], 
            "M2": [
                802
            ], 
            "BM1L": [
                150
            ], 
            "WBO": [
                1971, 
                1163, 
                3075, 
                1005, 
                2909, 
                3041, 
                3075
            ], 
            "WBL": [
                275
            ], 
            "irrelevant_Noun": [
                0
            ], 
            "M1_ADJ": [
                0
            ]
        }, 
        "location1": [
            15
        ], 
        "location2": [
            4
        ], 
        "sentence": "it has a beautiful design , lot of feature , very easy to use , very configurable and customizable , and the battery duration is amazing !"
    }
}