{
    "68f771352d0e49722a16c9efbc7c8342": {
        "location1": [
            6
        ], 
        "location2": [
            0
        ], 
        "(6, 0)": {
            "WBF": [
                1664
            ], 
            "AM2L": [
                2909
            ], 
            "M1": [
                400
            ], 
            "irrelevant_Adj": [
                0
            ], 
            "M2": [
                894
            ], 
            "WBO": [
                2866, 
                960
            ], 
            "WBL": [
                1854
            ], 
            "irrelevant_Noun": [
                0
            ], 
            "AM2F": [
                541
            ], 
            "M1_ADJ": [
                0
            ]
        }, 
        "sentence": "battery life , the drawback to most digital camera , to quote k. reef ."
    }
}