{
    "5d8b5507ce45f152c58e301e745b132e": {
        "(9, 10)": {
            "AM2L": [
                3
            ], 
            "BM1F": [
                434
            ], 
            "M1": [
                894
            ], 
            "irrelevant_Adj": [
                0
            ], 
            "M2": [
                2119
            ], 
            "BM1L": [
                2866
            ], 
            "WBNULL": [
                1
            ], 
            "irrelevant_Noun": [
                0
            ], 
            "AM2F": [
                3229
            ], 
            "M1_ADJ": [
                1
            ]
        }, 
        "location1": [
            9
        ], 
        "location2": [
            10
        ], 
        "sentence": "very comfortable camera , easy to use , and the best digital photo you 're going to get at this price ."
    }
}