{
    "07b3bdbafaec9f6df8f50960a8c49f11": {
        "(14, 4)": {
            "AM2L": [
                337
            ], 
            "AM2F": [
                541
            ], 
            "WBF": [
                1280
            ], 
            "BM1F": [
                2866
            ], 
            "M1": [
                2207
            ], 
            "irrelevant_Adj": [
                0
            ], 
            "M2": [
                894
            ], 
            "BM1L": [
                3022
            ], 
            "WBO": [
                2909, 
                286, 
                2200, 
                525, 
                1712, 
                1232
            ], 
            "WBL": [
                1200
            ], 
            "irrelevant_Noun": [
                0
            ], 
            "M1_ADJ": [
                0
            ]
        }, 
        "location1": [
            14
        ], 
        "location2": [
            4
        ], 
        "sentence": "i recommend unreservedly the powershot g3 to any potential buyer looking for a first-class digital camera at a reasonable price - there is no better camera out there - period !"
    }
}