{
    "68f771352d0e49722a16c9efbc7c8342": {
        "(6, 11)": {
            "WBF": [
                541
            ], 
            "BM1F": [
                1854
            ], 
            "M1": [
                894
            ], 
            "irrelevant_Adj": [
                0
            ], 
            "M2": [
                2364
            ], 
            "BM1L": [
                2909
            ], 
            "WBO": [
                2909
            ], 
            "WBL": [
                1594
            ], 
            "irrelevant_Noun": [
                0
            ], 
            "M1_ADJ": [
                1
            ]
        }, 
        "location1": [
            6
        ], 
        "location2": [
            11
        ], 
        "sentence": "battery life , the drawback to most digital camera , to quote k. reef ."
    }
}