{
    "b82837c0f2aa0002e428df001cedfcd8": {
        "location1": [
            2
        ], 
        "location2": [
            4
        ], 
        "(2, 4)": {
            "AM2L": [
                2866
            ], 
            "WBFL": [
                1843
            ], 
            "BM1F": [
                2882
            ], 
            "M1": [
                894
            ], 
            "irrelevant_Adj": [
                0
            ], 
            "M2": [
                877
            ], 
            "BM1L": [
                3006
            ], 
            "AM2F": [
                535
            ], 
            "irrelevant_Noun": [
                0
            ], 
            "M1_ADJ": [
                1
            ]
        }, 
        "sentence": "unfortunately , this digital moment-capturing device called the g3 sometimes capture the moment after the one you wanted ."
    }
}