{
    "3d44c865026753694c91909c1268f652": {
        "(15, 16)": {
            "BM1F": [
                154
            ], 
            "M1": [
                894
            ], 
            "irrelevant_Adj": [
                0
            ], 
            "M2": [
                2125
            ], 
            "BM1L": [
                2545
            ], 
            "WBNULL": [
                1
            ], 
            "irrelevant_Noun": [
                0
            ], 
            "M1_ADJ": [
                1
            ]
        }, 
        "location1": [
            15
        ], 
        "location2": [
            16
        ], 
        "sentence": "despite this minor disappointment , i highly recommend the canon g3 anyone who is serious about digital photography ."
    }
}