{
    "a3966ba04d7e675a36911883e1bc65b2": {
        "(18, 26)": {
            "AM2L": [
                150
            ], 
            "AM2F": [
                337
            ], 
            "WBF": [
                1474
            ], 
            "BM1F": [
                154
            ], 
            "M1": [
                894
            ], 
            "irrelevant_Adj": [
                0
            ], 
            "M2": [
                1326
            ], 
            "BM1L": [
                945
            ], 
            "WBO": [
                1444, 
                758, 
                1994, 
                1007
            ], 
            "WBL": [
                1994
            ], 
            "irrelevant_Noun": [
                0
            ], 
            "M1_ADJ": [
                1
            ]
        }, 
        "location1": [
            18
        ], 
        "location2": [
            26
        ], 
        "sentence": "a ) the picture quality ( color and sharpness of focusing ) are so great , it completely eliminated my doubt about digital imaging -- - how could one eat rice one grain at a time : - ) )"
    }
}