{
    "9912ee61adbc16ba2940f26778c640d0": {
        "location1": [
            11
        ], 
        "location2": [
            2
        ], 
        "(11, 2)": {
            "AM2L": [
                796
            ], 
            "AM2F": [
                541
            ], 
            "WBF": [
                1375
            ], 
            "BM1F": [
                2225
            ], 
            "M1": [
                966
            ], 
            "irrelevant_Adj": [
                0
            ], 
            "M2": [
                894
            ], 
            "BM1L": [
                2338
            ], 
            "WBO": [
                1739, 
                2866, 
                1280, 
                2866, 
                434
            ], 
            "WBL": [
                1490
            ], 
            "irrelevant_Noun": [
                0
            ], 
            "M1_ADJ": [
                0
            ]
        }, 
        "sentence": "recent price drop have made the g3 the best bargain in digital camera currently available ."
    }
}