{
    "96a3c89de3083b68a7e7476e1f55d023": {
        "(20, 3)": {
            "AM2L": [
                316
            ], 
            "AM2F": [
                3239
            ], 
            "WBF": [
                1333
            ], 
            "BM1F": [
                3239
            ], 
            "M1": [
                3191
            ], 
            "irrelevant_Adj": [
                0
            ], 
            "M2": [
                894
            ], 
            "BM1L": [
                2015
            ], 
            "WBO": [
                275, 
                2866, 
                32, 
                894, 
                3239, 
                1562, 
                150, 
                3075, 
                1907, 
                197, 
                258, 
                2133, 
                337
            ], 
            "WBL": [
                1414
            ], 
            "irrelevant_Noun": [
                0
            ], 
            "M1_ADJ": [
                0
            ]
        }, 
        "(8, 3)": {
            "AM2L": [
                1562
            ], 
            "AM2F": [
                3239
            ], 
            "WBF": [
                1333
            ], 
            "BM1F": [
                3239
            ], 
            "M1": [
                3191
            ], 
            "irrelevant_Adj": [
                0
            ], 
            "M2": [
                894
            ], 
            "BM1L": [
                2015
            ], 
            "WBO": [
                275
            ], 
            "WBL": [
                32
            ], 
            "irrelevant_Noun": [
                0
            ], 
            "M1_ADJ": [
                0
            ]
        }, 
        "location1": [
            8, 
            20
        ], 
        "location2": [
            3
        ], 
        "sentence": "the optical zoom work great and the 14x digital zoom is a very nice addition although picture at the highest digital zoom are a little blurry ."
    }
}