{
    "b82837c0f2aa0002e428df001cedfcd8": {
        "location1": [
            2
        ], 
        "location2": [
            11
        ], 
        "(2, 11)": {
            "AM2L": [
                2866
            ], 
            "AM2F": [
                221
            ], 
            "WBF": [
                1843
            ], 
            "BM1F": [
                2882
            ], 
            "M1": [
                894
            ], 
            "irrelevant_Adj": [
                0
            ], 
            "M2": [
                1842
            ], 
            "BM1L": [
                3006
            ], 
            "WBO": [
                877, 
                535, 
                2866, 
                1280, 
                2663
            ], 
            "WBL": [
                2866
            ], 
            "irrelevant_Noun": [
                1
            ], 
            "M1_ADJ": [
                1
            ]
        }, 
        "sentence": "unfortunately , this digital moment-capturing device called the g3 sometimes capture the moment after the one you wanted ."
    }
}