{
    "59eae132b2cb15aee8885c0e6c8856d1": {
        "location1": [
            11
        ], 
        "location2": [
            3
        ], 
        "(11, 3)": {
            "AM2F": [
                2133
            ], 
            "WBF": [
                2037
            ], 
            "BM1F": [
                2501
            ], 
            "M1": [
                2270
            ], 
            "irrelevant_Adj": [
                0
            ], 
            "M2": [
                1005
            ], 
            "BM1L": [
                1636
            ], 
            "WBO": [
                275, 
                2463, 
                1490, 
                286
            ], 
            "WBL": [
                1232
            ], 
            "irrelevant_Noun": [
                0
            ], 
            "M1_ADJ": [
                0
            ]
        }, 
        "sentence": "the lcd screen pull out and rotates in any direction for easy picture ."
    }
}