{
    "ea03c1eca4f4843d18fa28fa8e577b5c": {
        "(18, 26)": {
            "AM2L": [
                2501
            ], 
            "AM2F": [
                1636
            ], 
            "WBF": [
                2909
            ], 
            "BM1F": [
                541
            ], 
            "M1": [
                1005
            ], 
            "irrelevant_Adj": [
                0
            ], 
            "M2": [
                2818
            ], 
            "BM1L": [
                120
            ], 
            "WBO": [
                2999, 
                275, 
                3041, 
                1371
            ], 
            "WBL": [
                1333
            ], 
            "irrelevant_Noun": [
                0
            ], 
            "M1_ADJ": [
                1
            ]
        }, 
        "location1": [
            18
        ], 
        "location2": [
            26
        ], 
        "sentence": "4mp , 4x optical zoom , takes absolutely beautiful photo with detail that challenge all of the above 5mp camera , easy to understand and use ( has a great swivel lcd screen ) , a lot of feature and add-on option , comes with great software ( not to be overlooked ) , and last but by far not least , received my fiance 's stamp of approval ( two thumb up ! )"
    }
}