{
    "4a44a69cb955602ceffa932a795dd6aa": {
        "location1": [
            5
        ], 
        "location2": [
            24
        ], 
        "(5, 24)": {
            "WBF": [
                2909
            ], 
            "BM1F": [
                541
            ], 
            "M1": [
                1005
            ], 
            "irrelevant_Adj": [
                0
            ], 
            "M2": [
                616
            ], 
            "BM1L": [
                1739
            ], 
            "WBO": [
                3041, 
                3075, 
                1215, 
                275, 
                2205, 
                1163, 
                2909, 
                1495, 
                2866, 
                152, 
                2909, 
                3041, 
                1119, 
                1208, 
                275
            ], 
            "WBL": [
                1183
            ], 
            "irrelevant_Noun": [
                0
            ], 
            "M1_ADJ": [
                1
            ]
        }, 
        "sentence": "bottom line , well made camera , easy to use , very flexible and powerful feature to include the ability to use external flash and lense / filter choice ."
    }
}