{
    "f4d33ef7024c0c93baef74d60978635e": {
        "(13, 17)": {
            "AM2L": [
                3138
            ], 
            "AM2F": [
                325
            ], 
            "WBF": [
                2172
            ], 
            "BM1F": [
                1375
            ], 
            "M1": [
                1005
            ], 
            "irrelevant_Adj": [
                0
            ], 
            "M2": [
                152
            ], 
            "BM1L": [
                2909
            ], 
            "WBO": [
                275
            ], 
            "WBL": [
                2579
            ], 
            "irrelevant_Noun": [
                0
            ], 
            "M1_ADJ": [
                1
            ]
        }, 
        "location1": [
            13
        ], 
        "location2": [
            17
        ], 
        "sentence": "this is the perfect camera for a photo hobbiest who wants to have easy point and shoot ability as well ."
    }, 
    "4a44a69cb955602ceffa932a795dd6aa": {
        "location1": [
            5
        ], 
        "location2": [
            16
        ], 
        "(5, 16)": {
            "AM2L": [
                3041
            ], 
            "AM2F": [
                2909
            ], 
            "WBF": [
                2909
            ], 
            "BM1F": [
                541
            ], 
            "M1": [
                1005
            ], 
            "irrelevant_Adj": [
                0
            ], 
            "M2": [
                152
            ], 
            "BM1L": [
                1739
            ], 
            "WBO": [
                3041, 
                3075, 
                1215, 
                275, 
                2205, 
                1163, 
                2909
            ], 
            "WBL": [
                2866
            ], 
            "irrelevant_Noun": [
                0
            ], 
            "M1_ADJ": [
                1
            ]
        }, 
        "sentence": "bottom line , well made camera , easy to use , very flexible and powerful feature to include the ability to use external flash and lense / filter choice ."
    }
}