{
    "656e72834c7ff8e049c4a59974414993": {
        "(12, 21)": {
            "AM2L": [
                2866
            ], 
            "AM2F": [
                275
            ], 
            "WBF": [
                2281
            ], 
            "BM1F": [
                1232
            ], 
            "M1": [
                1092
            ], 
            "irrelevant_Adj": [
                0
            ], 
            "M2": [
                3041
            ], 
            "BM1L": [
                1712
            ], 
            "WBO": [
                2133, 
                275, 
                150, 
                659, 
                1971
            ], 
            "WBL": [
                1971
            ], 
            "irrelevant_Noun": [
                0
            ], 
            "M1_ADJ": [
                1
            ]
        }, 
        "location1": [
            12
        ], 
        "location2": [
            21
        ], 
        "sentence": "i 'd highly recommend this camera for anyone who is looking for excellent quality picture and a combination of ease of use and the flexibility to get advanced with many option to adjust if you like ."
    }
}