{
    "1a0d68ac376b768e92b8dca25c428ee4": {
        "(21, 6)": {
            "AM2L": [
                1463
            ], 
            "AM2F": [
                2119
            ], 
            "WBF": [
                1307
            ], 
            "BM1F": [
                1114
            ], 
            "M1": [
                735
            ], 
            "irrelevant_Adj": [
                0
            ], 
            "M2": [
                1092
            ], 
            "BM1L": [
                275
            ], 
            "WBO": [
                3229, 
                1632, 
                2909, 
                402, 
                784, 
                3226, 
                1569, 
                2246, 
                275, 
                350, 
                1114
            ], 
            "WBL": [
                2265
            ], 
            "irrelevant_Noun": [
                0
            ], 
            "M1_ADJ": [
                0
            ]
        }, 
        "location1": [
            21
        ], 
        "location2": [
            6
        ], 
        "sentence": "1 ) slr like programming and exposure control gives you latitude to be creative , yet its progam and auto exposure setting provide excellent photo if you do n't want to bother with the setting ."
    }
}