{
    "1a0d68ac376b768e92b8dca25c428ee4": {
        "(21, 19)": {
            "AM2L": [
                1463
            ], 
            "WBFL": [
                2265
            ], 
            "BM1F": [
                1114
            ], 
            "M1": [
                2552
            ], 
            "irrelevant_Adj": [
                0
            ], 
            "M2": [
                1092
            ], 
            "BM1L": [
                350
            ], 
            "AM2F": [
                2119
            ], 
            "irrelevant_Noun": [
                0
            ], 
            "M1_ADJ": [
                0
            ]
        }, 
        "location1": [
            21
        ], 
        "location2": [
            19, 
            32
        ], 
        "(21, 32)": {
            "WBF": [
                2119
            ], 
            "BM1F": [
                2265
            ], 
            "M1": [
                1092
            ], 
            "irrelevant_Adj": [
                0
            ], 
            "M2": [
                2552
            ], 
            "BM1L": [
                2552
            ], 
            "WBO": [
                1463, 
                3229, 
                931, 
                1881, 
                3108, 
                2909, 
                476
            ], 
            "WBL": [
                2866
            ], 
            "irrelevant_Noun": [
                0
            ], 
            "M1_ADJ": [
                1
            ]
        }, 
        "sentence": "1 ) slr like programming and exposure control gives you latitude to be creative , yet its progam and auto exposure setting provide excellent photo if you do n't want to bother with the setting ."
    }, 
    "3797f31b7e658ca2289e807be4ce0066": {
        "location1": [
            20
        ], 
        "location2": [
            11
        ], 
        "(20, 11)": {
            "AM2L": [
                2119
            ], 
            "AM2F": [
                2741
            ], 
            "WBF": [
                2321
            ], 
            "BM1F": [
                2866
            ], 
            "M1": [
                2552
            ], 
            "irrelevant_Adj": [
                0
            ], 
            "M2": [
                1092
            ], 
            "BM1L": [
                1299
            ], 
            "WBO": [
                2909, 
                2579, 
                1449, 
                3117, 
                153
            ], 
            "WBL": [
                2240
            ], 
            "irrelevant_Noun": [
                0
            ], 
            "M1_ADJ": [
                0
            ]
        }, 
        "sentence": "by cocking the shutter to the halfway position and getting the setting ready to shoot , i was able to produce excellent stopaction photo -- contrary to what other reviewer experienced ."
    }
}