{
    "3797f31b7e658ca2289e807be4ce0066": {
        "location1": [
            20
        ], 
        "location2": [
            21
        ], 
        "(20, 21)": {
            "AM2L": [
                733
            ], 
            "BM1F": [
                2240
            ], 
            "M1": [
                1092
            ], 
            "irrelevant_Adj": [
                0
            ], 
            "M2": [
                2741
            ], 
            "BM1L": [
                2909
            ], 
            "WBNULL": [
                1
            ], 
            "irrelevant_Noun": [
                0
            ], 
            "AM2F": [
                2119
            ], 
            "M1_ADJ": [
                1
            ]
        }, 
        "sentence": "by cocking the shutter to the halfway position and getting the setting ready to shoot , i was able to produce excellent stopaction photo -- contrary to what other reviewer experienced ."
    }
}