{
    "656e72834c7ff8e049c4a59974414993": {
        "location1": [
            12
        ], 
        "location2": [
            17
        ], 
        "(12, 17)": {
            "AM2L": [
                1001
            ], 
            "AM2F": [
                1971
            ], 
            "WBF": [
                2281
            ], 
            "BM1F": [
                1232
            ], 
            "M1": [
                1092
            ], 
            "irrelevant_Adj": [
                0
            ], 
            "M2": [
                659
            ], 
            "BM1L": [
                1712
            ], 
            "WBO": [
                2133
            ], 
            "WBL": [
                150
            ], 
            "irrelevant_Noun": [
                0
            ], 
            "M1_ADJ": [
                1
            ]
        }, 
        "sentence": "i 'd highly recommend this camera for anyone who is looking for excellent quality picture and a combination of ease of use and the flexibility to get advanced with many option to adjust if you like ."
    }
}