{
    "3797f31b7e658ca2289e807be4ce0066": {
        "location1": [
            20
        ], 
        "location2": [
            7
        ], 
        "(20, 7)": {
            "AM2L": [
                2119
            ], 
            "AM2F": [
                2741
            ], 
            "WBF": [
                275
            ], 
            "BM1F": [
                1350
            ], 
            "M1": [
                2191
            ], 
            "irrelevant_Adj": [
                0
            ], 
            "M2": [
                1092
            ], 
            "BM1L": [
                2866
            ], 
            "WBO": [
                1299, 
                2866, 
                2552, 
                2321, 
                2909, 
                2579, 
                1449, 
                3117, 
                153
            ], 
            "WBL": [
                2240
            ], 
            "irrelevant_Noun": [
                0
            ], 
            "M1_ADJ": [
                0
            ]
        }, 
        "sentence": "by cocking the shutter to the halfway position and getting the setting ready to shoot , i was able to produce excellent stopaction photo -- contrary to what other reviewer experienced ."
    }
}