{
    "4a44a69cb955602ceffa932a795dd6aa": {
        "(19, 12)": {
            "AM2L": [
                275
            ], 
            "AM2F": [
                1208
            ], 
            "WBF": [
                2909
            ], 
            "BM1F": [
                2205
            ], 
            "M1": [
                1163
            ], 
            "irrelevant_Adj": [
                0
            ], 
            "M2": [
                1119
            ], 
            "BM1L": [
                275
            ], 
            "WBO": [
                1495, 
                2866, 
                152
            ], 
            "WBL": [
                3041
            ], 
            "irrelevant_Noun": [
                0
            ], 
            "M1_ADJ": [
                0
            ]
        }, 
        "location1": [
            19
        ], 
        "location2": [
            12
        ], 
        "sentence": "bottom line , well made camera , easy to use , very flexible and powerful feature to include the ability to use external flash and lense / filter choice ."
    }
}