{
    "4a93d8f10f505f7246805579982dd792": {
        "(26, 29)": {
            "AM2L": [
                524
            ], 
            "AM2F": [
                543
            ], 
            "WBF": [
                1208
            ], 
            "BM1F": [
                2281
            ], 
            "M1": [
                1119
            ], 
            "irrelevant_Adj": [
                0
            ], 
            "M2": [
                1844
            ], 
            "BM1L": [
                1414
            ], 
            "WBO": [
                2864
            ], 
            "WBL": [
                2864
            ], 
            "irrelevant_Noun": [
                0
            ], 
            "M1_ADJ": [
                1
            ]
        }, 
        "(11, 29)": {
            "AM2L": [
                524
            ], 
            "AM2F": [
                543
            ], 
            "WBF": [
                1208
            ], 
            "BM1F": [
                273
            ], 
            "M1": [
                1119
            ], 
            "irrelevant_Adj": [
                0
            ], 
            "M2": [
                1844
            ], 
            "BM1L": [
                2834
            ], 
            "WBO": [
                275, 
                1242, 
                1232, 
                1773, 
                1449, 
                252, 
                2059, 
                150, 
                1994, 
                1971, 
                2866, 
                1414, 
                2281, 
                1119
            ], 
            "WBL": [
                2864
            ], 
            "irrelevant_Noun": [
                0
            ], 
            "M1_ADJ": [
                1
            ]
        }, 
        "location1": [
            11, 
            26
        ], 
        "location2": [
            29
        ], 
        "sentence": "fortunately , the g3 has a hot shoe that can take an external flash , and fortunately for me , i already owned a one of the highest quality external flash that money can buy : the metz 60 ct-4 ."
    }
}