{
    "4a44a69cb955602ceffa932a795dd6aa": {
        "(19, 4)": {
            "AM2L": [
                275
            ], 
            "AM2F": [
                1208
            ], 
            "WBF": [
                1005
            ], 
            "BM1F": [
                1739
            ], 
            "M1": [
                541
            ], 
            "irrelevant_Adj": [
                0
            ], 
            "M2": [
                1119
            ], 
            "BM1L": [
                3138
            ], 
            "WBO": [
                2909, 
                3041, 
                3075, 
                1215, 
                275, 
                2205, 
                1163, 
                2909, 
                1495, 
                2866, 
                152
            ], 
            "WBL": [
                3041
            ], 
            "irrelevant_Noun": [
                0
            ], 
            "M1_ADJ": [
                0
            ]
        }, 
        "location1": [
            19
        ], 
        "location2": [
            4
        ], 
        "sentence": "bottom line , well made camera , easy to use , very flexible and powerful feature to include the ability to use external flash and lense / filter choice ."
    }
}