{
    "7f28bc07721c2e384997b2808526e775": {
        "location1": [
            1
        ], 
        "location2": [
            11
        ], 
        "(1, 11)": {
            "AM2L": [
                1566
            ], 
            "AM2F": [
                1971
            ], 
            "WBF": [
                3239
            ], 
            "BM1F": [
                2866
            ], 
            "M1": [
                1116
            ], 
            "irrelevant_Adj": [
                0
            ], 
            "M2": [
                2921
            ], 
            "WBO": [
                2301, 
                275, 
                1158, 
                1654, 
                2280, 
                1566
            ], 
            "WBL": [
                2866
            ], 
            "irrelevant_Noun": [
                0
            ], 
            "M1_ADJ": [
                1
            ]
        }, 
        "sentence": "the extended zoom range and faster lense put it at the top of it 's class ."
    }
}