{
    "d189707ad42028eec72db14fec45c699": {
        "(8, 21)": {
            "AM2L": [
                1470
            ], 
            "AM2F": [
                1210
            ], 
            "WBF": [
                1208
            ], 
            "BM1F": [
                3181
            ], 
            "M1": [
                1119
            ], 
            "irrelevant_Adj": [
                0
            ], 
            "M2": [
                1370
            ], 
            "BM1L": [
                177
            ], 
            "WBO": [
                1987, 
                1878, 
                1914, 
                2635, 
                2866, 
                1547, 
                1208, 
                1987, 
                2866
            ], 
            "WBL": [
                2240
            ], 
            "irrelevant_Noun": [
                0
            ], 
            "M1_ADJ": [
                1
            ]
        }, 
        "location1": [
            8
        ], 
        "location2": [
            21
        ], 
        "sentence": "relative to what i can easily achieve with external flash on my nikon slr , the internal flash on the g3 produce harsh , flat image with ugly hot spot ."
    }
}