{
    "7f28bc07721c2e384997b2808526e775": {
        "(5, 6)": {
            "AM2L": [
                1566
            ], 
            "BM1F": [
                275
            ], 
            "M1": [
                1158
            ], 
            "irrelevant_Adj": [
                0
            ], 
            "M2": [
                1654
            ], 
            "BM1L": [
                2301
            ], 
            "WBNULL": [
                1
            ], 
            "irrelevant_Noun": [
                0
            ], 
            "AM2F": [
                2280
            ], 
            "M1_ADJ": [
                1
            ]
        }, 
        "location1": [
            5
        ], 
        "location2": [
            6
        ], 
        "sentence": "the extended zoom range and faster lense put it at the top of it 's class ."
    }
}