{
    "48bcb8b7a73b431d17faa7c86416eb2c": {
        "(3, 5)": {
            "AM2L": [
                1449
            ], 
            "WBFL": [
                894
            ], 
            "BM1F": [
                1878
            ], 
            "M1": [
                1199
            ], 
            "irrelevant_Adj": [
                1
            ], 
            "M2": [
                541
            ], 
            "BM1L": [
                1562
            ], 
            "AM2F": [
                275
            ], 
            "irrelevant_Noun": [
                0
            ], 
            "M1_ADJ": [
                1
            ]
        }, 
        "location1": [
            3
        ], 
        "location2": [
            5
        ], 
        "sentence": "this is my first digital camera and i could n't be happier ."
    }, 
    "bf6a7e1803fcb60ab4e76c2f4119489b": {
        "(0, 12)": {
            "WBF": [
                275
            ], 
            "M1": [
                1199
            ], 
            "irrelevant_Adj": [
                1
            ], 
            "M2": [
                541
            ], 
            "WBO": [
                1233, 
                1566, 
                3168, 
                2834, 
                436, 
                2128, 
                4, 
                2862
            ], 
            "WBL": [
                1182
            ], 
            "irrelevant_Noun": [
                0
            ], 
            "AM2F": [
                4
            ], 
            "M1_ADJ": [
                1
            ]
        }, 
        "location1": [
            0
        ], 
        "location2": [
            12
        ], 
        "sentence": "first and foremost , it will take better pic 's than most film camera 's ."
    }, 
    "eae3fa8ec5597ddf6e714868e7a3068d": {
        "(3, 5)": {
            "AM2L": [
                3144
            ], 
            "WBFL": [
                894
            ], 
            "BM1F": [
                1878
            ], 
            "M1": [
                1199
            ], 
            "irrelevant_Adj": [
                1
            ], 
            "M2": [
                541
            ], 
            "BM1L": [
                1562
            ], 
            "AM2F": [
                275
            ], 
            "irrelevant_Noun": [
                0
            ], 
            "M1_ADJ": [
                1
            ]
        }, 
        "location1": [
            3
        ], 
        "location2": [
            5
        ], 
        "sentence": "this is my first digital camera , and what a ' toy ' it is !"
    }, 
    "03ba56f0d39bdcc405e0e8c231587f54": {
        "(3, 5)": {
            "AM2L": [
                1449
            ], 
            "WBFL": [
                894
            ], 
            "BM1F": [
                1878
            ], 
            "M1": [
                1199
            ], 
            "irrelevant_Adj": [
                1
            ], 
            "M2": [
                541
            ], 
            "BM1L": [
                1562
            ], 
            "AM2F": [
                275
            ], 
            "irrelevant_Noun": [
                0
            ], 
            "M1_ADJ": [
                1
            ]
        }, 
        "location1": [
            3
        ], 
        "location2": [
            5
        ], 
        "sentence": "this is my first digital camera , and i am very pleased with it ."
    }
}