{
    "20c5a2780290c04a8fff006233aee834": {
        "(33, 41)": {
            "AM2L": [
                3181
            ], 
            "AM2F": [
                585
            ], 
            "WBF": [
                2876
            ], 
            "BM1F": [
                2866
            ], 
            "M1": [
                1199
            ], 
            "irrelevant_Adj": [
                1
            ], 
            "M2": [
                1772
            ], 
            "BM1L": [
                275
            ], 
            "WBO": [
                1449, 
                882, 
                3117, 
                2401
            ], 
            "WBL": [
                82
            ], 
            "irrelevant_Noun": [
                0
            ], 
            "M1_ADJ": [
                1
            ]
        }, 
        "location1": [
            33
        ], 
        "location2": [
            41, 
            46
        ], 
        "(33, 46)": {
            "AM2L": [
                3152
            ], 
            "AM2F": [
                585
            ], 
            "WBF": [
                2876
            ], 
            "BM1F": [
                2866
            ], 
            "M1": [
                1199
            ], 
            "irrelevant_Adj": [
                1
            ], 
            "M2": [
                1772
            ], 
            "BM1L": [
                275
            ], 
            "WBO": [
                1449, 
                882, 
                3117, 
                2401, 
                2866, 
                82, 
                1772, 
                585, 
                3181
            ], 
            "WBL": [
                116
            ], 
            "irrelevant_Noun": [
                0
            ], 
            "M1_ADJ": [
                1
            ]
        }, 
        "sentence": "now there is one more complaint i have about the g3 and that is the software that comes with it for processing raw image ( i only shoot in raw image mode and the first thing i did was replace the 32 mbyte cf with a 512 mbyte cf , which gives me 130 raw image , as opposed to 7 !"
    }
}