{
    "07b3bdbafaec9f6df8f50960a8c49f11": {
        "location1": [
            13
        ], 
        "location2": [
            19
        ], 
        "(13, 19)": {
            "AM2L": [
                1562
            ], 
            "AM2F": [
                2873
            ], 
            "WBF": [
                894
            ], 
            "BM1F": [
                150
            ], 
            "M1": [
                1200
            ], 
            "irrelevant_Adj": [
                0
            ], 
            "M2": [
                2225
            ], 
            "BM1L": [
                1232
            ], 
            "WBO": [
                541, 
                337
            ], 
            "WBL": [
                2327
            ], 
            "irrelevant_Noun": [
                0
            ], 
            "M1_ADJ": [
                1
            ]
        }, 
        "sentence": "i recommend unreservedly the powershot g3 to any potential buyer looking for a first-class digital camera at a reasonable price - there is no better camera out there - period !"
    }
}