{
    "4a44a69cb955602ceffa932a795dd6aa": {
        "(9, 22)": {
            "AM2L": [
                616
            ], 
            "AM2F": [
                1183
            ], 
            "WBF": [
                275
            ], 
            "BM1F": [
                3075
            ], 
            "M1": [
                1215
            ], 
            "irrelevant_Adj": [
                0
            ], 
            "M2": [
                1654
            ], 
            "BM1L": [
                3041
            ], 
            "WBO": [
                2205, 
                1163, 
                2909, 
                1495, 
                2866, 
                152, 
                2909, 
                3041, 
                1119
            ], 
            "WBL": [
                275
            ], 
            "irrelevant_Noun": [
                0
            ], 
            "M1_ADJ": [
                1
            ]
        }, 
        "location1": [
            9
        ], 
        "location2": [
            22
        ], 
        "sentence": "bottom line , well made camera , easy to use , very flexible and powerful feature to include the ability to use external flash and lense / filter choice ."
    }
}