{
    "0edeb8de7afc625a933b4c41f00abaf8": {
        "location1": [
            40
        ], 
        "location2": [
            17
        ], 
        "(40, 17)": {
            "AM2L": [
                2882
            ], 
            "AM2F": [
                737
            ], 
            "WBF": [
                1490
            ], 
            "BM1F": [
                1333
            ], 
            "M1": [
                861
            ], 
            "irrelevant_Adj": [
                0
            ], 
            "M2": [
                1273
            ], 
            "BM1L": [
                1551
            ], 
            "WBO": [
                2868, 
                2438, 
                522, 
                1449, 
                260, 
                3075, 
                2164, 
                3181, 
                2866, 
                1163, 
                2866, 
                2696, 
                2866, 
                2133, 
                2281, 
                2866, 
                1214, 
                2866, 
                358
            ], 
            "WBL": [
                2866
            ], 
            "irrelevant_Noun": [
                0
            ], 
            "M1_ADJ": [
                0
            ]
        }, 
        "sentence": "i wo n't go into the detail here , as the online site ( stevesdigicams , dpreviews ) go into great depth in their review , but i am very pleased with the feature , the speed , the picture quality , the flexibility , the automation , and the functional convenience this camera offer ."
    }
}