{
    "0edeb8de7afc625a933b4c41f00abaf8": {
        "(40, 37)": {
            "AM2L": [
                2882
            ], 
            "AM2F": [
                737
            ], 
            "WBF": [
                275
            ], 
            "BM1F": [
                2866
            ], 
            "M1": [
                358
            ], 
            "irrelevant_Adj": [
                0
            ], 
            "M2": [
                1273
            ], 
            "BM1L": [
                1214
            ], 
            "WBO": [
                2866
            ], 
            "WBL": [
                2866
            ], 
            "irrelevant_Noun": [
                0
            ], 
            "M1_ADJ": [
                0
            ]
        }, 
        "location1": [
            40
        ], 
        "location2": [
            37
        ], 
        "sentence": "i wo n't go into the detail here , as the online site ( stevesdigicams , dpreviews ) go into great depth in their review , but i am very pleased with the feature , the speed , the picture quality , the flexibility , the automation , and the functional convenience this camera offer ."
    }
}