{
    "3bce35cc8493a2cd4c47a2a358643b7c": {
        "(5, 2)": {
            "WBF": [
                2501
            ], 
            "BM1F": [
                1860
            ], 
            "M1": [
                1636
            ], 
            "irrelevant_Adj": [
                0
            ], 
            "M2": [
                1333
            ], 
            "BM1L": [
                2866
            ], 
            "WBO": [
                1562
            ], 
            "WBL": [
                1562
            ], 
            "irrelevant_Noun": [
                0
            ], 
            "M1_ADJ": [
                0
            ]
        }, 
        "location1": [
            5
        ], 
        "location2": [
            2
        ], 
        "sentence": "the moveable lcd screen is great ."
    }, 
    "493500669cab1a2ef28578fd9b1d5279": {
        "(2, 15)": {
            "AM2F": [
                2501
            ], 
            "WBF": [
                2909
            ], 
            "BM1F": [
                4
            ], 
            "M1": [
                1333
            ], 
            "irrelevant_Adj": [
                0
            ], 
            "M2": [
                1636
            ], 
            "BM1L": [
                1566
            ], 
            "WBO": [
                2816, 
                2909, 
                2705, 
                1804, 
                275, 
                185, 
                2518, 
                1566, 
                3195
            ], 
            "WBL": [
                2866
            ], 
            "irrelevant_Noun": [
                0
            ], 
            "M1_ADJ": [
                1
            ]
        }, 
        "location1": [
            2
        ], 
        "location2": [
            15
        ], 
        "sentence": "it 's great to switch to spot metering and actually see it working on the lcd screen ."
    }, 
    "ae0aed0b3b73dea5b4506576ff783dcc": {
        "(5, 13)": {
            "AM2L": [
                3144
            ], 
            "AM2F": [
                1562
            ], 
            "WBF": [
                657
            ], 
            "BM1F": [
                4
            ], 
            "M1": [
                1333
            ], 
            "irrelevant_Adj": [
                0
            ], 
            "M2": [
                1636
            ], 
            "BM1L": [
                546
            ], 
            "WBO": [
                2170, 
                3144, 
                3229, 
                2518
            ], 
            "WBL": [
                2866
            ], 
            "irrelevant_Noun": [
                0
            ], 
            "M1_ADJ": [
                1
            ]
        }, 
        "location1": [
            5
        ], 
        "location2": [
            13
        ], 
        "sentence": "this camera has canon 's great colorimetry , plus what you see in the lcd is what you get ."
    }, 
    "ea03c1eca4f4843d18fa28fa8e577b5c": {
        "(38, 27)": {
            "AM2L": [
                1935
            ], 
            "AM2F": [
                2653
            ], 
            "WBF": [
                2501
            ], 
            "BM1F": [
                2818
            ], 
            "M1": [
                1636
            ], 
            "irrelevant_Adj": [
                0
            ], 
            "M2": [
                1333
            ], 
            "BM1L": [
                1333
            ], 
            "WBO": [
                150, 
                1719, 
                1971, 
                1163, 
                275, 
                194, 
                2017
            ], 
            "WBL": [
                3181
            ], 
            "irrelevant_Noun": [
                0
            ], 
            "M1_ADJ": [
                0
            ]
        }, 
        "(25, 27)": {
            "AM2L": [
                150
            ], 
            "WBFL": [
                2818
            ], 
            "BM1F": [
                150
            ], 
            "M1": [
                1333
            ], 
            "irrelevant_Adj": [
                0
            ], 
            "M2": [
                1636
            ], 
            "BM1L": [
                1371
            ], 
            "AM2F": [
                2501
            ], 
            "irrelevant_Noun": [
                0
            ], 
            "M1_ADJ": [
                1
            ]
        }, 
        "location1": [
            25, 
            38
        ], 
        "location2": [
            27
        ], 
        "sentence": "4mp , 4x optical zoom , takes absolutely beautiful photo with detail that challenge all of the above 5mp camera , easy to understand and use ( has a great swivel lcd screen ) , a lot of feature and add-on option , comes with great software ( not to be overlooked ) , and last but by far not least , received my fiance 's stamp of approval ( two thumb up ! )"
    }
}