{
    "333e87ce30ba03bd6f411b6b04304e07": {
        "(5, 6)": {
            "AM2L": [
                3135
            ], 
            "BM1F": [
                150
            ], 
            "M1": [
                1333
            ], 
            "irrelevant_Adj": [
                0
            ], 
            "M2": [
                1167
            ], 
            "BM1L": [
                1371
            ], 
            "WBNULL": [
                1
            ], 
            "irrelevant_Noun": [
                0
            ], 
            "AM2F": [
                275
            ], 
            "M1_ADJ": [
                1
            ]
        }, 
        "location1": [
            5
        ], 
        "location2": [
            6
        ], 
        "sentence": "this camera also has a great feel and weight to it ."
    }, 
    "5b3c35f2d0200b492eb1d84caff2bd26": {
        "(2, 7)": {
            "AM2F": [
                2656
            ], 
            "WBF": [
                2133
            ], 
            "BM1F": [
                2836
            ], 
            "M1": [
                1333
            ], 
            "irrelevant_Adj": [
                0
            ], 
            "M2": [
                1167
            ], 
            "BM1L": [
                1566
            ], 
            "WBO": [
                2007
            ], 
            "WBL": [
                275
            ], 
            "irrelevant_Noun": [
                0
            ], 
            "M1_ADJ": [
                1
            ]
        }, 
        "location1": [
            2
        ], 
        "location2": [
            7
        ], 
        "sentence": "it takes great picture , operates quickly , and feel solid ."
    }
}