{
    "5e8d37c7fc800e394540cc47e42d3496": {
        "(2, 5)": {
            "AM2L": [
                1005
            ], 
            "AM2F": [
                316
            ], 
            "WBF": [
                2133
            ], 
            "BM1F": [
                1307
            ], 
            "M1": [
                1333
            ], 
            "irrelevant_Adj": [
                0
            ], 
            "M2": [
                735
            ], 
            "BM1L": [
                1566
            ], 
            "WBO": [
                2866
            ], 
            "WBL": [
                2866
            ], 
            "irrelevant_Noun": [
                0
            ], 
            "M1_ADJ": [
                1
            ]
        }, 
        "location1": [
            2
        ], 
        "location2": [
            5
        ], 
        "sentence": "it gives great picture , the control are easy to use , the battery last forever on one single charge , the software is very user-friendly and it is beautiful in it chrome casing ."
    }
}