{
    "493500669cab1a2ef28578fd9b1d5279": {
        "(2, 7)": {
            "AM2L": [
                185
            ], 
            "AM2F": [
                275
            ], 
            "WBF": [
                2909
            ], 
            "BM1F": [
                4
            ], 
            "M1": [
                1333
            ], 
            "irrelevant_Adj": [
                0
            ], 
            "M2": [
                1804
            ], 
            "BM1L": [
                1566
            ], 
            "WBO": [
                2816
            ], 
            "WBL": [
                2705
            ], 
            "irrelevant_Noun": [
                0
            ], 
            "M1_ADJ": [
                1
            ]
        }, 
        "location1": [
            2
        ], 
        "location2": [
            7
        ], 
        "sentence": "it 's great to switch to spot metering and actually see it working on the lcd screen ."
    }
}