{
    "d189707ad42028eec72db14fec45c699": {
        "location1": [
            21
        ], 
        "location2": [
            27
        ], 
        "(21, 27)": {
            "WBF": [
                1210
            ], 
            "BM1F": [
                2240
            ], 
            "M1": [
                1370
            ], 
            "irrelevant_Adj": [
                0
            ], 
            "M2": [
                2705
            ], 
            "BM1L": [
                1280
            ], 
            "WBO": [
                1470, 
                3181
            ], 
            "WBL": [
                1440
            ], 
            "irrelevant_Noun": [
                0
            ], 
            "M1_ADJ": [
                1
            ]
        }, 
        "sentence": "relative to what i can easily achieve with external flash on my nikon slr , the internal flash on the g3 produce harsh , flat image with ugly hot spot ."
    }
}