{
    "299b1b3b82ed7f53d93796dd70e2715e": {
        "(3, 7)": {
            "WBF": [
                275
            ], 
            "BM1F": [
                150
            ], 
            "M1": [
                1392
            ], 
            "irrelevant_Adj": [
                0
            ], 
            "M2": [
                564
            ], 
            "BM1L": [
                1348
            ], 
            "WBO": [
                1851
            ], 
            "WBL": [
                2768
            ], 
            "irrelevant_Noun": [
                0
            ], 
            "M1_ADJ": [
                1
            ]
        }, 
        "location1": [
            3
        ], 
        "location2": [
            7
        ], 
        "sentence": "it had a heavier and more sturdy casing ."
    }
}