{
    "be379679dac602b9b58a047cfe52bfb9": {
        "(13, 10)": {
            "AM2L": [
                2774
            ], 
            "AM2F": [
                2696
            ], 
            "WBF": [
                2233
            ], 
            "BM1F": [
                2524
            ], 
            "M1": [
                2592
            ], 
            "irrelevant_Adj": [
                0
            ], 
            "M2": [
                1407
            ], 
            "BM1L": [
                543
            ], 
            "WBO": [
                1232
            ], 
            "WBL": [
                1232
            ], 
            "irrelevant_Noun": [
                0
            ], 
            "M1_ADJ": [
                0
            ]
        }, 
        "location1": [
            13
        ], 
        "location2": [
            10
        ], 
        "sentence": "with a quick spin of the dial you can select shutter priority ( for high speed subject ) , aperture priority ( for focal length ) or full program mode where the camera selects both for ideal photo quality ."
    }
}