{
    "96a3c89de3083b68a7e7476e1f55d023": {
        "location1": [
            19
        ], 
        "location2": [
            14
        ], 
        "(19, 14)": {
            "AM2L": [
                3239
            ], 
            "AM2F": [
                894
            ], 
            "WBF": [
                258
            ], 
            "BM1F": [
                1907
            ], 
            "M1": [
                197
            ], 
            "irrelevant_Adj": [
                0
            ], 
            "M2": [
                1414
            ], 
            "BM1L": [
                3075
            ], 
            "WBO": [
                2133
            ], 
            "WBL": [
                2866
            ], 
            "irrelevant_Noun": [
                0
            ], 
            "M1_ADJ": [
                0
            ]
        }, 
        "sentence": "the optical zoom work great and the 14x digital zoom is a very nice addition although picture at the highest digital zoom are a little blurry ."
    }
}