{
    "be379679dac602b9b58a047cfe52bfb9": {
        "(13, 14)": {
            "AM2L": [
                296
            ], 
            "BM1F": [
                1232
            ], 
            "M1": [
                1407
            ], 
            "irrelevant_Adj": [
                0
            ], 
            "M2": [
                2696
            ], 
            "BM1L": [
                2233
            ], 
            "WBNULL": [
                1
            ], 
            "irrelevant_Noun": [
                0
            ], 
            "AM2F": [
                2774
            ], 
            "M1_ADJ": [
                1
            ]
        }, 
        "location1": [
            13
        ], 
        "location2": [
            14
        ], 
        "sentence": "with a quick spin of the dial you can select shutter priority ( for high speed subject ) , aperture priority ( for focal length ) or full program mode where the camera selects both for ideal photo quality ."
    }
}