{
    "be379679dac602b9b58a047cfe52bfb9": {
        "(31, 6)": {
            "AM2L": [
                2281
            ], 
            "AM2F": [
                2119
            ], 
            "WBF": [
                3229
            ], 
            "BM1F": [
                2866
            ], 
            "M1": [
                879
            ], 
            "irrelevant_Adj": [
                0
            ], 
            "M2": [
                1459
            ], 
            "BM1L": [
                1971
            ], 
            "WBO": [
                543, 
                2524, 
                2592, 
                2233, 
                1232, 
                1407, 
                2696, 
                2774, 
                296, 
                2233, 
                1232, 
                1222, 
                1651, 
                2019, 
                1268, 
                2247, 
                1836, 
                3149, 
                2866, 
                541, 
                2529
            ], 
            "WBL": [
                1232
            ], 
            "irrelevant_Noun": [
                0
            ], 
            "M1_ADJ": [
                0
            ]
        }, 
        "location1": [
            31
        ], 
        "location2": [
            6
        ], 
        "sentence": "with a quick spin of the dial you can select shutter priority ( for high speed subject ) , aperture priority ( for focal length ) or full program mode where the camera selects both for ideal photo quality ."
    }
}