{
    "be379679dac602b9b58a047cfe52bfb9": {
        "(31, 23)": {
            "AM2L": [
                2281
            ], 
            "AM2F": [
                2119
            ], 
            "WBF": [
                1836
            ], 
            "BM1F": [
                1268
            ], 
            "M1": [
                2247
            ], 
            "irrelevant_Adj": [
                0
            ], 
            "M2": [
                1459
            ], 
            "BM1L": [
                2019
            ], 
            "WBO": [
                3149, 
                2866, 
                541, 
                2529
            ], 
            "WBL": [
                1232
            ], 
            "irrelevant_Noun": [
                0
            ], 
            "M1_ADJ": [
                0
            ]
        }, 
        "location1": [
            31
        ], 
        "location2": [
            23
        ], 
        "sentence": "with a quick spin of the dial you can select shutter priority ( for high speed subject ) , aperture priority ( for focal length ) or full program mode where the camera selects both for ideal photo quality ."
    }
}