{
    "d189707ad42028eec72db14fec45c699": {
        "(15, 9)": {
            "AM2L": [
                1987
            ], 
            "AM2F": [
                1208
            ], 
            "WBF": [
                1987
            ], 
            "BM1F": [
                1119
            ], 
            "M1": [
                1208
            ], 
            "irrelevant_Adj": [
                0
            ], 
            "M2": [
                1547
            ], 
            "BM1L": [
                3181
            ], 
            "WBO": [
                1878, 
                1914
            ], 
            "WBL": [
                2866
            ], 
            "irrelevant_Noun": [
                0
            ], 
            "M1_ADJ": [
                0
            ]
        }, 
        "(15, 16)": {
            "AM2L": [
                2866
            ], 
            "BM1F": [
                2866
            ], 
            "M1": [
                1547
            ], 
            "irrelevant_Adj": [
                0
            ], 
            "M2": [
                1208
            ], 
            "BM1L": [
                2635
            ], 
            "WBNULL": [
                1
            ], 
            "irrelevant_Noun": [
                0
            ], 
            "AM2F": [
                1987
            ], 
            "M1_ADJ": [
                1
            ]
        }, 
        "location1": [
            15
        ], 
        "location2": [
            9, 
            16
        ], 
        "sentence": "relative to what i can easily achieve with external flash on my nikon slr , the internal flash on the g3 produce harsh , flat image with ugly hot spot ."
    }
}