{
    "8cff8b3bb4b722f290108da2b2fcc548": {
        "location1": [
            35
        ], 
        "location2": [
            23
        ], 
        "(35, 23)": {
            "AM2L": [
                2523
            ], 
            "AM2F": [
                1902
            ], 
            "WBF": [
                2824
            ], 
            "BM1F": [
                2244
            ], 
            "M1": [
                1208
            ], 
            "irrelevant_Adj": [
                0
            ], 
            "M2": [
                1572
            ], 
            "BM1L": [
                1878
            ], 
            "WBO": [
                275, 
                543, 
                1004, 
                2280, 
                3029, 
                3181, 
                2866, 
                541
            ], 
            "WBL": [
                407
            ], 
            "irrelevant_Noun": [
                0
            ], 
            "M1_ADJ": [
                0
            ]
        }, 
        "sentence": "i am stunned and amazed at the quality of the raw image i am getting from this g3 ( in conjunction with my professional flash system ) , and can easily put up with the camera limitation , because ive never seen anything better within its resolution limit ."
    }, 
    "865f5ce19fc754d56e712de777b1bcae": {
        "(3, 17)": {
            "AM2L": [
                325
            ], 
            "AM2F": [
                1591
            ], 
            "WBF": [
                2317
            ], 
            "BM1F": [
                3144
            ], 
            "M1": [
                1572
            ], 
            "irrelevant_Adj": [
                0
            ], 
            "M2": [
                1208
            ], 
            "BM1L": [
                2909
            ], 
            "WBO": [
                1023, 
                2866, 
                1280, 
                936, 
                2820, 
                337, 
                14, 
                1971, 
                150, 
                2516
            ], 
            "WBL": [
                2881
            ], 
            "irrelevant_Noun": [
                0
            ], 
            "M1_ADJ": [
                1
            ]
        }, 
        "location1": [
            3
        ], 
        "location2": [
            17, 
            25
        ], 
        "(3, 25)": {
            "AM2L": [
                546
            ], 
            "AM2F": [
                1261
            ], 
            "WBF": [
                2317
            ], 
            "BM1F": [
                3144
            ], 
            "M1": [
                1572
            ], 
            "irrelevant_Adj": [
                0
            ], 
            "M2": [
                1208
            ], 
            "BM1L": [
                2909
            ], 
            "WBO": [
                1023, 
                2866, 
                1280, 
                936, 
                2820, 
                337, 
                14, 
                1971, 
                150, 
                2516, 
                3181, 
                2881, 
                1208, 
                1591, 
                325, 
                1566, 
                936, 
                3181
            ], 
            "WBL": [
                832
            ], 
            "irrelevant_Noun": [
                0
            ], 
            "M1_ADJ": [
                1
            ]
        }, 
        "sentence": "contrary to what ive read elsewhere , the g3 does sync at 1/250 of a second with third-party flash , just as it does with the dedicated flash from canon ."
    }
}