{
    "38c47be19193cb76675feafd049a684c": {
        "(16, 7)": {
            "AM2L": [
                2523
            ], 
            "AM2F": [
                1079
            ], 
            "WBF": [
                1562
            ], 
            "BM1F": [
                2866
            ], 
            "M1": [
                1114
            ], 
            "irrelevant_Adj": [
                0
            ], 
            "M2": [
                1572
            ], 
            "BM1L": [
                1463
            ], 
            "WBO": [
                176, 
                2866, 
                656, 
                316, 
                325
            ], 
            "WBL": [
                325
            ], 
            "irrelevant_Noun": [
                0
            ], 
            "M1_ADJ": [
                0
            ]
        }, 
        "location1": [
            16
        ], 
        "location2": [
            7
        ], 
        "sentence": "without any tweaking at all , if the exposure is accurate , the color are as realistic as ive ever seen produced by film , and this is a raw image !"
    }
}