{
    "8cff8b3bb4b722f290108da2b2fcc548": {
        "(35, 32)": {
            "AM2L": [
                2523
            ], 
            "AM2F": [
                1902
            ], 
            "WBF": [
                1674
            ], 
            "BM1F": [
                2866
            ], 
            "M1": [
                541
            ], 
            "irrelevant_Adj": [
                0
            ], 
            "M2": [
                1572
            ], 
            "BM1L": [
                3181
            ], 
            "WBO": [
                407
            ], 
            "WBL": [
                407
            ], 
            "irrelevant_Noun": [
                0
            ], 
            "M1_ADJ": [
                0
            ]
        }, 
        "location1": [
            35
        ], 
        "location2": [
            32
        ], 
        "sentence": "i am stunned and amazed at the quality of the raw image i am getting from this g3 ( in conjunction with my professional flash system ) , and can easily put up with the camera limitation , because ive never seen anything better within its resolution limit ."
    }, 
    "ca42696d0e457f98f2255b29dfa3f6dc": {
        "(10, 15)": {
            "WBF": [
                1079
            ], 
            "BM1F": [
                1470
            ], 
            "M1": [
                1572
            ], 
            "irrelevant_Adj": [
                0
            ], 
            "M2": [
                541
            ], 
            "BM1L": [
                2126
            ], 
            "WBO": [
                2523
            ], 
            "WBL": [
                150
            ], 
            "irrelevant_Noun": [
                0
            ], 
            "M1_ADJ": [
                1
            ]
        }, 
        "location1": [
            10
        ], 
        "location2": [
            15
        ], 
        "sentence": "but at least youre starting with the most photorealistic image ive ever seen from a camera ."
    }
}