{
    "8cff8b3bb4b722f290108da2b2fcc548": {
        "(35, 42)": {
            "AM2F": [
                1673
            ], 
            "WBF": [
                1902
            ], 
            "BM1F": [
                407
            ], 
            "M1": [
                1572
            ], 
            "irrelevant_Adj": [
                0
            ], 
            "M2": [
                2420
            ], 
            "BM1L": [
                1674
            ], 
            "WBO": [
                2523, 
                289, 
                436
            ], 
            "WBL": [
                1569
            ], 
            "irrelevant_Noun": [
                0
            ], 
            "M1_ADJ": [
                1
            ]
        }, 
        "location1": [
            35
        ], 
        "location2": [
            42
        ], 
        "sentence": "i am stunned and amazed at the quality of the raw image i am getting from this g3 ( in conjunction with my professional flash system ) , and can easily put up with the camera limitation , because ive never seen anything better within its resolution limit ."
    }
}