{
    "20213c2657b8735b886c7d729880f2ad": {
        "(7, 17)": {
            "AM2L": [
                1463
            ], 
            "AM2F": [
                2170
            ], 
            "WBF": [
                150
            ], 
            "BM1F": [
                2875
            ], 
            "M1": [
                1626
            ], 
            "irrelevant_Adj": [
                0
            ], 
            "M2": [
                541
            ], 
            "BM1L": [
                2257
            ], 
            "WBO": [
                2325, 
                1706, 
                2901, 
                2342, 
                1142, 
                2284
            ], 
            "WBL": [
                2866
            ], 
            "irrelevant_Noun": [
                0
            ], 
            "M1_ADJ": [
                1
            ]
        }, 
        "location1": [
            7
        ], 
        "location2": [
            17
        ], 
        "sentence": "although canon 's battery are proprietary , they last a really long time , recharge fairly quickly in the camera , plus if you want ' more power ' , you can even find a knockoff charger and spare battery right here on amazon ."
    }, 
    "ea03c1eca4f4843d18fa28fa8e577b5c": {
        "location1": [
            45
        ], 
        "location2": [
            17
        ], 
        "(45, 17)": {
            "AM2L": [
                528
            ], 
            "AM2F": [
                522
            ], 
            "WBF": [
                1005
            ], 
            "BM1F": [
                120
            ], 
            "M1": [
                541
            ], 
            "irrelevant_Adj": [
                0
            ], 
            "M2": [
                1626
            ], 
            "BM1L": [
                155
            ], 
            "WBO": [
                2909, 
                2999, 
                275, 
                3041, 
                1371, 
                150, 
                1333, 
                2818, 
                1636, 
                2501, 
                150, 
                1719, 
                1971, 
                1163, 
                275, 
                194, 
                2017, 
                664, 
                3181, 
                1333, 
                2653, 
                1935, 
                2909, 
                402
            ], 
            "WBL": [
                275
            ], 
            "irrelevant_Noun": [
                0
            ], 
            "M1_ADJ": [
                0
            ]
        }, 
        "sentence": "4mp , 4x optical zoom , takes absolutely beautiful photo with detail that challenge all of the above 5mp camera , easy to understand and use ( has a great swivel lcd screen ) , a lot of feature and add-on option , comes with great software ( not to be overlooked ) , and last but by far not least , received my fiance 's stamp of approval ( two thumb up ! )"
    }
}