{
    "5e8d37c7fc800e394540cc47e42d3496": {
        "(12, 9)": {
            "AM2L": [
                1987
            ], 
            "AM2F": [
                1234
            ], 
            "WBF": [
                2866
            ], 
            "BM1F": [
                2909
            ], 
            "M1": [
                3041
            ], 
            "irrelevant_Adj": [
                0
            ], 
            "M2": [
                1626
            ], 
            "BM1L": [
                1005
            ], 
            "WBO": [
                400
            ], 
            "WBL": [
                400
            ], 
            "irrelevant_Noun": [
                0
            ], 
            "M1_ADJ": [
                0
            ]
        }, 
        "location1": [
            12
        ], 
        "location2": [
            9
        ], 
        "sentence": "it gives great picture , the control are easy to use , the battery last forever on one single charge , the software is very user-friendly and it is beautiful in it chrome casing ."
    }, 
    "ea03c1eca4f4843d18fa28fa8e577b5c": {
        "location1": [
            45
        ], 
        "location2": [
            22
        ], 
        "(45, 22)": {
            "AM2L": [
                528
            ], 
            "AM2F": [
                522
            ], 
            "WBF": [
                1371
            ], 
            "BM1F": [
                275
            ], 
            "M1": [
                3041
            ], 
            "irrelevant_Adj": [
                0
            ], 
            "M2": [
                1626
            ], 
            "BM1L": [
                2999
            ], 
            "WBO": [
                150, 
                1333, 
                2818, 
                1636, 
                2501, 
                150, 
                1719, 
                1971, 
                1163, 
                275, 
                194, 
                2017, 
                664, 
                3181, 
                1333, 
                2653, 
                1935, 
                2909, 
                402
            ], 
            "WBL": [
                275
            ], 
            "irrelevant_Noun": [
                0
            ], 
            "M1_ADJ": [
                0
            ]
        }, 
        "sentence": "4mp , 4x optical zoom , takes absolutely beautiful photo with detail that challenge all of the above 5mp camera , easy to understand and use ( has a great swivel lcd screen ) , a lot of feature and add-on option , comes with great software ( not to be overlooked ) , and last but by far not least , received my fiance 's stamp of approval ( two thumb up ! )"
    }
}