{
    "ea03c1eca4f4843d18fa28fa8e577b5c": {
        "(50, 53)": {
            "AM2L": [
                2714
            ], 
            "AM2F": [
                4
            ], 
            "WBF": [
                2334
            ], 
            "BM1F": [
                1935
            ], 
            "M1": [
                1641
            ], 
            "irrelevant_Adj": [
                0
            ], 
            "M2": [
                1172
            ], 
            "BM1L": [
                1154
            ], 
            "WBO": [
                1878
            ], 
            "WBL": [
                1878
            ], 
            "irrelevant_Noun": [
                0
            ], 
            "M1_ADJ": [
                1
            ]
        }, 
        "location1": [
            50
        ], 
        "location2": [
            53
        ], 
        "sentence": "4mp , 4x optical zoom , takes absolutely beautiful photo with detail that challenge all of the above 5mp camera , easy to understand and use ( has a great swivel lcd screen ) , a lot of feature and add-on option , comes with great software ( not to be overlooked ) , and last but by far not least , received my fiance 's stamp of approval ( two thumb up ! )"
    }
}