{
    "48c9089c4729e58f320f3da81288ee13": {
        "location1": [
            18
        ], 
        "location2": [
            11
        ], 
        "(18, 11)": {
            "AM2L": [
                1490
            ], 
            "AM2F": [
                750
            ], 
            "WBF": [
                936
            ], 
            "BM1F": [
                1653
            ], 
            "M1": [
                391
            ], 
            "irrelevant_Adj": [
                1
            ], 
            "M2": [
                1646
            ], 
            "BM1L": [
                2866
            ], 
            "WBO": [
                1957, 
                2082, 
                1971
            ], 
            "WBL": [
                1726
            ], 
            "irrelevant_Noun": [
                0
            ], 
            "M1_ADJ": [
                0
            ]
        }, 
        "sentence": "to address two previous somewhat negative review : ( 1 ) yes , the lens barrel does obstruct part of the lower left corner in the lens viewfinder ; however , the lcd viewfinder is rather stunning and i find myself rarely using the lens viewfinder ."
    }
}