{
    "7ce68523e9bd23cb9fa8f5c8bfadfa9f": {
        "(23, 32)": {
            "WBF": [
                275
            ], 
            "BM1F": [
                490
            ], 
            "M1": [
                1665
            ], 
            "irrelevant_Adj": [
                0
            ], 
            "M2": [
                1208
            ], 
            "BM1L": [
                1490
            ], 
            "WBO": [
                2866, 
                3024, 
                1665, 
                2281, 
                1971
            ], 
            "WBL": [
                509
            ], 
            "irrelevant_Noun": [
                0
            ], 
            "M1_ADJ": [
                1
            ]
        }, 
        "(27, 32)": {
            "WBF": [
                2281
            ], 
            "BM1F": [
                3024
            ], 
            "M1": [
                1665
            ], 
            "irrelevant_Adj": [
                0
            ], 
            "M2": [
                1208
            ], 
            "BM1L": [
                2866
            ], 
            "WBO": [
                1971
            ], 
            "WBL": [
                509
            ], 
            "irrelevant_Noun": [
                0
            ], 
            "M1_ADJ": [
                1
            ]
        }, 
        "location1": [
            23, 
            27
        ], 
        "location2": [
            32
        ], 
        "sentence": "the two limitation i knew i would have to deal with are the very long lag time before it focus-locks ( even in bright light ) , and the unsatisfactory light quality of the built-in flash ."
    }
}