{
    "20213c2657b8735b886c7d729880f2ad": {
        "location1": [
            10
        ], 
        "location2": [
            30
        ], 
        "(10, 30)": {
            "AM2L": [
                2685
            ], 
            "AM2F": [
                275
            ], 
            "WBF": [
                2901
            ], 
            "BM1F": [
                2325
            ], 
            "M1": [
                1706
            ], 
            "irrelevant_Adj": [
                0
            ], 
            "M2": [
                597
            ], 
            "BM1L": [
                150
            ], 
            "WBO": [
                2342, 
                1142, 
                2284, 
                1490, 
                2866, 
                541, 
                2170, 
                1463, 
                3229, 
                3108, 
                1851, 
                2203, 
                3229, 
                543, 
                1075, 
                1185
            ], 
            "WBL": [
                1609
            ], 
            "irrelevant_Noun": [
                0
            ], 
            "M1_ADJ": [
                1
            ]
        }, 
        "sentence": "although canon 's battery are proprietary , they last a really long time , recharge fairly quickly in the camera , plus if you want ' more power ' , you can even find a knockoff charger and spare battery right here on amazon ."
    }
}