{
    "ca1eaed91c3e55f4cceab5acd302386c": {
        "(6, 22)": {
            "AM2L": [
                413
            ], 
            "AM2F": [
                1348
            ], 
            "WBF": [
                1665
            ], 
            "BM1F": [
                1490
            ], 
            "M1": [
                1724
            ], 
            "irrelevant_Adj": [
                0
            ], 
            "M2": [
                2592
            ], 
            "BM1L": [
                1227
            ], 
            "WBO": [
                275, 
                3204, 
                1935, 
                2834, 
                2866, 
                2133, 
                3147, 
                2866, 
                2592, 
                3117, 
                2217, 
                522
            ], 
            "WBL": [
                2866
            ], 
            "irrelevant_Noun": [
                0
            ], 
            "M1_ADJ": [
                1
            ]
        }, 
        "location1": [
            6
        ], 
        "location2": [
            16, 
            22
        ], 
        "(6, 16)": {
            "AM2L": [
                2217
            ], 
            "AM2F": [
                3117
            ], 
            "WBF": [
                1665
            ], 
            "BM1F": [
                1490
            ], 
            "M1": [
                1724
            ], 
            "irrelevant_Adj": [
                0
            ], 
            "M2": [
                2592
            ], 
            "BM1L": [
                1227
            ], 
            "WBO": [
                275, 
                3204, 
                1935, 
                2834, 
                2866, 
                2133
            ], 
            "WBL": [
                2866
            ], 
            "irrelevant_Noun": [
                0
            ], 
            "M1_ADJ": [
                1
            ]
        }, 
        "sentence": "the g3 had problem focusing in low light and would not take the picture when the shutter was pressed but after the shutter had been released a few second ."
    }
}