{
    "031b904a61e903f18f947e9c55fd4cfa": {
        "(3, 11)": {
            "AM2L": [
                2882
            ], 
            "AM2F": [
                1646
            ], 
            "WBF": [
                1665
            ], 
            "BM1F": [
                2864
            ], 
            "M1": [
                1724
            ], 
            "irrelevant_Adj": [
                0
            ], 
            "M2": [
                181
            ], 
            "BM1L": [
                1245
            ], 
            "WBO": [
                2614, 
                661, 
                3181, 
                286
            ], 
            "WBL": [
                1971
            ], 
            "irrelevant_Noun": [
                0
            ], 
            "M1_ADJ": [
                1
            ]
        }, 
        "location1": [
            3
        ], 
        "location2": [
            11
        ], 
        "sentence": "i found that low light situation combined with any sort of action left this camera in the dust ."
    }
}