{
    "ca1eaed91c3e55f4cceab5acd302386c": {
        "(6, 28)": {
            "WBF": [
                1665
            ], 
            "BM1F": [
                1490
            ], 
            "M1": [
                1724
            ], 
            "irrelevant_Adj": [
                0
            ], 
            "M2": [
                2516
            ], 
            "BM1L": [
                1227
            ], 
            "WBO": [
                275, 
                3204, 
                1935, 
                2834, 
                2866, 
                2133, 
                3147, 
                2866, 
                2592, 
                3117, 
                2217, 
                522, 
                221, 
                2866, 
                2592, 
                1348, 
                413, 
                2380
            ], 
            "WBL": [
                1171
            ], 
            "irrelevant_Noun": [
                0
            ], 
            "M1_ADJ": [
                1
            ]
        }, 
        "location1": [
            6
        ], 
        "location2": [
            28
        ], 
        "sentence": "the g3 had problem focusing in low light and would not take the picture when the shutter was pressed but after the shutter had been released a few second ."
    }
}