{
    "48c9089c4729e58f320f3da81288ee13": {
        "(17, 19)": {
            "AM2L": [
                2866
            ], 
            "WBFL": [
                1646
            ], 
            "BM1F": [
                2866
            ], 
            "M1": [
                1726
            ], 
            "irrelevant_Adj": [
                0
            ], 
            "M2": [
                750
            ], 
            "BM1L": [
                1971
            ], 
            "AM2F": [
                1490
            ], 
            "irrelevant_Noun": [
                0
            ], 
            "M1_ADJ": [
                1
            ]
        }, 
        "location1": [
            17
        ], 
        "location2": [
            19
        ], 
        "sentence": "to address two previous somewhat negative review : ( 1 ) yes , the lens barrel does obstruct part of the lower left corner in the lens viewfinder ; however , the lcd viewfinder is rather stunning and i find myself rarely using the lens viewfinder ."
    }
}