{
    "1f8107d369d0a9aff676c54f789d4256": {
        "(20, 4)": {
            "AM2F": [
                1836
            ], 
            "WBF": [
                2909
            ], 
            "BM1F": [
                150
            ], 
            "M1": [
                962
            ], 
            "irrelevant_Adj": [
                0
            ], 
            "M2": [
                1752
            ], 
            "BM1L": [
                1562
            ], 
            "WBO": [
                2006, 
                1490, 
                359, 
                522, 
                254, 
                1307, 
                2953, 
                1214, 
                1490, 
                296, 
                2233, 
                2592
            ], 
            "WBL": [
                275
            ], 
            "irrelevant_Noun": [
                0
            ], 
            "M1_ADJ": [
                0
            ]
        }, 
        "location1": [
            20
        ], 
        "location2": [
            4
        ], 
        "sentence": "the camera is a dream to operate in automode , but also gives tremendous flexibility in aperture priority , shutter priority , and manual mode ."
    }
}