{
    "e2aef133b34cdd27cfe0ae786a800c64": {
        "(24, 9)": {
            "AM2L": [
                1232
            ], 
            "AM2F": [
                2017
            ], 
            "WBF": [
                2864
            ], 
            "BM1F": [
                2866
            ], 
            "M1": [
                1163
            ], 
            "irrelevant_Adj": [
                0
            ], 
            "M2": [
                1752
            ], 
            "BM1L": [
                1971
            ], 
            "WBO": [
                3229, 
                3204, 
                3108, 
                1261, 
                150, 
                2532, 
                2234, 
                2635, 
                3181, 
                150, 
                1320
            ], 
            "WBL": [
                1971
            ], 
            "irrelevant_Noun": [
                0
            ], 
            "M1_ADJ": [
                0
            ]
        }, 
        "location1": [
            24
        ], 
        "location2": [
            9
        ], 
        "sentence": "the g3 has most if not all of the feature that you would want from a semi-pro / pro slr with a good range of manual option for those who know something about photography ."
    }
}