{
    "41d67c7360f1eaff9b82be88ea00f3d7": {
        "(29, 13)": {
            "AM2L": [
                2376
            ], 
            "AM2F": [
                1562
            ], 
            "WBF": [
                2233
            ], 
            "BM1F": [
                2233
            ], 
            "M1": [
                295
            ], 
            "irrelevant_Adj": [
                0
            ], 
            "M2": [
                1752
            ], 
            "BM1L": [
                2592
            ], 
            "WBO": [
                1665, 
                1804, 
                206, 
                1074, 
                522, 
                242, 
                735, 
                316, 
                3138, 
                2886, 
                2037, 
                275
            ], 
            "WBL": [
                2866
            ], 
            "irrelevant_Noun": [
                0
            ], 
            "M1_ADJ": [
                0
            ]
        }, 
        "location1": [
            29
        ], 
        "location2": [
            13
        ], 
        "sentence": "i have yet to try using all of the adjustment option : shutter priority , aperature priority , light metering adjustment , etc . , but all control are well thought out and and the manual is relatively clear ."
    }
}