{
    "656e72834c7ff8e049c4a59974414993": {
        "(29, 19)": {
            "AM2L": [
                2909
            ], 
            "AM2F": [
                2017
            ], 
            "WBF": [
                1971
            ], 
            "BM1F": [
                1971
            ], 
            "M1": [
                1001
            ], 
            "irrelevant_Adj": [
                1
            ], 
            "M2": [
                1758
            ], 
            "BM1L": [
                659
            ], 
            "WBO": [
                3041, 
                275, 
                2866, 
                1214, 
                2909, 
                1297
            ], 
            "WBL": [
                3181
            ], 
            "irrelevant_Noun": [
                0
            ], 
            "M1_ADJ": [
                0
            ]
        }, 
        "location1": [
            29
        ], 
        "location2": [
            19
        ], 
        "sentence": "i 'd highly recommend this camera for anyone who is looking for excellent quality picture and a combination of ease of use and the flexibility to get advanced with many option to adjust if you like ."
    }
}