{
    "4ee8d0b641c875e17446b74fd975c596": {
        "(5, 6)": {
            "AM2L": [
                2866
            ], 
            "BM1F": [
                1232
            ], 
            "M1": [
                1780
            ], 
            "irrelevant_Adj": [
                0
            ], 
            "M2": [
                2124
            ], 
            "BM1L": [
                1333
            ], 
            "WBNULL": [
                1
            ], 
            "irrelevant_Noun": [
                0
            ], 
            "AM2F": [
                275
            ], 
            "M1_ADJ": [
                1
            ]
        }, 
        "location1": [
            5
        ], 
        "location2": [
            6
        ], 
        "sentence": "the macro work great for medical photographs and the auto mode is terrific for point and shoot ."
    }
}