{
    "aa040e2aac44669936f89ea50c0ca0fe": {
        "location1": [
            3
        ], 
        "location2": [
            9
        ], 
        "(3, 9)": {
            "AM2L": [
                2866
            ], 
            "AM2F": [
                316
            ], 
            "WBF": [
                1565
            ], 
            "BM1F": [
                2975
            ], 
            "M1": [
                1819
            ], 
            "irrelevant_Adj": [
                0
            ], 
            "M2": [
                541
            ], 
            "BM1L": [
                1999
            ], 
            "WBO": [
                1449, 
                1375
            ], 
            "WBL": [
                2866
            ], 
            "irrelevant_Noun": [
                0
            ], 
            "M1_ADJ": [
                1
            ]
        }, 
        "sentence": "the only two minor issue i have with the camera are the lens cap ( it is not very snug and can come off too easily ) and the lens itself ( it partially obstructs the view through the viewfinder but not view through the lcd ) ."
    }, 
    "dbec951619c24117174bfb3323091148": {
        "location1": [
            2
        ], 
        "location2": [
            6
        ], 
        "(2, 6)": {
            "AM2L": [
                2864
            ], 
            "AM2F": [
                1562
            ], 
            "WBF": [
                1211
            ], 
            "BM1F": [
                1690
            ], 
            "M1": [
                1819
            ], 
            "irrelevant_Adj": [
                0
            ], 
            "M2": [
                541
            ], 
            "BM1L": [
                1994
            ], 
            "WBO": [
                3181
            ], 
            "WBL": [
                2882
            ], 
            "irrelevant_Noun": [
                0
            ], 
            "M1_ADJ": [
                1
            ]
        }, 
        "sentence": "one little minor flaw with this camera is that the lens is visible in the viewfinder , but does not detract from the image at all ."
    }, 
    "e30184599d5c95a24e9a14a132efb341": {
        "(2, 8)": {
            "AM2L": [
                1566
            ], 
            "AM2F": [
                316
            ], 
            "WBF": [
                1916
            ], 
            "BM1F": [
                1999
            ], 
            "M1": [
                1819
            ], 
            "irrelevant_Adj": [
                0
            ], 
            "M2": [
                541
            ], 
            "BM1L": [
                2866
            ], 
            "WBO": [
                1449, 
                1375
            ], 
            "WBL": [
                2866
            ], 
            "irrelevant_Noun": [
                0
            ], 
            "M1_ADJ": [
                1
            ]
        }, 
        "location1": [
            2
        ], 
        "location2": [
            8
        ], 
        "sentence": "the only minor nit i have with the camera are it is fairly boxy looking , it need a wrist strap instead of a neck strap , and it is a bit slow between shot ."
    }
}