{
    "3d44c865026753694c91909c1268f652": {
        "(2, 16)": {
            "WBF": [
                908
            ], 
            "BM1F": [
                2882
            ], 
            "M1": [
                1819
            ], 
            "irrelevant_Adj": [
                0
            ], 
            "M2": [
                2125
            ], 
            "BM1L": [
                867
            ], 
            "WBO": [
                1449, 
                1416, 
                2353, 
                2866, 
                546, 
                1280, 
                288, 
                3158, 
                1562, 
                2545
            ], 
            "WBL": [
                894
            ], 
            "irrelevant_Noun": [
                0
            ], 
            "M1_ADJ": [
                1
            ]
        }, 
        "location1": [
            2
        ], 
        "location2": [
            16
        ], 
        "sentence": "despite this minor disappointment , i highly recommend the canon g3 anyone who is serious about digital photography ."
    }
}