{
    "e30184599d5c95a24e9a14a132efb341": {
        "(2, 23)": {
            "AM2L": [
                275
            ], 
            "AM2F": [
                2753
            ], 
            "WBF": [
                1916
            ], 
            "BM1F": [
                1999
            ], 
            "M1": [
                1819
            ], 
            "irrelevant_Adj": [
                0
            ], 
            "M2": [
                1895
            ], 
            "BM1L": [
                2866
            ], 
            "WBO": [
                1449, 
                1375, 
                3181, 
                2866, 
                541, 
                316, 
                1566, 
                1562, 
                1142, 
                482, 
                1712, 
                1566, 
                1896, 
                150, 
                3207, 
                2753, 
                1535
            ], 
            "WBL": [
                150
            ], 
            "irrelevant_Noun": [
                0
            ], 
            "M1_ADJ": [
                1
            ]
        }, 
        "location1": [
            2
        ], 
        "location2": [
            23
        ], 
        "sentence": "the only minor nit i have with the camera are it is fairly boxy looking , it need a wrist strap instead of a neck strap , and it is a bit slow between shot ."
    }
}