{
    "aa040e2aac44669936f89ea50c0ca0fe": {
        "location1": [
            3
        ], 
        "location2": [
            13
        ], 
        "(3, 13)": {
            "AM2L": [
                1562
            ], 
            "AM2F": [
                1566
            ], 
            "WBF": [
                1565
            ], 
            "BM1F": [
                2975
            ], 
            "M1": [
                1819
            ], 
            "irrelevant_Adj": [
                0
            ], 
            "M2": [
                548
            ], 
            "BM1L": [
                1999
            ], 
            "WBO": [
                1449, 
                1375, 
                3181, 
                2866, 
                541, 
                316
            ], 
            "WBL": [
                1653
            ], 
            "irrelevant_Noun": [
                0
            ], 
            "M1_ADJ": [
                1
            ]
        }, 
        "sentence": "the only two minor issue i have with the camera are the lens cap ( it is not very snug and can come off too easily ) and the lens itself ( it partially obstructs the view through the viewfinder but not view through the lcd ) ."
    }
}