{
    "da46710dc8d7f047b7d2852a70779dbb": {
        "(11, 1)": {
            "AM2L": [
                1703
            ], 
            "AM2F": [
                1591
            ], 
            "WBF": [
                1371
            ], 
            "BM1F": [
                2882
            ], 
            "M1": [
                541
            ], 
            "irrelevant_Adj": [
                1
            ], 
            "M2": [
                1851
            ], 
            "WBO": [
                150, 
                744, 
                2736, 
                2133, 
                1163, 
                2909
            ], 
            "WBL": [
                2037
            ], 
            "irrelevant_Noun": [
                0
            ], 
            "M1_ADJ": [
                0
            ]
        }, 
        "location1": [
            11
        ], 
        "location2": [
            1
        ], 
        "sentence": "this camera has a cool stitch picture feature , to find out more just log on to canon 's website ."
    }, 
    "34400085cb3b7c1e079b9e19bd044b91": {
        "location1": [
            13
        ], 
        "location2": [
            5
        ], 
        "(13, 5)": {
            "AM2L": [
                3181
            ], 
            "AM2F": [
                2164
            ], 
            "WBF": [
                1232
            ], 
            "BM1F": [
                2866
            ], 
            "M1": [
                541
            ], 
            "irrelevant_Adj": [
                1
            ], 
            "M2": [
                1851
            ], 
            "BM1L": [
                1348
            ], 
            "WBO": [
                2975, 
                1849, 
                275, 
                1449
            ], 
            "WBL": [
                1075
            ], 
            "irrelevant_Noun": [
                0
            ], 
            "M1_ADJ": [
                0
            ]
        }, 
        "sentence": "i 've now had the camera for two month and i 'm even more pleased with it ."
    }, 
    "20213c2657b8735b886c7d729880f2ad": {
        "location1": [
            22
        ], 
        "location2": [
            17
        ], 
        "(22, 17)": {
            "AM2L": [
                3229
            ], 
            "AM2F": [
                2203
            ], 
            "WBF": [
                2170
            ], 
            "BM1F": [
                2866
            ], 
            "M1": [
                541
            ], 
            "irrelevant_Adj": [
                1
            ], 
            "M2": [
                1851
            ], 
            "BM1L": [
                1490
            ], 
            "WBO": [
                1463
            ], 
            "WBL": [
                3108
            ], 
            "irrelevant_Noun": [
                0
            ], 
            "M1_ADJ": [
                0
            ]
        }, 
        "sentence": "although canon 's battery are proprietary , they last a really long time , recharge fairly quickly in the camera , plus if you want ' more power ' , you can even find a knockoff charger and spare battery right here on amazon ."
    }
}