{
    "20213c2657b8735b886c7d729880f2ad": {
        "location1": [
            22
        ], 
        "location2": [
            23
        ], 
        "(22, 23)": {
            "AM2L": [
                543
            ], 
            "BM1F": [
                3108
            ], 
            "M1": [
                1851
            ], 
            "irrelevant_Adj": [
                1
            ], 
            "M2": [
                2203
            ], 
            "BM1L": [
                3229
            ], 
            "WBNULL": [
                1
            ], 
            "irrelevant_Noun": [
                0
            ], 
            "AM2F": [
                3229
            ], 
            "M1_ADJ": [
                1
            ]
        }, 
        "sentence": "although canon 's battery are proprietary , they last a really long time , recharge fairly quickly in the camera , plus if you want ' more power ' , you can even find a knockoff charger and spare battery right here on amazon ."
    }
}