{
    "da46710dc8d7f047b7d2852a70779dbb": {
        "(11, 18)": {
            "WBF": [
                1591
            ], 
            "BM1F": [
                2037
            ], 
            "M1": [
                1851
            ], 
            "irrelevant_Adj": [
                1
            ], 
            "M2": [
                3132
            ], 
            "BM1L": [
                1185
            ], 
            "WBO": [
                1703, 
                1987, 
                2909
            ], 
            "WBL": [
                4
            ], 
            "irrelevant_Noun": [
                0
            ], 
            "M1_ADJ": [
                1
            ]
        }, 
        "location1": [
            11
        ], 
        "location2": [
            18
        ], 
        "sentence": "this camera has a cool stitch picture feature , to find out more just log on to canon 's website ."
    }
}