{
    "20213c2657b8735b886c7d729880f2ad": {
        "(22, 3)": {
            "AM2L": [
                3229
            ], 
            "AM2F": [
                2203
            ], 
            "WBF": [
                316
            ], 
            "BM1F": [
                4
            ], 
            "M1": [
                400
            ], 
            "irrelevant_Adj": [
                1
            ], 
            "M2": [
                1851
            ], 
            "BM1L": [
                546
            ], 
            "WBO": [
                2257, 
                2875, 
                1626, 
                150, 
                2325, 
                1706, 
                2901, 
                2342, 
                1142, 
                2284, 
                1490, 
                2866, 
                541, 
                2170, 
                1463
            ], 
            "WBL": [
                3108
            ], 
            "irrelevant_Noun": [
                0
            ], 
            "M1_ADJ": [
                0
            ]
        }, 
        "location1": [
            22
        ], 
        "location2": [
            3, 
            33
        ], 
        "(22, 33)": {
            "AM2L": [
                1401
            ], 
            "AM2F": [
                2447
            ], 
            "WBF": [
                2203
            ], 
            "BM1F": [
                3108
            ], 
            "M1": [
                1851
            ], 
            "irrelevant_Adj": [
                1
            ], 
            "M2": [
                400
            ], 
            "BM1L": [
                3229
            ], 
            "WBO": [
                3229, 
                543, 
                1075, 
                1185, 
                150, 
                1609, 
                597
            ], 
            "WBL": [
                2685
            ], 
            "irrelevant_Noun": [
                0
            ], 
            "M1_ADJ": [
                1
            ]
        }, 
        "sentence": "although canon 's battery are proprietary , they last a really long time , recharge fairly quickly in the camera , plus if you want ' more power ' , you can even find a knockoff charger and spare battery right here on amazon ."
    }
}