{
    "3dd55b27114ec5fd6815b8c30aa6e44f": {
        "location1": [
            22
        ], 
        "location2": [
            33
        ], 
        "(22, 33)": {
            "AM2L": [
                1773
            ], 
            "AM2F": [
                2909
            ], 
            "WBF": [
                1971
            ], 
            "BM1F": [
                1636
            ], 
            "M1": [
                1854
            ], 
            "irrelevant_Adj": [
                1
            ], 
            "M2": [
                476
            ], 
            "BM1L": [
                2866
            ], 
            "WBO": [
                2866, 
                2901, 
                2882, 
                1562, 
                1935, 
                2325, 
                1870
            ], 
            "WBL": [
                150
            ], 
            "irrelevant_Noun": [
                0
            ], 
            "M1_ADJ": [
                1
            ]
        }, 
        "sentence": "the lens is visible in the viewfinder when the lens is set to the wide angle , but since i use the lcd most of the time , this is not really much of a bother to me ."
    }
}