{
    "e2aef133b34cdd27cfe0ae786a800c64": {
        "location1": [
            3
        ], 
        "location2": [
            9
        ], 
        "(3, 9)": {
            "AM2L": [
                3229
            ], 
            "AM2F": [
                2864
            ], 
            "WBF": [
                1463
            ], 
            "BM1F": [
                1371
            ], 
            "M1": [
                1854
            ], 
            "irrelevant_Adj": [
                1
            ], 
            "M2": [
                1163
            ], 
            "BM1L": [
                1280
            ], 
            "WBO": [
                1935, 
                242
            ], 
            "WBL": [
                2866
            ], 
            "irrelevant_Noun": [
                0
            ], 
            "M1_ADJ": [
                1
            ]
        }, 
        "sentence": "the g3 has most if not all of the feature that you would want from a semi-pro / pro slr with a good range of manual option for those who know something about photography ."
    }
}