{
    "e2aef133b34cdd27cfe0ae786a800c64": {
        "location1": [
            3
        ], 
        "location2": [
            25
        ], 
        "(3, 25)": {
            "AM2L": [
                2884
            ], 
            "AM2F": [
                1232
            ], 
            "WBF": [
                1463
            ], 
            "BM1F": [
                1371
            ], 
            "M1": [
                1854
            ], 
            "irrelevant_Adj": [
                1
            ], 
            "M2": [
                2017
            ], 
            "BM1L": [
                1280
            ], 
            "WBO": [
                1935, 
                242, 
                1971, 
                2866, 
                1163, 
                2864, 
                3229, 
                3204, 
                3108, 
                1261, 
                150, 
                2532, 
                2234, 
                2635, 
                3181, 
                150, 
                1320, 
                2301
            ], 
            "WBL": [
                1752
            ], 
            "irrelevant_Noun": [
                1
            ], 
            "M1_ADJ": [
                1
            ]
        }, 
        "sentence": "the g3 has most if not all of the feature that you would want from a semi-pro / pro slr with a good range of manual option for those who know something about photography ."
    }
}