{
    "3bce35cc8493a2cd4c47a2a358643b7c": {
        "(1, 3)": {
            "AM2L": [
                1333
            ], 
            "WBFL": [
                1636
            ], 
            "BM1F": [
                2866
            ], 
            "M1": [
                1860
            ], 
            "irrelevant_Adj": [
                0
            ], 
            "M2": [
                2501
            ], 
            "AM2F": [
                1562
            ], 
            "irrelevant_Noun": [
                0
            ], 
            "M1_ADJ": [
                1
            ]
        }, 
        "location1": [
            1
        ], 
        "location2": [
            3
        ], 
        "sentence": "the moveable lcd screen is great ."
    }
}