{
    "3f56f9123b8ffd9edf96d25020e6c445": {
        "(1, 2)": {
            "AM2L": [
                2866
            ], 
            "BM1F": [
                2866
            ], 
            "M1": [
                1999
            ], 
            "irrelevant_Adj": [
                1
            ], 
            "M2": [
                960
            ], 
            "AM2F": [
                1562
            ], 
            "irrelevant_Noun": [
                0
            ], 
            "WBNULL": [
                1
            ], 
            "M1_ADJ": [
                1
            ]
        }, 
        "location1": [
            1
        ], 
        "location2": [
            2
        ], 
        "sentence": "the only drawback is the viewfinder is slightly blocked by the lens ."
    }
}