{
    "f221ac367372a9d0142195a8c2d6879c": {
        "(2, 5)": {
            "AM2L": [
                1994
            ], 
            "AM2F": [
                1232
            ], 
            "WBF": [
                1348
            ], 
            "BM1F": [
                1375
            ], 
            "M1": [
                1999
            ], 
            "irrelevant_Adj": [
                1
            ], 
            "M2": [
                541
            ], 
            "BM1L": [
                1449
            ], 
            "WBO": [
                2882
            ], 
            "WBL": [
                2882
            ], 
            "irrelevant_Noun": [
                0
            ], 
            "M1_ADJ": [
                1
            ]
        }, 
        "location1": [
            2
        ], 
        "location2": [
            5
        ], 
        "sentence": "i have only had this camera for one full day and i have to say that it is wonderful ."
    }, 
    "865ea00ba670fc3054260a8b5b0d9e2b": {
        "(2, 13)": {
            "AM2L": [
                1746
            ], 
            "AM2F": [
                1562
            ], 
            "WBF": [
                1348
            ], 
            "BM1F": [
                6
            ], 
            "M1": [
                1999
            ], 
            "irrelevant_Adj": [
                1
            ], 
            "M2": [
                541
            ], 
            "BM1L": [
                1449
            ], 
            "WBO": [
                1566, 
                150, 
                3133, 
                522, 
                2650, 
                1154, 
                1084
            ], 
            "WBL": [
                2882
            ], 
            "irrelevant_Noun": [
                0
            ], 
            "M1_ADJ": [
                1
            ]
        }, 
        "location1": [
            2
        ], 
        "location2": [
            13
        ], 
        "sentence": "i 've only had it a week , but so far , everything about this camera is making me happy ."
    }, 
    "aa040e2aac44669936f89ea50c0ca0fe": {
        "location1": [
            1
        ], 
        "location2": [
            9
        ], 
        "(1, 9)": {
            "AM2L": [
                2866
            ], 
            "AM2F": [
                316
            ], 
            "WBF": [
                2975
            ], 
            "BM1F": [
                2866
            ], 
            "M1": [
                1999
            ], 
            "irrelevant_Adj": [
                1
            ], 
            "M2": [
                541
            ], 
            "WBO": [
                1819, 
                1565, 
                1449, 
                1375
            ], 
            "WBL": [
                2866
            ], 
            "irrelevant_Noun": [
                0
            ], 
            "M1_ADJ": [
                1
            ]
        }, 
        "sentence": "the only two minor issue i have with the camera are the lens cap ( it is not very snug and can come off too easily ) and the lens itself ( it partially obstructs the view through the viewfinder but not view through the lcd ) ."
    }, 
    "e30184599d5c95a24e9a14a132efb341": {
        "(1, 8)": {
            "AM2L": [
                1566
            ], 
            "AM2F": [
                316
            ], 
            "WBF": [
                1819
            ], 
            "BM1F": [
                2866
            ], 
            "M1": [
                1999
            ], 
            "irrelevant_Adj": [
                1
            ], 
            "M2": [
                541
            ], 
            "WBO": [
                1916, 
                1449, 
                1375
            ], 
            "WBL": [
                2866
            ], 
            "irrelevant_Noun": [
                0
            ], 
            "M1_ADJ": [
                1
            ]
        }, 
        "location1": [
            1
        ], 
        "location2": [
            8
        ], 
        "sentence": "the only minor nit i have with the camera are it is fairly boxy looking , it need a wrist strap instead of a neck strap , and it is a bit slow between shot ."
    }
}