{
    "9c511d7377199e39382403fcb7e09331": {
        "(2, 13)": {
            "AM2F": [
                2301
            ], 
            "WBF": [
                3239
            ], 
            "BM1F": [
                111
            ], 
            "M1": [
                2015
            ], 
            "irrelevant_Adj": [
                0
            ], 
            "M2": [
                2225
            ], 
            "BM1L": [
                1371
            ], 
            "WBO": [
                3152, 
                1562, 
                1413, 
                2862, 
                286, 
                2032, 
                1490
            ], 
            "WBL": [
                2479
            ], 
            "irrelevant_Noun": [
                0
            ], 
            "M1_ADJ": [
                1
            ]
        }, 
        "location1": [
            2
        ], 
        "location2": [
            13
        ], 
        "sentence": "has 4x optical zoom which is higher than any other in the same price range ."
    }
}