{
    "a7d8e305d570d95f2e66cc869353dc9a": {
        "location1": [
            16
        ], 
        "location2": [
            12
        ], 
        "(16, 12)": {
            "AM2L": [
                1298
            ], 
            "AM2F": [
                3239
            ], 
            "WBF": [
                275
            ], 
            "BM1F": [
                1724
            ], 
            "M1": [
                1665
            ], 
            "irrelevant_Adj": [
                0
            ], 
            "M2": [
                2015
            ], 
            "BM1L": [
                1490
            ], 
            "WBO": [
                2866
            ], 
            "WBL": [
                97
            ], 
            "irrelevant_Noun": [
                0
            ], 
            "M1_ADJ": [
                0
            ]
        }, 
        "sentence": "the larger lens of the g3 gives better picture quality in low light , and the 4-times optical zoom gets you just that much closer ."
    }
}