{
    "c12f2cbdc52ec5949ef5f7247c336b99": {
        "(17, 18)": {
            "AM2L": [
                6
            ], 
            "BM1F": [
                286
            ], 
            "M1": [
                2032
            ], 
            "irrelevant_Adj": [
                1
            ], 
            "M2": [
                541
            ], 
            "BM1L": [
                2862
            ], 
            "WBNULL": [
                1
            ], 
            "irrelevant_Noun": [
                0
            ], 
            "AM2F": [
                1449
            ], 
            "M1_ADJ": [
                1
            ]
        }, 
        "location1": [
            17
        ], 
        "location2": [
            18
        ], 
        "sentence": "its silver magnesium finish is stunning , and the sharp line and excellent grip are better than any other camera i 've seen ."
    }, 
    "e4e579de7f6a6a60872e54f2bea20df1": {
        "(8, 1)": {
            "AM2L": [
                2864
            ], 
            "AM2F": [
                892
            ], 
            "WBF": [
                1562
            ], 
            "BM1F": [
                2882
            ], 
            "M1": [
                541
            ], 
            "irrelevant_Adj": [
                1
            ], 
            "M2": [
                2032
            ], 
            "WBO": [
                645, 
                2909, 
                2104
            ], 
            "WBL": [
                286
            ], 
            "irrelevant_Noun": [
                0
            ], 
            "M1_ADJ": [
                0
            ]
        }, 
        "location1": [
            8
        ], 
        "location2": [
            1
        ], 
        "sentence": "this camera is closest to perfect than any other digicam that is 4-5 megapixel ."
    }
}