{
    "3797f31b7e658ca2289e807be4ce0066": {
        "(26, 22)": {
            "AM2L": [
                1107
            ], 
            "AM2F": [
                2439
            ], 
            "WBF": [
                733
            ], 
            "BM1F": [
                2741
            ], 
            "M1": [
                2119
            ], 
            "irrelevant_Adj": [
                1
            ], 
            "M2": [
                2032
            ], 
            "BM1L": [
                1092
            ], 
            "WBO": [
                2909
            ], 
            "WBL": [
                3144
            ], 
            "irrelevant_Noun": [
                0
            ], 
            "M1_ADJ": [
                0
            ]
        }, 
        "location1": [
            26
        ], 
        "location2": [
            22
        ], 
        "sentence": "by cocking the shutter to the halfway position and getting the setting ready to shoot , i was able to produce excellent stopaction photo -- contrary to what other reviewer experienced ."
    }
}