{
    "c12f2cbdc52ec5949ef5f7247c336b99": {
        "(17, 2)": {
            "AM2L": [
                1449
            ], 
            "AM2F": [
                541
            ], 
            "WBF": [
                1194
            ], 
            "BM1F": [
                2602
            ], 
            "M1": [
                1740
            ], 
            "irrelevant_Adj": [
                1
            ], 
            "M2": [
                2032
            ], 
            "BM1L": [
                1569
            ], 
            "WBO": [
                1562, 
                2766, 
                275, 
                2866, 
                2564, 
                1676, 
                275, 
                1092, 
                1337, 
                316, 
                436
            ], 
            "WBL": [
                286
            ], 
            "irrelevant_Noun": [
                0
            ], 
            "M1_ADJ": [
                0
            ]
        }, 
        "location1": [
            17
        ], 
        "location2": [
            2
        ], 
        "sentence": "its silver magnesium finish is stunning , and the sharp line and excellent grip are better than any other camera i 've seen ."
    }
}