{
    "f4d33ef7024c0c93baef74d60978635e": {
        "(3, 7)": {
            "AM2L": [
                3158
            ], 
            "AM2F": [
                1423
            ], 
            "WBF": [
                541
            ], 
            "BM1F": [
                2866
            ], 
            "M1": [
                2104
            ], 
            "irrelevant_Adj": [
                0
            ], 
            "M2": [
                2119
            ], 
            "BM1L": [
                1562
            ], 
            "WBO": [
                1232
            ], 
            "WBL": [
                150
            ], 
            "irrelevant_Noun": [
                0
            ], 
            "M1_ADJ": [
                1
            ]
        }, 
        "location1": [
            3
        ], 
        "location2": [
            7
        ], 
        "sentence": "this is the perfect camera for a photo hobbiest who wants to have easy point and shoot ability as well ."
    }
}