{
    "ffba0d840beb51172340e31591b656ce": {
        "(18, 3)": {
            "AM2L": [
                1375
            ], 
            "AM2F": [
                1449
            ], 
            "WBF": [
                325
            ], 
            "BM1F": [
                2837
            ], 
            "M1": [
                2128
            ], 
            "irrelevant_Adj": [
                1
            ], 
            "M2": [
                2119
            ], 
            "BM1L": [
                417
            ], 
            "WBO": [
                2669, 
                325, 
                1449, 
                1322, 
                2882, 
                541, 
                275, 
                260, 
                264, 
                337, 
                2866
            ], 
            "WBL": [
                1971
            ], 
            "irrelevant_Noun": [
                0
            ], 
            "M1_ADJ": [
                0
            ]
        }, 
        "location1": [
            18
        ], 
        "location2": [
            3
        ], 
        "sentence": "i began taking pic as soon as i got this camera and am amazed at the quality of photo i have took simply by using the auto mode ."
    }
}