{
    "3ecea01aa95a76d9bd9b4d7dc527100d": {
        "(8, 15)": {
            "AM2L": [
                1745
            ], 
            "AM2F": [
                2864
            ], 
            "WBF": [
                504
            ], 
            "BM1F": [
                1232
            ], 
            "M1": [
                2119
            ], 
            "irrelevant_Adj": [
                1
            ], 
            "M2": [
                1836
            ], 
            "BM1L": [
                735
            ], 
            "WBO": [
                522, 
                2734, 
                1371
            ], 
            "WBL": [
                350
            ], 
            "irrelevant_Noun": [
                0
            ], 
            "M1_ADJ": [
                1
            ]
        }, 
        "location1": [
            8
        ], 
        "location2": [
            15
        ], 
        "sentence": "the canon g3 gives ton of control for photo buff but still has an `` auto `` mode that makes it very easy for the novice to use ."
    }, 
    "be379679dac602b9b58a047cfe52bfb9": {
        "(32, 24)": {
            "AM2F": [
                2281
            ], 
            "WBF": [
                3149
            ], 
            "BM1F": [
                2247
            ], 
            "M1": [
                1836
            ], 
            "irrelevant_Adj": [
                1
            ], 
            "M2": [
                2119
            ], 
            "BM1L": [
                1268
            ], 
            "WBO": [
                2866, 
                541, 
                2529, 
                475
            ], 
            "WBL": [
                1459
            ], 
            "irrelevant_Noun": [
                0
            ], 
            "M1_ADJ": [
                0
            ]
        }, 
        "location1": [
            32
        ], 
        "location2": [
            24
        ], 
        "sentence": "with a quick spin of the dial you can select shutter priority ( for high speed subject ) , aperture priority ( for focal length ) or full program mode where the camera selects both for ideal photo quality ."
    }, 
    "ffba0d840beb51172340e31591b656ce": {
        "(18, 27)": {
            "WBF": [
                1449
            ], 
            "BM1F": [
                1971
            ], 
            "M1": [
                2119
            ], 
            "irrelevant_Adj": [
                1
            ], 
            "M2": [
                1836
            ], 
            "BM1L": [
                2281
            ], 
            "WBO": [
                1375, 
                2920, 
                2607, 
                528, 
                3049
            ], 
            "WBL": [
                350
            ], 
            "irrelevant_Noun": [
                0
            ], 
            "M1_ADJ": [
                1
            ]
        }, 
        "location1": [
            18
        ], 
        "location2": [
            27
        ], 
        "sentence": "i began taking pic as soon as i got this camera and am amazed at the quality of photo i have took simply by using the auto mode ."
    }
}