{
    "ca42696d0e457f98f2255b29dfa3f6dc": {
        "(8, 9)": {
            "AM2L": [
                1079
            ], 
            "BM1F": [
                1854
            ], 
            "M1": [
                2126
            ], 
            "irrelevant_Adj": [
                0
            ], 
            "M2": [
                1470
            ], 
            "BM1L": [
                2866
            ], 
            "WBNULL": [
                1
            ], 
            "irrelevant_Noun": [
                0
            ], 
            "AM2F": [
                1572
            ], 
            "M1_ADJ": [
                1
            ]
        }, 
        "location1": [
            8
        ], 
        "location2": [
            9
        ], 
        "sentence": "but at least youre starting with the most photorealistic image ive ever seen from a camera ."
    }
}