{
    "511a23f3a4fe98af1bf9d231291e4dff": {
        "(4, 5)": {
            "AM2L": [
                222
            ], 
            "BM1F": [
                2311
            ], 
            "M1": [
                2168
            ], 
            "irrelevant_Adj": [
                0
            ], 
            "M2": [
                2589
            ], 
            "BM1L": [
                541
            ], 
            "WBNULL": [
                1
            ], 
            "irrelevant_Noun": [
                0
            ], 
            "AM2F": [
                1992
            ], 
            "M1_ADJ": [
                1
            ]
        }, 
        "location1": [
            4
        ], 
        "location2": [
            5
        ], 
        "sentence": "the adobe camera raw plug-in show once again that hardware is mile ahead of software ."
    }
}