{
    "c9e60af8c804cc7bc30a164554f7375d": {
        "(4, 29)": {
            "AM2L": [
                2866
            ], 
            "AM2F": [
                1490
            ], 
            "WBF": [
                1470
            ], 
            "BM1F": [
                1232
            ], 
            "M1": [
                2311
            ], 
            "irrelevant_Adj": [
                0
            ], 
            "M2": [
                2552
            ], 
            "BM1L": [
                2653
            ], 
            "WBO": [
                936, 
                1935, 
                2214, 
                3229, 
                3181, 
                150, 
                2311, 
                1470, 
                337, 
                242, 
                522, 
                2866, 
                2311, 
                1470, 
                221, 
                1566, 
                1371, 
                413, 
                2238, 
                528, 
                242
            ], 
            "WBL": [
                1471
            ], 
            "irrelevant_Noun": [
                0
            ], 
            "M1_ADJ": [
                1
            ]
        }, 
        "sentence": "the canon software for raw image does not present you with a raw image at all , but the raw image after it has been processed by all the image-affecting setting in the camera .", 
        "(12, 29)": {
            "AM2L": [
                2866
            ], 
            "AM2F": [
                1490
            ], 
            "WBF": [
                1470
            ], 
            "BM1F": [
                150
            ], 
            "M1": [
                2311
            ], 
            "irrelevant_Adj": [
                0
            ], 
            "M2": [
                2552
            ], 
            "BM1L": [
                3181
            ], 
            "WBO": [
                337, 
                242, 
                522, 
                2866, 
                2311, 
                1470, 
                221, 
                1566, 
                1371, 
                413, 
                2238, 
                528, 
                242
            ], 
            "WBL": [
                1471
            ], 
            "irrelevant_Noun": [
                0
            ], 
            "M1_ADJ": [
                1
            ]
        }, 
        "location2": [
            29
        ], 
        "(18, 29)": {
            "AM2L": [
                2866
            ], 
            "AM2F": [
                1490
            ], 
            "WBF": [
                1470
            ], 
            "BM1F": [
                2866
            ], 
            "M1": [
                2311
            ], 
            "irrelevant_Adj": [
                0
            ], 
            "M2": [
                2552
            ], 
            "BM1L": [
                522
            ], 
            "WBO": [
                221, 
                1566, 
                1371, 
                413, 
                2238, 
                528, 
                242
            ], 
            "WBL": [
                1471
            ], 
            "irrelevant_Noun": [
                0
            ], 
            "M1_ADJ": [
                1
            ]
        }, 
        "location1": [
            4, 
            12, 
            18
        ]
    }
}