{
    "8cff8b3bb4b722f290108da2b2fcc548": {
        "location1": [
            10
        ], 
        "location2": [
            19
        ], 
        "(10, 19)": {
            "AM2L": [
                1878
            ], 
            "AM2F": [
                3181
            ], 
            "WBF": [
                1470
            ], 
            "BM1F": [
                2866
            ], 
            "M1": [
                2311
            ], 
            "irrelevant_Adj": [
                0
            ], 
            "M2": [
                708
            ], 
            "BM1L": [
                1971
            ], 
            "WBO": [
                1449, 
                260, 
                1299, 
                1261, 
                2882
            ], 
            "WBL": [
                1490
            ], 
            "irrelevant_Noun": [
                0
            ], 
            "M1_ADJ": [
                1
            ]
        }, 
        "sentence": "i am stunned and amazed at the quality of the raw image i am getting from this g3 ( in conjunction with my professional flash system ) , and can easily put up with the camera limitation , because ive never seen anything better within its resolution limit ."
    }
}