{
    "8cff8b3bb4b722f290108da2b2fcc548": {
        "(10, 32)": {
            "AM2L": [
                407
            ], 
            "AM2F": [
                1674
            ], 
            "WBF": [
                1470
            ], 
            "BM1F": [
                2866
            ], 
            "M1": [
                2311
            ], 
            "irrelevant_Adj": [
                0
            ], 
            "M2": [
                541
            ], 
            "BM1L": [
                1971
            ], 
            "WBO": [
                1449, 
                260, 
                1299, 
                1261, 
                2882, 
                1280, 
                1490, 
                708, 
                3181, 
                1878, 
                2244, 
                1208, 
                2824, 
                275, 
                543, 
                1004, 
                2280, 
                3029
            ], 
            "WBL": [
                2866
            ], 
            "irrelevant_Noun": [
                0
            ], 
            "M1_ADJ": [
                1
            ]
        }, 
        "location1": [
            10
        ], 
        "location2": [
            32
        ], 
        "sentence": "i am stunned and amazed at the quality of the raw image i am getting from this g3 ( in conjunction with my professional flash system ) , and can easily put up with the camera limitation , because ive never seen anything better within its resolution limit ."
    }, 
    "c9e60af8c804cc7bc30a164554f7375d": {
        "(4, 32)": {
            "WBF": [
                1470
            ], 
            "BM1F": [
                1232
            ], 
            "M1": [
                2311
            ], 
            "irrelevant_Adj": [
                0
            ], 
            "M2": [
                541
            ], 
            "BM1L": [
                2653
            ], 
            "WBO": [
                936, 
                1935, 
                2214, 
                3229, 
                3181, 
                150, 
                2311, 
                1470, 
                337, 
                242, 
                522, 
                2866, 
                2311, 
                1470, 
                221, 
                1566, 
                1371, 
                413, 
                2238, 
                528, 
                242, 
                2866, 
                1471, 
                2552
            ], 
            "WBL": [
                2866
            ], 
            "irrelevant_Noun": [
                0
            ], 
            "M1_ADJ": [
                1
            ]
        }, 
        "sentence": "the canon software for raw image does not present you with a raw image at all , but the raw image after it has been processed by all the image-affecting setting in the camera .", 
        "location2": [
            32
        ], 
        "location1": [
            4, 
            12, 
            18
        ], 
        "(12, 32)": {
            "WBF": [
                1470
            ], 
            "BM1F": [
                150
            ], 
            "M1": [
                2311
            ], 
            "irrelevant_Adj": [
                0
            ], 
            "M2": [
                541
            ], 
            "BM1L": [
                3181
            ], 
            "WBO": [
                337, 
                242, 
                522, 
                2866, 
                2311, 
                1470, 
                221, 
                1566, 
                1371, 
                413, 
                2238, 
                528, 
                242, 
                2866, 
                1471, 
                2552
            ], 
            "WBL": [
                2866
            ], 
            "irrelevant_Noun": [
                0
            ], 
            "M1_ADJ": [
                1
            ]
        }, 
        "(18, 32)": {
            "WBF": [
                1470
            ], 
            "BM1F": [
                2866
            ], 
            "M1": [
                2311
            ], 
            "irrelevant_Adj": [
                0
            ], 
            "M2": [
                541
            ], 
            "BM1L": [
                522
            ], 
            "WBO": [
                221, 
                1566, 
                1371, 
                413, 
                2238, 
                528, 
                242, 
                2866, 
                1471, 
                2552
            ], 
            "WBL": [
                2866
            ], 
            "irrelevant_Noun": [
                0
            ], 
            "M1_ADJ": [
                1
            ]
        }
    }, 
    "511a23f3a4fe98af1bf9d231291e4dff": {
        "(3, 2)": {
            "AM2L": [
                2589
            ], 
            "BM1F": [
                209
            ], 
            "M1": [
                541
            ], 
            "irrelevant_Adj": [
                0
            ], 
            "M2": [
                2311
            ], 
            "BM1L": [
                2866
            ], 
            "WBNULL": [
                1
            ], 
            "irrelevant_Noun": [
                0
            ], 
            "AM2F": [
                2168
            ], 
            "M1_ADJ": [
                0
            ]
        }, 
        "location1": [
            3
        ], 
        "location2": [
            2
        ], 
        "sentence": "the adobe camera raw plug-in show once again that hardware is mile ahead of software ."
    }
}