{
    "8cff8b3bb4b722f290108da2b2fcc548": {
        "(10, 24)": {
            "AM2L": [
                543
            ], 
            "AM2F": [
                275
            ], 
            "WBF": [
                1470
            ], 
            "BM1F": [
                2866
            ], 
            "M1": [
                2311
            ], 
            "irrelevant_Adj": [
                0
            ], 
            "M2": [
                2824
            ], 
            "BM1L": [
                1971
            ], 
            "WBO": [
                1449, 
                260, 
                1299, 
                1261, 
                2882, 
                1280, 
                1490, 
                708, 
                3181, 
                1878
            ], 
            "WBL": [
                1208
            ], 
            "irrelevant_Noun": [
                0
            ], 
            "M1_ADJ": [
                1
            ]
        }, 
        "location1": [
            10
        ], 
        "location2": [
            24
        ], 
        "sentence": "i am stunned and amazed at the quality of the raw image i am getting from this g3 ( in conjunction with my professional flash system ) , and can easily put up with the camera limitation , because ive never seen anything better within its resolution limit ."
    }
}