{
    "449b83653dd0d66d7d910483ebd3238b": {
        "(3, 12)": {
            "AM2L": [
                2650
            ], 
            "AM2F": [
                1836
            ], 
            "WBF": [
                2901
            ], 
            "BM1F": [
                2866
            ], 
            "M1": [
                2479
            ], 
            "irrelevant_Adj": [
                0
            ], 
            "M2": [
                350
            ], 
            "BM1L": [
                337
            ], 
            "WBO": [
                1566, 
                2836, 
                3189, 
                2133, 
                3075
            ], 
            "WBL": [
                1490
            ], 
            "irrelevant_Noun": [
                0
            ], 
            "M1_ADJ": [
                1
            ]
        }, 
        "location1": [
            3
        ], 
        "location2": [
            12
        ], 
        "sentence": "but at the same time , it takes wonderful picture very easily in `` auto `` mode , so that even an average joe like me can use it !"
    }
}