{
    "c12f2cbdc52ec5949ef5f7247c336b99": {
        "(8, 3)": {
            "AM2L": [
                275
            ], 
            "AM2F": [
                1676
            ], 
            "WBF": [
                1562
            ], 
            "BM1F": [
                1740
            ], 
            "M1": [
                1194
            ], 
            "irrelevant_Adj": [
                0
            ], 
            "M2": [
                2564
            ], 
            "BM1L": [
                2602
            ], 
            "WBO": [
                2766
            ], 
            "WBL": [
                2866
            ], 
            "irrelevant_Noun": [
                0
            ], 
            "M1_ADJ": [
                0
            ]
        }, 
        "location1": [
            8
        ], 
        "location2": [
            3
        ], 
        "sentence": "its silver magnesium finish is stunning , and the sharp line and excellent grip are better than any other camera i 've seen ."
    }
}