{
    "c12f2cbdc52ec5949ef5f7247c336b99": {
        "(8, 18)": {
            "AM2L": [
                6
            ], 
            "AM2F": [
                1449
            ], 
            "WBF": [
                1676
            ], 
            "BM1F": [
                2866
            ], 
            "M1": [
                2564
            ], 
            "irrelevant_Adj": [
                0
            ], 
            "M2": [
                541
            ], 
            "BM1L": [
                275
            ], 
            "WBO": [
                275, 
                1092, 
                1337, 
                316, 
                436, 
                2862
            ], 
            "WBL": [
                2032
            ], 
            "irrelevant_Noun": [
                0
            ], 
            "M1_ADJ": [
                1
            ]
        }, 
        "location1": [
            8
        ], 
        "location2": [
            18
        ], 
        "sentence": "its silver magnesium finish is stunning , and the sharp line and excellent grip are better than any other camera i 've seen ."
    }
}