{
    "be379679dac602b9b58a047cfe52bfb9": {
        "location1": [
            10
        ], 
        "location2": [
            23
        ], 
        "(10, 23)": {
            "AM2L": [
                3149
            ], 
            "AM2F": [
                1836
            ], 
            "WBF": [
                2233
            ], 
            "BM1F": [
                2524
            ], 
            "M1": [
                2592
            ], 
            "irrelevant_Adj": [
                1
            ], 
            "M2": [
                2247
            ], 
            "BM1L": [
                543
            ], 
            "WBO": [
                1232, 
                1407, 
                2696, 
                2774, 
                296, 
                2233, 
                1232, 
                1222, 
                1651
            ], 
            "WBL": [
                1268
            ], 
            "irrelevant_Noun": [
                0
            ], 
            "M1_ADJ": [
                1
            ]
        }, 
        "sentence": "with a quick spin of the dial you can select shutter priority ( for high speed subject ) , aperture priority ( for focal length ) or full program mode where the camera selects both for ideal photo quality ."
    }
}