{
    "1f8107d369d0a9aff676c54f789d4256": {
        "location1": [
            17
        ], 
        "location2": [
            8
        ], 
        "(17, 8)": {
            "AM2L": [
                275
            ], 
            "AM2F": [
                2233
            ], 
            "WBF": [
                522
            ], 
            "BM1F": [
                1490
            ], 
            "M1": [
                359
            ], 
            "irrelevant_Adj": [
                1
            ], 
            "M2": [
                2592
            ], 
            "BM1L": [
                2006
            ], 
            "WBO": [
                254, 
                1307, 
                2953, 
                1214, 
                1490
            ], 
            "WBL": [
                2233
            ], 
            "irrelevant_Noun": [
                0
            ], 
            "M1_ADJ": [
                0
            ]
        }, 
        "sentence": "the camera is a dream to operate in automode , but also gives tremendous flexibility in aperture priority , shutter priority , and manual mode ."
    }
}