{
    "7a6127bd06125c9102ab880f8919a4d0": {
        "(12, 5)": {
            "AM2L": [
                541
            ], 
            "AM2F": [
                546
            ], 
            "WBF": [
                1971
            ], 
            "BM1F": [
                888
            ], 
            "M1": [
                2977
            ], 
            "irrelevant_Adj": [
                0
            ], 
            "M2": [
                2638
            ], 
            "BM1L": [
                150
            ], 
            "WBO": [
                400, 
                598, 
                2824
            ], 
            "WBL": [
                2866
            ], 
            "irrelevant_Noun": [
                0
            ], 
            "M1_ADJ": [
                0
            ]
        }, 
        "location1": [
            12
        ], 
        "location2": [
            5
        ], 
        "sentence": "the g3 has a different type of battery charging system from the smaller canon camera : the battery need to be charged while in the camera , but the charging system also enables you to use the camera while plugged in without running down the battery ."
    }
}