{
    "d94ba22ec1c68f129a09d111449a5e89": {
        "(7, 8)": {
            "AM2L": [
                2866
            ], 
            "BM1F": [
                2961
            ], 
            "M1": [
                2766
            ], 
            "irrelevant_Adj": [
                0
            ], 
            "M2": [
                2281
            ], 
            "BM1L": [
                2866
            ], 
            "WBNULL": [
                1
            ], 
            "irrelevant_Noun": [
                0
            ], 
            "AM2F": [
                1971
            ], 
            "M1_ADJ": [
                1
            ]
        }, 
        "location1": [
            7
        ], 
        "location2": [
            8
        ], 
        "sentence": "what this plug-in reveals is the truly stunning quality of the raw g3 hardware ."
    }
}