{
    "ea03c1eca4f4843d18fa28fa8e577b5c": {
        "(26, 35)": {
            "AM2L": [
                3181
            ], 
            "AM2F": [
                664
            ], 
            "WBF": [
                1636
            ], 
            "BM1F": [
                1333
            ], 
            "M1": [
                2818
            ], 
            "irrelevant_Adj": [
                0
            ], 
            "M2": [
                2017
            ], 
            "BM1L": [
                150
            ], 
            "WBO": [
                2501, 
                150, 
                1719, 
                1971, 
                1163
            ], 
            "WBL": [
                194
            ], 
            "irrelevant_Noun": [
                1
            ], 
            "M1_ADJ": [
                1
            ]
        }, 
        "location1": [
            26
        ], 
        "location2": [
            35
        ], 
        "sentence": "4mp , 4x optical zoom , takes absolutely beautiful photo with detail that challenge all of the above 5mp camera , easy to understand and use ( has a great swivel lcd screen ) , a lot of feature and add-on option , comes with great software ( not to be overlooked ) , and last but by far not least , received my fiance 's stamp of approval ( two thumb up ! )"
    }
}