{
    "865f5ce19fc754d56e712de777b1bcae": {
        "(16, 25)": {
            "AM2L": [
                546
            ], 
            "AM2F": [
                1261
            ], 
            "WBF": [
                1208
            ], 
            "BM1F": [
                3181
            ], 
            "M1": [
                2881
            ], 
            "irrelevant_Adj": [
                0
            ], 
            "M2": [
                1208
            ], 
            "BM1L": [
                2516
            ], 
            "WBO": [
                1591, 
                325, 
                1566, 
                936, 
                3181
            ], 
            "WBL": [
                832
            ], 
            "irrelevant_Noun": [
                0
            ], 
            "M1_ADJ": [
                1
            ]
        }, 
        "(16, 17)": {
            "AM2L": [
                325
            ], 
            "BM1F": [
                3181
            ], 
            "M1": [
                2881
            ], 
            "irrelevant_Adj": [
                0
            ], 
            "M2": [
                1208
            ], 
            "BM1L": [
                2516
            ], 
            "WBNULL": [
                1
            ], 
            "irrelevant_Noun": [
                0
            ], 
            "AM2F": [
                1591
            ], 
            "M1_ADJ": [
                1
            ]
        }, 
        "location1": [
            16
        ], 
        "location2": [
            17, 
            25
        ], 
        "sentence": "contrary to what ive read elsewhere , the g3 does sync at 1/250 of a second with third-party flash , just as it does with the dedicated flash from canon ."
    }
}