{
    "f774d50a8c6d2e482b4e764362bf0ccb": {
        "location1": [
            21
        ], 
        "location2": [
            16
        ], 
        "(21, 16)": {
            "AM2L": [
                275
            ], 
            "AM2F": [
                384
            ], 
            "WBF": [
                893
            ], 
            "BM1F": [
                95
            ], 
            "M1": [
                1786
            ], 
            "irrelevant_Adj": [
                0
            ], 
            "M2": [
                2917
            ], 
            "BM1L": [
                795
            ], 
            "WBO": [
                1261
            ], 
            "WBL": [
                869
            ], 
            "irrelevant_Noun": [
                0
            ], 
            "M1_ADJ": [
                0
            ]
        }, 
        "sentence": "overall , the g3 delivers what must be considered the best image quality of any current > 4 megapixel digicams , from a detail , tonal balance and color response point of view ."
    }
}