{
    "f774d50a8c6d2e482b4e764362bf0ccb": {
        "(21, 11)": {
            "AM2L": [
                275
            ], 
            "AM2F": [
                384
            ], 
            "WBF": [
                1971
            ], 
            "BM1F": [
                1470
            ], 
            "M1": [
                2281
            ], 
            "irrelevant_Adj": [
                0
            ], 
            "M2": [
                2917
            ], 
            "BM1L": [
                434
            ], 
            "WBO": [
                286, 
                795, 
                95, 
                1786, 
                893, 
                1261
            ], 
            "WBL": [
                869
            ], 
            "irrelevant_Noun": [
                0
            ], 
            "M1_ADJ": [
                0
            ]
        }, 
        "location1": [
            21
        ], 
        "location2": [
            11
        ], 
        "sentence": "overall , the g3 delivers what must be considered the best image quality of any current > 4 megapixel digicams , from a detail , tonal balance and color response point of view ."
    }
}