{
    "f774d50a8c6d2e482b4e764362bf0ccb": {
        "(21, 22)": {
            "AM2L": [
                656
            ], 
            "BM1F": [
                869
            ], 
            "M1": [
                2917
            ], 
            "irrelevant_Adj": [
                0
            ], 
            "M2": [
                384
            ], 
            "BM1L": [
                150
            ], 
            "WBNULL": [
                1
            ], 
            "irrelevant_Noun": [
                0
            ], 
            "AM2F": [
                275
            ], 
            "M1_ADJ": [
                1
            ]
        }, 
        "location1": [
            21
        ], 
        "location2": [
            22
        ], 
        "sentence": "overall , the g3 delivers what must be considered the best image quality of any current > 4 megapixel digicams , from a detail , tonal balance and color response point of view ."
    }
}