{
    "3dd55b27114ec5fd6815b8c30aa6e44f": {
        "(3, 21)": {
            "AM2L": [
                1971
            ], 
            "AM2F": [
                1854
            ], 
            "WBF": [
                1490
            ], 
            "BM1F": [
                1562
            ], 
            "M1": [
                3090
            ], 
            "irrelevant_Adj": [
                0
            ], 
            "M2": [
                1636
            ], 
            "BM1L": [
                1653
            ], 
            "WBO": [
                2866, 
                3085, 
                3147, 
                2866, 
                1653, 
                1562, 
                2551, 
                2909, 
                2866, 
                3163, 
                277, 
                522, 
                2609, 
                1449
            ], 
            "WBL": [
                2866
            ], 
            "irrelevant_Noun": [
                0
            ], 
            "M1_ADJ": [
                1
            ]
        }, 
        "location1": [
            3
        ], 
        "location2": [
            21
        ], 
        "sentence": "the lens is visible in the viewfinder when the lens is set to the wide angle , but since i use the lcd most of the time , this is not really much of a bother to me ."
    }
}