{
    "e4ef0ebc749295bdb2fcb874531a583e": {
        "(4, 2)": {
            "WBFL": [
                275
            ], 
            "BM1F": [
                656
            ], 
            "M1": [
                2133
            ], 
            "irrelevant_Adj": [
                0
            ], 
            "M2": [
                3156
            ], 
            "BM1L": [
                1333
            ], 
            "AM2F": [
                384
            ], 
            "irrelevant_Noun": [
                0
            ], 
            "M1_ADJ": [
                0
            ]
        }, 
        "location1": [
            4
        ], 
        "location2": [
            2
        ], 
        "sentence": "great color , picture and white balance ."
    }
}