{
    "449b83653dd0d66d7d910483ebd3238b": {
        "location1": [
            7
        ], 
        "location2": [
            19
        ], 
        "(7, 19)": {
            "AM2L": [
                1773
            ], 
            "AM2F": [
                1669
            ], 
            "WBF": [
                2133
            ], 
            "BM1F": [
                2836
            ], 
            "M1": [
                3189
            ], 
            "irrelevant_Adj": [
                0
            ], 
            "M2": [
                1579
            ], 
            "BM1L": [
                1566
            ], 
            "WBO": [
                3075, 
                1004, 
                1490, 
                350, 
                1836, 
                2650, 
                2864, 
                1075
            ], 
            "WBL": [
                361
            ], 
            "irrelevant_Noun": [
                0
            ], 
            "M1_ADJ": [
                1
            ]
        }, 
        "sentence": "but at the same time , it takes wonderful picture very easily in `` auto `` mode , so that even an average joe like me can use it !"
    }
}