{
    "f221ac367372a9d0142195a8c2d6879c": {
        "location1": [
            18
        ], 
        "location2": [
            5
        ], 
        "(18, 5)": {
            "WBF": [
                1232
            ], 
            "BM1F": [
                2882
            ], 
            "M1": [
                541
            ], 
            "irrelevant_Adj": [
                0
            ], 
            "M2": [
                3189
            ], 
            "BM1L": [
                1348
            ], 
            "WBO": [
                1994, 
                1268, 
                820, 
                275, 
                1449, 
                1375, 
                2909, 
                2491, 
                2864
            ], 
            "WBL": [
                1562
            ], 
            "irrelevant_Noun": [
                0
            ], 
            "M1_ADJ": [
                0
            ]
        }, 
        "sentence": "i have only had this camera for one full day and i have to say that it is wonderful ."
    }, 
    "922bdfb560dc1c43d64652c25daaa354": {
        "(4, 1)": {
            "AM2L": [
                1971
            ], 
            "AM2F": [
                2551
            ], 
            "WBF": [
                1371
            ], 
            "BM1F": [
                2866
            ], 
            "M1": [
                541
            ], 
            "irrelevant_Adj": [
                0
            ], 
            "M2": [
                3189
            ], 
            "WBO": [
                150
            ], 
            "WBL": [
                150
            ], 
            "irrelevant_Noun": [
                0
            ], 
            "M1_ADJ": [
                0
            ]
        }, 
        "location1": [
            4
        ], 
        "location2": [
            1
        ], 
        "sentence": "the camera has a wonderful set of feature ."
    }
}