{
    "a4bf04bb2ffffdf15f1e93ccd942ba31": {
        "(7, 14)": {
            "AM2L": [
                543
            ], 
            "AM2F": [
                1566
            ], 
            "WBF": [
                1935
            ], 
            "BM1F": [
                1562
            ], 
            "M1": [
                3189
            ], 
            "irrelevant_Adj": [
                0
            ], 
            "M2": [
                2592
            ], 
            "BM1L": [
                3010
            ], 
            "WBO": [
                1999, 
                936, 
                1566
            ], 
            "WBL": [
                2866
            ], 
            "irrelevant_Noun": [
                0
            ], 
            "M1_ADJ": [
                1
            ]
        }, 
        "location1": [
            7
        ], 
        "location2": [
            14
        ], 
        "sentence": "the tiny ( postage-stamp sized ) remote unit is wonderful : not only does it trigger the shutter , it can also be used to zoom and review picture ."
    }
}