{
    "449b83653dd0d66d7d910483ebd3238b": {
        "(7, 13)": {
            "AM2L": [
                2864
            ], 
            "AM2F": [
                2650
            ], 
            "WBF": [
                2133
            ], 
            "BM1F": [
                2836
            ], 
            "M1": [
                3189
            ], 
            "irrelevant_Adj": [
                0
            ], 
            "M2": [
                1836
            ], 
            "BM1L": [
                1566
            ], 
            "WBO": [
                3075, 
                1004
            ], 
            "WBL": [
                350
            ], 
            "irrelevant_Noun": [
                0
            ], 
            "M1_ADJ": [
                1
            ]
        }, 
        "location1": [
            7
        ], 
        "location2": [
            13
        ], 
        "sentence": "but at the same time , it takes wonderful picture very easily in `` auto `` mode , so that even an average joe like me can use it !"
    }
}