{
    "58e7e474b8ea3dcf3293853aae627fc1": {
        "(12, 13)": {
            "AM2L": [
                1068
            ], 
            "BM1F": [
                150
            ], 
            "M1": [
                405
            ], 
            "M2": [
                2501
            ], 
            "BM1L": [
                1163
            ], 
            "WBNULL": [
                1
            ], 
            "AM2F": [
                1333
            ], 
            "M1_ADJ": [
                1
            ]
        }, 
        "location1": [
            12
        ], 
        "location2": [
            13
        ], 
        "sentence": "this really is a great little phone ; its got nice feature , a beatiful screen , great ergonomics , and its tiny !"
    }
}