{
    "64fb66cc374fec3973bcd3984f004f56": {
        "(2, 24)": {
            "WBF": [
                2876
            ], 
            "AM2L": [
                1744
            ], 
            "BM1F": [
                2975
            ], 
            "M1": [
                442
            ], 
            "M2": [
                2118
            ], 
            "BM1L": [
                2866
            ], 
            "WBO": [
                1562, 
                2866, 
                1092, 
                3195, 
                2688, 
                3015, 
                2866, 
                1920, 
                88, 
                275, 
                2866, 
                2791, 
                2340, 
                1920, 
                1562, 
                1612, 
                1232, 
                1490
            ], 
            "WBL": [
                1341
            ], 
            "AM2F": [
                2875
            ], 
            "M1_ADJ": [
                1
            ]
        }, 
        "location1": [
            2
        ], 
        "location2": [
            24
        ], 
        "sentence": "the two biggest thing is the excellent working speakerphone `` unlike the nokia 3650 `` and the superb reception nokia is known for in the gsm phone they make ..."
    }
}