{
    "0bd4b7ea23395053267cfdb384e926bd": {
        "(27, 14)": {
            "WBF": [
                3149
            ], 
            "BM1F": [
                2866
            ], 
            "M1": [
                2172
            ], 
            "M2": [
                634
            ], 
            "BM1L": [
                2909
            ], 
            "WBO": [
                1449, 
                0, 
                1375, 
                2909, 
                879, 
                1949, 
                122, 
                2901, 
                2909
            ], 
            "WBL": [
                150
            ], 
            "AM2F": [
                1676
            ], 
            "M1_ADJ": [
                0
            ]
        }, 
        "location1": [
            27
        ], 
        "location2": [
            14
        ], 
        "sentence": "however , the call constantly drop in my area and i experince mega-static , to the point where i 'd have to dial number 6-7 time to get a clear line ."
    }
}