{
    "c63b814a0a679b601fcf858056f31723": {
        "(3, 0)": {
            "WBF": [
                1720
            ], 
            "AM2L": [
                2659
            ], 
            "M1": [
                2688
            ], 
            "M2": [
                634
            ], 
            "WBO": [
                275
            ], 
            "WBL": [
                275
            ], 
            "AM2F": [
                1371
            ], 
            "M1_ADJ": [
                0
            ]
        }, 
        "location1": [
            3
        ], 
        "location2": [
            0
        ], 
        "sentence": "speakerphone - loud and clear has some nice extra feature like currency converter and a stopwatch ."
    }
}