{
    "60918d91db20f0758f77fc85122e79da": {
        "location1": [
            5
        ], 
        "location2": [
            11
        ], 
        "(5, 11)": {
            "WBF": [
                1163
            ], 
            "AM2L": [
                2866
            ], 
            "BM1F": [
                1690
            ], 
            "M1": [
                806
            ], 
            "M2": [
                1284
            ], 
            "BM1L": [
                1971
            ], 
            "WBO": [
                1878, 
                1161
            ], 
            "WBL": [
                2866
            ], 
            "AM2F": [
                275
            ], 
            "M1_ADJ": [
                1
            ]
        }, 
        "sentence": "it has lot of little cute feature , my favorite being the game and the pim ( personal information manager -- i.e . organizer ) , and the radio !"
    }
}