{
    "cb73b87bc53d6be47ba62c64c5eefff1": {
        "(7, 32)": {
            "WBF": [
                378
            ], 
            "AM2L": [
                3144
            ], 
            "BM1F": [
                2659
            ], 
            "M1": [
                827
            ], 
            "M2": [
                2017
            ], 
            "BM1L": [
                2452
            ], 
            "WBO": [
                2503, 
                522, 
                2866, 
                2118, 
                1371, 
                3075, 
                1690, 
                1792, 
                1815, 
                1348, 
                59, 
                325, 
                1566, 
                322, 
                1261, 
                267, 
                2650, 
                3229, 
                931, 
                1881, 
                1375
            ], 
            "WBL": [
                1758
            ], 
            "AM2F": [
                1987
            ], 
            "M1_ADJ": [
                1
            ]
        }, 
        "location1": [
            7
        ], 
        "location2": [
            32
        ], 
        "sentence": "the phone comes with okay ringtones , some decent background / screensavers , but the phone has very little memory ( mine had 230kb as it arrived from amazon , so you do n't have too many option on what you can put on there ) ."
    }
}