{
    "7aba4051c00fd6801f9538e897377aed": {
        "(4, 5)": {
            "AM2L": [
                2866
            ], 
            "BM1F": [
                150
            ], 
            "M1": [
                827
            ], 
            "M2": [
                2617
            ], 
            "BM1L": [
                1562
            ], 
            "WBNULL": [
                1
            ], 
            "AM2F": [
                522
            ], 
            "M1_ADJ": [
                1
            ]
        }, 
        "location1": [
            4
        ], 
        "location2": [
            5
        ], 
        "sentence": "the keypad is a decent size , but the power on/off key is small and difficult to press ."
    }
}