{
    "4c97fb16f6c98310c527b30aa33a2434": {
        "(36, 21)": {
            "WBF": [
                2017
            ], 
            "BM1F": [
                2866
            ], 
            "M1": [
                1795
            ], 
            "M2": [
                888
            ], 
            "BM1L": [
                846
            ], 
            "WBO": [
                2864, 
                3204, 
                1031, 
                3229, 
                2909, 
                704, 
                2866, 
                2118, 
                2909, 
                402, 
                3043
            ], 
            "WBL": [
                150
            ], 
            "AM2F": [
                1901
            ], 
            "M1_ADJ": [
                0
            ]
        }, 
        "location1": [
            36
        ], 
        "location2": [
            21
        ], 
        "sentence": "the internet function of the phone - wap and gprs - will only work through t-mobile 's service , because they have deleted the menu option that would enable you to configure the phone to be used on a different network ."
    }
}