{
    "4c97fb16f6c98310c527b30aa33a2434": {
        "(36, 6)": {
            "WBF": [
                275
            ], 
            "BM1F": [
                2118
            ], 
            "M1": [
                3112
            ], 
            "M2": [
                888
            ], 
            "BM1L": [
                2866
            ], 
            "WBO": [
                1324, 
                3168, 
                1999, 
                3191, 
                2890, 
                2826, 
                4, 
                2549, 
                407, 
                2875, 
                1375, 
                846, 
                2866, 
                1795, 
                2017, 
                2864, 
                3204, 
                1031, 
                3229, 
                2909, 
                704, 
                2866, 
                2118, 
                2909, 
                402, 
                3043
            ], 
            "WBL": [
                150
            ], 
            "AM2F": [
                1901
            ], 
            "M1_ADJ": [
                0
            ]
        }, 
        "location1": [
            36
        ], 
        "location2": [
            6
        ], 
        "sentence": "the internet function of the phone - wap and gprs - will only work through t-mobile 's service , because they have deleted the menu option that would enable you to configure the phone to be used on a different network ."
    }
}