{
    "b8c4180a9c3121e6ea19a6b4eeabba04": {
        "location1": [
            0
        ], 
        "location2": [
            10
        ], 
        "(0, 10)": {
            "WBF": [
                2118
            ], 
            "AM2L": [
                2866
            ], 
            "M1": [
                1092
            ], 
            "M2": [
                2518
            ], 
            "WBO": [
                2866, 
                2118, 
                1710, 
                1870, 
                436, 
                2862
            ], 
            "WBL": [
                2980
            ], 
            "AM2F": [
                1490
            ], 
            "M1_ADJ": [
                1
            ]
        }, 
        "sentence": "excellent phone , the phone look much better than what u see in the picture ."
    }
}