{
    "bc412b771cb33944aaf00912480e5a71": {
        "(7, 24)": {
            "WBF": [
                2598
            ], 
            "BM1F": [
                2296
            ], 
            "M1": [
                1092
            ], 
            "M2": [
                1575
            ], 
            "BM1L": [
                1221
            ], 
            "WBO": [
                1351, 
                1250, 
                2688, 
                3152, 
                1449, 
                1375, 
                2909, 
                2491, 
                1562, 
                2235, 
                1878, 
                1161, 
                1272
            ], 
            "WBL": [
                950
            ], 
            "AM2F": [
                313
            ], 
            "M1_ADJ": [
                1
            ]
        }, 
        "location1": [
            7
        ], 
        "location2": [
            24
        ], 
        "sentence": "it has great battery life , fm radio , excellent signal , hand free speakerphone ( which i have to say is probably my favorite function ) and downloadable java apps ."
    }
}