{
    "d36bdc5dfa57c2ffcd3b26042b66d2e6": {
        "location1": [
            1
        ], 
        "location2": [
            15
        ], 
        "(1, 15)": {
            "WBF": [
                2177
            ], 
            "AM2L": [
                1562
            ], 
            "BM1F": [
                2676
            ], 
            "M1": [
                1092
            ], 
            "M2": [
                2296
            ], 
            "WBO": [
                2451, 
                2918, 
                316, 
                3075, 
                1907, 
                605, 
                695, 
                1566, 
                254, 
                943
            ], 
            "WBL": [
                150
            ], 
            "AM2F": [
                3152
            ], 
            "M1_ADJ": [
                1
            ]
        }, 
        "sentence": "sound - excellent polyphonic ringing tone are very nice ( check con ) it also double as a radio , which is a nice feature when you are bored ."
    }, 
    "bc412b771cb33944aaf00912480e5a71": {
        "(7, 6)": {
            "AM2L": [
                1351
            ], 
            "BM1F": [
                1221
            ], 
            "M1": [
                2296
            ], 
            "M2": [
                1092
            ], 
            "BM1L": [
                1664
            ], 
            "WBNULL": [
                1
            ], 
            "AM2F": [
                2598
            ], 
            "M1_ADJ": [
                0
            ]
        }, 
        "location1": [
            7
        ], 
        "location2": [
            6
        ], 
        "sentence": "it has great battery life , fm radio , excellent signal , hand free speakerphone ( which i have to say is probably my favorite function ) and downloadable java apps ."
    }, 
    "e1bef08bc65ba3487923aec367168f32": {
        "(6, 4)": {
            "AM2L": [
                2100
            ], 
            "WBFL": [
                1562
            ], 
            "BM1F": [
                1221
            ], 
            "M1": [
                2296
            ], 
            "M2": [
                1092
            ], 
            "BM1L": [
                1490
            ], 
            "AM2F": [
                1232
            ], 
            "M1_ADJ": [
                0
            ]
        }, 
        "location1": [
            6
        ], 
        "location2": [
            4
        ], 
        "sentence": "the built in fm radio is excellent for people traveling by public transport ."
    }
}