{
    "867e0d28796d18caa886b83e1e446570": {
        "(14, 18)": {
            "WBF": [
                1221
            ], 
            "BM1F": [
                273
            ], 
            "M1": [
                1092
            ], 
            "M2": [
                1000
            ], 
            "BM1L": [
                275
            ], 
            "WBO": [
                2118
            ], 
            "WBL": [
                275
            ], 
            "M1_ADJ": [
                1
            ]
        }, 
        "location1": [
            14
        ], 
        "location2": [
            18
        ], 
        "sentence": "while i had the phone , the positive feature were : good sound quality and an excellent fm phone and earpiece ."
    }
}