{
    "bda6c10fbfa269bc9c256d0a04ea7069": {
        "(5, 6)": {
            "AM2L": [
                2371
            ], 
            "BM1F": [
                3041
            ], 
            "M1": [
                1092
            ], 
            "M2": [
                1901
            ], 
            "BM1L": [
                2909
            ], 
            "WBNULL": [
                1
            ], 
            "AM2F": [
                1917
            ], 
            "M1_ADJ": [
                1
            ]
        }, 
        "location1": [
            5
        ], 
        "location2": [
            6
        ], 
        "sentence": "great phone , easy to use , excellent network , no regret ! ! !"
    }
}