{
    "bc412b771cb33944aaf00912480e5a71": {
        "location1": [
            7
        ], 
        "location2": [
            9
        ], 
        "(7, 9)": {
            "AM2L": [
                2688
            ], 
            "WBFL": [
                2598
            ], 
            "BM1F": [
                2296
            ], 
            "M1": [
                1092
            ], 
            "M2": [
                1351
            ], 
            "BM1L": [
                1221
            ], 
            "AM2F": [
                1250
            ], 
            "M1_ADJ": [
                1
            ]
        }, 
        "sentence": "it has great battery life , fm radio , excellent signal , hand free speakerphone ( which i have to say is probably my favorite function ) and downloadable java apps ."
    }
}