{
    "bc412b771cb33944aaf00912480e5a71": {
        "location1": [
            20
        ], 
        "location2": [
            11
        ], 
        "(20, 11)": {
            "WBF": [
                3152
            ], 
            "AM2L": [
                275
            ], 
            "BM1F": [
                1250
            ], 
            "M1": [
                2688
            ], 
            "M2": [
                1161
            ], 
            "BM1L": [
                1351
            ], 
            "WBO": [
                1449, 
                1375, 
                2909, 
                2491, 
                1562
            ], 
            "WBL": [
                1878
            ], 
            "AM2F": [
                1272
            ], 
            "M1_ADJ": [
                0
            ]
        }, 
        "sentence": "it has great battery life , fm radio , excellent signal , hand free speakerphone ( which i have to say is probably my favorite function ) and downloadable java apps ."
    }
}