{
    "8920ebaa803b842f68dc03f411e539ae": {
        "location1": [
            6
        ], 
        "location2": [
            12
        ], 
        "(6, 12)": {
            "WBF": [
                2118
            ], 
            "AM2L": [
                508
            ], 
            "BM1F": [
                2866
            ], 
            "M1": [
                1171
            ], 
            "M2": [
                2296
            ], 
            "BM1L": [
                1971
            ], 
            "WBO": [
                2864, 
                1375
            ], 
            "WBL": [
                1221
            ], 
            "AM2F": [
                2966
            ], 
            "M1_ADJ": [
                1
            ]
        }, 
        "sentence": "this phone is one of the few phone that have an fm radio tuner built in ."
    }
}