{
    "fdd4d278af1bf0a366d02bf985906571": {
        "(23, 33)": {
            "WBF": [
                763
            ], 
            "BM1F": [
                150
            ], 
            "M1": [
                1171
            ], 
            "M2": [
                326
            ], 
            "BM1L": [
                1094
            ], 
            "WBO": [
                2864, 
                931, 
                1935, 
                3041, 
                1341, 
                150
            ], 
            "WBL": [
                1490
            ], 
            "M1_ADJ": [
                1
            ]
        }, 
        "(31, 33)": {
            "WBFL": [
                1490
            ], 
            "BM1F": [
                150
            ], 
            "M1": [
                1171
            ], 
            "M2": [
                326
            ], 
            "BM1L": [
                1341
            ], 
            "M1_ADJ": [
                1
            ]
        }, 
        "location1": [
            23, 
            31
        ], 
        "location2": [
            33
        ], 
        "sentence": "one highly beneficial feature of this phone ( at least to me ) is that it can be used anywhere in the world except a few country that do not use gsm , a few in asia ."
    }
}