{
    "bc412b771cb33944aaf00912480e5a71": {
        "location1": [
            10
        ], 
        "location2": [
            6
        ], 
        "(10, 6)": {
            "WBF": [
                1092
            ], 
            "AM2L": [
                3152
            ], 
            "BM1F": [
                1221
            ], 
            "M1": [
                2296
            ], 
            "M2": [
                1250
            ], 
            "BM1L": [
                1664
            ], 
            "WBO": [
                2598
            ], 
            "WBL": [
                1351
            ], 
            "AM2F": [
                2688
            ], 
            "M1_ADJ": [
                0
            ]
        }, 
        "sentence": "it has great battery life , fm radio , excellent signal , hand free speakerphone ( which i have to say is probably my favorite function ) and downloadable java apps ."
    }
}