{
    "6a24487459d99b1b25825952b9db4493": {
        "(11, 38)": {
            "WBF": [
                2452
            ], 
            "BM1F": [
                1452
            ], 
            "M1": [
                1250
            ], 
            "M2": [
                313
            ], 
            "BM1L": [
                2786
            ], 
            "WBO": [
                1261, 
                1809, 
                1176, 
                1250, 
                1331, 
                1261, 
                286, 
                2133, 
                1987, 
                3230, 
                694, 
                275, 
                1463, 
                3229, 
                1610, 
                1444, 
                2909, 
                2247, 
                1577, 
                3229, 
                543, 
                1075, 
                1744
            ], 
            "WBL": [
                2058
            ], 
            "AM2F": [
                1284
            ], 
            "M1_ADJ": [
                1
            ]
        }, 
        "(16, 38)": {
            "WBF": [
                1331
            ], 
            "BM1F": [
                1176
            ], 
            "M1": [
                1250
            ], 
            "M2": [
                313
            ], 
            "BM1L": [
                1809
            ], 
            "WBO": [
                1261, 
                286, 
                2133, 
                1987, 
                3230, 
                694, 
                275, 
                1463, 
                3229, 
                1610, 
                1444, 
                2909, 
                2247, 
                1577, 
                3229, 
                543, 
                1075, 
                1744
            ], 
            "WBL": [
                2058
            ], 
            "AM2F": [
                1284
            ], 
            "M1_ADJ": [
                1
            ]
        }, 
        "location1": [
            11, 
            16
        ], 
        "location2": [
            38
        ], 
        "sentence": "you can do * so * much more with the pc suite , i.e . free ringtones from midi file , free graphic from any picture on your computer , and if you know how to program jme you can even make your own apps / game ."
    }, 
    "bc412b771cb33944aaf00912480e5a71": {
        "(10, 25)": {
            "WBF": [
                2688
            ], 
            "BM1F": [
                1351
            ], 
            "M1": [
                1250
            ], 
            "M2": [
                313
            ], 
            "BM1L": [
                2598
            ], 
            "WBO": [
                3152, 
                1449, 
                1375, 
                2909, 
                2491, 
                1562, 
                2235, 
                1878, 
                1161, 
                1272, 
                275
            ], 
            "WBL": [
                1575
            ], 
            "M1_ADJ": [
                1
            ]
        }, 
        "location1": [
            10
        ], 
        "location2": [
            25
        ], 
        "sentence": "it has great battery life , fm radio , excellent signal , hand free speakerphone ( which i have to say is probably my favorite function ) and downloadable java apps ."
    }
}