{
    "c9d0d998766ff632aa6c28c85f4926f0": {
        "(10, 26)": {
            "WBF": [
                325
            ], 
            "AM2L": [
                2296
            ], 
            "BM1F": [
                325
            ], 
            "M1": [
                1320
            ], 
            "M2": [
                2118
            ], 
            "BM1L": [
                1890
            ], 
            "WBO": [
                150, 
                1932, 
                2296, 
                522, 
                325, 
                1706, 
                325, 
                2866, 
                2725, 
                316, 
                668, 
                1490
            ], 
            "WBL": [
                2866
            ], 
            "AM2F": [
                4
            ], 
            "M1_ADJ": [
                1
            ]
        }, 
        "location1": [
            10
        ], 
        "location2": [
            26
        ], 
        "sentence": "this radio receives fairly decent reception but not nearly as good as a normal radio , but as long as the station are coming in clearly the phone 's radio should work perfectly ."
    }, 
    "e8e469c6ce127a2b8e862966b0c3685e": {
        "(8, 6)": {
            "AM2L": [
                3097
            ], 
            "WBFL": [
                1371
            ], 
            "BM1F": [
                2866
            ], 
            "M1": [
                2118
            ], 
            "M2": [
                1320
            ], 
            "BM1L": [
                3181
            ], 
            "AM2F": [
                2676
            ], 
            "M1_ADJ": [
                0
            ]
        }, 
        "location1": [
            8
        ], 
        "location2": [
            6
        ], 
        "sentence": "the headset that comes with the phone has good sound volume but it hurt the ear like you can not imagine !"
    }, 
    "2d9f1d8d7f3c3a79a868f38dccd16782": {
        "(3, 1)": {
            "AM2L": [
                150
            ], 
            "WBFL": [
                1562
            ], 
            "BM1F": [
                2882
            ], 
            "M1": [
                2118
            ], 
            "M2": [
                1320
            ], 
            "AM2F": [
                3181
            ], 
            "M1_ADJ": [
                0
            ]
        }, 
        "location1": [
            3
        ], 
        "location2": [
            1
        ], 
        "sentence": "this phone is good with a huge array of feature built into it ."
    }, 
    "89657f0ad9be220dd030d9ed377f9984": {
        "location1": [
            5
        ], 
        "location2": [
            16
        ], 
        "(5, 16)": {
            "WBF": [
                1050
            ], 
            "BM1F": [
                1562
            ], 
            "M1": [
                1320
            ], 
            "M2": [
                2118
            ], 
            "BM1L": [
                1664
            ], 
            "WBO": [
                3229, 
                2587, 
                1881, 
                402, 
                2052, 
                698, 
                3181
            ], 
            "WBL": [
                2882
            ], 
            "AM2F": [
                1972
            ], 
            "M1_ADJ": [
                1
            ]
        }, 
        "sentence": "however , the battery life is good enough you should n't be overly concerned with turning this phone off ."
    }, 
    "3c8ffb554f238698530ef85279f9b51f": {
        "location1": [
            10
        ], 
        "location2": [
            5
        ], 
        "(10, 5)": {
            "WBF": [
                1562
            ], 
            "BM1F": [
                2866
            ], 
            "M1": [
                2118
            ], 
            "M2": [
                1320
            ], 
            "BM1L": [
                1971
            ], 
            "WBO": [
                1935
            ], 
            "WBL": [
                2864
            ], 
            "M1_ADJ": [
                0
            ]
        }, 
        "sentence": "the volume level of the phone is not all that good ."
    }, 
    "867e0d28796d18caa886b83e1e446570": {
        "(9, 16)": {
            "WBF": [
                2676
            ], 
            "AM2L": [
                1000
            ], 
            "BM1F": [
                3143
            ], 
            "M1": [
                1320
            ], 
            "M2": [
                2118
            ], 
            "BM1L": [
                1163
            ], 
            "WBO": [
                2281, 
                275, 
                273
            ], 
            "WBL": [
                1221
            ], 
            "AM2F": [
                275
            ], 
            "M1_ADJ": [
                1
            ]
        }, 
        "location1": [
            9
        ], 
        "location2": [
            4, 
            16
        ], 
        "(9, 4)": {
            "WBF": [
                2866
            ], 
            "AM2L": [
                2281
            ], 
            "BM1F": [
                2866
            ], 
            "M1": [
                2118
            ], 
            "M2": [
                1320
            ], 
            "BM1L": [
                1348
            ], 
            "WBO": [
                2192
            ], 
            "WBL": [
                3143
            ], 
            "AM2F": [
                2676
            ], 
            "M1_ADJ": [
                0
            ]
        }, 
        "sentence": "while i had the phone , the positive feature were : good sound quality and an excellent fm phone and earpiece ."
    }, 
    "74ab0cc3f6e22fc34b2fa57efbcb6936": {
        "(16, 1)": {
            "WBF": [
                1562
            ], 
            "BM1F": [
                2882
            ], 
            "M1": [
                2118
            ], 
            "M2": [
                1320
            ], 
            "WBO": [
                1333, 
                325, 
                150, 
                3159, 
                275, 
                1562, 
                1935, 
                1669, 
                2033, 
                3181, 
                1994
            ], 
            "WBL": [
                2975
            ], 
            "AM2F": [
                2281
            ], 
            "M1_ADJ": [
                0
            ]
        }, 
        "location1": [
            16
        ], 
        "location2": [
            1
        ], 
        "sentence": "this phone is great as a whole and is not like others with one or two good quality ."
    }, 
    "2444c9bfc1b6cb142560eb1ebb714654": {
        "(14, 4)": {
            "WBF": [
                1987
            ], 
            "AM2L": [
                2501
            ], 
            "BM1F": [
                2866
            ], 
            "M1": [
                2118
            ], 
            "M2": [
                1320
            ], 
            "BM1L": [
                2969
            ], 
            "WBO": [
                2866, 
                1199, 
                2876, 
                2864, 
                1421, 
                1773
            ], 
            "WBL": [
                1444
            ], 
            "AM2F": [
                2866
            ], 
            "M1_ADJ": [
                0
            ]
        }, 
        "location1": [
            14
        ], 
        "location2": [
            4
        ], 
        "sentence": "when i turned the phone on , the first thing that hit me is how good the screen is ."
    }, 
    "9bdc0ecd4ba875ebf8ed1079a79dfba7": {
        "location1": [
            3
        ], 
        "location2": [
            6
        ], 
        "(3, 6)": {
            "WBF": [
                1232
            ], 
            "AM2L": [
                2882
            ], 
            "BM1F": [
                1562
            ], 
            "M1": [
                1320
            ], 
            "M2": [
                2118
            ], 
            "BM1L": [
                1664
            ], 
            "WBO": [
                150
            ], 
            "WBL": [
                150
            ], 
            "AM2F": [
                1971
            ], 
            "M1_ADJ": [
                1
            ]
        }, 
        "sentence": "battery life is good for a phone of this size ."
    }, 
    "44319df7de849e736c4e09bf62fef41e": {
        "(6, 10)": {
            "WBF": [
                589
            ], 
            "AM2L": [
                1935
            ], 
            "BM1F": [
                150
            ], 
            "M1": [
                1320
            ], 
            "M2": [
                2118
            ], 
            "BM1L": [
                1562
            ], 
            "WBO": [
                2864
            ], 
            "WBL": [
                2882
            ], 
            "AM2F": [
                3168
            ], 
            "M1_ADJ": [
                1
            ]
        }, 
        "(6, 18)": {
            "WBF": [
                589
            ], 
            "BM1F": [
                150
            ], 
            "M1": [
                1320
            ], 
            "M2": [
                2118
            ], 
            "BM1L": [
                1562
            ], 
            "WBO": [
                2864, 
                2882, 
                2118, 
                3168, 
                1935, 
                485, 
                1004, 
                1669
            ], 
            "WBL": [
                269
            ], 
            "M1_ADJ": [
                1
            ]
        }, 
        "location1": [
            6
        ], 
        "location2": [
            10, 
            18
        ], 
        "sentence": "this mean that there is a good chance that this phone will not break easily like typical american phone ."
    }
}