{
    "83edcf9dbb7d04798873f0f20de79e03": {
        "(3, 0)": {
            "WBF": [
                2501
            ], 
            "M1": [
                656
            ], 
            "M2": [
                1320
            ], 
            "WBO": [
                1562
            ], 
            "WBL": [
                1562
            ], 
            "M1_ADJ": [
                0
            ]
        }, 
        "location1": [
            3
        ], 
        "location2": [
            0
        ], 
        "sentence": "color screen is good ."
    }, 
    "f1215750c4fec903ffd2520c9d49c960": {
        "(4, 7)": {
            "WBF": [
                275
            ], 
            "AM2L": [
                490
            ], 
            "BM1F": [
                3075
            ], 
            "M1": [
                1320
            ], 
            "M2": [
                656
            ], 
            "BM1L": [
                1562
            ], 
            "WBO": [
                2866
            ], 
            "WBL": [
                2866
            ], 
            "AM2F": [
                316
            ], 
            "M1_ADJ": [
                1
            ]
        }, 
        "location1": [
            4
        ], 
        "location2": [
            7
        ], 
        "sentence": "the resolution is very good and the color are bright and even changeable !"
    }, 
    "29ed127ae5b09fb6a770cea2c209ccf6": {
        "(9, 6)": {
            "WBF": [
                2501
            ], 
            "BM1F": [
                2866
            ], 
            "M1": [
                656
            ], 
            "M2": [
                1320
            ], 
            "BM1L": [
                275
            ], 
            "WBO": [
                1371
            ], 
            "WBL": [
                1371
            ], 
            "AM2F": [
                2420
            ], 
            "M1_ADJ": [
                0
            ]
        }, 
        "location1": [
            9
        ], 
        "location2": [
            6
        ], 
        "sentence": "the design is sleek and the color screen has good resolution ."
    }
}