{
    "c9d0d998766ff632aa6c28c85f4926f0": {
        "(10, 1)": {
            "WBF": [
                2336
            ], 
            "AM2L": [
                150
            ], 
            "BM1F": [
                2882
            ], 
            "M1": [
                2296
            ], 
            "M2": [
                1320
            ], 
            "WBO": [
                1142, 
                827, 
                2340, 
                522, 
                1935
            ], 
            "WBL": [
                325
            ], 
            "AM2F": [
                325
            ], 
            "M1_ADJ": [
                0
            ]
        }, 
        "(10, 28)": {
            "WBF": [
                325
            ], 
            "AM2L": [
                3191
            ], 
            "BM1F": [
                325
            ], 
            "M1": [
                1320
            ], 
            "M2": [
                2296
            ], 
            "BM1L": [
                1890
            ], 
            "WBO": [
                150, 
                1932, 
                2296, 
                522, 
                325, 
                1706, 
                325, 
                2866, 
                2725, 
                316, 
                668, 
                1490, 
                635, 
                2866
            ], 
            "WBL": [
                4
            ], 
            "AM2F": [
                2587
            ], 
            "M1_ADJ": [
                1
            ]
        }, 
        "sentence": "this radio receives fairly decent reception but not nearly as good as a normal radio , but as long as the station are coming in clearly the phone 's radio should work perfectly .", 
        "(10, 14)": {
            "WBF": [
                325
            ], 
            "AM2L": [
                325
            ], 
            "BM1F": [
                325
            ], 
            "M1": [
                1320
            ], 
            "M2": [
                2296
            ], 
            "BM1L": [
                1890
            ], 
            "WBO": [
                150
            ], 
            "WBL": [
                1932
            ], 
            "AM2F": [
                522
            ], 
            "M1_ADJ": [
                1
            ]
        }, 
        "location2": [
            1, 
            14, 
            28
        ], 
        "location1": [
            10
        ]
    }
}