{
    "1f9933726e41699013c87cc15f21a066": {
        "(11, 0)": {
            "WBF": [
                1562
            ], 
            "AM2L": [
                4
            ], 
            "M1": [
                2826
            ], 
            "M2": [
                1320
            ], 
            "WBO": [
                2964, 
                3075, 
                1363, 
                275, 
                222, 
                2875, 
                931
            ], 
            "WBL": [
                2220
            ], 
            "AM2F": [
                791
            ], 
            "M1_ADJ": [
                0
            ]
        }, 
        "location1": [
            11
        ], 
        "location2": [
            0
        ], 
        "sentence": "t-mobile is trying very hard , and again -- they do have pretty good csr 's ."
    }, 
    "464ae5e381f94d45fed8ae02ad5e7495": {
        "(16, 18)": {
            "AM2L": [
                2866
            ], 
            "WBFL": [
                325
            ], 
            "BM1F": [
                325
            ], 
            "M1": [
                1320
            ], 
            "M2": [
                2826
            ], 
            "BM1L": [
                1890
            ], 
            "AM2F": [
                4
            ], 
            "M1_ADJ": [
                1
            ]
        }, 
        "location1": [
            16
        ], 
        "location2": [
            18
        ], 
        "sentence": "i 'm staying with sprint , and though i fear that their csr is n't nearly as good as t-mobile 's , the clarity of their reception is exceptional ."
    }, 
    "d1de0c348ee15ec5bcf5d444ff8a78d8": {
        "(6, 3)": {
            "WBF": [
                1562
            ], 
            "BM1F": [
                1261
            ], 
            "M1": [
                2826
            ], 
            "M2": [
                1320
            ], 
            "BM1L": [
                2549
            ], 
            "WBO": [
                3075
            ], 
            "WBL": [
                3075
            ], 
            "AM2F": [
                2919
            ], 
            "M1_ADJ": [
                0
            ]
        }, 
        "location1": [
            6
        ], 
        "location2": [
            3
        ], 
        "sentence": "the service from t-mobile is very good too ."
    }, 
    "5f632c925abff8ea973237469d07a2aa": {
        "(5, 18)": {
            "WBF": [
                275
            ], 
            "AM2L": [
                3152
            ], 
            "BM1F": [
                3075
            ], 
            "M1": [
                1320
            ], 
            "M2": [
                2826
            ], 
            "BM1L": [
                1562
            ], 
            "WBO": [
                1566, 
                1298, 
                1333, 
                2340, 
                2864, 
                1562, 
                1490, 
                2147, 
                3149
            ], 
            "WBL": [
                1297
            ], 
            "AM2F": [
                767
            ], 
            "M1_ADJ": [
                1
            ]
        }, 
        "(24, 18)": {
            "WBF": [
                767
            ], 
            "AM2L": [
                429
            ], 
            "BM1F": [
                1297
            ], 
            "M1": [
                2826
            ], 
            "M2": [
                1320
            ], 
            "BM1L": [
                3229
            ], 
            "WBO": [
                3152, 
                1562
            ], 
            "WBL": [
                2864
            ], 
            "AM2F": [
                2518
            ], 
            "M1_ADJ": [
                0
            ]
        }, 
        "location1": [
            5, 
            24
        ], 
        "location2": [
            18
        ], 
        "sentence": "the voice quality is very good , and it gets great reception ( that is , in place where you get t-mobile coverage , which is not that good ; see below ) ."
    }, 
    "bad709d57055304005f6f24f865dccd3": {
        "(4, 0)": {
            "WBF": [
                3117
            ], 
            "M1": [
                2826
            ], 
            "M2": [
                1320
            ], 
            "WBO": [
                150
            ], 
            "WBL": [
                2220
            ], 
            "AM2F": [
                2548
            ], 
            "M1_ADJ": [
                0
            ]
        }, 
        "location1": [
            4
        ], 
        "location2": [
            0
        ], 
        "sentence": "t-mobile was a pretty good server ."
    }
}