{
    "3c8ffb554f238698530ef85279f9b51f": {
        "location1": [
            10
        ], 
        "location2": [
            2
        ], 
        "(10, 2)": {
            "WBF": [
                1971
            ], 
            "BM1F": [
                3097
            ], 
            "M1": [
                1659
            ], 
            "M2": [
                1320
            ], 
            "BM1L": [
                2866
            ], 
            "WBO": [
                2866, 
                2118, 
                1562, 
                1935
            ], 
            "WBL": [
                2864
            ], 
            "M1_ADJ": [
                0
            ]
        }, 
        "sentence": "the volume level of the phone is not all that good ."
    }
}