{
    "2d9f1d8d7f3c3a79a868f38dccd16782": {
        "location1": [
            3
        ], 
        "location2": [
            9
        ], 
        "(3, 9)": {
            "WBF": [
                3181
            ], 
            "AM2L": [
                1551
            ], 
            "BM1F": [
                1562
            ], 
            "M1": [
                1320
            ], 
            "M2": [
                1163
            ], 
            "BM1L": [
                2118
            ], 
            "WBO": [
                150, 
                1446
            ], 
            "WBL": [
                1971
            ], 
            "AM2F": [
                508
            ], 
            "M1_ADJ": [
                1
            ]
        }, 
        "sentence": "this phone is good with a huge array of feature built into it ."
    }, 
    "867e0d28796d18caa886b83e1e446570": {
        "(9, 7)": {
            "AM2L": [
                2281
            ], 
            "WBFL": [
                3143
            ], 
            "BM1F": [
                2192
            ], 
            "M1": [
                1163
            ], 
            "M2": [
                1320
            ], 
            "BM1L": [
                2866
            ], 
            "AM2F": [
                2676
            ], 
            "M1_ADJ": [
                0
            ]
        }, 
        "location1": [
            9
        ], 
        "location2": [
            7
        ], 
        "sentence": "while i had the phone , the positive feature were : good sound quality and an excellent fm phone and earpiece ."
    }
}