{
    "5f632c925abff8ea973237469d07a2aa": {
        "(5, 14)": {
            "WBF": [
                275
            ], 
            "AM2L": [
                3229
            ], 
            "BM1F": [
                3075
            ], 
            "M1": [
                1320
            ], 
            "M2": [
                2147
            ], 
            "BM1L": [
                1562
            ], 
            "WBO": [
                1566, 
                1298, 
                1333, 
                2340, 
                2864
            ], 
            "WBL": [
                1490
            ], 
            "AM2F": [
                3149
            ], 
            "M1_ADJ": [
                1
            ]
        }, 
        "location1": [
            5, 
            24
        ], 
        "location2": [
            14
        ], 
        "(24, 14)": {
            "WBF": [
                3149
            ], 
            "AM2L": [
                429
            ], 
            "BM1F": [
                1490
            ], 
            "M1": [
                2147
            ], 
            "M2": [
                1320
            ], 
            "BM1L": [
                1562
            ], 
            "WBO": [
                3229, 
                1297, 
                2826, 
                767, 
                3152, 
                1562
            ], 
            "WBL": [
                2864
            ], 
            "AM2F": [
                2518
            ], 
            "M1_ADJ": [
                0
            ]
        }, 
        "sentence": "the voice quality is very good , and it gets great reception ( that is , in place where you get t-mobile coverage , which is not that good ; see below ) ."
    }
}