{
    "f1215750c4fec903ffd2520c9d49c960": {
        "(4, 1)": {
            "WBF": [
                1562
            ], 
            "AM2L": [
                2866
            ], 
            "BM1F": [
                2866
            ], 
            "M1": [
                2420
            ], 
            "M2": [
                1320
            ], 
            "WBO": [
                3075
            ], 
            "WBL": [
                3075
            ], 
            "AM2F": [
                275
            ], 
            "M1_ADJ": [
                0
            ]
        }, 
        "location1": [
            4
        ], 
        "location2": [
            1
        ], 
        "sentence": "the resolution is very good and the color are bright and even changeable !"
    }, 
    "29ed127ae5b09fb6a770cea2c209ccf6": {
        "(9, 10)": {
            "BM1F": [
                1371
            ], 
            "M1": [
                1320
            ], 
            "M2": [
                2420
            ], 
            "BM1L": [
                2501
            ], 
            "WBNULL": [
                1
            ], 
            "M1_ADJ": [
                1
            ]
        }, 
        "location1": [
            9
        ], 
        "location2": [
            10
        ], 
        "sentence": "the design is sleek and the color screen has good resolution ."
    }
}