{
    "bc412b771cb33944aaf00912480e5a71": {
        "(2, 8)": {
            "WBF": [
                400
            ], 
            "AM2L": [
                1250
            ], 
            "BM1F": [
                1371
            ], 
            "M1": [
                1333
            ], 
            "M2": [
                2598
            ], 
            "BM1L": [
                1566
            ], 
            "WBO": [
                1664, 
                1221
            ], 
            "WBL": [
                1092
            ], 
            "AM2F": [
                1351
            ], 
            "M1_ADJ": [
                1
            ]
        }, 
        "location1": [
            2
        ], 
        "location2": [
            8
        ], 
        "sentence": "it has great battery life , fm radio , excellent signal , hand free speakerphone ( which i have to say is probably my favorite function ) and downloadable java apps ."
    }, 
    "4e3e16c7d6dc2759d671c13215fece25": {
        "(13, 9)": {
            "WBF": [
                2281
            ], 
            "AM2L": [
                2866
            ], 
            "BM1F": [
                2866
            ], 
            "M1": [
                2598
            ], 
            "M2": [
                1333
            ], 
            "BM1L": [
                3133
            ], 
            "WBO": [
                1371
            ], 
            "WBL": [
                413
            ], 
            "AM2F": [
                1490
            ], 
            "M1_ADJ": [
                0
            ]
        }, 
        "(13, 34)": {
            "WBF": [
                1490
            ], 
            "AM2L": [
                2340
            ], 
            "BM1F": [
                413
            ], 
            "M1": [
                1333
            ], 
            "M2": [
                2598
            ], 
            "BM1L": [
                1371
            ], 
            "WBO": [
                2866, 
                875, 
                317, 
                2778, 
                275, 
                1490, 
                1878, 
                2338, 
                2458, 
                2957, 
                437, 
                875, 
                275, 
                1934, 
                1598, 
                623, 
                1449
            ], 
            "WBL": [
                2104
            ], 
            "AM2F": [
                275
            ], 
            "M1_ADJ": [
                1
            ]
        }, 
        "location1": [
            13
        ], 
        "location2": [
            9, 
            34
        ], 
        "sentence": "i have had the phone for 1 week , the signal quality has been great in the detroit area ( suburb ) and in my recent road trip between detroit and northern kentucky ( cincinnati ) i experienced perfect signal and reception along i-75 , far superior to at & # 38 ; t 's which does not work along several long stretch on that same route ."
    }
}