{
    "2ba94a2d6897c0dc29eaf3f1c90562af": {
        "(18, 3)": {
            "WBF": [
                1971
            ], 
            "AM2L": [
                537
            ], 
            "BM1F": [
                150
            ], 
            "M1": [
                2916
            ], 
            "M2": [
                1333
            ], 
            "BM1L": [
                882
            ], 
            "WBO": [
                2415, 
                275, 
                2553, 
                1987, 
                2882, 
                2118, 
                407, 
                1971, 
                2866, 
                2637, 
                2617
            ], 
            "WBL": [
                2017
            ], 
            "AM2F": [
                2227
            ], 
            "M1_ADJ": [
                0
            ]
        }, 
        "location1": [
            18
        ], 
        "location2": [
            3
        ], 
        "sentence": "i did a ton of research and settled on this phone because of the small size , speakerphone option , great priced calling plan and access to my corporate email ."
    }
}