{
    "9b759b22613ccb3d5a5909c5cd771409": {
        "(2, 13)": {
            "WBF": [
                325
            ], 
            "AM2L": [
                316
            ], 
            "BM1F": [
                1562
            ], 
            "M1": [
                1333
            ], 
            "M2": [
                599
            ], 
            "BM1L": [
                2549
            ], 
            "WBO": [
                1154, 
                325, 
                1449, 
                543, 
                2853, 
                1163, 
                3191
            ], 
            "WBL": [
                150
            ], 
            "AM2F": [
                2452
            ], 
            "M1_ADJ": [
                1
            ]
        }, 
        "(27, 13)": {
            "WBF": [
                2452
            ], 
            "BM1F": [
                150
            ], 
            "M1": [
                599
            ], 
            "M2": [
                1333
            ], 
            "BM1L": [
                1669
            ], 
            "WBO": [
                316, 
                1407, 
                2281, 
                1463, 
                3229, 
                524, 
                2869, 
                1261, 
                2826, 
                275
            ], 
            "WBL": [
                1562
            ], 
            "M1_ADJ": [
                0
            ]
        }, 
        "location1": [
            2, 
            27
        ], 
        "location2": [
            13
        ], 
        "sentence": "service is great as far as i can tell , feature work like a charm , ringtones are high quality if you buy them from t-mobile and aim is great ."
    }
}