{
    "0640603a2170d71444627f4f433fd0bd": {
        "(19, 30)": {
            "WBF": [
                2118
            ], 
            "BM1F": [
                150
            ], 
            "M1": [
                1333
            ], 
            "M2": [
                481
            ], 
            "BM1L": [
                1562
            ], 
            "WBO": [
                1815, 
                3193, 
                3183, 
                286, 
                2236, 
                2447, 
                2037
            ], 
            "WBL": [
                2866
            ], 
            "M1_ADJ": [
                1
            ]
        }, 
        "location1": [
            19
        ], 
        "location2": [
            30
        ], 
        "sentence": "there is much which has been said in other review about the feature of this phone , it is a great phone , mine worked without any problem right out of the box ."
    }
}