{
    "dc8970a7ae3535e224c0efcde6cdc284": {
        "location1": [
            35
        ], 
        "location2": [
            17
        ], 
        "(35, 17)": {
            "WBF": [
                1221
            ], 
            "AM2L": [
                711
            ], 
            "BM1F": [
                3181
            ], 
            "M1": [
                2646
            ], 
            "M2": [
                1411
            ], 
            "BM1L": [
                639
            ], 
            "WBO": [
                2296, 
                3123, 
                744, 
                1075, 
                1463, 
                1566, 
                1562, 
                1591, 
                2890, 
                273, 
                993, 
                1284, 
                1575, 
                309
            ], 
            "WBL": [
                1324
            ], 
            "AM2F": [
                1549
            ], 
            "M1_ADJ": [
                0
            ]
        }, 
        "sentence": "the phone also sport an image gallery ( with option camera attachment ) , a calendar / organizer , alarm clock with snooze , fm radio ( way cool , even if it is just through an ear-peice ) , game , java application and gprs high-speed internet connection ."
    }
}