{
    "42f9a3d24c13151b0c3eee5b5a85dd48": {
        "(6, 7)": {
            "AM2L": [
                4
            ], 
            "BM1F": [
                2936
            ], 
            "M1": [
                1600
            ], 
            "M2": [
                320
            ], 
            "BM1L": [
                2866
            ], 
            "WBNULL": [
                1
            ], 
            "AM2F": [
                1566
            ], 
            "M1_ADJ": [
                1
            ]
        }, 
        "location1": [
            6
        ], 
        "location2": [
            7
        ], 
        "sentence": "this model does have the traditional key arrangement , it 's just that they are really close to one another , and have unconventional shape , so it takes a big getting used to for someone like me with big hand ."
    }
}