{
    "88b9aa2d53178b2ce98e7c56d5c5e0d8": {
        "(5, 19)": {
            "WBF": [
                1562
            ], 
            "AM2L": [
                2866
            ], 
            "BM1F": [
                7
            ], 
            "M1": [
                1600
            ], 
            "M2": [
                2118
            ], 
            "BM1L": [
                2866
            ], 
            "WBO": [
                2866, 
                2682, 
                1600, 
                1232, 
                2861, 
                1521, 
                1562, 
                150, 
                444, 
                707
            ], 
            "WBL": [
                1758
            ], 
            "AM2F": [
                3041
            ], 
            "M1_ADJ": [
                1
            ]
        }, 
        "sentence": "the fact that the `` 0 `` key is the space key for text input is a bit confusing , as many phone use the `` # `` key instead .", 
        "location2": [
            19
        ], 
        "location1": [
            5, 
            9, 
            22
        ], 
        "(22, 19)": {
            "WBF": [
                3041
            ], 
            "BM1F": [
                1758
            ], 
            "M1": [
                2118
            ], 
            "M2": [
                1600
            ], 
            "BM1L": [
                325
            ], 
            "WBO": [
                2866
            ], 
            "WBL": [
                2866
            ], 
            "AM2F": [
                1535
            ], 
            "M1_ADJ": [
                0
            ]
        }, 
        "(9, 19)": {
            "WBF": [
                1232
            ], 
            "AM2L": [
                2866
            ], 
            "BM1F": [
                2682
            ], 
            "M1": [
                1600
            ], 
            "M2": [
                2118
            ], 
            "BM1L": [
                2866
            ], 
            "WBO": [
                2861, 
                1521, 
                1562, 
                150, 
                444, 
                707
            ], 
            "WBL": [
                1758
            ], 
            "AM2F": [
                3041
            ], 
            "M1_ADJ": [
                1
            ]
        }
    }
}