{
    "88b9aa2d53178b2ce98e7c56d5c5e0d8": {
        "sentence": "the fact that the `` 0 `` key is the space key for text input is a bit confusing , as many phone use the `` # `` key instead .", 
        "location2": [
            8
        ], 
        "location1": [
            5, 
            9, 
            22
        ], 
        "(9, 8)": {
            "AM2L": [
                2861
            ], 
            "BM1F": [
                2866
            ], 
            "M1": [
                2682
            ], 
            "M2": [
                1600
            ], 
            "BM1L": [
                1562
            ], 
            "WBNULL": [
                1
            ], 
            "AM2F": [
                1232
            ], 
            "M1_ADJ": [
                0
            ]
        }, 
        "(5, 8)": {
            "WBF": [
                1562
            ], 
            "AM2L": [
                1232
            ], 
            "BM1F": [
                7
            ], 
            "M1": [
                1600
            ], 
            "M2": [
                2682
            ], 
            "BM1L": [
                2866
            ], 
            "WBO": [
                2866
            ], 
            "WBL": [
                2866
            ], 
            "AM2F": [
                1600
            ], 
            "M1_ADJ": [
                1
            ]
        }, 
        "(22, 8)": {
            "WBF": [
                1600
            ], 
            "BM1F": [
                2866
            ], 
            "M1": [
                2682
            ], 
            "M2": [
                1600
            ], 
            "BM1L": [
                1562
            ], 
            "WBO": [
                1232, 
                2861, 
                1521, 
                1562, 
                150, 
                444, 
                707, 
                325, 
                1758, 
                2118
            ], 
            "WBL": [
                2866
            ], 
            "AM2F": [
                1535
            ], 
            "M1_ADJ": [
                0
            ]
        }
    }
}