{
    "8c8bbd4a1f9a38c0933fcbd3803b117e": {
        "location1": [
            1
        ], 
        "location2": [
            13
        ], 
        "(1, 13)": {
            "WBF": [
                316
            ], 
            "AM2L": [
                2716
            ], 
            "BM1F": [
                2866
            ], 
            "M1": [
                1600
            ], 
            "M2": [
                2374
            ], 
            "WBO": [
                640, 
                2912, 
                275, 
                2866, 
                1635, 
                1562, 
                150, 
                444
            ], 
            "WBL": [
                1490
            ], 
            "AM2F": [
                2909
            ], 
            "M1_ADJ": [
                1
            ]
        }, 
        "sentence": "the key are close together , and the layout is a bit funky in relation to standard rectangular layout keypad , but it 's not too weird ."
    }
}