{
    "c803c17bfceefa2bdbade542c896cde8": {
        "(6, 32)": {
            "WBF": [
                2582
            ], 
            "BM1F": [
                150
            ], 
            "M1": [
                1690
            ], 
            "M2": [
                2851
            ], 
            "BM1L": [
                1562
            ], 
            "WBO": [
                1987, 
                2866, 
                1163, 
                855, 
                1566, 
                1562, 
                273, 
                2043, 
                2136, 
                1971, 
                1368, 
                1232, 
                938, 
                3144, 
                1566, 
                3117, 
                2229, 
                1775, 
                2909, 
                931, 
                2909, 
                402
            ], 
            "WBL": [
                3178
            ], 
            "M1_ADJ": [
                1
            ]
        }, 
        "location1": [
            6
        ], 
        "location2": [
            32
        ], 
        "sentence": "although the nokia 6610 is a little short on the feature department , it is an outstanding piece of hardware for doing what it was primarily meant to do : to be a wireless telephone ."
    }
}