{
    "8b4057f457380127479d55edc7268abf": {
        "(8, 3)": {
            "WBF": [
                275
            ], 
            "BM1F": [
                2866
            ], 
            "M1": [
                2617
            ], 
            "M2": [
                1690
            ], 
            "BM1L": [
                1669
            ], 
            "WBO": [
                3135
            ], 
            "WBL": [
                2882
            ], 
            "AM2F": [
                789
            ], 
            "M1_ADJ": [
                0
            ]
        }, 
        "location1": [
            8
        ], 
        "location2": [
            3
        ], 
        "sentence": "i like the size and weight of this little critter ."
    }
}