{
    "cb73b87bc53d6be47ba62c64c5eefff1": {
        "(15, 16)": {
            "AM2L": [
                1348
            ], 
            "BM1F": [
                3075
            ], 
            "M1": [
                1690
            ], 
            "M2": [
                1792
            ], 
            "BM1L": [
                1371
            ], 
            "WBNULL": [
                1
            ], 
            "AM2F": [
                1815
            ], 
            "M1_ADJ": [
                1
            ]
        }, 
        "location1": [
            15
        ], 
        "location2": [
            16
        ], 
        "sentence": "the phone comes with okay ringtones , some decent background / screensavers , but the phone has very little memory ( mine had 230kb as it arrived from amazon , so you do n't have too many option on what you can put on there ) ."
    }
}