{
    "cb73b87bc53d6be47ba62c64c5eefff1": {
        "(15, 8)": {
            "WBF": [
                2503
            ], 
            "AM2L": [
                1815
            ], 
            "BM1F": [
                827
            ], 
            "M1": [
                378
            ], 
            "M2": [
                1690
            ], 
            "BM1L": [
                2659
            ], 
            "WBO": [
                522, 
                2866, 
                2118
            ], 
            "WBL": [
                3075
            ], 
            "AM2F": [
                1792
            ], 
            "M1_ADJ": [
                0
            ]
        }, 
        "location1": [
            15
        ], 
        "location2": [
            8
        ], 
        "sentence": "the phone comes with okay ringtones , some decent background / screensavers , but the phone has very little memory ( mine had 230kb as it arrived from amazon , so you do n't have too many option on what you can put on there ) ."
    }
}