{
    "c803c17bfceefa2bdbade542c896cde8": {
        "location1": [
            6
        ], 
        "location2": [
            16
        ], 
        "(6, 16)": {
            "WBF": [
                2582
            ], 
            "AM2L": [
                1368
            ], 
            "BM1F": [
                150
            ], 
            "M1": [
                1690
            ], 
            "M2": [
                2136
            ], 
            "BM1L": [
                1562
            ], 
            "WBO": [
                1987, 
                2866, 
                1163, 
                855, 
                1566, 
                1562
            ], 
            "WBL": [
                2043
            ], 
            "AM2F": [
                1971
            ], 
            "M1_ADJ": [
                1
            ]
        }, 
        "sentence": "although the nokia 6610 is a little short on the feature department , it is an outstanding piece of hardware for doing what it was primarily meant to do : to be a wireless telephone ."
    }
}