{
    "0774bbf5a1f65c236eec818161d3b56d": {
        "(7, 15)": {
            "WBF": [
                1655
            ], 
            "AM2L": [
                325
            ], 
            "BM1F": [
                150
            ], 
            "M1": [
                1690
            ], 
            "M2": [
                1664
            ], 
            "BM1L": [
                2118
            ], 
            "WBO": [
                2862, 
                74, 
                2061, 
                3181
            ], 
            "WBL": [
                400
            ], 
            "AM2F": [
                1935
            ], 
            "M1_ADJ": [
                1
            ]
        }, 
        "location1": [
            7
        ], 
        "location2": [
            15
        ], 
        "sentence": "this is a very light phone - a little less than 3 oz , with long battery life ( not as long as the new polymer technology ) ."
    }
}