{
    "ceb0982ee639d31ed4e5f43a46e69336": {
        "(4, 11)": {
            "WBF": [
                2733
            ], 
            "AM2L": [
                1810
            ], 
            "BM1F": [
                150
            ], 
            "M1": [
                1690
            ], 
            "M2": [
                1606
            ], 
            "BM1L": [
                2520
            ], 
            "WBO": [
                2883, 
                275, 
                2866
            ], 
            "WBL": [
                1250
            ], 
            "AM2F": [
                712
            ], 
            "M1_ADJ": [
                1
            ]
        }, 
        "location1": [
            4
        ], 
        "location2": [
            11
        ], 
        "sentence": "button do seem a little sticky tho .. and the hand free kit ' connector might be a problem .."
    }
}