{
    "c67d6bcd1ecc6effe34a9f8354eddaa0": {
        "(5, 18)": {
            "WBF": [
                1497
            ], 
            "AM2L": [
                2873
            ], 
            "BM1F": [
                1171
            ], 
            "M1": [
                1819
            ], 
            "M2": [
                1549
            ], 
            "BM1L": [
                150
            ], 
            "WBO": [
                522, 
                1999, 
                407, 
                1566, 
                1616, 
                2884, 
                1163, 
                459, 
                275
            ], 
            "WBL": [
                2698
            ], 
            "AM2F": [
                522
            ], 
            "M1_ADJ": [
                1
            ]
        }, 
        "location1": [
            5
        ], 
        "location2": [
            18
        ], 
        "sentence": "the phone has a few minor inconvenience , but only because it lack those feature , bluetooth and high spend internet , but there are very few problem with thing that you expected this phone to do ."
    }
}