{
    "7d7d4d07552660b8043027100c94a48d": {
        "(3, 18)": {
            "WBF": [
                1271
            ], 
            "BM1F": [
                1371
            ], 
            "M1": [
                1851
            ], 
            "M2": [
                741
            ], 
            "BM1L": [
                1566
            ], 
            "WBO": [
                2764, 
                1669, 
                1851, 
                2918, 
                3107, 
                2502, 
                2740, 
                639, 
                235, 
                1575, 
                309
            ], 
            "WBL": [
                794
            ], 
            "AM2F": [
                1074
            ], 
            "M1_ADJ": [
                1
            ]
        }, 
        "location1": [
            3, 
            7
        ], 
        "location2": [
            18
        ], 
        "(7, 18)": {
            "WBF": [
                2918
            ], 
            "BM1F": [
                1669
            ], 
            "M1": [
                1851
            ], 
            "M2": [
                741
            ], 
            "BM1L": [
                2764
            ], 
            "WBO": [
                3107, 
                2502, 
                2740, 
                639, 
                235, 
                1575, 
                309
            ], 
            "WBL": [
                794
            ], 
            "AM2F": [
                1074
            ], 
            "M1_ADJ": [
                1
            ]
        }, 
        "sentence": "additionally , it has more fun stuff like more tone , wallpaper , screensaver , stop clock , alarm , java application ( chess , currency converter etc . )"
    }
}