{
    "7d7d4d07552660b8043027100c94a48d": {
        "(7, 12)": {
            "WBF": [
                2918
            ], 
            "AM2L": [
                1575
            ], 
            "BM1F": [
                1669
            ], 
            "M1": [
                1851
            ], 
            "M2": [
                639
            ], 
            "BM1L": [
                2764
            ], 
            "WBO": [
                3107
            ], 
            "WBL": [
                2740
            ], 
            "AM2F": [
                235
            ], 
            "M1_ADJ": [
                1
            ]
        }, 
        "(3, 12)": {
            "WBF": [
                1271
            ], 
            "AM2L": [
                1575
            ], 
            "BM1F": [
                1371
            ], 
            "M1": [
                1851
            ], 
            "M2": [
                639
            ], 
            "BM1L": [
                1566
            ], 
            "WBO": [
                2764, 
                1669, 
                1851, 
                2918, 
                3107
            ], 
            "WBL": [
                2740
            ], 
            "AM2F": [
                235
            ], 
            "M1_ADJ": [
                1
            ]
        }, 
        "location1": [
            3, 
            7
        ], 
        "location2": [
            12
        ], 
        "sentence": "additionally , it has more fun stuff like more tone , wallpaper , screensaver , stop clock , alarm , java application ( chess , currency converter etc . )"
    }
}