{
    "147682229af074d2520a07e45499562b": {
        "location1": [
            1
        ], 
        "location2": [
            15
        ], 
        "(1, 15)": {
            "WBF": [
                2777
            ], 
            "BM1F": [
                2866
            ], 
            "M1": [
                1851
            ], 
            "M2": [
                2901
            ], 
            "WBO": [
                2918, 
                2864, 
                3143, 
                1496, 
                3181, 
                2866, 
                2118, 
                316, 
                1363, 
                2909
            ], 
            "WBL": [
                337
            ], 
            "M1_ADJ": [
                1
            ]
        }, 
        "sentence": "the more subtle tone that were included with the phone are hard to hear at time ."
    }
}