{
    "0774bbf5a1f65c236eec818161d3b56d": {
        "location1": [
            21
        ], 
        "location2": [
            15
        ], 
        "(21, 15)": {
            "WBF": [
                1935
            ], 
            "AM2L": [
                2850
            ], 
            "BM1F": [
                400
            ], 
            "M1": [
                1664
            ], 
            "M2": [
                1903
            ], 
            "BM1L": [
                1706
            ], 
            "WBO": [
                325, 
                1706
            ], 
            "WBL": [
                2866
            ], 
            "AM2F": [
                2176
            ], 
            "M1_ADJ": [
                0
            ]
        }, 
        "sentence": "this is a very light phone - a little less than 3 oz , with long battery life ( not as long as the new polymer technology ) ."
    }
}