{
    "b7fe89c7512fb83bb17ebeaa6b53d631": {
        "(3, 8)": {
            "WBF": [
                1833
            ], 
            "BM1F": [
                3075
            ], 
            "M1": [
                1907
            ], 
            "M2": [
                1341
            ], 
            "BM1L": [
                2336
            ], 
            "WBO": [
                2133
            ], 
            "WBL": [
                2032
            ], 
            "AM2F": [
                2118
            ], 
            "M1_ADJ": [
                1
            ]
        }, 
        "location1": [
            3
        ], 
        "location2": [
            8
        ], 
        "sentence": "it receives very nice mms picture from other gsm phone ."
    }
}