{
    "c63b814a0a679b601fcf858056f31723": {
        "location1": [
            6
        ], 
        "location2": [
            14
        ], 
        "(6, 14)": {
            "WBF": [
                1120
            ], 
            "BM1F": [
                2659
            ], 
            "M1": [
                1907
            ], 
            "M2": [
                2746
            ], 
            "BM1L": [
                1371
            ], 
            "WBO": [
                1163, 
                1669, 
                794, 
                741
            ], 
            "WBL": [
                150
            ], 
            "M1_ADJ": [
                1
            ]
        }, 
        "sentence": "speakerphone - loud and clear has some nice extra feature like currency converter and a stopwatch ."
    }
}