{
    "e52d5fd102dc709b3e64330ff8edc1b0": {
        "location1": [
            26
        ], 
        "location2": [
            13
        ], 
        "(26, 13)": {
            "WBF": [
                2909
            ], 
            "BM1F": [
                3181
            ], 
            "M1": [
                628
            ], 
            "M2": [
                1912
            ], 
            "BM1L": [
                364
            ], 
            "WBO": [
                2866, 
                950, 
                2175, 
                1789, 
                2864, 
                201, 
                150, 
                2113, 
                2928
            ], 
            "WBL": [
                2882
            ], 
            "AM2F": [
                2118
            ], 
            "M1_ADJ": [
                0
            ]
        }, 
        "sentence": "from the speakerphone that can be used up to 15 foot away with clarity , to the downloadable poly-graphic megatones that adds a personal touch to this nifty phone ."
    }
}