{
    "38ea99941efb67acbdadb452537a05bc": {
        "(14, 20)": {
            "WBF": [
                1163
            ], 
            "BM1F": [
                2866
            ], 
            "M1": [
                2032
            ], 
            "M2": [
                2583
            ], 
            "BM1L": [
                522
            ], 
            "WBO": [
                1566, 
                2064
            ], 
            "WBL": [
                2882
            ], 
            "M1_ADJ": [
                1
            ]
        }, 
        "location1": [
            14
        ], 
        "location2": [
            20
        ], 
        "sentence": "unfortunately , the 6610 does not offer voice dialing like my previous phone , but the other feature it pack outweighs this shortcoming ."
    }
}