{
    "0640603a2170d71444627f4f433fd0bd": {
        "(8, 25)": {
            "WBF": [
                2438
            ], 
            "AM2L": [
                2037
            ], 
            "BM1F": [
                1490
            ], 
            "M1": [
                2032
            ], 
            "M2": [
                2236
            ], 
            "BM1L": [
                2476
            ], 
            "WBO": [
                154, 
                2866, 
                1163, 
                1971, 
                2882, 
                2118, 
                1566, 
                1562, 
                150, 
                1333, 
                2118, 
                1815, 
                3193
            ], 
            "WBL": [
                286
            ], 
            "AM2F": [
                2447
            ], 
            "M1_ADJ": [
                1
            ]
        }, 
        "location1": [
            8
        ], 
        "location2": [
            25
        ], 
        "sentence": "there is much which has been said in other review about the feature of this phone , it is a great phone , mine worked without any problem right out of the box ."
    }
}