{
    "5951baa50c5670e7c4fcac86438fba32": {
        "(1, 6)": {
            "WBF": [
                656
            ], 
            "AM2L": [
                1163
            ], 
            "BM1F": [
                1917
            ], 
            "M1": [
                2032
            ], 
            "M2": [
                659
            ], 
            "WBO": [
                2118
            ], 
            "WBL": [
                2866
            ], 
            "AM2F": [
                1971
            ], 
            "M1_ADJ": [
                1
            ]
        }, 
        "location1": [
            1
        ], 
        "location2": [
            6
        ], 
        "sentence": "no other color phone has the combination of feature that the 6610 offer ."
    }
}