{
    "8ea22abcafee5d8784ac48d7824ecab7": {
        "(11, 8)": {
            "WBF": [
                2875
            ], 
            "BM1F": [
                1449
            ], 
            "M1": [
                1793
            ], 
            "M2": [
                2177
            ], 
            "BM1L": [
                882
            ], 
            "WBO": [
                3143
            ], 
            "WBL": [
                3143
            ], 
            "M1_ADJ": [
                0
            ]
        }, 
        "location1": [
            11
        ], 
        "location2": [
            8
        ], 
        "sentence": "the ringtones included are awesome , and did i mention they were polyphonic ?"
    }
}