{
    "d36bdc5dfa57c2ffcd3b26042b66d2e6": {
        "location1": [
            2
        ], 
        "location2": [
            20
        ], 
        "(2, 20)": {
            "WBF": [
                2451
            ], 
            "AM2L": [
                3229
            ], 
            "BM1F": [
                1092
            ], 
            "M1": [
                2177
            ], 
            "M2": [
                1163
            ], 
            "BM1L": [
                2676
            ], 
            "WBO": [
                2918, 
                316, 
                3075, 
                1907, 
                605, 
                695, 
                1566, 
                254, 
                943, 
                325, 
                150, 
                2296, 
                3152, 
                1562
            ], 
            "WBL": [
                1907
            ], 
            "AM2F": [
                3147
            ], 
            "M1_ADJ": [
                1
            ]
        }, 
        "sentence": "sound - excellent polyphonic ringing tone are very nice ( check con ) it also double as a radio , which is a nice feature when you are bored ."
    }
}