{
    "dc93b572e66d7cee8d1301ab1059f27f": {
        "location1": [
            18
        ], 
        "location2": [
            20
        ], 
        "(18, 20)": {
            "AM2L": [
                3075
            ], 
            "WBFL": [
                1072
            ], 
            "BM1F": [
                1831
            ], 
            "M1": [
                2322
            ], 
            "M2": [
                498
            ], 
            "BM1L": [
                166
            ], 
            "AM2F": [
                2653
            ], 
            "M1_ADJ": [
                1
            ]
        }, 
        "sentence": "the only problem that i have found with the internet service is that it does not access mls ( real estate broker software ) very well at all ."
    }
}