{
    "9d0740971a20ab06bf942f4cdc6c18bf": {
        "(6, 9)": {
            "WBF": [
                275
            ], 
            "BM1F": [
                150
            ], 
            "M1": [
                2622
            ], 
            "M2": [
                1387
            ], 
            "BM1L": [
                3181
            ], 
            "WBO": [
                2205
            ], 
            "WBL": [
                2205
            ], 
            "M1_ADJ": [
                1
            ]
        }, 
        "location1": [
            6
        ], 
        "location2": [
            9
        ], 
        "sentence": "in addition it comes with a sleek and powerful headset ."
    }
}