{
    "f18154e30404fb3775505cae4d99fcb0": {
        "location1": [
            5
        ], 
        "location2": [
            22
        ], 
        "(5, 22)": {
            "WBF": [
                2909
            ], 
            "AM2L": [
                3152
            ], 
            "BM1F": [
                2831
            ], 
            "M1": [
                2637
            ], 
            "M2": [
                1356
            ], 
            "BM1L": [
                150
            ], 
            "WBO": [
                1424, 
                2909, 
                3230, 
                992, 
                3181, 
                3230, 
                2588, 
                522, 
                2864, 
                1562, 
                2658, 
                3181, 
                2866
            ], 
            "WBL": [
                665
            ], 
            "AM2F": [
                994
            ], 
            "M1_ADJ": [
                1
            ]
        }, 
        "sentence": "it is just a tad small to hold to your ear with your shoulder , but that is solved with the very comfortable handsfree ear-piece which is included ."
    }
}