{
    "86fbc0120dc9e7b25d672355dc9d3046": {
        "(16, 7)": {
            "WBF": [
                3229
            ], 
            "AM2L": [
                1981
            ], 
            "BM1F": [
                3230
            ], 
            "M1": [
                2171
            ], 
            "M2": [
                2637
            ], 
            "BM1L": [
                1490
            ], 
            "WBO": [
                1235, 
                1566, 
                1562, 
                2873, 
                1566
            ], 
            "WBL": [
                2990
            ], 
            "AM2F": [
                275
            ], 
            "M1_ADJ": [
                0
            ]
        }, 
        "location1": [
            16
        ], 
        "location2": [
            7
        ], 
        "sentence": "when you put this phone in your pocket you forget it is there ; it is unbelievably small and oh , so light ."
    }, 
    "fe5fec6558b2e30fcb5d27fdc47570d2": {
        "location1": [
            2
        ], 
        "location2": [
            9
        ], 
        "(2, 9)": {
            "WBF": [
                275
            ], 
            "AM2L": [
                1935
            ], 
            "BM1F": [
                1123
            ], 
            "M1": [
                2637
            ], 
            "M2": [
                2171
            ], 
            "BM1L": [
                2617
            ], 
            "WBO": [
                738, 
                3168, 
                1201
            ], 
            "WBL": [
                3230
            ], 
            "AM2F": [
                275
            ], 
            "M1_ADJ": [
                1
            ]
        }, 
        "sentence": "size - extremely small and convenient will fit in your pocket and not bother you ."
    }, 
    "2701b1794a0ea76ecda5d225153a920e": {
        "location1": [
            6
        ], 
        "location2": [
            14
        ], 
        "(6, 14)": {
            "WBF": [
                2650
            ], 
            "BM1F": [
                402
            ], 
            "M1": [
                2637
            ], 
            "M2": [
                2171
            ], 
            "BM1L": [
                2909
            ], 
            "WBO": [
                1449, 
                543, 
                1201, 
                1566
            ], 
            "WBL": [
                1878
            ], 
            "M1_ADJ": [
                1
            ]
        }, 
        "sentence": "i like my phone to be small so i can fit it in my pocket ."
    }
}