{
    "7aba4051c00fd6801f9538e897377aed": {
        "(12, 5)": {
            "WBF": [
                522
            ], 
            "AM2L": [
                890
            ], 
            "BM1F": [
                827
            ], 
            "M1": [
                2617
            ], 
            "M2": [
                2637
            ], 
            "BM1L": [
                150
            ], 
            "WBO": [
                2866, 
                2203, 
                1991
            ], 
            "WBL": [
                1562
            ], 
            "AM2F": [
                275
            ], 
            "M1_ADJ": [
                0
            ]
        }, 
        "location1": [
            12
        ], 
        "location2": [
            5
        ], 
        "sentence": "the keypad is a decent size , but the power on/off key is small and difficult to press ."
    }, 
    "fe5fec6558b2e30fcb5d27fdc47570d2": {
        "(2, 0)": {
            "AM2L": [
                738
            ], 
            "WBFL": [
                1123
            ], 
            "M1": [
                2617
            ], 
            "M2": [
                2637
            ], 
            "AM2F": [
                275
            ], 
            "M1_ADJ": [
                0
            ]
        }, 
        "location1": [
            2
        ], 
        "location2": [
            0
        ], 
        "sentence": "size - extremely small and convenient will fit in your pocket and not bother you ."
    }, 
    "2ba94a2d6897c0dc29eaf3f1c90562af": {
        "location1": [
            14
        ], 
        "location2": [
            15
        ], 
        "(14, 15)": {
            "AM2L": [
                2017
            ], 
            "BM1F": [
                2866
            ], 
            "M1": [
                2637
            ], 
            "M2": [
                2617
            ], 
            "BM1L": [
                1971
            ], 
            "WBNULL": [
                1
            ], 
            "AM2F": [
                2688
            ], 
            "M1_ADJ": [
                1
            ]
        }, 
        "sentence": "i did a ton of research and settled on this phone because of the small size , speakerphone option , great priced calling plan and access to my corporate email ."
    }, 
    "13e3ad521538757c809d312f2b720148": {
        "(9, 6)": {
            "WBF": [
                1935
            ], 
            "AM2L": [
                2919
            ], 
            "BM1F": [
                2104
            ], 
            "M1": [
                2617
            ], 
            "M2": [
                2637
            ], 
            "BM1L": [
                2866
            ], 
            "WBO": [
                2919
            ], 
            "WBL": [
                2919
            ], 
            "AM2F": [
                1935
            ], 
            "M1_ADJ": [
                0
            ]
        }, 
        "location1": [
            9
        ], 
        "location2": [
            6
        ], 
        "sentence": "not only is it the perfect size ( not too small , not too large ) , it also has all the feature a high-tech phone user would want ."
    }, 
    "89e17bc3dd3643eef452c0b526b1397b": {
        "(0, 1)": {
            "WBNULL": [
                1
            ], 
            "M1": [
                2637
            ], 
            "M1_ADJ": [
                1
            ], 
            "M2": [
                2617
            ]
        }, 
        "location1": [
            0
        ], 
        "location2": [
            1
        ], 
        "sentence": "small size ."
    }
}