{
    "13e3ad521538757c809d312f2b720148": {
        "(9, 18)": {
            "WBF": [
                1935
            ], 
            "AM2L": [
                1412
            ], 
            "BM1F": [
                2919
            ], 
            "M1": [
                2637
            ], 
            "M2": [
                1163
            ], 
            "BM1L": [
                1935
            ], 
            "WBO": [
                2919, 
                1623, 
                1566, 
                254, 
                1371
            ], 
            "WBL": [
                2866
            ], 
            "AM2F": [
                150
            ], 
            "M1_ADJ": [
                1
            ]
        }, 
        "location1": [
            9
        ], 
        "location2": [
            18
        ], 
        "sentence": "not only is it the perfect size ( not too small , not too large ) , it also has all the feature a high-tech phone user would want ."
    }
}