{
    "e8e469c6ce127a2b8e862966b0c3685e": {
        "(9, 10)": {
            "AM2L": [
                1566
            ], 
            "BM1F": [
                1320
            ], 
            "M1": [
                2676
            ], 
            "M2": [
                3097
            ], 
            "BM1L": [
                1371
            ], 
            "WBNULL": [
                1
            ], 
            "AM2F": [
                522
            ], 
            "M1_ADJ": [
                1
            ]
        }, 
        "location1": [
            9
        ], 
        "location2": [
            10
        ], 
        "sentence": "the headset that comes with the phone has good sound volume but it hurt the ear like you can not imagine !"
    }, 
    "00f4f2006de708c2e8e1b5f70f053974": {
        "(7, 12)": {
            "WBF": [
                1935
            ], 
            "AM2L": [
                1935
            ], 
            "BM1F": [
                924
            ], 
            "M1": [
                2676
            ], 
            "M2": [
                3097
            ], 
            "BM1L": [
                1409
            ], 
            "WBO": [
                2909
            ], 
            "WBL": [
                2866
            ], 
            "AM2F": [
                936
            ], 
            "M1_ADJ": [
                1
            ]
        }, 
        "location1": [
            7
        ], 
        "location2": [
            12
        ], 
        "sentence": "i do here a constant high-pitched distorted sound , not to mention the volume does not seem to be loud enough ."
    }, 
    "6f9adbe48884c146062517217a8d680d": {
        "(3, 10)": {
            "WBF": [
                2281
            ], 
            "AM2L": [
                1569
            ], 
            "BM1F": [
                4
            ], 
            "M1": [
                2676
            ], 
            "M2": [
                3097
            ], 
            "BM1L": [
                2118
            ], 
            "WBO": [
                1562, 
                1333, 
                2967
            ], 
            "WBL": [
                2866
            ], 
            "AM2F": [
                1463
            ], 
            "M1_ADJ": [
                1
            ]
        }, 
        "location1": [
            3
        ], 
        "location2": [
            10
        ], 
        "sentence": "the phone 's sound quality is great ( turn up the volume if its too quiet , people , this thing will get loud ) i dont have any complaint about this phone and the only thing that i miss from my 8290 is voice dialing ."
    }
}