{
    "6f9adbe48884c146062517217a8d680d": {
        "location1": [
            3
        ], 
        "location2": [
            25
        ], 
        "(3, 25)": {
            "WBF": [
                2281
            ], 
            "AM2L": [
                2882
            ], 
            "BM1F": [
                4
            ], 
            "M1": [
                2676
            ], 
            "M2": [
                686
            ], 
            "BM1L": [
                2118
            ], 
            "WBO": [
                1562, 
                1333, 
                2967, 
                3029, 
                2866, 
                3097, 
                1463, 
                1569, 
                2919, 
                2285, 
                2100, 
                2882, 
                2876, 
                3168, 
                1297, 
                1720, 
                1449, 
                941
            ], 
            "WBL": [
                286
            ], 
            "AM2F": [
                154
            ], 
            "M1_ADJ": [
                1
            ]
        }, 
        "sentence": "the phone 's sound quality is great ( turn up the volume if its too quiet , people , this thing will get loud ) i dont have any complaint about this phone and the only thing that i miss from my 8290 is voice dialing ."
    }
}