{
    "d36bdc5dfa57c2ffcd3b26042b66d2e6": {
        "(0, 4)": {
            "WBF": [
                1092
            ], 
            "AM2L": [
                3075
            ], 
            "M1": [
                2676
            ], 
            "M2": [
                2918
            ], 
            "WBO": [
                2177
            ], 
            "WBL": [
                2451
            ], 
            "AM2F": [
                316
            ], 
            "M1_ADJ": [
                1
            ]
        }, 
        "location1": [
            0
        ], 
        "location2": [
            4
        ], 
        "sentence": "sound - excellent polyphonic ringing tone are very nice ( check con ) it also double as a radio , which is a nice feature when you are bored ."
    }, 
    "da1c9f96e2fdf6c174bc6a45a9e6ecb6": {
        "(16, 1)": {
            "WBF": [
                1999
            ], 
            "AM2L": [
                2909
            ], 
            "BM1F": [
                2449
            ], 
            "M1": [
                2918
            ], 
            "M2": [
                2676
            ], 
            "WBO": [
                663, 
                3181, 
                778, 
                2666, 
                275, 
                281, 
                2449, 
                2873, 
                1562, 
                1999, 
                1994
            ], 
            "WBL": [
                2864
            ], 
            "AM2F": [
                640
            ], 
            "M1_ADJ": [
                0
            ]
        }, 
        "location1": [
            16
        ], 
        "location2": [
            1
        ], 
        "sentence": "ring tone only come with crazy song and annoying ring , there is only one ring that sound close to a regular ring ."
    }
}