{
    "37a84a72000588d4bc0ae8bef4295a66": {
        "(1, 17)": {
            "WBF": [
                2281
            ], 
            "AM2L": [
                2866
            ], 
            "BM1F": [
                2866
            ], 
            "M1": [
                2676
            ], 
            "M2": [
                2839
            ], 
            "WBO": [
                1562, 
                1092, 
                1094, 
                1770, 
                150, 
                2831, 
                2919, 
                2285, 
                337, 
                2901, 
                3147, 
                2873
            ], 
            "WBL": [
                2286
            ], 
            "AM2F": [
                1987
            ], 
            "M1_ADJ": [
                1
            ]
        }, 
        "location1": [
            1
        ], 
        "location2": [
            17
        ], 
        "sentence": "the sound quality is excellent , except , maybe a * tad * too quiet at time when there are quieter talker on the other end of the line ."
    }
}