{
    "ceb0982ee639d31ed4e5f43a46e69336": {
        "(5, 6)": {
            "AM2L": [
                2866
            ], 
            "BM1F": [
                1690
            ], 
            "M1": [
                2733
            ], 
            "M2": [
                2883
            ], 
            "BM1L": [
                150
            ], 
            "WBNULL": [
                1
            ], 
            "AM2F": [
                275
            ], 
            "M1_ADJ": [
                1
            ]
        }, 
        "location1": [
            5
        ], 
        "location2": [
            6
        ], 
        "sentence": "button do seem a little sticky tho .. and the hand free kit ' connector might be a problem .."
    }
}