{
    "5f632c925abff8ea973237469d07a2aa": {
        "(18, 2)": {
            "WBF": [
                1562
            ], 
            "AM2L": [
                3152
            ], 
            "BM1F": [
                3095
            ], 
            "M1": [
                2281
            ], 
            "M2": [
                2826
            ], 
            "BM1L": [
                2866
            ], 
            "WBO": [
                3075, 
                1320, 
                275, 
                1566, 
                1298, 
                1333, 
                2340, 
                2864, 
                1562, 
                1490, 
                2147, 
                3149
            ], 
            "WBL": [
                1297
            ], 
            "AM2F": [
                767
            ], 
            "M1_ADJ": [
                0
            ]
        }, 
        "location1": [
            18
        ], 
        "location2": [
            2
        ], 
        "sentence": "the voice quality is very good , and it gets great reception ( that is , in place where you get t-mobile coverage , which is not that good ; see below ) ."
    }, 
    "9b759b22613ccb3d5a5909c5cd771409": {
        "(23, 17)": {
            "WBF": [
                1463
            ], 
            "AM2L": [
                232
            ], 
            "BM1F": [
                1407
            ], 
            "M1": [
                2281
            ], 
            "M2": [
                2826
            ], 
            "BM1L": [
                316
            ], 
            "WBO": [
                3229, 
                524
            ], 
            "WBL": [
                1261
            ], 
            "AM2F": [
                275
            ], 
            "M1_ADJ": [
                0
            ]
        }, 
        "location1": [
            23
        ], 
        "location2": [
            17
        ], 
        "sentence": "service is great as far as i can tell , feature work like a charm , ringtones are high quality if you buy them from t-mobile and aim is great ."
    }
}