{
    "5f632c925abff8ea973237469d07a2aa": {
        "(18, 1)": {
            "WBF": [
                2281
            ], 
            "AM2L": [
                3152
            ], 
            "BM1F": [
                2866
            ], 
            "M1": [
                3095
            ], 
            "M2": [
                2826
            ], 
            "WBO": [
                1562, 
                3075, 
                1320, 
                275, 
                1566, 
                1298, 
                1333, 
                2340, 
                2864, 
                1562, 
                1490, 
                2147, 
                3149
            ], 
            "WBL": [
                1297
            ], 
            "AM2F": [
                767
            ], 
            "M1_ADJ": [
                0
            ]
        }, 
        "location1": [
            18
        ], 
        "location2": [
            1
        ], 
        "sentence": "the voice quality is very good , and it gets great reception ( that is , in place where you get t-mobile coverage , which is not that good ; see below ) ."
    }
}