{
    "cb424d3ece8282ce9d98ff9e19d23c6c": {
        "location1": [
            10
        ], 
        "location2": [
            21
        ], 
        "(10, 21)": {
            "WBF": [
                1616
            ], 
            "AM2L": [
                2866
            ], 
            "BM1F": [
                1232
            ], 
            "M1": [
                2826
            ], 
            "M2": [
                2751
            ], 
            "BM1L": [
                1754
            ], 
            "WBO": [
                1758, 
                1971, 
                2866, 
                1796, 
                275, 
                1272, 
                2864
            ], 
            "WBL": [
                1920
            ], 
            "AM2F": [
                1261
            ], 
            "M1_ADJ": [
                1
            ]
        }, 
        "sentence": "the one huge disappointment is that the phone manufactured for t-mobile lack many of the menus and function that a nokia straight from the manufacturer should have ."
    }
}