{
    "cb424d3ece8282ce9d98ff9e19d23c6c": {
        "(10, 17)": {
            "WBF": [
                1616
            ], 
            "AM2L": [
                150
            ], 
            "BM1F": [
                1232
            ], 
            "M1": [
                2826
            ], 
            "M2": [
                1272
            ], 
            "BM1L": [
                1754
            ], 
            "WBO": [
                1758, 
                1971, 
                2866
            ], 
            "WBL": [
                275
            ], 
            "AM2F": [
                2864
            ], 
            "M1_ADJ": [
                1
            ]
        }, 
        "location1": [
            10
        ], 
        "location2": [
            17
        ], 
        "sentence": "the one huge disappointment is that the phone manufactured for t-mobile lack many of the menus and function that a nokia straight from the manufacturer should have ."
    }, 
    "4c97fb16f6c98310c527b30aa33a2434": {
        "(13, 2)": {
            "WBF": [
                1971
            ], 
            "AM2L": [
                2549
            ], 
            "BM1F": [
                1549
            ], 
            "M1": [
                1272
            ], 
            "M2": [
                2826
            ], 
            "BM1L": [
                2866
            ], 
            "WBO": [
                2866, 
                2118, 
                3112, 
                275, 
                1324, 
                3168, 
                1999
            ], 
            "WBL": [
                2890
            ], 
            "AM2F": [
                4
            ], 
            "M1_ADJ": [
                0
            ]
        }, 
        "location1": [
            13
        ], 
        "location2": [
            2
        ], 
        "sentence": "the internet function of the phone - wap and gprs - will only work through t-mobile 's service , because they have deleted the menu option that would enable you to configure the phone to be used on a different network ."
    }
}