{
    "5f632c925abff8ea973237469d07a2aa": {
        "(18, 14)": {
            "WBF": [
                3149
            ], 
            "AM2L": [
                3152
            ], 
            "BM1F": [
                1490
            ], 
            "M1": [
                2147
            ], 
            "M2": [
                2826
            ], 
            "BM1L": [
                1562
            ], 
            "WBO": [
                3229
            ], 
            "WBL": [
                1297
            ], 
            "AM2F": [
                767
            ], 
            "M1_ADJ": [
                0
            ]
        }, 
        "location1": [
            18
        ], 
        "location2": [
            14
        ], 
        "sentence": "the voice quality is very good , and it gets great reception ( that is , in place where you get t-mobile coverage , which is not that good ; see below ) ."
    }
}