{
    "42f9a3d24c13151b0c3eee5b5a85dd48": {
        "(21, 37)": {
            "WBF": [
                2562
            ], 
            "BM1F": [
                1375
            ], 
            "M1": [
                2993
            ], 
            "M2": [
                1351
            ], 
            "BM1L": [
                275
            ], 
            "WBO": [
                2650, 
                1566, 
                2836, 
                150, 
                440, 
                1299, 
                3043, 
                2909, 
                1232, 
                2660, 
                1669, 
                1773
            ], 
            "WBL": [
                440
            ], 
            "M1_ADJ": [
                1
            ]
        }, 
        "location1": [
            21
        ], 
        "location2": [
            37
        ], 
        "sentence": "this model does have the traditional key arrangement , it 's just that they are really close to one another , and have unconventional shape , so it takes a big getting used to for someone like me with big hand ."
    }
}