{
    "42f9a3d24c13151b0c3eee5b5a85dd48": {
        "(21, 7)": {
            "WBF": [
                1566
            ], 
            "AM2L": [
                2650
            ], 
            "BM1F": [
                1600
            ], 
            "M1": [
                320
            ], 
            "M2": [
                2993
            ], 
            "BM1L": [
                2936
            ], 
            "WBO": [
                4, 
                1591, 
                2864, 
                2875, 
                316, 
                2325, 
                640, 
                2909, 
                1994, 
                282
            ], 
            "WBL": [
                1375
            ], 
            "AM2F": [
                2562
            ], 
            "M1_ADJ": [
                0
            ]
        }, 
        "location1": [
            21
        ], 
        "location2": [
            7
        ], 
        "sentence": "this model does have the traditional key arrangement , it 's just that they are really close to one another , and have unconventional shape , so it takes a big getting used to for someone like me with big hand ."
    }
}