{
    "6678ea63baf21e42ca34ff9c60e47c7c": {
        "(27, 19)": {
            "WBF": [
                522
            ], 
            "BM1F": [
                150
            ], 
            "M1": [
                2070
            ], 
            "M2": [
                3044
            ], 
            "BM1L": [
                1562
            ], 
            "WBO": [
                2866, 
                2032, 
                2828, 
                309
            ], 
            "WBL": [
                2291
            ], 
            "M1_ADJ": [
                0
            ]
        }, 
        "location1": [
            27
        ], 
        "location2": [
            19
        ], 
        "sentence": "the gprs connection is sometimes slow , and writing instant message with the included aol instant messenger software is a pain , but the other t-zones application are quite useful ."
    }
}