{
    "744203c0ba661b81fbf49e058d3b8553": {
        "location1": [
            7
        ], 
        "location2": [
            10
        ], 
        "(7, 10)": {
            "WBF": [
                1163
            ], 
            "BM1F": [
                275
            ], 
            "M1": [
                3044
            ], 
            "M2": [
                2688
            ], 
            "BM1L": [
                744
            ], 
            "WBO": [
                2866
            ], 
            "WBL": [
                2866
            ], 
            "M1_ADJ": [
                1
            ]
        }, 
        "sentence": "this phone has a very cool and useful feature -- the speakerphone ."
    }
}