{
    "ede478b04f16c8d0e4aec9e3f6e127d2": {
        "(1, 14)": {
            "WBF": [
                1562
            ], 
            "BM1F": [
                46
            ], 
            "M1": [
                109
            ], 
            "M2": [
                2123
            ], 
            "WBO": [
                154, 
                2447, 
                1232, 
                2866, 
                2843, 
                1759, 
                1971, 
                2882, 
                541
            ], 
            "WBL": [
                261
            ], 
            "M1_ADJ": [
                1
            ]
        }, 
        "location1": [
            1
        ], 
        "location2": [
            14
        ], 
        "sentence": "2 ) 4mp is about right for the target market of this camera ( semi-serious amateur photographer )"
    }
}