{
    "ea03c1eca4f4843d18fa28fa8e577b5c": {
        "location1": [
            1
        ], 
        "location2": [
            35
        ], 
        "(1, 35)": {
            "WBF": [
                2015
            ], 
            "AM2L": [
                3181
            ], 
            "BM1F": [
                109
            ], 
            "M1": [
                111
            ], 
            "M2": [
                2017
            ], 
            "WBO": [
                3239, 
                2836, 
                157, 
                406, 
                2119, 
                3181, 
                869, 
                2864, 
                587, 
                242, 
                1971, 
                2866, 
                155, 
                120, 
                541, 
                1005, 
                2909, 
                2999, 
                275, 
                3041, 
                1371, 
                150, 
                1333, 
                2818, 
                1636, 
                2501, 
                150, 
                1719, 
                1971, 
                1163
            ], 
            "WBL": [
                194
            ], 
            "AM2F": [
                664
            ], 
            "M1_ADJ": [
                1
            ]
        }, 
        "sentence": "4mp , 4x optical zoom , takes absolutely beautiful photo with detail that challenge all of the above 5mp camera , easy to understand and use ( has a great swivel lcd screen ) , a lot of feature and add-on option , comes with great software ( not to be overlooked ) , and last but by far not least , received my fiance 's stamp of approval ( two thumb up ! )"
    }
}