{
    "ea03c1eca4f4843d18fa28fa8e577b5c": {
        "(1, 22)": {
            "WBF": [
                2015
            ], 
            "AM2L": [
                150
            ], 
            "BM1F": [
                109
            ], 
            "M1": [
                111
            ], 
            "M2": [
                3041
            ], 
            "WBO": [
                3239, 
                2836, 
                157, 
                406, 
                2119, 
                3181, 
                869, 
                2864, 
                587, 
                242, 
                1971, 
                2866, 
                155, 
                120, 
                541, 
                1005, 
                2909
            ], 
            "WBL": [
                275
            ], 
            "AM2F": [
                1371
            ], 
            "M1_ADJ": [
                1
            ]
        }, 
        "location1": [
            1
        ], 
        "location2": [
            22
        ], 
        "sentence": "4mp , 4x optical zoom , takes absolutely beautiful photo with detail that challenge all of the above 5mp camera , easy to understand and use ( has a great swivel lcd screen ) , a lot of feature and add-on option , comes with great software ( not to be overlooked ) , and last but by far not least , received my fiance 's stamp of approval ( two thumb up ! )"
    }
}