{
    "ea03c1eca4f4843d18fa28fa8e577b5c": {
        "(34, 9)": {
            "WBF": [
                2864
            ], 
            "AM2L": [
                664
            ], 
            "BM1F": [
                3181
            ], 
            "M1": [
                869
            ], 
            "M2": [
                194
            ], 
            "BM1L": [
                2119
            ], 
            "WBO": [
                587, 
                242, 
                1971, 
                2866, 
                155, 
                120, 
                541, 
                1005, 
                2909, 
                2999, 
                275, 
                3041, 
                1371, 
                150, 
                1333, 
                2818, 
                1636, 
                2501, 
                150, 
                1719, 
                1971
            ], 
            "WBL": [
                275
            ], 
            "AM2F": [
                2017
            ], 
            "M1_ADJ": [
                0
            ]
        }, 
        "location1": [
            34
        ], 
        "location2": [
            9
        ], 
        "sentence": "4mp , 4x optical zoom , takes absolutely beautiful photo with detail that challenge all of the above 5mp camera , easy to understand and use ( has a great swivel lcd screen ) , a lot of feature and add-on option , comes with great software ( not to be overlooked ) , and last but by far not least , received my fiance 's stamp of approval ( two thumb up ! )"
    }
}