{
    "2cda4bc7420f9d9ce26921a41fbe9f75": {
        "(0, 6)": {
            "WBF": [
                2121
            ], 
            "AM2L": [
                1472
            ], 
            "M1": [
                210
            ], 
            "M2": [
                735
            ], 
            "WBO": [
                3168, 
                1185
            ], 
            "WBL": [
                784
            ], 
            "AM2F": [
                2862
            ], 
            "M1_ADJ": [
                1
            ]
        }, 
        "location1": [
            0
        ], 
        "location2": [
            6
        ], 
        "sentence": "advanced photobugs will find more creative control than imaginable ."
    }
}