{
    "9912ee61adbc16ba2940f26778c640d0": {
        "location1": [
            14
        ], 
        "location2": [
            12
        ], 
        "(14, 12)": {
            "WBFL": [
                796
            ], 
            "BM1F": [
                894
            ], 
            "M1": [
                541
            ], 
            "M2": [
                360
            ], 
            "BM1L": [
                1490
            ], 
            "M1_ADJ": [
                0
            ]
        }, 
        "sentence": "recent price drop have made the g3 the best bargain in digital camera currently available ."
    }, 
    "6fe1a6cfcc61bb420320d4d66e4e64c4": {
        "(7, 6)": {
            "AM2L": [
                1142
            ], 
            "BM1F": [
                3239
            ], 
            "M1": [
                541
            ], 
            "M2": [
                360
            ], 
            "BM1L": [
                2015
            ], 
            "WBNULL": [
                1
            ], 
            "AM2F": [
                275
            ], 
            "M1_ADJ": [
                0
            ]
        }, 
        "location1": [
            7
        ], 
        "location2": [
            6
        ], 
        "sentence": "the best 4 megapixel/4x optical zoom camera available and fairly easy to use ."
    }, 
    "861626d0cc4cc5ae19684d4b8d53194c": {
        "location1": [
            13
        ], 
        "location2": [
            12
        ], 
        "(13, 12)": {
            "AM2L": [
                26
            ], 
            "BM1F": [
                894
            ], 
            "M1": [
                541
            ], 
            "M2": [
                360
            ], 
            "BM1L": [
                434
            ], 
            "WBNULL": [
                1
            ], 
            "AM2F": [
                2997
            ], 
            "M1_ADJ": [
                0
            ]
        }, 
        "sentence": "even with these shortcoming , i still think it is the best digital camera available under $ 1200 ."
    }
}