{
    "921a0e8cd129e569ee56a67d7ae96da1": {
        "location1": [
            1
        ], 
        "location2": [
            12
        ], 
        "(1, 12)": {
            "WBF": [
                2876
            ], 
            "AM2L": [
                1232
            ], 
            "BM1F": [
                1994
            ], 
            "M1": [
                382
            ], 
            "M2": [
                554
            ], 
            "WBO": [
                1562, 
                2864, 
                1566, 
                664, 
                3181, 
                150, 
                2144
            ], 
            "WBL": [
                674
            ], 
            "AM2F": [
                275
            ], 
            "M1_ADJ": [
                1
            ]
        }, 
        "sentence": "one bad thing is that it comes with a pitiful 32mb compactflash card , and for most purpose , it is not enough ."
    }
}