{
    "28625e5528127fc1474b0e6dad55a8cb": {
        "(3, 19)": {
            "WBF": [
                864
            ], 
            "AM2L": [
                266
            ], 
            "BM1F": [
                150
            ], 
            "M1": [
                406
            ], 
            "M2": [
                978
            ], 
            "BM1L": [
                1371
            ], 
            "WBO": [
                1719, 
                1971, 
                1163, 
                3075, 
                1005, 
                2909, 
                3041, 
                3075, 
                703, 
                275, 
                802, 
                275
            ], 
            "WBL": [
                400
            ], 
            "AM2F": [
                1562
            ], 
            "M1_ADJ": [
                1
            ]
        }, 
        "location1": [
            3
        ], 
        "location2": [
            19
        ], 
        "sentence": "it has a beautiful design , lot of feature , very easy to use , very configurable and customizable , and the battery duration is amazing !"
    }
}