{
    "66298b329dd1f88dfb52ab210c3cb820": {
        "(22, 24)": {
            "AM2L": [
                3226
            ], 
            "WBFL": [
                2194
            ], 
            "BM1F": [
                2866
            ], 
            "M1": [
                434
            ], 
            "M2": [
                2552
            ], 
            "BM1L": [
                3049
            ], 
            "AM2F": [
                325
            ], 
            "M1_ADJ": [
                1
            ]
        }, 
        "location1": [
            22
        ], 
        "location2": [
            24
        ], 
        "sentence": "i 'm easily enlarging picture to 8 1/2 x 11 with no visable loss in picture quality and not even using the best possible setting as yet ( super fine ) ."
    }
}