{
    "f774d50a8c6d2e482b4e764362bf0ccb": {
        "(9, 25)": {
            "WBF": [
                1470
            ], 
            "AM2L": [
                1971
            ], 
            "BM1F": [
                2866
            ], 
            "M1": [
                434
            ], 
            "M2": [
                2426
            ], 
            "BM1L": [
                716
            ], 
            "WBO": [
                2281, 
                1971, 
                286, 
                795, 
                95, 
                1786, 
                893, 
                1261, 
                150, 
                869, 
                2917, 
                384
            ], 
            "WBL": [
                656
            ], 
            "AM2F": [
                2172
            ], 
            "M1_ADJ": [
                1
            ]
        }, 
        "location1": [
            9
        ], 
        "location2": [
            25
        ], 
        "sentence": "overall , the g3 delivers what must be considered the best image quality of any current > 4 megapixel digicams , from a detail , tonal balance and color response point of view ."
    }
}