{
    "dd71767481d19a9a0e0a0368b626b97e": {
        "(6, 3)": {
            "WBF": [
                1562
            ], 
            "AM2L": [
                541
            ], 
            "BM1F": [
                546
            ], 
            "M1": [
                1280
            ], 
            "M2": [
                434
            ], 
            "BM1L": [
                2866
            ], 
            "WBO": [
                2866
            ], 
            "WBL": [
                2866
            ], 
            "AM2F": [
                894
            ], 
            "M1_ADJ": [
                0
            ]
        }, 
        "location1": [
            6
        ], 
        "location2": [
            3
        ], 
        "sentence": "simply , the canon g3 is the best digital camera out there today at this price point ."
    }, 
    "9912ee61adbc16ba2940f26778c640d0": {
        "(8, 6)": {
            "AM2L": [
                1490
            ], 
            "WBFL": [
                2866
            ], 
            "BM1F": [
                2866
            ], 
            "M1": [
                1280
            ], 
            "M2": [
                434
            ], 
            "BM1L": [
                1739
            ], 
            "AM2F": [
                390
            ], 
            "M1_ADJ": [
                0
            ]
        }, 
        "location1": [
            8
        ], 
        "location2": [
            6
        ], 
        "sentence": "recent price drop have made the g3 the best bargain in digital camera currently available ."
    }, 
    "f774d50a8c6d2e482b4e764362bf0ccb": {
        "(9, 2)": {
            "WBF": [
                851
            ], 
            "AM2L": [
                2281
            ], 
            "BM1F": [
                2866
            ], 
            "M1": [
                1280
            ], 
            "M2": [
                434
            ], 
            "BM1L": [
                2046
            ], 
            "WBO": [
                3144, 
                1877, 
                402
            ], 
            "WBL": [
                2866
            ], 
            "AM2F": [
                1470
            ], 
            "M1_ADJ": [
                0
            ]
        }, 
        "location1": [
            9
        ], 
        "location2": [
            2
        ], 
        "sentence": "overall , the g3 delivers what must be considered the best image quality of any current > 4 megapixel digicams , from a detail , tonal balance and color response point of view ."
    }, 
    "ee59320ea439564bfb6e244ed61ae28d": {
        "(6, 2)": {
            "WBF": [
                1562
            ], 
            "AM2L": [
                541
            ], 
            "BM1F": [
                546
            ], 
            "M1": [
                1280
            ], 
            "M2": [
                434
            ], 
            "BM1L": [
                2866
            ], 
            "WBO": [
                2109
            ], 
            "WBL": [
                2866
            ], 
            "AM2F": [
                109
            ], 
            "M1_ADJ": [
                0
            ]
        }, 
        "location1": [
            6
        ], 
        "location2": [
            2
        ], 
        "sentence": "the canon g3 is perhaps the best 4mp camera out there ."
    }
}