{
    "9912ee61adbc16ba2940f26778c640d0": {
        "(8, 9)": {
            "AM2L": [
                894
            ], 
            "BM1F": [
                2866
            ], 
            "M1": [
                434
            ], 
            "M2": [
                390
            ], 
            "BM1L": [
                1280
            ], 
            "WBNULL": [
                1
            ], 
            "AM2F": [
                1490
            ], 
            "M1_ADJ": [
                1
            ]
        }, 
        "location1": [
            8
        ], 
        "location2": [
            9
        ], 
        "sentence": "recent price drop have made the g3 the best bargain in digital camera currently available ."
    }
}