{
    "07b3bdbafaec9f6df8f50960a8c49f11": {
        "location1": [
            23
        ], 
        "location2": [
            4
        ], 
        "(23, 4)": {
            "WBF": [
                1280
            ], 
            "AM2L": [
                2037
            ], 
            "BM1F": [
                2866
            ], 
            "M1": [
                2207
            ], 
            "M2": [
                436
            ], 
            "BM1L": [
                3022
            ], 
            "WBO": [
                2909, 
                286, 
                2200, 
                525, 
                1712, 
                1232, 
                150, 
                1200, 
                894, 
                541, 
                337, 
                150, 
                2327, 
                2225, 
                2873
            ], 
            "WBL": [
                1917
            ], 
            "AM2F": [
                541
            ], 
            "M1_ADJ": [
                0
            ]
        }, 
        "sentence": "i recommend unreservedly the powershot g3 to any potential buyer looking for a first-class digital camera at a reasonable price - there is no better camera out there - period !"
    }
}