{
    "b39d64cf16678723054310d16f83cb20": {
        "(16, 9)": {
            "WBF": [
                3183
            ], 
            "AM2L": [
                275
            ], 
            "BM1F": [
                1690
            ], 
            "M1": [
                2707
            ], 
            "M2": [
                436
            ], 
            "BM1L": [
                150
            ], 
            "WBO": [
                1716, 
                2866, 
                3135
            ], 
            "WBL": [
                1774
            ], 
            "AM2F": [
                384
            ], 
            "M1_ADJ": [
                0
            ]
        }, 
        "location1": [
            16
        ], 
        "location2": [
            9
        ], 
        "sentence": "4 . the shape of this device is a little squarer , without losing the weight which mean better balance and less shaking while clicking ."
    }
}