{
    "a7d8e305d570d95f2e66cc869353dc9a": {
        "(7, 17)": {
            "WBF": [
                2133
            ], 
            "AM2L": [
                3229
            ], 
            "BM1F": [
                1307
            ], 
            "M1": [
                436
            ], 
            "M2": [
                3239
            ], 
            "BM1L": [
                1280
            ], 
            "WBO": [
                2281, 
                1490, 
                1724, 
                1665, 
                275, 
                2866
            ], 
            "WBL": [
                2015
            ], 
            "AM2F": [
                1298
            ], 
            "M1_ADJ": [
                1
            ]
        }, 
        "location1": [
            7
        ], 
        "location2": [
            17
        ], 
        "sentence": "the larger lens of the g3 gives better picture quality in low light , and the 4-times optical zoom gets you just that much closer ."
    }
}