{
    "8cff8b3bb4b722f290108da2b2fcc548": {
        "(39, 7)": {
            "WBF": [
                1971
            ], 
            "AM2L": [
                1569
            ], 
            "BM1F": [
                2866
            ], 
            "M1": [
                2281
            ], 
            "M2": [
                436
            ], 
            "BM1L": [
                337
            ], 
            "WBO": [
                2866, 
                2311, 
                1470, 
                1449, 
                260, 
                1299, 
                1261, 
                2882, 
                1280, 
                1490, 
                708, 
                3181, 
                1878, 
                2244, 
                1208, 
                2824, 
                275, 
                543, 
                1004, 
                2280, 
                3029, 
                3181, 
                2866, 
                541, 
                1674, 
                407, 
                1572, 
                1902
            ], 
            "WBL": [
                289
            ], 
            "AM2F": [
                3182
            ], 
            "M1_ADJ": [
                0
            ]
        }, 
        "location1": [
            39
        ], 
        "location2": [
            7
        ], 
        "sentence": "i am stunned and amazed at the quality of the raw image i am getting from this g3 ( in conjunction with my professional flash system ) , and can easily put up with the camera limitation , because ive never seen anything better within its resolution limit ."
    }, 
    "a7d8e305d570d95f2e66cc869353dc9a": {
        "location1": [
            7
        ], 
        "location2": [
            9
        ], 
        "(7, 9)": {
            "AM2L": [
                1724
            ], 
            "WBFL": [
                2133
            ], 
            "BM1F": [
                1307
            ], 
            "M1": [
                436
            ], 
            "M2": [
                2281
            ], 
            "BM1L": [
                1280
            ], 
            "AM2F": [
                1490
            ], 
            "M1_ADJ": [
                1
            ]
        }, 
        "sentence": "the larger lens of the g3 gives better picture quality in low light , and the 4-times optical zoom gets you just that much closer ."
    }
}