{
    "8cff8b3bb4b722f290108da2b2fcc548": {
        "(39, 33)": {
            "WBF": [
                407
            ], 
            "AM2L": [
                1569
            ], 
            "BM1F": [
                541
            ], 
            "M1": [
                1674
            ], 
            "M2": [
                436
            ], 
            "BM1L": [
                2866
            ], 
            "WBO": [
                1572, 
                1902
            ], 
            "WBL": [
                289
            ], 
            "AM2F": [
                3182
            ], 
            "M1_ADJ": [
                0
            ]
        }, 
        "location1": [
            39
        ], 
        "location2": [
            33
        ], 
        "sentence": "i am stunned and amazed at the quality of the raw image i am getting from this g3 ( in conjunction with my professional flash system ) , and can easily put up with the camera limitation , because ive never seen anything better within its resolution limit ."
    }
}