{
    "5deb915c0f8e40d34ff37101c900e021": {
        "(5, 6)": {
            "AM2L": [
                2882
            ], 
            "BM1F": [
                150
            ], 
            "M1": [
                440
            ], 
            "M2": [
                2170
            ], 
            "BM1L": [
                316
            ], 
            "WBNULL": [
                1
            ], 
            "AM2F": [
                1987
            ], 
            "M1_ADJ": [
                1
            ]
        }, 
        "location1": [
            5
        ], 
        "location2": [
            6
        ], 
        "sentence": "very intuitive menus are a big plus on this camera ."
    }
}