{
    "96a3c89de3083b68a7e7476e1f55d023": {
        "(25, 3)": {
            "WBF": [
                1333
            ], 
            "BM1F": [
                3239
            ], 
            "M1": [
                3191
            ], 
            "M2": [
                461
            ], 
            "BM1L": [
                2015
            ], 
            "WBO": [
                275, 
                2866, 
                32, 
                894, 
                3239, 
                1562, 
                150, 
                3075, 
                1907, 
                197, 
                258, 
                2133, 
                337, 
                2866, 
                1414, 
                894, 
                3239, 
                316
            ], 
            "WBL": [
                1690
            ], 
            "M1_ADJ": [
                0
            ]
        }, 
        "location1": [
            25
        ], 
        "location2": [
            3
        ], 
        "sentence": "the optical zoom work great and the 14x digital zoom is a very nice addition although picture at the highest digital zoom are a little blurry ."
    }
}