{
    "4a44a69cb955602ceffa932a795dd6aa": {
        "(0, 20)": {
            "WBF": [
                1676
            ], 
            "AM2L": [
                1654
            ], 
            "M1": [
                478
            ], 
            "M2": [
                1208
            ], 
            "WBO": [
                3138, 
                1739, 
                541, 
                1005, 
                2909, 
                3041, 
                3075, 
                1215, 
                275, 
                2205, 
                1163, 
                2909, 
                1495, 
                2866, 
                152, 
                2909
            ], 
            "WBL": [
                1119
            ], 
            "AM2F": [
                275
            ], 
            "M1_ADJ": [
                1
            ]
        }, 
        "location1": [
            0
        ], 
        "location2": [
            20
        ], 
        "sentence": "bottom line , well made camera , easy to use , very flexible and powerful feature to include the ability to use external flash and lense / filter choice ."
    }
}