{
    "147a916c1effce3110d2582e4b8b49a5": {
        "(10, 8)": {
            "AM2L": [
                750
            ], 
            "WBFL": [
                2866
            ], 
            "BM1F": [
                2866
            ], 
            "M1": [
                1636
            ], 
            "M2": [
                478
            ], 
            "BM1L": [
                1935
            ], 
            "AM2F": [
                1646
            ], 
            "M1_ADJ": [
                0
            ]
        }, 
        "location1": [
            10
        ], 
        "location2": [
            8
        ], 
        "sentence": "when you look through the viewfinder ( not the lcd ) the bottom left corner of the picture ( about 15 % ) is blocked by the lens ."
    }
}