{
    "7ce68523e9bd23cb9fa8f5c8bfadfa9f": {
        "(22, 27)": {
            "WBF": [
                1665
            ], 
            "AM2L": [
                1971
            ], 
            "BM1F": [
                1490
            ], 
            "M1": [
                490
            ], 
            "M2": [
                1665
            ], 
            "BM1L": [
                1075
            ], 
            "WBO": [
                275
            ], 
            "WBL": [
                3024
            ], 
            "AM2F": [
                2281
            ], 
            "M1_ADJ": [
                1
            ]
        }, 
        "location1": [
            22
        ], 
        "location2": [
            23, 
            27
        ], 
        "(22, 23)": {
            "AM2L": [
                2866
            ], 
            "BM1F": [
                1490
            ], 
            "M1": [
                490
            ], 
            "M2": [
                1665
            ], 
            "BM1L": [
                1075
            ], 
            "WBNULL": [
                1
            ], 
            "AM2F": [
                275
            ], 
            "M1_ADJ": [
                1
            ]
        }, 
        "sentence": "the two limitation i knew i would have to deal with are the very long lag time before it focus-locks ( even in bright light ) , and the unsatisfactory light quality of the built-in flash ."
    }
}