{
    "7ce68523e9bd23cb9fa8f5c8bfadfa9f": {
        "(31, 32)": {
            "BM1F": [
                2866
            ], 
            "M1": [
                509
            ], 
            "M2": [
                1208
            ], 
            "BM1L": [
                1971
            ], 
            "WBNULL": [
                1
            ], 
            "M1_ADJ": [
                1
            ]
        }, 
        "location1": [
            31
        ], 
        "location2": [
            32
        ], 
        "sentence": "the two limitation i knew i would have to deal with are the very long lag time before it focus-locks ( even in bright light ) , and the unsatisfactory light quality of the built-in flash ."
    }, 
    "f11b6493f562e48e09dd1f455dcac0d3": {
        "(4, 5)": {
            "AM2L": [
                2637
            ], 
            "BM1F": [
                242
            ], 
            "M1": [
                509
            ], 
            "M2": [
                1208
            ], 
            "BM1L": [
                3181
            ], 
            "WBNULL": [
                1
            ], 
            "AM2F": [
                1490
            ], 
            "M1_ADJ": [
                1
            ]
        }, 
        "(4, 0)": {
            "WBF": [
                325
            ], 
            "AM2L": [
                1490
            ], 
            "M1": [
                1208
            ], 
            "M2": [
                509
            ], 
            "WBO": [
                3181
            ], 
            "WBL": [
                242
            ], 
            "AM2F": [
                1208
            ], 
            "M1_ADJ": [
                0
            ]
        }, 
        "location1": [
            4
        ], 
        "location2": [
            0, 
            5
        ], 
        "sentence": "flash - as with all built-in flash in small camera , you get overilluminated main subject with depth being lost ."
    }
}