{
    "1a0d68ac376b768e92b8dca25c428ee4": {
        "(12, 15)": {
            "WBF": [
                3226
            ], 
            "AM2L": [
                350
            ], 
            "BM1F": [
                402
            ], 
            "M1": [
                784
            ], 
            "M2": [
                2246
            ], 
            "BM1L": [
                2909
            ], 
            "WBO": [
                1569
            ], 
            "WBL": [
                1569
            ], 
            "AM2F": [
                275
            ], 
            "M1_ADJ": [
                1
            ]
        }, 
        "location1": [
            12
        ], 
        "location2": [
            15
        ], 
        "sentence": "1 ) slr like programming and exposure control gives you latitude to be creative , yet its progam and auto exposure setting provide excellent photo if you do n't want to bother with the setting ."
    }
}