{
    "28625e5528127fc1474b0e6dad55a8cb": {
        "location1": [
            15
        ], 
        "location2": [
            19
        ], 
        "(15, 19)": {
            "WBF": [
                275
            ], 
            "AM2L": [
                266
            ], 
            "BM1F": [
                275
            ], 
            "M1": [
                802
            ], 
            "M2": [
                978
            ], 
            "BM1L": [
                703
            ], 
            "WBO": [
                2866
            ], 
            "WBL": [
                400
            ], 
            "AM2F": [
                1562
            ], 
            "M1_ADJ": [
                1
            ]
        }, 
        "sentence": "it has a beautiful design , lot of feature , very easy to use , very configurable and customizable , and the battery duration is amazing !"
    }
}