{
    "a3966ba04d7e675a36911883e1bc65b2": {
        "location1": [
            18
        ], 
        "location2": [
            19
        ], 
        "(18, 19)": {
            "AM2L": [
                758
            ], 
            "BM1F": [
                154
            ], 
            "M1": [
                894
            ], 
            "M2": [
                1474
            ], 
            "BM1L": [
                945
            ], 
            "WBNULL": [
                1
            ], 
            "AM2F": [
                1444
            ], 
            "M1_ADJ": [
                1
            ]
        }, 
        "sentence": "a ) the picture quality ( color and sharpness of focusing ) are so great , it completely eliminated my doubt about digital imaging -- - how could one eat rice one grain at a time : - ) )"
    }
}