{
    "075cbfa6d23b531fc7100bc9ad7dcd00": {
        "(4, 15)": {
            "WBF": [
                2909
            ], 
            "AM2L": [
                296
            ], 
            "BM1F": [
                1562
            ], 
            "M1": [
                1005
            ], 
            "M2": [
                2696
            ], 
            "BM1L": [
                1836
            ], 
            "WBO": [
                3041, 
                3181, 
                1156, 
                166, 
                1232, 
                2866, 
                2527
            ], 
            "WBL": [
                2592
            ], 
            "AM2F": [
                275
            ], 
            "M1_ADJ": [
                1
            ]
        }, 
        "location1": [
            4
        ], 
        "location2": [
            15
        ], 
        "sentence": "the manual mode is easy to use with fast access for the selection of shutter speed and aperture without having to fumble through menu option ."
    }, 
    "8125b34510fad206a46ff327585af3a6": {
        "(16, 24)": {
            "WBF": [
                2909
            ], 
            "BM1F": [
                1562
            ], 
            "M1": [
                1005
            ], 
            "M2": [
                2696
            ], 
            "BM1L": [
                1566
            ], 
            "WBO": [
                1424, 
                2728, 
                3147, 
                3049
            ], 
            "WBL": [
                2592
            ], 
            "M1_ADJ": [
                1
            ]
        }, 
        "location1": [
            16
        ], 
        "location2": [
            24
        ], 
        "sentence": "the g3 is loaded with many useful feature , and unlike many smaller digital camera , it is easy to hold steady when using slower shutter speed ."
    }
}