{
    "f4d33ef7024c0c93baef74d60978635e": {
        "(13, 14)": {
            "AM2L": [
                2579
            ], 
            "BM1F": [
                1375
            ], 
            "M1": [
                1005
            ], 
            "M2": [
                2172
            ], 
            "BM1L": [
                2909
            ], 
            "WBNULL": [
                1
            ], 
            "AM2F": [
                275
            ], 
            "M1_ADJ": [
                1
            ]
        }, 
        "location1": [
            13
        ], 
        "location2": [
            14
        ], 
        "sentence": "this is the perfect camera for a photo hobbiest who wants to have easy point and shoot ability as well ."
    }
}