{
    "28625e5528127fc1474b0e6dad55a8cb": {
        "location1": [
            9
        ], 
        "location2": [
            19
        ], 
        "(9, 19)": {
            "WBF": [
                2909
            ], 
            "AM2L": [
                266
            ], 
            "BM1F": [
                3075
            ], 
            "M1": [
                1005
            ], 
            "M2": [
                978
            ], 
            "BM1L": [
                1163
            ], 
            "WBO": [
                3041, 
                3075, 
                703, 
                275, 
                802, 
                275
            ], 
            "WBL": [
                400
            ], 
            "AM2F": [
                1562
            ], 
            "M1_ADJ": [
                1
            ]
        }, 
        "sentence": "it has a beautiful design , lot of feature , very easy to use , very configurable and customizable , and the battery duration is amazing !"
    }
}