{
    "1a0d68ac376b768e92b8dca25c428ee4": {
        "(21, 17)": {
            "WBF": [
                1114
            ], 
            "AM2L": [
                1463
            ], 
            "BM1F": [
                275
            ], 
            "M1": [
                350
            ], 
            "M2": [
                1092
            ], 
            "BM1L": [
                2246
            ], 
            "WBO": [
                2552
            ], 
            "WBL": [
                2265
            ], 
            "AM2F": [
                2119
            ], 
            "M1_ADJ": [
                0
            ]
        }, 
        "location1": [
            21
        ], 
        "location2": [
            17
        ], 
        "sentence": "1 ) slr like programming and exposure control gives you latitude to be creative , yet its progam and auto exposure setting provide excellent photo if you do n't want to bother with the setting ."
    }
}