{
    "1bf2d650dc6dd01868ac513222995eda": {
        "(12, 5)": {
            "WBF": [
                1449
            ], 
            "BM1F": [
                137
            ], 
            "M1": [
                503
            ], 
            "M2": [
                1092
            ], 
            "BM1L": [
                126
            ], 
            "WBO": [
                2878, 
                2882, 
                541
            ], 
            "WBL": [
                273
            ], 
            "AM2F": [
                616
            ], 
            "M1_ADJ": [
                0
            ]
        }, 
        "location1": [
            12
        ], 
        "location2": [
            5
        ], 
        "sentence": "however , for a $ 600 - $ 800 budget , i think this camera is an excellent choice ."
    }
}