{
    "656e72834c7ff8e049c4a59974414993": {
        "location1": [
            12
        ], 
        "location2": [
            30
        ], 
        "(12, 30)": {
            "WBF": [
                2281
            ], 
            "AM2L": [
                204
            ], 
            "BM1F": [
                1232
            ], 
            "M1": [
                1092
            ], 
            "M2": [
                2017
            ], 
            "BM1L": [
                1712
            ], 
            "WBO": [
                2133, 
                275, 
                150, 
                659, 
                1971, 
                1001, 
                1971, 
                3041, 
                275, 
                2866, 
                1214, 
                2909, 
                1297, 
                210
            ], 
            "WBL": [
                1758
            ], 
            "AM2F": [
                2909
            ], 
            "M1_ADJ": [
                1
            ]
        }, 
        "sentence": "i 'd highly recommend this camera for anyone who is looking for excellent quality picture and a combination of ease of use and the flexibility to get advanced with many option to adjust if you like ."
    }, 
    "c9a1ccede0c517d9a890c1dbe5559a48": {
        "(0, 4)": {
            "WBF": [
                2301
            ], 
            "AM2L": [
                3138
            ], 
            "M1": [
                1092
            ], 
            "M2": [
                2017
            ], 
            "WBO": [
                1971
            ], 
            "WBL": [
                1804
            ], 
            "AM2F": [
                325
            ], 
            "M1_ADJ": [
                1
            ]
        }, 
        "location1": [
            0
        ], 
        "location2": [
            4
        ], 
        "sentence": "excellent range of metering option as well ."
    }
}