{
    "7f28bc07721c2e384997b2808526e775": {
        "(1, 6)": {
            "WBF": [
                3239
            ], 
            "AM2L": [
                1566
            ], 
            "BM1F": [
                2866
            ], 
            "M1": [
                1116
            ], 
            "M2": [
                1654
            ], 
            "WBO": [
                2301
            ], 
            "WBL": [
                1158
            ], 
            "AM2F": [
                2280
            ], 
            "M1_ADJ": [
                1
            ]
        }, 
        "location1": [
            1
        ], 
        "location2": [
            6
        ], 
        "sentence": "the extended zoom range and faster lense put it at the top of it 's class ."
    }
}