{
    "92a84f4bcdb0e8397f661e972a956f52": {
        "location1": [
            3
        ], 
        "location2": [
            9
        ], 
        "(3, 9)": {
            "WBF": [
                541
            ], 
            "BM1F": [
                150
            ], 
            "M1": [
                1152
            ], 
            "M2": [
                2225
            ], 
            "BM1L": [
                1562
            ], 
            "WBO": [
                275, 
                3138
            ], 
            "WBL": [
                2866
            ], 
            "M1_ADJ": [
                1
            ]
        }, 
        "sentence": "it is a fantastic camera and well worth the price ."
    }
}