{
    "bf6a7e1803fcb60ab4e76c2f4119489b": {
        "location1": [
            0
        ], 
        "location2": [
            7
        ], 
        "(0, 7)": {
            "WBF": [
                275
            ], 
            "AM2L": [
                2862
            ], 
            "M1": [
                1199
            ], 
            "M2": [
                2128
            ], 
            "WBO": [
                1233, 
                1566, 
                3168
            ], 
            "WBL": [
                436
            ], 
            "AM2F": [
                4
            ], 
            "M1_ADJ": [
                1
            ]
        }, 
        "sentence": "first and foremost , it will take better pic 's than most film camera 's ."
    }
}