{
    "d189707ad42028eec72db14fec45c699": {
        "(22, 20)": {
            "AM2L": [
                3181
            ], 
            "WBFL": [
                1370
            ], 
            "BM1F": [
                1280
            ], 
            "M1": [
                2240
            ], 
            "M2": [
                1210
            ], 
            "BM1L": [
                2866
            ], 
            "AM2F": [
                1470
            ], 
            "M1_ADJ": [
                0
            ]
        }, 
        "location1": [
            22
        ], 
        "location2": [
            20
        ], 
        "sentence": "relative to what i can easily achieve with external flash on my nikon slr , the internal flash on the g3 produce harsh , flat image with ugly hot spot ."
    }
}