{
    "d189707ad42028eec72db14fec45c699": {
        "location1": [
            22
        ], 
        "location2": [
            9, 
            16
        ], 
        "(22, 9)": {
            "WBF": [
                1987
            ], 
            "AM2L": [
                3181
            ], 
            "BM1F": [
                1119
            ], 
            "M1": [
                1208
            ], 
            "M2": [
                1210
            ], 
            "BM1L": [
                3181
            ], 
            "WBO": [
                1878, 
                1914, 
                2635, 
                2866, 
                1547, 
                1208, 
                1987, 
                2866, 
                1280
            ], 
            "WBL": [
                1370
            ], 
            "AM2F": [
                1470
            ], 
            "M1_ADJ": [
                0
            ]
        }, 
        "(22, 16)": {
            "WBF": [
                1987
            ], 
            "AM2L": [
                3181
            ], 
            "BM1F": [
                1547
            ], 
            "M1": [
                1208
            ], 
            "M2": [
                1210
            ], 
            "BM1L": [
                2866
            ], 
            "WBO": [
                2866, 
                1280
            ], 
            "WBL": [
                1370
            ], 
            "AM2F": [
                1470
            ], 
            "M1_ADJ": [
                0
            ]
        }, 
        "sentence": "relative to what i can easily achieve with external flash on my nikon slr , the internal flash on the g3 produce harsh , flat image with ugly hot spot ."
    }
}