{
    "fd4b6a0cabf9bc153ad62af16b426e57": {
        "(4, 11)": {
            "WBF": [
                350
            ], 
            "AM2L": [
                2037
            ], 
            "BM1F": [
                2866
            ], 
            "M1": [
                1268
            ], 
            "M2": [
                2133
            ], 
            "BM1L": [
                1185
            ], 
            "WBO": [
                2552, 
                3168, 
                1305
            ], 
            "WBL": [
                2104
            ], 
            "AM2F": [
                2447
            ], 
            "M1_ADJ": [
                1
            ]
        }, 
        "location1": [
            4
        ], 
        "location2": [
            11
        ], 
        "sentence": "newbie will find the full auto setting will give them perfect picture right out of the box ."
    }, 
    "4f4ce92984a186b080eef02938290fa5": {
        "(24, 29)": {
            "WBF": [
                1752
            ], 
            "AM2L": [
                2928
            ], 
            "BM1F": [
                253
            ], 
            "M1": [
                1268
            ], 
            "M2": [
                2133
            ], 
            "BM1L": [
                275
            ], 
            "WBO": [
                735
            ], 
            "WBL": [
                2866
            ], 
            "AM2F": [
                150
            ], 
            "M1_ADJ": [
                1
            ]
        }, 
        "location1": [
            24
        ], 
        "location2": [
            29
        ], 
        "sentence": "just a little overview , powershot g3 is the flagship of canon 's powershot series and its an slr-like camera , its 4 megapixel and ( alsmost ) full manual control gives the picture a touch of brilliance ."
    }
}