{
    "ea03c1eca4f4843d18fa28fa8e577b5c": {
        "(38, 55)": {
            "WBF": [
                2653
            ], 
            "AM2L": [
                312
            ], 
            "BM1F": [
                3181
            ], 
            "M1": [
                1333
            ], 
            "M2": [
                2714
            ], 
            "BM1L": [
                664
            ], 
            "WBO": [
                1935, 
                2909, 
                402, 
                2051, 
                275, 
                1626, 
                522, 
                528, 
                1154, 
                1935, 
                1641, 
                2334, 
                1878
            ], 
            "WBL": [
                4
            ], 
            "AM2F": [
                1971
            ], 
            "M1_ADJ": [
                1
            ]
        }, 
        "location1": [
            25, 
            38
        ], 
        "location2": [
            55
        ], 
        "(25, 55)": {
            "WBF": [
                2818
            ], 
            "AM2L": [
                312
            ], 
            "BM1F": [
                150
            ], 
            "M1": [
                1333
            ], 
            "M2": [
                2714
            ], 
            "BM1L": [
                1371
            ], 
            "WBO": [
                1636, 
                2501, 
                150, 
                1719, 
                1971, 
                1163, 
                275, 
                194, 
                2017, 
                664, 
                3181, 
                1333, 
                2653, 
                1935, 
                2909, 
                402, 
                2051, 
                275, 
                1626, 
                522, 
                528, 
                1154, 
                1935, 
                1641, 
                2334, 
                1878
            ], 
            "WBL": [
                4
            ], 
            "AM2F": [
                1971
            ], 
            "M1_ADJ": [
                1
            ]
        }, 
        "sentence": "4mp , 4x optical zoom , takes absolutely beautiful photo with detail that challenge all of the above 5mp camera , easy to understand and use ( has a great swivel lcd screen ) , a lot of feature and add-on option , comes with great software ( not to be overlooked ) , and last but by far not least , received my fiance 's stamp of approval ( two thumb up ! )"
    }
}