{
    "5e8d37c7fc800e394540cc47e42d3496": {
        "(2, 30)": {
            "WBF": [
                2133
            ], 
            "BM1F": [
                1307
            ], 
            "M1": [
                1333
            ], 
            "M2": [
                564
            ], 
            "BM1L": [
                1566
            ], 
            "WBO": [
                2866, 
                735, 
                316, 
                1005, 
                2909, 
                3041, 
                2866, 
                400, 
                1626, 
                1234, 
                1987, 
                1994, 
                2610, 
                595, 
                2866, 
                2653, 
                1562, 
                3075, 
                3047, 
                275, 
                1566, 
                1562, 
                406, 
                1490
            ], 
            "WBL": [
                620
            ], 
            "M1_ADJ": [
                1
            ]
        }, 
        "location1": [
            2
        ], 
        "location2": [
            30
        ], 
        "sentence": "it gives great picture , the control are easy to use , the battery last forever on one single charge , the software is very user-friendly and it is beautiful in it chrome casing ."
    }
}