{
    "0edeb8de7afc625a933b4c41f00abaf8": {
        "(16, 10)": {
            "WBF": [
                2613
            ], 
            "AM2L": [
                1490
            ], 
            "BM1F": [
                2866
            ], 
            "M1": [
                1998
            ], 
            "M2": [
                1333
            ], 
            "BM1L": [
                325
            ], 
            "WBO": [
                2731, 
                956
            ], 
            "WBL": [
                1551
            ], 
            "AM2F": [
                861
            ], 
            "M1_ADJ": [
                0
            ]
        }, 
        "location1": [
            16
        ], 
        "location2": [
            10
        ], 
        "sentence": "i wo n't go into the detail here , as the online site ( stevesdigicams , dpreviews ) go into great depth in their review , but i am very pleased with the feature , the speed , the picture quality , the flexibility , the automation , and the functional convenience this camera offer ."
    }
}