{
    "a3966ba04d7e675a36911883e1bc65b2": {
        "location1": [
            11
        ], 
        "location2": [
            24
        ], 
        "(11, 24)": {
            "WBF": [
                1566
            ], 
            "AM2L": [
                1326
            ], 
            "BM1F": [
                2650
            ], 
            "M1": [
                1333
            ], 
            "M2": [
                2443
            ], 
            "BM1L": [
                316
            ], 
            "WBO": [
                688, 
                1020, 
                1878, 
                945, 
                154, 
                894, 
                1474, 
                1444, 
                758
            ], 
            "WBL": [
                1007
            ], 
            "AM2F": [
                1994
            ], 
            "M1_ADJ": [
                1
            ]
        }, 
        "sentence": "a ) the picture quality ( color and sharpness of focusing ) are so great , it completely eliminated my doubt about digital imaging -- - how could one eat rice one grain at a time : - ) )"
    }
}