{
    "0edeb8de7afc625a933b4c41f00abaf8": {
        "(16, 20)": {
            "WBF": [
                861
            ], 
            "AM2L": [
                1449
            ], 
            "BM1F": [
                1551
            ], 
            "M1": [
                1333
            ], 
            "M2": [
                2438
            ], 
            "BM1L": [
                1315
            ], 
            "WBO": [
                1490
            ], 
            "WBL": [
                2868
            ], 
            "AM2F": [
                522
            ], 
            "M1_ADJ": [
                1
            ]
        }, 
        "location1": [
            16
        ], 
        "location2": [
            20
        ], 
        "sentence": "i wo n't go into the detail here , as the online site ( stevesdigicams , dpreviews ) go into great depth in their review , but i am very pleased with the feature , the speed , the picture quality , the flexibility , the automation , and the functional convenience this camera offer ."
    }
}