{
    "d0b638f07549767cb3b25c3f2d07ce93": {
        "(5, 2)": {
            "WBF": [
                1562
            ], 
            "BM1F": [
                2207
            ], 
            "M1": [
                1280
            ], 
            "M2": [
                1333
            ], 
            "BM1L": [
                2866
            ], 
            "WBO": [
                150
            ], 
            "WBL": [
                150
            ], 
            "AM2F": [
                541
            ], 
            "M1_ADJ": [
                0
            ]
        }, 
        "location1": [
            5
        ], 
        "location2": [
            2
        ], 
        "sentence": "the powershot g3 is a great camera ."
    }
}