{
    "c97426f7e6b7627ae5bb73ee0fe03b0b": {
        "(5, 21)": {
            "WBF": [
                2119
            ], 
            "AM2L": [
                3181
            ], 
            "BM1F": [
                2834
            ], 
            "M1": [
                1333
            ], 
            "M2": [
                1603
            ], 
            "BM1L": [
                2909
            ], 
            "WBO": [
                1971, 
                2866, 
                110, 
                1971, 
                1589, 
                1195, 
                3191, 
                275, 
                1322, 
                2659, 
                266, 
                2586
            ], 
            "WBL": [
                2866
            ], 
            "AM2F": [
                2161
            ], 
            "M1_ADJ": [
                1
            ]
        }, 
        "location1": [
            5
        ], 
        "location2": [
            21
        ], 
        "sentence": "i was able to take great photo of the 4th of july fire work , and got some amazing shot of the kid playing with sparkler ."
    }
}