{
    "333e87ce30ba03bd6f411b6b04304e07": {
        "location1": [
            5
        ], 
        "location2": [
            8
        ], 
        "(5, 8)": {
            "WBF": [
                1167
            ], 
            "AM2L": [
                1566
            ], 
            "BM1F": [
                150
            ], 
            "M1": [
                1333
            ], 
            "M2": [
                3135
            ], 
            "BM1L": [
                1371
            ], 
            "WBO": [
                275
            ], 
            "WBL": [
                275
            ], 
            "AM2F": [
                2909
            ], 
            "M1_ADJ": [
                1
            ]
        }, 
        "sentence": "this camera also has a great feel and weight to it ."
    }
}