{
    "a3966ba04d7e675a36911883e1bc65b2": {
        "(11, 16)": {
            "WBF": [
                1566
            ], 
            "AM2L": [
                894
            ], 
            "BM1F": [
                2650
            ], 
            "M1": [
                1333
            ], 
            "M2": [
                945
            ], 
            "BM1L": [
                316
            ], 
            "WBO": [
                688
            ], 
            "WBL": [
                1878
            ], 
            "AM2F": [
                154
            ], 
            "M1_ADJ": [
                1
            ]
        }, 
        "location1": [
            11
        ], 
        "location2": [
            16
        ], 
        "sentence": "a ) the picture quality ( color and sharpness of focusing ) are so great , it completely eliminated my doubt about digital imaging -- - how could one eat rice one grain at a time : - ) )"
    }
}