{
    "be379679dac602b9b58a047cfe52bfb9": {
        "location1": [
            13
        ], 
        "location2": [
            27
        ], 
        "(13, 27)": {
            "WBF": [
                2696
            ], 
            "AM2L": [
                475
            ], 
            "BM1F": [
                1232
            ], 
            "M1": [
                1407
            ], 
            "M2": [
                541
            ], 
            "BM1L": [
                2233
            ], 
            "WBO": [
                2774, 
                296, 
                2233, 
                1232, 
                1222, 
                1651, 
                2019, 
                1268, 
                2247, 
                1836
            ], 
            "WBL": [
                2866
            ], 
            "AM2F": [
                2529
            ], 
            "M1_ADJ": [
                1
            ]
        }, 
        "sentence": "with a quick spin of the dial you can select shutter priority ( for high speed subject ) , aperture priority ( for focal length ) or full program mode where the camera selects both for ideal photo quality ."
    }
}