{
    "be379679dac602b9b58a047cfe52bfb9": {
        "location1": [
            13
        ], 
        "location2": [
            31
        ], 
        "(13, 31)": {
            "WBF": [
                2696
            ], 
            "AM2L": [
                2281
            ], 
            "BM1F": [
                1232
            ], 
            "M1": [
                1407
            ], 
            "M2": [
                1459
            ], 
            "BM1L": [
                2233
            ], 
            "WBO": [
                2774, 
                296, 
                2233, 
                1232, 
                1222, 
                1651, 
                2019, 
                1268, 
                2247, 
                1836, 
                3149, 
                2866, 
                541, 
                2529
            ], 
            "WBL": [
                1232
            ], 
            "AM2F": [
                2119
            ], 
            "M1_ADJ": [
                1
            ]
        }, 
        "sentence": "with a quick spin of the dial you can select shutter priority ( for high speed subject ) , aperture priority ( for focal length ) or full program mode where the camera selects both for ideal photo quality ."
    }
}