{
    "96a3c89de3083b68a7e7476e1f55d023": {
        "location1": [
            19
        ], 
        "location2": [
            25
        ], 
        "(19, 25)": {
            "WBF": [
                894
            ], 
            "BM1F": [
                2866
            ], 
            "M1": [
                1414
            ], 
            "M2": [
                461
            ], 
            "BM1L": [
                337
            ], 
            "WBO": [
                3239, 
                316
            ], 
            "WBL": [
                1690
            ], 
            "M1_ADJ": [
                1
            ]
        }, 
        "sentence": "the optical zoom work great and the 14x digital zoom is a very nice addition although picture at the highest digital zoom are a little blurry ."
    }
}