{
    "5f746eb360f99eec03f4c5b8efb8f138": {
        "location1": [
            10
        ], 
        "location2": [
            11
        ], 
        "(10, 11)": {
            "AM2L": [
                1470
            ], 
            "BM1F": [
                3075
            ], 
            "M1": [
                1407
            ], 
            "M2": [
                2281
            ], 
            "BM1L": [
                1232
            ], 
            "WBNULL": [
                1
            ], 
            "AM2F": [
                632
            ], 
            "M1_ADJ": [
                1
            ]
        }, 
        "sentence": "i chose the g3 because of its reputation for very high quality , clean image ."
    }, 
    "be379679dac602b9b58a047cfe52bfb9": {
        "(13, 33)": {
            "WBF": [
                2696
            ], 
            "BM1F": [
                1232
            ], 
            "M1": [
                1407
            ], 
            "M2": [
                2281
            ], 
            "BM1L": [
                2233
            ], 
            "WBO": [
                2774, 
                296, 
                2233, 
                1232, 
                1222, 
                1651, 
                2019, 
                1268, 
                2247, 
                1836, 
                3149, 
                2866, 
                541, 
                2529, 
                475, 
                1232
            ], 
            "WBL": [
                2119
            ], 
            "M1_ADJ": [
                1
            ]
        }, 
        "location1": [
            13
        ], 
        "location2": [
            33
        ], 
        "sentence": "with a quick spin of the dial you can select shutter priority ( for high speed subject ) , aperture priority ( for focal length ) or full program mode where the camera selects both for ideal photo quality ."
    }
}