{
    "5f746eb360f99eec03f4c5b8efb8f138": {
        "(10, 13)": {
            "WBF": [
                2281
            ], 
            "BM1F": [
                3075
            ], 
            "M1": [
                1407
            ], 
            "M2": [
                1470
            ], 
            "BM1L": [
                1232
            ], 
            "WBO": [
                632
            ], 
            "WBL": [
                632
            ], 
            "M1_ADJ": [
                1
            ]
        }, 
        "location1": [
            10
        ], 
        "location2": [
            13
        ], 
        "sentence": "i chose the g3 because of its reputation for very high quality , clean image ."
    }
}