{
    "be379679dac602b9b58a047cfe52bfb9": {
        "(31, 32)": {
            "BM1F": [
                1232
            ], 
            "M1": [
                1459
            ], 
            "M2": [
                2119
            ], 
            "BM1L": [
                475
            ], 
            "WBNULL": [
                1
            ], 
            "AM2F": [
                2281
            ], 
            "M1_ADJ": [
                1
            ]
        }, 
        "location1": [
            31
        ], 
        "location2": [
            32
        ], 
        "sentence": "with a quick spin of the dial you can select shutter priority ( for high speed subject ) , aperture priority ( for focal length ) or full program mode where the camera selects both for ideal photo quality ."
    }
}