{
    "d189707ad42028eec72db14fec45c699": {
        "(15, 27)": {
            "WBF": [
                1208
            ], 
            "BM1F": [
                2866
            ], 
            "M1": [
                1547
            ], 
            "M2": [
                2705
            ], 
            "BM1L": [
                2635
            ], 
            "WBO": [
                1987, 
                2866, 
                1280, 
                2240, 
                1370, 
                1210, 
                1470, 
                3181
            ], 
            "WBL": [
                1440
            ], 
            "M1_ADJ": [
                1
            ]
        }, 
        "location1": [
            15
        ], 
        "location2": [
            27
        ], 
        "sentence": "relative to what i can easily achieve with external flash on my nikon slr , the internal flash on the g3 produce harsh , flat image with ugly hot spot ."
    }
}