{
    "8cff8b3bb4b722f290108da2b2fcc548": {
        "(35, 19)": {
            "WBF": [
                3181
            ], 
            "AM2L": [
                2523
            ], 
            "BM1F": [
                1490
            ], 
            "M1": [
                708
            ], 
            "M2": [
                1572
            ], 
            "BM1L": [
                1280
            ], 
            "WBO": [
                1878, 
                2244, 
                1208, 
                2824, 
                275, 
                543, 
                1004, 
                2280, 
                3029, 
                3181, 
                2866, 
                541
            ], 
            "WBL": [
                407
            ], 
            "AM2F": [
                1902
            ], 
            "M1_ADJ": [
                0
            ]
        }, 
        "location1": [
            35
        ], 
        "location2": [
            19
        ], 
        "sentence": "i am stunned and amazed at the quality of the raw image i am getting from this g3 ( in conjunction with my professional flash system ) , and can easily put up with the camera limitation , because ive never seen anything better within its resolution limit ."
    }
}