{
    "ea03c1eca4f4843d18fa28fa8e577b5c": {
        "(45, 26)": {
            "WBF": [
                1636
            ], 
            "AM2L": [
                528
            ], 
            "BM1F": [
                1333
            ], 
            "M1": [
                2818
            ], 
            "M2": [
                1626
            ], 
            "BM1L": [
                150
            ], 
            "WBO": [
                2501, 
                150, 
                1719, 
                1971, 
                1163, 
                275, 
                194, 
                2017, 
                664, 
                3181, 
                1333, 
                2653, 
                1935, 
                2909, 
                402
            ], 
            "WBL": [
                275
            ], 
            "AM2F": [
                522
            ], 
            "M1_ADJ": [
                0
            ]
        }, 
        "location1": [
            45
        ], 
        "location2": [
            26
        ], 
        "sentence": "4mp , 4x optical zoom , takes absolutely beautiful photo with detail that challenge all of the above 5mp camera , easy to understand and use ( has a great swivel lcd screen ) , a lot of feature and add-on option , comes with great software ( not to be overlooked ) , and last but by far not least , received my fiance 's stamp of approval ( two thumb up ! )"
    }
}