{
    "ca42696d0e457f98f2255b29dfa3f6dc": {
        "(2, 15)": {
            "WBF": [
                3231
            ], 
            "BM1F": [
                337
            ], 
            "M1": [
                1641
            ], 
            "M2": [
                541
            ], 
            "BM1L": [
                522
            ], 
            "WBO": [
                2722, 
                3181, 
                2866, 
                1854, 
                2126, 
                1470, 
                1572, 
                1079, 
                2523
            ], 
            "WBL": [
                150
            ], 
            "M1_ADJ": [
                1
            ]
        }, 
        "location1": [
            2
        ], 
        "location2": [
            15
        ], 
        "sentence": "but at least youre starting with the most photorealistic image ive ever seen from a camera ."
    }, 
    "ea03c1eca4f4843d18fa28fa8e577b5c": {
        "(50, 17)": {
            "WBF": [
                1005
            ], 
            "AM2L": [
                1878
            ], 
            "BM1F": [
                120
            ], 
            "M1": [
                541
            ], 
            "M2": [
                1641
            ], 
            "BM1L": [
                155
            ], 
            "WBO": [
                2909, 
                2999, 
                275, 
                3041, 
                1371, 
                150, 
                1333, 
                2818, 
                1636, 
                2501, 
                150, 
                1719, 
                1971, 
                1163, 
                275, 
                194, 
                2017, 
                664, 
                3181, 
                1333, 
                2653, 
                1935, 
                2909, 
                402, 
                2051, 
                275, 
                1626, 
                522, 
                528
            ], 
            "WBL": [
                1935
            ], 
            "AM2F": [
                2334
            ], 
            "M1_ADJ": [
                0
            ]
        }, 
        "location1": [
            50
        ], 
        "location2": [
            17
        ], 
        "sentence": "4mp , 4x optical zoom , takes absolutely beautiful photo with detail that challenge all of the above 5mp camera , easy to understand and use ( has a great swivel lcd screen ) , a lot of feature and add-on option , comes with great software ( not to be overlooked ) , and last but by far not least , received my fiance 's stamp of approval ( two thumb up ! )"
    }
}