{
    "ea03c1eca4f4843d18fa28fa8e577b5c": {
        "location1": [
            50
        ], 
        "location2": [
            27
        ], 
        "(50, 27)": {
            "WBF": [
                2501
            ], 
            "AM2L": [
                1878
            ], 
            "BM1F": [
                2818
            ], 
            "M1": [
                1636
            ], 
            "M2": [
                1641
            ], 
            "BM1L": [
                1333
            ], 
            "WBO": [
                150, 
                1719, 
                1971, 
                1163, 
                275, 
                194, 
                2017, 
                664, 
                3181, 
                1333, 
                2653, 
                1935, 
                2909, 
                402, 
                2051, 
                275, 
                1626, 
                522, 
                528
            ], 
            "WBL": [
                1935
            ], 
            "AM2F": [
                2334
            ], 
            "M1_ADJ": [
                0
            ]
        }, 
        "sentence": "4mp , 4x optical zoom , takes absolutely beautiful photo with detail that challenge all of the above 5mp camera , easy to understand and use ( has a great swivel lcd screen ) , a lot of feature and add-on option , comes with great software ( not to be overlooked ) , and last but by far not least , received my fiance 's stamp of approval ( two thumb up ! )"
    }
}