{
    "147a916c1effce3110d2582e4b8b49a5": {
        "location1": [
            11
        ], 
        "location2": [
            15
        ], 
        "(11, 15)": {
            "WBF": [
                750
            ], 
            "AM2L": [
                33
            ], 
            "BM1F": [
                478
            ], 
            "M1": [
                1646
            ], 
            "M2": [
                2133
            ], 
            "BM1L": [
                2866
            ], 
            "WBO": [
                1971
            ], 
            "WBL": [
                2866
            ], 
            "AM2F": [
                154
            ], 
            "M1_ADJ": [
                1
            ]
        }, 
        "sentence": "when you look through the viewfinder ( not the lcd ) the bottom left corner of the picture ( about 15 % ) is blocked by the lens ."
    }
}