{
    "147a916c1effce3110d2582e4b8b49a5": {
        "(11, 8)": {
            "WBF": [
                2866
            ], 
            "AM2L": [
                1971
            ], 
            "BM1F": [
                2866
            ], 
            "M1": [
                1636
            ], 
            "M2": [
                1646
            ], 
            "BM1L": [
                1935
            ], 
            "WBO": [
                478
            ], 
            "WBL": [
                478
            ], 
            "AM2F": [
                750
            ], 
            "M1_ADJ": [
                0
            ]
        }, 
        "location1": [
            11
        ], 
        "location2": [
            8
        ], 
        "sentence": "when you look through the viewfinder ( not the lcd ) the bottom left corner of the picture ( about 15 % ) is blocked by the lens ."
    }, 
    "48c9089c4729e58f320f3da81288ee13": {
        "(18, 26)": {
            "WBF": [
                750
            ], 
            "AM2L": [
                1562
            ], 
            "BM1F": [
                1726
            ], 
            "M1": [
                1646
            ], 
            "M2": [
                1636
            ], 
            "BM1L": [
                2866
            ], 
            "WBO": [
                1490, 
                2866, 
                1653, 
                3085
            ], 
            "WBL": [
                2866
            ], 
            "AM2F": [
                3085
            ], 
            "M1_ADJ": [
                1
            ]
        }, 
        "location1": [
            18
        ], 
        "location2": [
            26
        ], 
        "sentence": "to address two previous somewhat negative review : ( 1 ) yes , the lens barrel does obstruct part of the lower left corner in the lens viewfinder ; however , the lcd viewfinder is rather stunning and i find myself rarely using the lens viewfinder ."
    }
}