{
    "0c497fa3be9389b212b112840b0bb06e": {
        "(3, 19)": {
            "WBF": [
                788
            ], 
            "BM1F": [
                1999
            ], 
            "M1": [
                1648
            ], 
            "M2": [
                3085
            ], 
            "BM1L": [
                2866
            ], 
            "WBO": [
                1261, 
                2866, 
                1998, 
                2438, 
                1562, 
                2864, 
                1132, 
                2864, 
                2866, 
                1653, 
                2325, 
                936
            ], 
            "WBL": [
                2866
            ], 
            "M1_ADJ": [
                1
            ]
        }, 
        "location1": [
            3
        ], 
        "location2": [
            19
        ], 
        "sentence": "about the only legitimate criticsm from the online review is that fact that the lens really does obstruct the viewfinder ."
    }
}