{
    "0c497fa3be9389b212b112840b0bb06e": {
        "(3, 11)": {
            "WBF": [
                788
            ], 
            "AM2L": [
                2866
            ], 
            "BM1F": [
                1999
            ], 
            "M1": [
                1648
            ], 
            "M2": [
                1132
            ], 
            "BM1L": [
                2866
            ], 
            "WBO": [
                1261, 
                2866, 
                1998, 
                2438
            ], 
            "WBL": [
                2864
            ], 
            "AM2F": [
                2864
            ], 
            "M1_ADJ": [
                1
            ]
        }, 
        "location1": [
            3
        ], 
        "location2": [
            11
        ], 
        "sentence": "about the only legitimate criticsm from the online review is that fact that the lens really does obstruct the viewfinder ."
    }
}