{
    "0c497fa3be9389b212b112840b0bb06e": {
        "(3, 4)": {
            "AM2L": [
                2866
            ], 
            "BM1F": [
                1999
            ], 
            "M1": [
                1648
            ], 
            "M2": [
                788
            ], 
            "BM1L": [
                2866
            ], 
            "WBNULL": [
                1
            ], 
            "AM2F": [
                1261
            ], 
            "M1_ADJ": [
                1
            ]
        }, 
        "location1": [
            3
        ], 
        "location2": [
            4
        ], 
        "sentence": "about the only legitimate criticsm from the online review is that fact that the lens really does obstruct the viewfinder ."
    }
}