{
    "031b904a61e903f18f947e9c55fd4cfa": {
        "(4, 14)": {
            "WBF": [
                2614
            ], 
            "AM2L": [
                2866
            ], 
            "BM1F": [
                1724
            ], 
            "M1": [
                1665
            ], 
            "M2": [
                541
            ], 
            "BM1L": [
                2864
            ], 
            "WBO": [
                661, 
                3181, 
                286, 
                2673, 
                1971, 
                181
            ], 
            "WBL": [
                2882
            ], 
            "AM2F": [
                1490
            ], 
            "M1_ADJ": [
                1
            ]
        }, 
        "location1": [
            4
        ], 
        "location2": [
            14
        ], 
        "sentence": "i found that low light situation combined with any sort of action left this camera in the dust ."
    }
}