{
    "4f4ce92984a186b080eef02938290fa5": {
        "(2, 31)": {
            "WBF": [
                2056
            ], 
            "AM2L": [
                492
            ], 
            "BM1F": [
                150
            ], 
            "M1": [
                1690
            ], 
            "M2": [
                2928
            ], 
            "BM1L": [
                1591
            ], 
            "WBO": [
                2207, 
                1280, 
                1562, 
                2866, 
                1207, 
                1971, 
                546, 
                4, 
                2207, 
                2544, 
                275, 
                1569, 
                273, 
                2636, 
                541, 
                1569, 
                95, 
                1786, 
                275, 
                253, 
                1268, 
                1752, 
                735, 
                1307, 
                2866
            ], 
            "WBL": [
                150
            ], 
            "AM2F": [
                1971
            ], 
            "M1_ADJ": [
                1
            ]
        }, 
        "location1": [
            2
        ], 
        "location2": [
            31
        ], 
        "sentence": "just a little overview , powershot g3 is the flagship of canon 's powershot series and its an slr-like camera , its 4 megapixel and ( alsmost ) full manual control gives the picture a touch of brilliance ."
    }
}