{
    "7ce68523e9bd23cb9fa8f5c8bfadfa9f": {
        "(14, 28)": {
            "WBF": [
                1618
            ], 
            "AM2L": [
                2866
            ], 
            "BM1F": [
                3075
            ], 
            "M1": [
                1706
            ], 
            "M2": [
                2281
            ], 
            "BM1L": [
                2866
            ], 
            "WBO": [
                2901, 
                415, 
                1566, 
                1225, 
                1075, 
                1490, 
                490, 
                1665, 
                275, 
                2866
            ], 
            "WBL": [
                1665
            ], 
            "AM2F": [
                1971
            ], 
            "M1_ADJ": [
                1
            ]
        }, 
        "location1": [
            14
        ], 
        "location2": [
            28
        ], 
        "sentence": "the two limitation i knew i would have to deal with are the very long lag time before it focus-locks ( even in bright light ) , and the unsatisfactory light quality of the built-in flash ."
    }
}