{
    "ca1eaed91c3e55f4cceab5acd302386c": {
        "(6, 3)": {
            "WBF": [
                1227
            ], 
            "AM2L": [
                275
            ], 
            "BM1F": [
                1348
            ], 
            "M1": [
                2236
            ], 
            "M2": [
                1724
            ], 
            "BM1L": [
                1280
            ], 
            "WBO": [
                1490
            ], 
            "WBL": [
                1490
            ], 
            "AM2F": [
                1665
            ], 
            "M1_ADJ": [
                0
            ]
        }, 
        "location1": [
            6
        ], 
        "location2": [
            3
        ], 
        "sentence": "the g3 had problem focusing in low light and would not take the picture when the shutter was pressed but after the shutter had been released a few second ."
    }
}