{
    "215563975507a7e8899c222ac12a65c5": {
        "(0, 1)": {
            "AM2L": [
                1935
            ], 
            "M1": [
                1742
            ], 
            "M2": [
                879
            ], 
            "WBNULL": [
                1
            ], 
            "AM2F": [
                1562
            ], 
            "M1_ADJ": [
                1
            ]
        }, 
        "location1": [
            0
        ], 
        "location2": [
            1
        ], 
        "sentence": "* main dial is not backlit ."
    }
}