{
    "67b82e06f82e9130f9d542e0ab393f06": {
        "(4, 5)": {
            "BM1F": [
                150
            ], 
            "M1": [
                1743
            ], 
            "M2": [
                864
            ], 
            "BM1L": [
                1371
            ], 
            "WBNULL": [
                1
            ], 
            "AM2F": [
                1211
            ], 
            "M1_ADJ": [
                1
            ]
        }, 
        "location1": [
            4
        ], 
        "location2": [
            5
        ], 
        "sentence": "this camera has a major design flaw ."
    }
}