{
    "744bdb63eb27c487cfb368662c9dcc70": {
        "(23, 11)": {
            "WBF": [
                3181
            ], 
            "AM2L": [
                1836
            ], 
            "BM1F": [
                2866
            ], 
            "M1": [
                2496
            ], 
            "M2": [
                1752
            ], 
            "BM1L": [
                1490
            ], 
            "WBO": [
                2866, 
                2278, 
                1971, 
                150, 
                523, 
                275, 
                1566, 
                1371
            ], 
            "WBL": [
                1990
            ], 
            "AM2F": [
                1223
            ], 
            "M1_ADJ": [
                0
            ]
        }, 
        "location1": [
            23
        ], 
        "location2": [
            11, 
            34
        ], 
        "(23, 34)": {
            "WBF": [
                1223
            ], 
            "AM2L": [
                1562
            ], 
            "BM1F": [
                1990
            ], 
            "M1": [
                1752
            ], 
            "M2": [
                2496
            ], 
            "BM1L": [
                273
            ], 
            "WBO": [
                1836, 
                2864, 
                3204, 
                402, 
                2325, 
                1400, 
                1463
            ], 
            "WBL": [
                150
            ], 
            "AM2F": [
                2864
            ], 
            "M1_ADJ": [
                1
            ]
        }, 
        "sentence": "you can move the focus range to almost anywhere in the scene with the push of a button , and it has an on-screen manual focus mode that would be really helpful if shooting a scene that is tough to automatically focus ."
    }
}