{
    "075cbfa6d23b531fc7100bc9ad7dcd00": {
        "location1": [
            1
        ], 
        "location2": [
            12
        ], 
        "(1, 12)": {
            "WBF": [
                1836
            ], 
            "AM2L": [
                2592
            ], 
            "BM1F": [
                2866
            ], 
            "M1": [
                1752
            ], 
            "M2": [
                2527
            ], 
            "WBO": [
                1562, 
                1005, 
                2909, 
                3041, 
                3181, 
                1156, 
                166
            ], 
            "WBL": [
                2866
            ], 
            "AM2F": [
                1971
            ], 
            "M1_ADJ": [
                1
            ]
        }, 
        "sentence": "the manual mode is easy to use with fast access for the selection of shutter speed and aperture without having to fumble through menu option ."
    }
}