{
    "4f4ce92984a186b080eef02938290fa5": {
        "location1": [
            25
        ], 
        "location2": [
            18
        ], 
        "(25, 18)": {
            "WBF": [
                1569
            ], 
            "AM2L": [
                1307
            ], 
            "BM1F": [
                2636
            ], 
            "M1": [
                541
            ], 
            "M2": [
                1752
            ], 
            "BM1L": [
                273
            ], 
            "WBO": [
                95, 
                1786, 
                275
            ], 
            "WBL": [
                1268
            ], 
            "AM2F": [
                735
            ], 
            "M1_ADJ": [
                0
            ]
        }, 
        "sentence": "just a little overview , powershot g3 is the flagship of canon 's powershot series and its an slr-like camera , its 4 megapixel and ( alsmost ) full manual control gives the picture a touch of brilliance ."
    }, 
    "1f8107d369d0a9aff676c54f789d4256": {
        "location1": [
            20
        ], 
        "location2": [
            1
        ], 
        "(20, 1)": {
            "WBF": [
                1562
            ], 
            "BM1F": [
                2866
            ], 
            "M1": [
                541
            ], 
            "M2": [
                1752
            ], 
            "WBO": [
                150, 
                962, 
                2909, 
                2006, 
                1490, 
                359, 
                522, 
                254, 
                1307, 
                2953, 
                1214, 
                1490, 
                296, 
                2233, 
                2592
            ], 
            "WBL": [
                275
            ], 
            "AM2F": [
                1836
            ], 
            "M1_ADJ": [
                0
            ]
        }, 
        "sentence": "the camera is a dream to operate in automode , but also gives tremendous flexibility in aperture priority , shutter priority , and manual mode ."
    }
}