{
    "075cbfa6d23b531fc7100bc9ad7dcd00": {
        "(1, 17)": {
            "WBF": [
                1836
            ], 
            "AM2L": [
                1377
            ], 
            "BM1F": [
                2866
            ], 
            "M1": [
                1752
            ], 
            "M2": [
                296
            ], 
            "WBO": [
                1562, 
                1005, 
                2909, 
                3041, 
                3181, 
                1156, 
                166, 
                1232, 
                2866, 
                2527, 
                1971, 
                2592
            ], 
            "WBL": [
                275
            ], 
            "AM2F": [
                3183
            ], 
            "M1_ADJ": [
                1
            ]
        }, 
        "location1": [
            1
        ], 
        "location2": [
            17
        ], 
        "sentence": "the manual mode is easy to use with fast access for the selection of shutter speed and aperture without having to fumble through menu option ."
    }, 
    "1f8107d369d0a9aff676c54f789d4256": {
        "(20, 15)": {
            "WBF": [
                2233
            ], 
            "BM1F": [
                1490
            ], 
            "M1": [
                296
            ], 
            "M2": [
                1752
            ], 
            "BM1L": [
                1214
            ], 
            "WBO": [
                2592
            ], 
            "WBL": [
                275
            ], 
            "AM2F": [
                1836
            ], 
            "M1_ADJ": [
                0
            ]
        }, 
        "location1": [
            20
        ], 
        "location2": [
            15
        ], 
        "sentence": "the camera is a dream to operate in automode , but also gives tremendous flexibility in aperture priority , shutter priority , and manual mode ."
    }
}