{
    "1f8107d369d0a9aff676c54f789d4256": {
        "(20, 16)": {
            "WBF": [
                2592
            ], 
            "BM1F": [
                296
            ], 
            "M1": [
                2233
            ], 
            "M2": [
                1752
            ], 
            "BM1L": [
                1490
            ], 
            "WBO": [
                2233
            ], 
            "WBL": [
                275
            ], 
            "AM2F": [
                1836
            ], 
            "M1_ADJ": [
                0
            ]
        }, 
        "location1": [
            20
        ], 
        "location2": [
            16, 
            18
        ], 
        "(20, 18)": {
            "WBFL": [
                275
            ], 
            "BM1F": [
                2592
            ], 
            "M1": [
                2233
            ], 
            "M2": [
                1752
            ], 
            "BM1L": [
                2233
            ], 
            "AM2F": [
                1836
            ], 
            "M1_ADJ": [
                0
            ]
        }, 
        "sentence": "the camera is a dream to operate in automode , but also gives tremendous flexibility in aperture priority , shutter priority , and manual mode ."
    }, 
    "41d67c7360f1eaff9b82be88ea00f3d7": {
        "location1": [
            29
        ], 
        "location2": [
            12, 
            14
        ], 
        "(29, 14)": {
            "WBF": [
                1665
            ], 
            "AM2L": [
                2376
            ], 
            "BM1F": [
                295
            ], 
            "M1": [
                2233
            ], 
            "M2": [
                1752
            ], 
            "BM1L": [
                2233
            ], 
            "WBO": [
                1804, 
                206, 
                1074, 
                522, 
                242, 
                735, 
                316, 
                3138, 
                2886, 
                2037, 
                275
            ], 
            "WBL": [
                2866
            ], 
            "AM2F": [
                1562
            ], 
            "M1_ADJ": [
                0
            ]
        }, 
        "(29, 12)": {
            "WBF": [
                295
            ], 
            "AM2L": [
                2376
            ], 
            "BM1F": [
                2592
            ], 
            "M1": [
                2233
            ], 
            "M2": [
                1752
            ], 
            "BM1L": [
                2017
            ], 
            "WBO": [
                2233, 
                1665, 
                1804, 
                206, 
                1074, 
                522, 
                242, 
                735, 
                316, 
                3138, 
                2886, 
                2037, 
                275
            ], 
            "WBL": [
                2866
            ], 
            "AM2F": [
                1562
            ], 
            "M1_ADJ": [
                0
            ]
        }, 
        "sentence": "i have yet to try using all of the adjustment option : shutter priority , aperature priority , light metering adjustment , etc . , but all control are well thought out and and the manual is relatively clear ."
    }
}