{
    "8125b34510fad206a46ff327585af3a6": {
        "(10, 7)": {
            "WBF": [
                275
            ], 
            "AM2L": [
                894
            ], 
            "BM1F": [
                3044
            ], 
            "M1": [
                1163
            ], 
            "M2": [
                1758
            ], 
            "BM1L": [
                1758
            ], 
            "WBO": [
                3015
            ], 
            "WBL": [
                3015
            ], 
            "AM2F": [
                2638
            ], 
            "M1_ADJ": [
                0
            ]
        }, 
        "(5, 7)": {
            "AM2L": [
                3015
            ], 
            "WBFL": [
                3044
            ], 
            "BM1F": [
                3181
            ], 
            "M1": [
                1758
            ], 
            "M2": [
                1163
            ], 
            "BM1L": [
                1695
            ], 
            "AM2F": [
                275
            ], 
            "M1_ADJ": [
                1
            ]
        }, 
        "location1": [
            5, 
            10
        ], 
        "location2": [
            7
        ], 
        "sentence": "the g3 is loaded with many useful feature , and unlike many smaller digital camera , it is easy to hold steady when using slower shutter speed ."
    }
}