{
    "da46710dc8d7f047b7d2852a70779dbb": {
        "(11, 6)": {
            "WBF": [
                1163
            ], 
            "AM2L": [
                1703
            ], 
            "BM1F": [
                2736
            ], 
            "M1": [
                2133
            ], 
            "M2": [
                1851
            ], 
            "BM1L": [
                744
            ], 
            "WBO": [
                2909
            ], 
            "WBL": [
                2037
            ], 
            "AM2F": [
                1591
            ], 
            "M1_ADJ": [
                0
            ]
        }, 
        "location1": [
            11
        ], 
        "location2": [
            6
        ], 
        "sentence": "this camera has a cool stitch picture feature , to find out more just log on to canon 's website ."
    }
}