{
    "20c5a2780290c04a8fff006233aee834": {
        "location1": [
            4
        ], 
        "location2": [
            30
        ], 
        "(4, 30)": {
            "WBF": [
                686
            ], 
            "AM2L": [
                2866
            ], 
            "BM1F": [
                1994
            ], 
            "M1": [
                1851
            ], 
            "M2": [
                1836
            ], 
            "BM1L": [
                1562
            ], 
            "WBO": [
                1449, 
                1375, 
                154, 
                2866, 
                1280, 
                275, 
                2864, 
                1562, 
                2866, 
                2653, 
                2864, 
                664, 
                3181, 
                1566, 
                1232, 
                2239, 
                2311, 
                1470, 
                1449, 
                1999, 
                2579, 
                1490
            ], 
            "WBL": [
                1470
            ], 
            "AM2F": [
                275
            ], 
            "M1_ADJ": [
                1
            ]
        }, 
        "sentence": "now there is one more complaint i have about the g3 and that is the software that comes with it for processing raw image ( i only shoot in raw image mode and the first thing i did was replace the 32 mbyte cf with a 512 mbyte cf , which gives me 130 raw image , as opposed to 7 !"
    }
}