{
    "da46710dc8d7f047b7d2852a70779dbb": {
        "location1": [
            11
        ], 
        "location2": [
            13
        ], 
        "(11, 13)": {
            "AM2L": [
                2909
            ], 
            "WBFL": [
                1591
            ], 
            "BM1F": [
                2037
            ], 
            "M1": [
                1851
            ], 
            "M2": [
                1703
            ], 
            "BM1L": [
                1185
            ], 
            "AM2F": [
                1987
            ], 
            "M1_ADJ": [
                1
            ]
        }, 
        "sentence": "this camera has a cool stitch picture feature , to find out more just log on to canon 's website ."
    }
}