{
    "ca42696d0e457f98f2255b29dfa3f6dc": {
        "(7, 3)": {
            "WBF": [
                2722
            ], 
            "AM2L": [
                1470
            ], 
            "BM1F": [
                1641
            ], 
            "M1": [
                3231
            ], 
            "M2": [
                1854
            ], 
            "BM1L": [
                337
            ], 
            "WBO": [
                3181
            ], 
            "WBL": [
                2866
            ], 
            "AM2F": [
                2126
            ], 
            "M1_ADJ": [
                0
            ]
        }, 
        "location1": [
            7
        ], 
        "location2": [
            3
        ], 
        "sentence": "but at least youre starting with the most photorealistic image ive ever seen from a camera ."
    }
}