{
    "921a0e8cd129e569ee56a67d7ae96da1": {
        "(15, 16)": {
            "AM2L": [
                1562
            ], 
            "BM1F": [
                1232
            ], 
            "M1": [
                1854
            ], 
            "M2": [
                2276
            ], 
            "BM1L": [
                275
            ], 
            "WBNULL": [
                1
            ], 
            "AM2F": [
                1566
            ], 
            "M1_ADJ": [
                1
            ]
        }, 
        "location1": [
            15
        ], 
        "location2": [
            16
        ], 
        "sentence": "one bad thing is that it comes with a pitiful 32mb compactflash card , and for most purpose , it is not enough ."
    }
}