{
    "ab5381ff92d93f31f37a3da98c2c14a6": {
        "(8, 10)": {
            "AM2L": [
                2866
            ], 
            "WBFL": [
                894
            ], 
            "BM1F": [
                434
            ], 
            "M1": [
                1926
            ], 
            "M2": [
                541
            ], 
            "BM1L": [
                2866
            ], 
            "AM2F": [
                1987
            ], 
            "M1_ADJ": [
                1
            ]
        }, 
        "location1": [
            8
        ], 
        "location2": [
            10
        ], 
        "sentence": "all-in-all , i believe this is arguably the best non-slr digital camera on the market ."
    }
}