{
    "e30184599d5c95a24e9a14a132efb341": {
        "(1, 3)": {
            "AM2L": [
                1375
            ], 
            "WBFL": [
                1819
            ], 
            "BM1F": [
                2866
            ], 
            "M1": [
                1999
            ], 
            "M2": [
                1916
            ], 
            "AM2F": [
                1449
            ], 
            "M1_ADJ": [
                1
            ]
        }, 
        "location1": [
            1
        ], 
        "location2": [
            3
        ], 
        "sentence": "the only minor nit i have with the camera are it is fairly boxy looking , it need a wrist strap instead of a neck strap , and it is a bit slow between shot ."
    }
}