{
    "aa040e2aac44669936f89ea50c0ca0fe": {
        "location1": [
            1
        ], 
        "location2": [
            4
        ], 
        "(1, 4)": {
            "WBF": [
                2975
            ], 
            "AM2L": [
                1375
            ], 
            "BM1F": [
                2866
            ], 
            "M1": [
                1999
            ], 
            "M2": [
                1565
            ], 
            "WBO": [
                1819
            ], 
            "WBL": [
                1819
            ], 
            "AM2F": [
                1449
            ], 
            "M1_ADJ": [
                1
            ]
        }, 
        "sentence": "the only two minor issue i have with the camera are the lens cap ( it is not very snug and can come off too easily ) and the lens itself ( it partially obstructs the view through the viewfinder but not view through the lcd ) ."
    }
}