{
    "96a3c89de3083b68a7e7476e1f55d023": {
        "(1, 3)": {
            "AM2L": [
                275
            ], 
            "WBFL": [
                3239
            ], 
            "BM1F": [
                2866
            ], 
            "M1": [
                2015
            ], 
            "M2": [
                3191
            ], 
            "AM2F": [
                1333
            ], 
            "M1_ADJ": [
                1
            ]
        }, 
        "location1": [
            1
        ], 
        "location2": [
            3
        ], 
        "sentence": "the optical zoom work great and the 14x digital zoom is a very nice addition although picture at the highest digital zoom are a little blurry ."
    }
}