{
    "c12f2cbdc52ec5949ef5f7247c336b99": {
        "(17, 12)": {
            "WBF": [
                316
            ], 
            "AM2L": [
                1449
            ], 
            "BM1F": [
                1092
            ], 
            "M1": [
                1337
            ], 
            "M2": [
                2032
            ], 
            "BM1L": [
                275
            ], 
            "WBO": [
                436
            ], 
            "WBL": [
                286
            ], 
            "AM2F": [
                541
            ], 
            "M1_ADJ": [
                0
            ]
        }, 
        "location1": [
            17
        ], 
        "location2": [
            12
        ], 
        "sentence": "its silver magnesium finish is stunning , and the sharp line and excellent grip are better than any other camera i 've seen ."
    }
}