{
    "3797f31b7e658ca2289e807be4ce0066": {
        "(26, 6)": {
            "WBF": [
                2191
            ], 
            "AM2L": [
                1107
            ], 
            "BM1F": [
                2866
            ], 
            "M1": [
                1350
            ], 
            "M2": [
                2032
            ], 
            "BM1L": [
                2909
            ], 
            "WBO": [
                275, 
                1299, 
                2866, 
                2552, 
                2321, 
                2909, 
                2579, 
                1449, 
                3117, 
                153, 
                2909, 
                2240, 
                1092, 
                2741, 
                2119, 
                733
            ], 
            "WBL": [
                3144
            ], 
            "AM2F": [
                2439
            ], 
            "M1_ADJ": [
                0
            ]
        }, 
        "location1": [
            26
        ], 
        "location2": [
            6
        ], 
        "sentence": "by cocking the shutter to the halfway position and getting the setting ready to shoot , i was able to produce excellent stopaction photo -- contrary to what other reviewer experienced ."
    }
}