{
    "4af1a9d196ac9035aeb134474256ef16": {
        "(3, 8)": {
            "WBF": [
                2119
            ], 
            "AM2L": [
                2866
            ], 
            "BM1F": [
                2920
            ], 
            "M1": [
                2038
            ], 
            "M2": [
                1665
            ], 
            "BM1L": [
                1449
            ], 
            "WBO": [
                3181
            ], 
            "WBL": [
                1971
            ], 
            "AM2F": [
                275
            ], 
            "M1_ADJ": [
                1
            ]
        }, 
        "location1": [
            3
        ], 
        "location2": [
            8
        ], 
        "sentence": "when i took outdoor photo with plenty of light and the object were n't moving , the photo were awesome ."
    }
}