{
    "e4e579de7f6a6a60872e54f2bea20df1": {
        "(5, 13)": {
            "WBF": [
                2862
            ], 
            "BM1F": [
                2909
            ], 
            "M1": [
                2104
            ], 
            "M2": [
                1786
            ], 
            "BM1L": [
                645
            ], 
            "WBO": [
                286, 
                2032, 
                892, 
                2864
            ], 
            "WBL": [
                96
            ], 
            "M1_ADJ": [
                1
            ]
        }, 
        "location1": [
            5
        ], 
        "location2": [
            13
        ], 
        "sentence": "this camera is closest to perfect than any other digicam that is 4-5 megapixel ."
    }
}