{
    "be379679dac602b9b58a047cfe52bfb9": {
        "(32, 3)": {
            "WBF": [
                1971
            ], 
            "BM1F": [
                2283
            ], 
            "M1": [
                2702
            ], 
            "M2": [
                2119
            ], 
            "BM1L": [
                150
            ], 
            "WBO": [
                2866, 
                879, 
                3229, 
                543, 
                2524, 
                2592, 
                2233, 
                1232, 
                1407, 
                2696, 
                2774, 
                296, 
                2233, 
                1232, 
                1222, 
                1651, 
                2019, 
                1268, 
                2247, 
                1836, 
                3149, 
                2866, 
                541, 
                2529, 
                475
            ], 
            "WBL": [
                1459
            ], 
            "AM2F": [
                2281
            ], 
            "M1_ADJ": [
                0
            ]
        }, 
        "location1": [
            32
        ], 
        "location2": [
            3
        ], 
        "sentence": "with a quick spin of the dial you can select shutter priority ( for high speed subject ) , aperture priority ( for focal length ) or full program mode where the camera selects both for ideal photo quality ."
    }
}