{
    "a4bf04bb2ffffdf15f1e93ccd942ba31": {
        "(2, 24)": {
            "WBF": [
                2618
            ], 
            "BM1F": [
                2906
            ], 
            "M1": [
                2198
            ], 
            "M2": [
                2133
            ], 
            "BM1L": [
                2866
            ], 
            "WBO": [
                2387, 
                3010, 
                1562, 
                3189, 
                1935, 
                1999, 
                936, 
                1566, 
                2956, 
                2866, 
                2592, 
                1566, 
                543, 
                254, 
                402, 
                3043, 
                2909, 
                3239
            ], 
            "WBL": [
                2438
            ], 
            "M1_ADJ": [
                1
            ]
        }, 
        "location1": [
            2
        ], 
        "location2": [
            24
        ], 
        "sentence": "the tiny ( postage-stamp sized ) remote unit is wonderful : not only does it trigger the shutter , it can also be used to zoom and review picture ."
    }
}