{
    "4a44a69cb955602ceffa932a795dd6aa": {
        "location1": [
            11
        ], 
        "location2": [
            24
        ], 
        "(11, 24)": {
            "WBF": [
                1163
            ], 
            "BM1F": [
                275
            ], 
            "M1": [
                2205
            ], 
            "M2": [
                616
            ], 
            "BM1L": [
                1215
            ], 
            "WBO": [
                2909, 
                1495, 
                2866, 
                152, 
                2909, 
                3041, 
                1119, 
                1208, 
                275
            ], 
            "WBL": [
                1183
            ], 
            "M1_ADJ": [
                1
            ]
        }, 
        "sentence": "bottom line , well made camera , easy to use , very flexible and powerful feature to include the ability to use external flash and lense / filter choice ."
    }
}