{
    "4a44a69cb955602ceffa932a795dd6aa": {
        "(11, 20)": {
            "WBF": [
                1163
            ], 
            "AM2L": [
                1654
            ], 
            "BM1F": [
                275
            ], 
            "M1": [
                2205
            ], 
            "M2": [
                1208
            ], 
            "BM1L": [
                1215
            ], 
            "WBO": [
                2909, 
                1495, 
                2866, 
                152, 
                2909
            ], 
            "WBL": [
                1119
            ], 
            "AM2F": [
                275
            ], 
            "M1_ADJ": [
                1
            ]
        }, 
        "location1": [
            11
        ], 
        "location2": [
            20
        ], 
        "sentence": "bottom line , well made camera , easy to use , very flexible and powerful feature to include the ability to use external flash and lense / filter choice ."
    }
}