{
    "e2aef133b34cdd27cfe0ae786a800c64": {
        "(17, 18)": {
            "AM2L": [
                150
            ], 
            "BM1F": [
                2532
            ], 
            "M1": [
                2234
            ], 
            "M2": [
                2635
            ], 
            "BM1L": [
                150
            ], 
            "WBNULL": [
                1
            ], 
            "AM2F": [
                3181
            ], 
            "M1_ADJ": [
                1
            ]
        }, 
        "location1": [
            17
        ], 
        "location2": [
            18
        ], 
        "sentence": "the g3 has most if not all of the feature that you would want from a semi-pro / pro slr with a good range of manual option for those who know something about photography ."
    }
}