{
    "e2aef133b34cdd27cfe0ae786a800c64": {
        "(17, 25)": {
            "WBF": [
                2635
            ], 
            "AM2L": [
                2884
            ], 
            "BM1F": [
                2532
            ], 
            "M1": [
                2234
            ], 
            "M2": [
                2017
            ], 
            "BM1L": [
                150
            ], 
            "WBO": [
                3181, 
                150, 
                1320, 
                2301
            ], 
            "WBL": [
                1752
            ], 
            "AM2F": [
                1232
            ], 
            "M1_ADJ": [
                1
            ]
        }, 
        "location1": [
            17
        ], 
        "location2": [
            25
        ], 
        "sentence": "the g3 has most if not all of the feature that you would want from a semi-pro / pro slr with a good range of manual option for those who know something about photography ."
    }
}