{
    "1a2ff0b2fd0f3902bbc4db99f334bf30": {
        "(0, 1)": {
            "AM2L": [
                2281
            ], 
            "M1": [
                2263
            ], 
            "M2": [
                546
            ], 
            "WBNULL": [
                1
            ], 
            "AM2F": [
                508
            ], 
            "M1_ADJ": [
                1
            ]
        }, 
        "location1": [
            0
        ], 
        "location2": [
            1
        ], 
        "sentence": "proven canon built quality and lens ."
    }
}