{
    "38c47be19193cb76675feafd049a684c": {
        "location1": [
            26
        ], 
        "location2": [
            11
        ], 
        "(26, 11)": {
            "WBF": [
                316
            ], 
            "BM1F": [
                2866
            ], 
            "M1": [
                656
            ], 
            "M2": [
                2311
            ], 
            "BM1L": [
                176
            ], 
            "WBO": [
                325, 
                2323, 
                325, 
                1572, 
                1079, 
                2523, 
                2241, 
                528, 
                1182, 
                275, 
                2882
            ], 
            "WBL": [
                150
            ], 
            "AM2F": [
                1470
            ], 
            "M1_ADJ": [
                0
            ]
        }, 
        "sentence": "without any tweaking at all , if the exposure is accurate , the color are as realistic as ive ever seen produced by film , and this is a raw image !"
    }
}