{
    "511a23f3a4fe98af1bf9d231291e4dff": {
        "(3, 1)": {
            "AM2L": [
                2589
            ], 
            "WBFL": [
                541
            ], 
            "BM1F": [
                2866
            ], 
            "M1": [
                209
            ], 
            "M2": [
                2311
            ], 
            "AM2F": [
                2168
            ], 
            "M1_ADJ": [
                0
            ]
        }, 
        "location1": [
            3
        ], 
        "location2": [
            1
        ], 
        "sentence": "the adobe camera raw plug-in show once again that hardware is mile ahead of software ."
    }
}