{
    "be379679dac602b9b58a047cfe52bfb9": {
        "(10, 3)": {
            "WBF": [
                1971
            ], 
            "AM2L": [
                1232
            ], 
            "BM1F": [
                2283
            ], 
            "M1": [
                2702
            ], 
            "M2": [
                2592
            ], 
            "BM1L": [
                150
            ], 
            "WBO": [
                2866, 
                879, 
                3229
            ], 
            "WBL": [
                2524
            ], 
            "AM2F": [
                2233
            ], 
            "M1_ADJ": [
                0
            ]
        }, 
        "location1": [
            10
        ], 
        "location2": [
            3
        ], 
        "sentence": "with a quick spin of the dial you can select shutter priority ( for high speed subject ) , aperture priority ( for focal length ) or full program mode where the camera selects both for ideal photo quality ."
    }
}