{
    "075cbfa6d23b531fc7100bc9ad7dcd00": {
        "(14, 23)": {
            "WBF": [
                2696
            ], 
            "BM1F": [
                1971
            ], 
            "M1": [
                2592
            ], 
            "M2": [
                1795
            ], 
            "BM1L": [
                2527
            ], 
            "WBO": [
                275, 
                296, 
                3183, 
                1377, 
                2909
            ], 
            "WBL": [
                2890
            ], 
            "AM2F": [
                2017
            ], 
            "M1_ADJ": [
                1
            ]
        }, 
        "location1": [
            14
        ], 
        "location2": [
            23
        ], 
        "sentence": "the manual mode is easy to use with fast access for the selection of shutter speed and aperture without having to fumble through menu option ."
    }
}