{
    "4f4ce92984a186b080eef02938290fa5": {
        "(17, 13)": {
            "WBF": [
                275
            ], 
            "AM2L": [
                1569
            ], 
            "BM1F": [
                2207
            ], 
            "M1": [
                2544
            ], 
            "M2": [
                2636
            ], 
            "BM1L": [
                4
            ], 
            "WBO": [
                1569
            ], 
            "WBL": [
                273
            ], 
            "AM2F": [
                541
            ], 
            "M1_ADJ": [
                0
            ]
        }, 
        "location1": [
            17
        ], 
        "location2": [
            13
        ], 
        "sentence": "just a little overview , powershot g3 is the flagship of canon 's powershot series and its an slr-like camera , its 4 megapixel and ( alsmost ) full manual control gives the picture a touch of brilliance ."
    }
}