{
    "4f4ce92984a186b080eef02938290fa5": {
        "(17, 18)": {
            "AM2L": [
                95
            ], 
            "BM1F": [
                273
            ], 
            "M1": [
                2636
            ], 
            "M2": [
                541
            ], 
            "BM1L": [
                1569
            ], 
            "WBNULL": [
                1
            ], 
            "AM2F": [
                1569
            ], 
            "M1_ADJ": [
                1
            ]
        }, 
        "location1": [
            17
        ], 
        "location2": [
            18
        ], 
        "sentence": "just a little overview , powershot g3 is the flagship of canon 's powershot series and its an slr-like camera , its 4 megapixel and ( alsmost ) full manual control gives the picture a touch of brilliance ."
    }
}