{
    "7a6127bd06125c9102ab880f8919a4d0": {
        "(12, 16)": {
            "WBF": [
                546
            ], 
            "AM2L": [
                2909
            ], 
            "BM1F": [
                2866
            ], 
            "M1": [
                2638
            ], 
            "M2": [
                400
            ], 
            "BM1L": [
                1261
            ], 
            "WBO": [
                541
            ], 
            "WBL": [
                2866
            ], 
            "AM2F": [
                1896
            ], 
            "M1_ADJ": [
                1
            ]
        }, 
        "(12, 7)": {
            "WBF": [
                598
            ], 
            "AM2L": [
                541
            ], 
            "BM1F": [
                1971
            ], 
            "M1": [
                400
            ], 
            "M2": [
                2638
            ], 
            "BM1L": [
                2977
            ], 
            "WBO": [
                2824
            ], 
            "WBL": [
                2866
            ], 
            "AM2F": [
                546
            ], 
            "M1_ADJ": [
                0
            ]
        }, 
        "(12, 43)": {
            "WBF": [
                546
            ], 
            "BM1F": [
                2866
            ], 
            "M1": [
                2638
            ], 
            "M2": [
                400
            ], 
            "BM1L": [
                1261
            ], 
            "WBO": [
                541, 
                2866, 
                400, 
                1896, 
                2909, 
                402, 
                596, 
                3153, 
                1490, 
                2866, 
                541, 
                522, 
                2866, 
                598, 
                2824, 
                254, 
                1032, 
                3229, 
                2909, 
                3041, 
                2866, 
                541, 
                3153, 
                2169, 
                1490, 
                3183, 
                2470
            ], 
            "WBL": [
                2866
            ], 
            "M1_ADJ": [
                1
            ]
        }, 
        "sentence": "the g3 has a different type of battery charging system from the smaller canon camera : the battery need to be charged while in the camera , but the charging system also enables you to use the camera while plugged in without running down the battery .", 
        "location2": [
            7, 
            16, 
            43
        ], 
        "location1": [
            12
        ]
    }
}