{
    "8125b34510fad206a46ff327585af3a6": {
        "(11, 23)": {
            "WBF": [
                894
            ], 
            "BM1F": [
                1758
            ], 
            "M1": [
                2638
            ], 
            "M2": [
                2592
            ], 
            "BM1L": [
                3015
            ], 
            "WBO": [
                541, 
                1566, 
                1562, 
                1005, 
                2909, 
                1424, 
                2728, 
                3147
            ], 
            "WBL": [
                2632
            ], 
            "AM2F": [
                2696
            ], 
            "M1_ADJ": [
                1
            ]
        }, 
        "location1": [
            11
        ], 
        "location2": [
            23
        ], 
        "sentence": "the g3 is loaded with many useful feature , and unlike many smaller digital camera , it is easy to hold steady when using slower shutter speed ."
    }
}