{
    "f11b6493f562e48e09dd1f455dcac0d3": {
        "(7, 13)": {
            "WBF": [
                541
            ], 
            "AM2L": [
                861
            ], 
            "BM1F": [
                1490
            ], 
            "M1": [
                2637
            ], 
            "M2": [
                2774
            ], 
            "BM1L": [
                1208
            ], 
            "WBO": [
                3229, 
                1297
            ], 
            "WBL": [
                1742
            ], 
            "AM2F": [
                3181
            ], 
            "M1_ADJ": [
                1
            ]
        }, 
        "location1": [
            7
        ], 
        "location2": [
            13
        ], 
        "sentence": "flash - as with all built-in flash in small camera , you get overilluminated main subject with depth being lost ."
    }
}