{
    "f11b6493f562e48e09dd1f455dcac0d3": {
        "(7, 8)": {
            "AM2L": [
                1297
            ], 
            "BM1F": [
                1490
            ], 
            "M1": [
                2637
            ], 
            "M2": [
                541
            ], 
            "BM1L": [
                1208
            ], 
            "WBNULL": [
                1
            ], 
            "AM2F": [
                3229
            ], 
            "M1_ADJ": [
                1
            ]
        }, 
        "location1": [
            7
        ], 
        "location2": [
            8
        ], 
        "sentence": "flash - as with all built-in flash in small camera , you get overilluminated main subject with depth being lost ."
    }
}