{
    "7a6127bd06125c9102ab880f8919a4d0": {
        "location1": [
            12
        ], 
        "location2": [
            17
        ], 
        "(12, 17)": {
            "WBF": [
                546
            ], 
            "AM2L": [
                402
            ], 
            "BM1F": [
                2866
            ], 
            "M1": [
                2638
            ], 
            "M2": [
                1896
            ], 
            "BM1L": [
                1261
            ], 
            "WBO": [
                541
            ], 
            "WBL": [
                400
            ], 
            "AM2F": [
                2909
            ], 
            "M1_ADJ": [
                1
            ]
        }, 
        "sentence": "the g3 has a different type of battery charging system from the smaller canon camera : the battery need to be charged while in the camera , but the charging system also enables you to use the camera while plugged in without running down the battery ."
    }
}