{
    "7a6127bd06125c9102ab880f8919a4d0": {
        "(12, 8)": {
            "WBF": [
                2824
            ], 
            "AM2L": [
                541
            ], 
            "BM1F": [
                400
            ], 
            "M1": [
                598
            ], 
            "M2": [
                2638
            ], 
            "BM1L": [
                1971
            ], 
            "WBO": [
                1261
            ], 
            "WBL": [
                2866
            ], 
            "AM2F": [
                546
            ], 
            "M1_ADJ": [
                0
            ]
        }, 
        "(12, 27)": {
            "WBF": [
                546
            ], 
            "AM2L": [
                254
            ], 
            "BM1F": [
                2866
            ], 
            "M1": [
                2638
            ], 
            "M2": [
                598
            ], 
            "BM1L": [
                1261
            ], 
            "WBO": [
                541, 
                2866, 
                400, 
                1896, 
                2909, 
                402, 
                596, 
                3153, 
                1490, 
                2866, 
                541
            ], 
            "WBL": [
                2866
            ], 
            "AM2F": [
                2824
            ], 
            "M1_ADJ": [
                1
            ]
        }, 
        "location1": [
            12
        ], 
        "location2": [
            8, 
            27
        ], 
        "sentence": "the g3 has a different type of battery charging system from the smaller canon camera : the battery need to be charged while in the camera , but the charging system also enables you to use the camera while plugged in without running down the battery ."
    }
}