{
    "ea03c1eca4f4843d18fa28fa8e577b5c": {
        "location1": [
            26
        ], 
        "location2": [
            27
        ], 
        "(26, 27)": {
            "AM2L": [
                150
            ], 
            "BM1F": [
                1333
            ], 
            "M1": [
                2818
            ], 
            "M2": [
                1636
            ], 
            "BM1L": [
                150
            ], 
            "WBNULL": [
                1
            ], 
            "AM2F": [
                2501
            ], 
            "M1_ADJ": [
                1
            ]
        }, 
        "sentence": "4mp , 4x optical zoom , takes absolutely beautiful photo with detail that challenge all of the above 5mp camera , easy to understand and use ( has a great swivel lcd screen ) , a lot of feature and add-on option , comes with great software ( not to be overlooked ) , and last but by far not least , received my fiance 's stamp of approval ( two thumb up ! )"
    }
}