{
    "ea03c1eca4f4843d18fa28fa8e577b5c": {
        "(26, 22)": {
            "WBF": [
                1371
            ], 
            "AM2L": [
                2501
            ], 
            "BM1F": [
                275
            ], 
            "M1": [
                3041
            ], 
            "M2": [
                2818
            ], 
            "BM1L": [
                2999
            ], 
            "WBO": [
                150
            ], 
            "WBL": [
                1333
            ], 
            "AM2F": [
                1636
            ], 
            "M1_ADJ": [
                0
            ]
        }, 
        "location1": [
            26
        ], 
        "location2": [
            22
        ], 
        "sentence": "4mp , 4x optical zoom , takes absolutely beautiful photo with detail that challenge all of the above 5mp camera , easy to understand and use ( has a great swivel lcd screen ) , a lot of feature and add-on option , comes with great software ( not to be overlooked ) , and last but by far not least , received my fiance 's stamp of approval ( two thumb up ! )"
    }
}