{
    "a4bf04bb2ffffdf15f1e93ccd942ba31": {
        "(1, 5)": {
            "WBF": [
                2198
            ], 
            "AM2L": [
                3189
            ], 
            "BM1F": [
                2866
            ], 
            "M1": [
                2906
            ], 
            "M2": [
                3010
            ], 
            "WBO": [
                2618
            ], 
            "WBL": [
                2387
            ], 
            "AM2F": [
                1562
            ], 
            "M1_ADJ": [
                1
            ]
        }, 
        "location1": [
            1
        ], 
        "location2": [
            5
        ], 
        "sentence": "the tiny ( postage-stamp sized ) remote unit is wonderful : not only does it trigger the shutter , it can also be used to zoom and review picture ."
    }
}