{
    "1f8107d369d0a9aff676c54f789d4256": {
        "location1": [
            12
        ], 
        "location2": [
            17
        ], 
        "(12, 17)": {
            "WBF": [
                1214
            ], 
            "AM2L": [
                275
            ], 
            "BM1F": [
                1307
            ], 
            "M1": [
                2953
            ], 
            "M2": [
                2592
            ], 
            "BM1L": [
                254
            ], 
            "WBO": [
                1490
            ], 
            "WBL": [
                2233
            ], 
            "AM2F": [
                2233
            ], 
            "M1_ADJ": [
                1
            ]
        }, 
        "sentence": "the camera is a dream to operate in automode , but also gives tremendous flexibility in aperture priority , shutter priority , and manual mode ."
    }
}