{
    "7ce68523e9bd23cb9fa8f5c8bfadfa9f": {
        "(26, 28)": {
            "AM2L": [
                2866
            ], 
            "WBFL": [
                1665
            ], 
            "BM1F": [
                2866
            ], 
            "M1": [
                3024
            ], 
            "M2": [
                2281
            ], 
            "BM1L": [
                275
            ], 
            "AM2F": [
                1971
            ], 
            "M1_ADJ": [
                1
            ]
        }, 
        "location1": [
            26
        ], 
        "location2": [
            28
        ], 
        "sentence": "the two limitation i knew i would have to deal with are the very long lag time before it focus-locks ( even in bright light ) , and the unsatisfactory light quality of the built-in flash ."
    }
}