{
    "3dd55b27114ec5fd6815b8c30aa6e44f": {
        "(3, 1)": {
            "AM2L": [
                2866
            ], 
            "WBFL": [
                1562
            ], 
            "BM1F": [
                2866
            ], 
            "M1": [
                1653
            ], 
            "M2": [
                3090
            ], 
            "AM2F": [
                1490
            ], 
            "M1_ADJ": [
                0
            ]
        }, 
        "location1": [
            3
        ], 
        "location2": [
            1, 
            9
        ], 
        "(3, 9)": {
            "WBF": [
                1490
            ], 
            "AM2L": [
                2551
            ], 
            "BM1F": [
                1562
            ], 
            "M1": [
                3090
            ], 
            "M2": [
                1653
            ], 
            "BM1L": [
                1653
            ], 
            "WBO": [
                2866, 
                3085
            ], 
            "WBL": [
                2866
            ], 
            "AM2F": [
                1562
            ], 
            "M1_ADJ": [
                1
            ]
        }, 
        "sentence": "the lens is visible in the viewfinder when the lens is set to the wide angle , but since i use the lcd most of the time , this is not really much of a bother to me ."
    }, 
    "182dbace3a6e704ea16ab6aaf5ee6811": {
        "(1, 0)": {
            "AM2L": [
                2015
            ], 
            "M1": [
                1653
            ], 
            "M2": [
                3090
            ], 
            "WBNULL": [
                1
            ], 
            "AM2F": [
                1490
            ], 
            "M1_ADJ": [
                0
            ]
        }, 
        "location1": [
            1
        ], 
        "location2": [
            0
        ], 
        "sentence": "* lens visible in optical viewfinder ."
    }, 
    "dbec951619c24117174bfb3323091148": {
        "(12, 10)": {
            "AM2L": [
                2866
            ], 
            "WBFL": [
                1562
            ], 
            "BM1F": [
                2866
            ], 
            "M1": [
                1653
            ], 
            "M2": [
                3090
            ], 
            "BM1L": [
                2864
            ], 
            "AM2F": [
                1490
            ], 
            "M1_ADJ": [
                0
            ]
        }, 
        "location1": [
            12
        ], 
        "location2": [
            10
        ], 
        "sentence": "one little minor flaw with this camera is that the lens is visible in the viewfinder , but does not detract from the image at all ."
    }
}