{
    "311ef14e9030cb4c54bc34ae0487a489": {
        "location1": [
            28
        ], 
        "location2": [
            29
        ], 
        "(28, 29)": {
            "BM1F": [
                3181
            ], 
            "M1": [
                281
            ], 
            "irrelevant_Adj": [
                0
            ], 
            "M2": [
                1218
            ], 
            "BM1L": [
                824
            ], 
            "WBNULL": [
                1
            ], 
            "irrelevant_Noun": [
                0
            ], 
            "AM2F": [
                2118
            ], 
            "M1_ADJ": [
                1
            ]
        }, 
        "sentence": "this is probably your best bet if you are looking for a phone in this price range , or like me , do not have the patience to deal with annoying flip phone ."
    }
}