{
    "311ef14e9030cb4c54bc34ae0487a489": {
        "(28, 24)": {
            "AM2L": [
                2118
            ], 
            "AM2F": [
                1218
            ], 
            "WBF": [
                2909
            ], 
            "BM1F": [
                2866
            ], 
            "M1": [
                2089
            ], 
            "irrelevant_Adj": [
                0
            ], 
            "M2": [
                281
            ], 
            "BM1L": [
                1375
            ], 
            "WBO": [
                824
            ], 
            "WBL": [
                3181
            ], 
            "irrelevant_Noun": [
                0
            ], 
            "M1_ADJ": [
                0
            ]
        }, 
        "location1": [
            28
        ], 
        "location2": [
            24
        ], 
        "sentence": "this is probably your best bet if you are looking for a phone in this price range , or like me , do not have the patience to deal with annoying flip phone ."
    }
}