{
    "fcf866589e0cd5066cdb86f7e386fe2e": {
        "location1": [
            11
        ], 
        "location2": [
            25
        ], 
        "(11, 25)": {
            "AM2L": [
                2118
            ], 
            "AM2F": [
                658
            ], 
            "WBF": [
                1163
            ], 
            "BM1F": [
                2909
            ], 
            "M1": [
                394
            ], 
            "irrelevant_Adj": [
                0
            ], 
            "M2": [
                1341
            ], 
            "BM1L": [
                664
            ], 
            "WBO": [
                522, 
                1449, 
                3117, 
                922, 
                3147, 
                1449, 
                2490, 
                2864, 
                1566, 
                3117
            ], 
            "WBL": [
                150
            ], 
            "irrelevant_Noun": [
                0
            ], 
            "M1_ADJ": [
                1
            ]
        }, 
        "sentence": "i thought this was the ultimate phone when it comes to basic feature , but i was dissapointed when i saw that it was only a gsm comaptible phone ."
    }
}