{
    "311ef14e9030cb4c54bc34ae0487a489": {
        "(4, 24)": {
            "AM2L": [
                824
            ], 
            "AM2F": [
                2909
            ], 
            "WBF": [
                435
            ], 
            "BM1F": [
                3230
            ], 
            "M1": [
                434
            ], 
            "irrelevant_Adj": [
                0
            ], 
            "M2": [
                2089
            ], 
            "BM1L": [
                2235
            ], 
            "WBO": [
                1463, 
                3229, 
                316, 
                1712, 
                1232, 
                150, 
                2118, 
                1490, 
                2882, 
                2225, 
                2301, 
                2019, 
                1669, 
                1773, 
                931, 
                1935
            ], 
            "WBL": [
                2866
            ], 
            "irrelevant_Noun": [
                0
            ], 
            "M1_ADJ": [
                1
            ]
        }, 
        "location1": [
            4
        ], 
        "location2": [
            24
        ], 
        "sentence": "this is probably your best bet if you are looking for a phone in this price range , or like me , do not have the patience to deal with annoying flip phone ."
    }
}