{
    "2fcb297b562e0085ac2b38a1e5132982": {
        "location1": [
            3
        ], 
        "location2": [
            6
        ], 
        "(3, 6)": {
            "AM2L": [
                3016
            ], 
            "AM2F": [
                316
            ], 
            "WBF": [
                275
            ], 
            "BM1F": [
                1562
            ], 
            "M1": [
                490
            ], 
            "irrelevant_Adj": [
                0
            ], 
            "M2": [
                2918
            ], 
            "BM1L": [
                2501
            ], 
            "WBO": [
                2449
            ], 
            "WBL": [
                2449
            ], 
            "irrelevant_Noun": [
                0
            ], 
            "M1_ADJ": [
                1
            ]
        }, 
        "sentence": "the screen is bright and ring tone are unlimited ."
    }
}