{
    "79fdc99cd2e5ba077ab8625e5ec1d969": {
        "(3, 4)": {
            "AM2L": [
                1508
            ], 
            "BM1F": [
                1232
            ], 
            "M1": [
                536
            ], 
            "irrelevant_Adj": [
                0
            ], 
            "M2": [
                2133
            ], 
            "BM1L": [
                2017
            ], 
            "WBNULL": [
                1
            ], 
            "irrelevant_Noun": [
                0
            ], 
            "AM2F": [
                2019
            ], 
            "M1_ADJ": [
                1
            ]
        }, 
        "location1": [
            3
        ], 
        "location2": [
            4
        ], 
        "sentence": "- no option for caller-id picture or individualized ringtones ."
    }
}