{
    "0bd4b7ea23395053267cfdb384e926bd": {
        "(27, 28)": {
            "BM1F": [
                150
            ], 
            "M1": [
                634
            ], 
            "irrelevant_Adj": [
                0
            ], 
            "M2": [
                1676
            ], 
            "BM1L": [
                1297
            ], 
            "WBNULL": [
                1
            ], 
            "irrelevant_Noun": [
                0
            ], 
            "M1_ADJ": [
                1
            ]
        }, 
        "location1": [
            27
        ], 
        "location2": [
            28
        ], 
        "sentence": "however , the call constantly drop in my area and i experince mega-static , to the point where i 'd have to dial number 6-7 time to get a clear line ."
    }
}