{
    "0bd4b7ea23395053267cfdb384e926bd": {
        "location1": [
            27
        ], 
        "location2": [
            23
        ], 
        "(27, 23)": {
            "AM2F": [
                1676
            ], 
            "WBF": [
                2909
            ], 
            "BM1F": [
                122
            ], 
            "M1": [
                2901
            ], 
            "irrelevant_Adj": [
                0
            ], 
            "M2": [
                634
            ], 
            "BM1L": [
                1949
            ], 
            "WBO": [
                1297
            ], 
            "WBL": [
                150
            ], 
            "irrelevant_Noun": [
                1
            ], 
            "M1_ADJ": [
                0
            ]
        }, 
        "sentence": "however , the call constantly drop in my area and i experince mega-static , to the point where i 'd have to dial number 6-7 time to get a clear line ."
    }
}