{
    "5e74b4c1331cab866091f6646439932c": {
        "(3, 12)": {
            "AM2L": [
                2866
            ], 
            "AM2F": [
                1971
            ], 
            "WBF": [
                1163
            ], 
            "BM1F": [
                1569
            ], 
            "M1": [
                690
            ], 
            "irrelevant_Adj": [
                0
            ], 
            "M2": [
                2281
            ], 
            "BM1L": [
                242
            ], 
            "WBO": [
                2866, 
                1796, 
                316, 
                1004, 
                168
            ], 
            "WBL": [
                2866
            ], 
            "irrelevant_Noun": [
                0
            ], 
            "M1_ADJ": [
                1
            ]
        }, 
        "location1": [
            3
        ], 
        "location2": [
            12
        ], 
        "sentence": "with all its complicated feature , the menus are easily accessible and the quality of the feature is great ."
    }
}