{
    "cd886273a55bc57a2201d12617b65f4b": {
        "(11, 12)": {
            "AM2L": [
                1079
            ], 
            "BM1F": [
                2866
            ], 
            "M1": [
                745
            ], 
            "irrelevant_Adj": [
                0
            ], 
            "M2": [
                2118
            ], 
            "BM1L": [
                1562
            ], 
            "WBNULL": [
                1
            ], 
            "irrelevant_Noun": [
                0
            ], 
            "AM2F": [
                1449
            ], 
            "M1_ADJ": [
                1
            ]
        }, 
        "(11, 4)": {
            "AM2L": [
                1449
            ], 
            "AM2F": [
                2118
            ], 
            "WBF": [
                275
            ], 
            "BM1F": [
                2882
            ], 
            "M1": [
                2118
            ], 
            "irrelevant_Adj": [
                0
            ], 
            "M2": [
                745
            ], 
            "BM1L": [
                2273
            ], 
            "WBO": [
                1449, 
                2878, 
                2882
            ], 
            "WBL": [
                2866
            ], 
            "irrelevant_Noun": [
                0
            ], 
            "M1_ADJ": [
                0
            ]
        }, 
        "location1": [
            11
        ], 
        "location2": [
            4, 
            12
        ], 
        "sentence": "i just purchased this phone and i think this is the coolest phone i ever had ."
    }
}