{
    "60918d91db20f0758f77fc85122e79da": {
        "location1": [
            5
        ], 
        "location2": [
            22
        ], 
        "(5, 22)": {
            "WBF": [
                1163
            ], 
            "BM1F": [
                1690
            ], 
            "M1": [
                806
            ], 
            "irrelevant_Adj": [
                0
            ], 
            "M2": [
                2296
            ], 
            "BM1L": [
                1971
            ], 
            "WBO": [
                1878, 
                1161, 
                423, 
                2866, 
                1284, 
                275, 
                2866, 
                2138, 
                2113, 
                1515, 
                1750, 
                1452, 
                2027
            ], 
            "WBL": [
                2866
            ], 
            "irrelevant_Noun": [
                0
            ], 
            "M1_ADJ": [
                1
            ]
        }, 
        "sentence": "it has lot of little cute feature , my favorite being the game and the pim ( personal information manager -- i.e . organizer ) , and the radio !"
    }
}