{
    "7aba4051c00fd6801f9538e897377aed": {
        "(4, 1)": {
            "AM2L": [
                522
            ], 
            "AM2F": [
                2617
            ], 
            "WBF": [
                1562
            ], 
            "BM1F": [
                2866
            ], 
            "M1": [
                1601
            ], 
            "irrelevant_Adj": [
                0
            ], 
            "M2": [
                827
            ], 
            "WBO": [
                150
            ], 
            "WBL": [
                150
            ], 
            "irrelevant_Noun": [
                0
            ], 
            "M1_ADJ": [
                0
            ]
        }, 
        "location1": [
            4
        ], 
        "location2": [
            1
        ], 
        "sentence": "the keypad is a decent size , but the power on/off key is small and difficult to press ."
    }
}