{
    "4c97fb16f6c98310c527b30aa33a2434": {
        "(36, 37)": {
            "BM1F": [
                150
            ], 
            "M1": [
                888
            ], 
            "irrelevant_Adj": [
                1
            ], 
            "M2": [
                1901
            ], 
            "BM1L": [
                1987
            ], 
            "WBNULL": [
                1
            ], 
            "irrelevant_Noun": [
                0
            ], 
            "M1_ADJ": [
                1
            ]
        }, 
        "location1": [
            36
        ], 
        "location2": [
            37
        ], 
        "sentence": "the internet function of the phone - wap and gprs - will only work through t-mobile 's service , because they have deleted the menu option that would enable you to configure the phone to be used on a different network ."
    }
}