{
    "ff02148f541cf5f18c7b9c51fb6d96d1": {
        "(11, 6)": {
            "WBF": [
                1987
            ], 
            "BM1F": [
                1053
            ], 
            "M1": [
                1284
            ], 
            "irrelevant_Adj": [
                0
            ], 
            "M2": [
                928
            ], 
            "BM1L": [
                1971
            ], 
            "WBO": [
                2882
            ], 
            "WBL": [
                2291
            ], 
            "irrelevant_Noun": [
                0
            ], 
            "M1_ADJ": [
                0
            ]
        }, 
        "location1": [
            11
        ], 
        "location2": [
            6
        ], 
        "sentence": "i find the lack of entertaining game on this phone quite disturbing ."
    }
}