{
    "00f4f2006de708c2e8e1b5f70f053974": {
        "(6, 7)": {
            "AM2L": [
                2909
            ], 
            "BM1F": [
                1409
            ], 
            "M1": [
                924
            ], 
            "irrelevant_Adj": [
                0
            ], 
            "M2": [
                2676
            ], 
            "BM1L": [
                720
            ], 
            "WBNULL": [
                1
            ], 
            "irrelevant_Noun": [
                0
            ], 
            "AM2F": [
                1935
            ], 
            "M1_ADJ": [
                1
            ]
        }, 
        "location1": [
            6
        ], 
        "location2": [
            7
        ], 
        "sentence": "i do here a constant high-pitched distorted sound , not to mention the volume does not seem to be loud enough ."
    }
}