{
    "bc412b771cb33944aaf00912480e5a71": {
        "location1": [
            23
        ], 
        "location2": [
            4
        ], 
        "(23, 4)": {
            "AM2L": [
                313
            ], 
            "AM2F": [
                1575
            ], 
            "WBF": [
                1221
            ], 
            "BM1F": [
                400
            ], 
            "M1": [
                1664
            ], 
            "irrelevant_Adj": [
                0
            ], 
            "M2": [
                950
            ], 
            "BM1L": [
                1333
            ], 
            "WBO": [
                2296, 
                1092, 
                2598, 
                1351, 
                1250, 
                2688, 
                3152, 
                1449, 
                1375, 
                2909, 
                2491, 
                1562, 
                2235, 
                1878, 
                1161
            ], 
            "WBL": [
                275
            ], 
            "irrelevant_Noun": [
                0
            ], 
            "M1_ADJ": [
                0
            ]
        }, 
        "sentence": "it has great battery life , fm radio , excellent signal , hand free speakerphone ( which i have to say is probably my favorite function ) and downloadable java apps ."
    }
}