{
    "e52d5fd102dc709b3e64330ff8edc1b0": {
        "location1": [
            16
        ], 
        "location2": [
            13
        ], 
        "(16, 13)": {
            "AM2L": [
                1789
            ], 
            "AM2F": [
                2175
            ], 
            "WBF": [
                2909
            ], 
            "BM1F": [
                3181
            ], 
            "M1": [
                628
            ], 
            "irrelevant_Adj": [
                0
            ], 
            "M2": [
                950
            ], 
            "BM1L": [
                364
            ], 
            "WBO": [
                2866
            ], 
            "WBL": [
                2866
            ], 
            "irrelevant_Noun": [
                0
            ], 
            "M1_ADJ": [
                0
            ]
        }, 
        "sentence": "from the speakerphone that can be used up to 15 foot away with clarity , to the downloadable poly-graphic megatones that adds a personal touch to this nifty phone ."
    }
}