{
    "bc412b771cb33944aaf00912480e5a71": {
        "(23, 21)": {
            "AM2L": [
                313
            ], 
            "WBFL": [
                275
            ], 
            "BM1F": [
                1161
            ], 
            "M1": [
                1272
            ], 
            "irrelevant_Adj": [
                0
            ], 
            "M2": [
                950
            ], 
            "BM1L": [
                1878
            ], 
            "AM2F": [
                1575
            ], 
            "irrelevant_Noun": [
                0
            ], 
            "M1_ADJ": [
                0
            ]
        }, 
        "location1": [
            23
        ], 
        "location2": [
            21
        ], 
        "sentence": "it has great battery life , fm radio , excellent signal , hand free speakerphone ( which i have to say is probably my favorite function ) and downloadable java apps ."
    }
}