{
    "ff02148f541cf5f18c7b9c51fb6d96d1": {
        "(5, 9)": {
            "AM2L": [
                928
            ], 
            "AM2F": [
                2291
            ], 
            "WBF": [
                1284
            ], 
            "BM1F": [
                1971
            ], 
            "M1": [
                1053
            ], 
            "irrelevant_Adj": [
                0
            ], 
            "M2": [
                2118
            ], 
            "BM1L": [
                1616
            ], 
            "WBO": [
                1987
            ], 
            "WBL": [
                2882
            ], 
            "irrelevant_Noun": [
                0
            ], 
            "M1_ADJ": [
                1
            ]
        }, 
        "location1": [
            5
        ], 
        "location2": [
            9
        ], 
        "sentence": "i find the lack of entertaining game on this phone quite disturbing ."
    }
}