{
    "b1faecc5dd56946295f5940b7205af66": {
        "(2, 7)": {
            "AM2L": [
                2882
            ], 
            "AM2F": [
                1987
            ], 
            "WBF": [
                1390
            ], 
            "BM1F": [
                1375
            ], 
            "M1": [
                1092
            ], 
            "irrelevant_Adj": [
                0
            ], 
            "M2": [
                1659
            ], 
            "BM1L": [
                1449
            ], 
            "WBO": [
                522
            ], 
            "WBL": [
                3097
            ], 
            "irrelevant_Noun": [
                0
            ], 
            "M1_ADJ": [
                1
            ]
        }, 
        "location1": [
            2
        ], 
        "location2": [
            7
        ], 
        "sentence": "i have excellent hearing but the volume level on this phone is especially quiet ."
    }
}