{
    "e5530a413b6c717bbc2f6d1ede7c1ead": {
        "(0, 1)": {
            "M1": [
                1092
            ], 
            "irrelevant_Adj": [
                0
            ], 
            "M2": [
                2676
            ], 
            "WBNULL": [
                1
            ], 
            "irrelevant_Noun": [
                0
            ], 
            "AM2F": [
                2281
            ], 
            "M1_ADJ": [
                1
            ]
        }, 
        "location1": [
            0
        ], 
        "location2": [
            1
        ], 
        "sentence": "- excellent sound quality"
    }, 
    "37a84a72000588d4bc0ae8bef4295a66": {
        "(4, 1)": {
            "AM2L": [
                1770
            ], 
            "AM2F": [
                1094
            ], 
            "WBF": [
                2281
            ], 
            "BM1F": [
                2866
            ], 
            "M1": [
                2676
            ], 
            "irrelevant_Adj": [
                0
            ], 
            "M2": [
                1092
            ], 
            "WBO": [
                1562
            ], 
            "WBL": [
                1562
            ], 
            "irrelevant_Noun": [
                0
            ], 
            "M1_ADJ": [
                0
            ]
        }, 
        "location1": [
            4
        ], 
        "location2": [
            1
        ], 
        "sentence": "the sound quality is excellent , except , maybe a * tad * too quiet at time when there are quieter talker on the other end of the line ."
    }, 
    "d36bdc5dfa57c2ffcd3b26042b66d2e6": {
        "(1, 0)": {
            "AM2L": [
                2451
            ], 
            "M1": [
                2676
            ], 
            "irrelevant_Adj": [
                0
            ], 
            "M2": [
                1092
            ], 
            "WBNULL": [
                1
            ], 
            "irrelevant_Noun": [
                0
            ], 
            "AM2F": [
                2177
            ], 
            "M1_ADJ": [
                0
            ]
        }, 
        "location1": [
            1
        ], 
        "location2": [
            0
        ], 
        "sentence": "sound - excellent polyphonic ringing tone are very nice ( check con ) it also double as a radio , which is a nice feature when you are bored ."
    }, 
    "867e0d28796d18caa886b83e1e446570": {
        "(14, 10)": {
            "AM2L": [
                2118
            ], 
            "AM2F": [
                1221
            ], 
            "WBF": [
                2281
            ], 
            "BM1F": [
                1320
            ], 
            "M1": [
                2676
            ], 
            "irrelevant_Adj": [
                0
            ], 
            "M2": [
                1092
            ], 
            "BM1L": [
                3143
            ], 
            "WBO": [
                275
            ], 
            "WBL": [
                273
            ], 
            "irrelevant_Noun": [
                0
            ], 
            "M1_ADJ": [
                0
            ]
        }, 
        "location1": [
            14
        ], 
        "location2": [
            10
        ], 
        "sentence": "while i had the phone , the positive feature were : good sound quality and an excellent fm phone and earpiece ."
    }
}