{
    "c63b814a0a679b601fcf858056f31723": {
        "location1": [
            7
        ], 
        "location2": [
            10
        ], 
        "(7, 10)": {
            "AM2L": [
                275
            ], 
            "AM2F": [
                741
            ], 
            "WBF": [
                1163
            ], 
            "BM1F": [
                1907
            ], 
            "M1": [
                1120
            ], 
            "irrelevant_Adj": [
                1
            ], 
            "M2": [
                794
            ], 
            "BM1L": [
                2659
            ], 
            "WBO": [
                1669
            ], 
            "WBL": [
                1669
            ], 
            "irrelevant_Noun": [
                0
            ], 
            "M1_ADJ": [
                1
            ]
        }, 
        "sentence": "speakerphone - loud and clear has some nice extra feature like currency converter and a stopwatch ."
    }
}