{
    "60918d91db20f0758f77fc85122e79da": {
        "location1": [
            8
        ], 
        "location2": [
            17
        ], 
        "(8, 17)": {
            "AM2L": [
                2027
            ], 
            "AM2F": [
                1452
            ], 
            "WBF": [
                423
            ], 
            "BM1F": [
                1878
            ], 
            "M1": [
                1161
            ], 
            "irrelevant_Adj": [
                0
            ], 
            "M2": [
                1750
            ], 
            "BM1L": [
                1163
            ], 
            "WBO": [
                2866, 
                1284, 
                275, 
                2866, 
                2138
            ], 
            "WBL": [
                1515
            ], 
            "irrelevant_Noun": [
                0
            ], 
            "M1_ADJ": [
                1
            ]
        }, 
        "sentence": "it has lot of little cute feature , my favorite being the game and the pim ( personal information manager -- i.e . organizer ) , and the radio !"
    }
}