{
    "b89efe0de0fd797ce86e413b78bcc046": {
        "(23, 28)": {
            "AM2L": [
                937
            ], 
            "AM2F": [
                1570
            ], 
            "WBF": [
                1875
            ], 
            "BM1F": [
                1878
            ], 
            "M1": [
                1161
            ], 
            "irrelevant_Adj": [
                0
            ], 
            "M2": [
                1355
            ], 
            "BM1L": [
                2909
            ], 
            "WBO": [
                2725
            ], 
            "WBL": [
                2866
            ], 
            "irrelevant_Noun": [
                0
            ], 
            "M1_ADJ": [
                1
            ]
        }, 
        "location1": [
            23
        ], 
        "location2": [
            28
        ], 
        "sentence": "the first night i got this phone i put it next to me when i went to bed just to listen to my favorite music station and the handset itself doesnt weight anything its too light and feel so comfy with it ."
    }
}