{
    "1e497d003ead8f158733c4abb51c307b": {
        "location1": [
            1
        ], 
        "location2": [
            12
        ], 
        "(1, 12)": {
            "AM2L": [
                2866
            ], 
            "AM2F": [
                275
            ], 
            "WBF": [
                1163
            ], 
            "BM1F": [
                1878
            ], 
            "M1": [
                1161
            ], 
            "irrelevant_Adj": [
                0
            ], 
            "M2": [
                2296
            ], 
            "WBO": [
                258, 
                2873, 
                316, 
                1758, 
                316, 
                2866, 
                2687
            ], 
            "WBL": [
                2866
            ], 
            "irrelevant_Noun": [
                0
            ], 
            "M1_ADJ": [
                1
            ]
        }, 
        "sentence": "my favorite feature , although there are many , are the speaker phone , the radio and the infrared ."
    }, 
    "bc412b771cb33944aaf00912480e5a71": {
        "location1": [
            20
        ], 
        "location2": [
            6
        ], 
        "(20, 6)": {
            "AM2L": [
                275
            ], 
            "AM2F": [
                1272
            ], 
            "WBF": [
                1092
            ], 
            "BM1F": [
                1221
            ], 
            "M1": [
                2296
            ], 
            "irrelevant_Adj": [
                0
            ], 
            "M2": [
                1161
            ], 
            "BM1L": [
                1664
            ], 
            "WBO": [
                2598, 
                1351, 
                1250, 
                2688, 
                3152, 
                1449, 
                1375, 
                2909, 
                2491, 
                1562
            ], 
            "WBL": [
                1878
            ], 
            "irrelevant_Noun": [
                0
            ], 
            "M1_ADJ": [
                0
            ]
        }, 
        "sentence": "it has great battery life , fm radio , excellent signal , hand free speakerphone ( which i have to say is probably my favorite function ) and downloadable java apps ."
    }, 
    "60918d91db20f0758f77fc85122e79da": {
        "location1": [
            8
        ], 
        "location2": [
            22
        ], 
        "(8, 22)": {
            "WBF": [
                423
            ], 
            "BM1F": [
                1878
            ], 
            "M1": [
                1161
            ], 
            "irrelevant_Adj": [
                0
            ], 
            "M2": [
                2296
            ], 
            "BM1L": [
                1163
            ], 
            "WBO": [
                2866, 
                1284, 
                275, 
                2866, 
                2138, 
                2113, 
                1515, 
                1750, 
                1452, 
                2027
            ], 
            "WBL": [
                2866
            ], 
            "irrelevant_Noun": [
                0
            ], 
            "M1_ADJ": [
                1
            ]
        }, 
        "sentence": "it has lot of little cute feature , my favorite being the game and the pim ( personal information manager -- i.e . organizer ) , and the radio !"
    }
}