{
    "b89efe0de0fd797ce86e413b78bcc046": {
        "(1, 25)": {
            "AM2L": [
                2866
            ], 
            "AM2F": [
                275
            ], 
            "WBF": [
                1913
            ], 
            "BM1F": [
                2866
            ], 
            "M1": [
                1199
            ], 
            "irrelevant_Adj": [
                1
            ], 
            "M2": [
                2725
            ], 
            "WBO": [
                1449, 
                1322, 
                2882, 
                2118, 
                1449, 
                2280, 
                1566, 
                1906, 
                2909, 
                1773, 
                3147, 
                1449, 
                3142, 
                2909, 
                411, 
                1591, 
                2909, 
                1683, 
                2909, 
                1878
            ], 
            "WBL": [
                1875
            ], 
            "irrelevant_Noun": [
                0
            ], 
            "M1_ADJ": [
                1
            ]
        }, 
        "location1": [
            1
        ], 
        "location2": [
            25
        ], 
        "sentence": "the first night i got this phone i put it next to me when i went to bed just to listen to my favorite music station and the handset itself doesnt weight anything its too light and feel so comfy with it ."
    }
}