{
    "5f86510c019b5a8471a682edff4d3332": {
        "(5, 7)": {
            "AM2L": [
                275
            ], 
            "WBFL": [
                2118
            ], 
            "BM1F": [
                2882
            ], 
            "M1": [
                1251
            ], 
            "irrelevant_Adj": [
                0
            ], 
            "M2": [
                2570
            ], 
            "BM1L": [
                1745
            ], 
            "AM2F": [
                490
            ], 
            "irrelevant_Noun": [
                0
            ], 
            "M1_ADJ": [
                1
            ]
        }, 
        "location1": [
            5
        ], 
        "location2": [
            7
        ], 
        "sentence": "the color screen makes this free-after-rebates phone shine bright , and command are very responsive ."
    }
}