{
    "a892ae4eda5b2b52e80f56aebc1e502c": {
        "(9, 5)": {
            "AM2L": [
                2340
            ], 
            "AM2F": [
                388
            ], 
            "WBF": [
                2882
            ], 
            "BM1F": [
                2681
            ], 
            "M1": [
                220
            ], 
            "irrelevant_Adj": [
                1
            ], 
            "M2": [
                1268
            ], 
            "BM1L": [
                1490
            ], 
            "WBO": [
                2118
            ], 
            "WBL": [
                2334
            ], 
            "irrelevant_Noun": [
                0
            ], 
            "M1_ADJ": [
                0
            ]
        }, 
        "location1": [
            9
        ], 
        "location2": [
            5
        ], 
        "sentence": "anywhere i went in south africa this phone received full bar reception ."
    }
}