{
    "a892ae4eda5b2b52e80f56aebc1e502c": {
        "(9, 10)": {
            "BM1F": [
                2334
            ], 
            "M1": [
                1268
            ], 
            "irrelevant_Adj": [
                1
            ], 
            "M2": [
                388
            ], 
            "BM1L": [
                2118
            ], 
            "WBNULL": [
                1
            ], 
            "irrelevant_Noun": [
                0
            ], 
            "AM2F": [
                2340
            ], 
            "M1_ADJ": [
                1
            ]
        }, 
        "location1": [
            9
        ], 
        "location2": [
            10
        ], 
        "sentence": "anywhere i went in south africa this phone received full bar reception ."
    }
}