{
    "c9d0d998766ff632aa6c28c85f4926f0": {
        "location1": [
            10
        ], 
        "location2": [
            20
        ], 
        "(10, 20)": {
            "AM2L": [
                668
            ], 
            "AM2F": [
                316
            ], 
            "WBF": [
                325
            ], 
            "BM1F": [
                325
            ], 
            "M1": [
                1320
            ], 
            "irrelevant_Adj": [
                0
            ], 
            "M2": [
                2725
            ], 
            "BM1L": [
                1890
            ], 
            "WBO": [
                150, 
                1932, 
                2296, 
                522, 
                325, 
                1706
            ], 
            "WBL": [
                2866
            ], 
            "irrelevant_Noun": [
                0
            ], 
            "M1_ADJ": [
                1
            ]
        }, 
        "sentence": "this radio receives fairly decent reception but not nearly as good as a normal radio , but as long as the station are coming in clearly the phone 's radio should work perfectly ."
    }
}