{
    "f814470075f9eaffe13f9b92b246daab": {
        "(8, 4)": {
            "AM2L": [
                2756
            ], 
            "AM2F": [
                2598
            ], 
            "WBF": [
                275
            ], 
            "BM1F": [
                1665
            ], 
            "M1": [
                3135
            ], 
            "irrelevant_Adj": [
                0
            ], 
            "M2": [
                1320
            ], 
            "BM1L": [
                3075
            ], 
            "WBO": [
                1371
            ], 
            "WBL": [
                150
            ], 
            "irrelevant_Noun": [
                0
            ], 
            "M1_ADJ": [
                0
            ]
        }, 
        "location1": [
            8
        ], 
        "location2": [
            4
        ], 
        "sentence": "it is very light weight and has a good signal strength ."
    }
}