{
    "2d9f1d8d7f3c3a79a868f38dccd16782": {
        "(3, 7)": {
            "AM2L": [
                1163
            ], 
            "AM2F": [
                1971
            ], 
            "WBF": [
                3181
            ], 
            "BM1F": [
                1562
            ], 
            "M1": [
                1320
            ], 
            "irrelevant_Adj": [
                0
            ], 
            "M2": [
                321
            ], 
            "BM1L": [
                2118
            ], 
            "WBO": [
                150
            ], 
            "WBL": [
                1446
            ], 
            "irrelevant_Noun": [
                0
            ], 
            "M1_ADJ": [
                1
            ]
        }, 
        "location1": [
            3
        ], 
        "location2": [
            7
        ], 
        "sentence": "this phone is good with a huge array of feature built into it ."
    }
}