{
    "bbdd399a8aa07bc878d531a293918676": {
        "(3, 12)": {
            "AM2L": [
                3181
            ], 
            "AM2F": [
                2066
            ], 
            "WBF": [
                2118
            ], 
            "BM1F": [
                150
            ], 
            "M1": [
                1333
            ], 
            "irrelevant_Adj": [
                0
            ], 
            "M2": [
                3196
            ], 
            "BM1L": [
                1562
            ], 
            "WBO": [
                1463, 
                3229, 
                316, 
                2948, 
                242
            ], 
            "WBL": [
                2866
            ], 
            "irrelevant_Noun": [
                0
            ], 
            "M1_ADJ": [
                1
            ]
        }, 
        "location1": [
            3
        ], 
        "location2": [
            12
        ], 
        "sentence": "it is a great phone , if you are traveling all over the world , packed with wonderful feature ."
    }
}