{
    "d0d621d83a44b4ab35ea2f818978ec04": {
        "location1": [
            0
        ], 
        "location2": [
            2
        ], 
        "(0, 2)": {
            "AM2L": [
                2617
            ], 
            "WBFL": [
                400
            ], 
            "M1": [
                1333
            ], 
            "irrelevant_Adj": [
                0
            ], 
            "M2": [
                1664
            ], 
            "AM2F": [
                2104
            ], 
            "irrelevant_Noun": [
                0
            ], 
            "M1_ADJ": [
                1
            ]
        }, 
        "sentence": "great battery life , perfect size , but a tid bit quieter than i would like ."
    }, 
    "bc412b771cb33944aaf00912480e5a71": {
        "location1": [
            2
        ], 
        "location2": [
            4
        ], 
        "(2, 4)": {
            "AM2L": [
                2296
            ], 
            "WBFL": [
                400
            ], 
            "BM1F": [
                1371
            ], 
            "M1": [
                1333
            ], 
            "irrelevant_Adj": [
                0
            ], 
            "M2": [
                1664
            ], 
            "BM1L": [
                1566
            ], 
            "AM2F": [
                1221
            ], 
            "irrelevant_Noun": [
                0
            ], 
            "M1_ADJ": [
                1
            ]
        }, 
        "sentence": "it has great battery life , fm radio , excellent signal , hand free speakerphone ( which i have to say is probably my favorite function ) and downloadable java apps ."
    }
}