{
    "f118bd4e6e431fb2d34e5648c625bd6d": {
        "location1": [
            8
        ], 
        "location2": [
            22
        ], 
        "(8, 22)": {
            "AM2L": [
                2838
            ], 
            "AM2F": [
                2909
            ], 
            "WBF": [
                407
            ], 
            "BM1F": [
                1562
            ], 
            "M1": [
                1333
            ], 
            "irrelevant_Adj": [
                0
            ], 
            "M2": [
                992
            ], 
            "BM1L": [
                128
            ], 
            "WBO": [
                3229, 
                931, 
                1881, 
                1896, 
                2909, 
                2280, 
                3230, 
                2118, 
                2447, 
                1906
            ], 
            "WBL": [
                3230
            ], 
            "irrelevant_Noun": [
                0
            ], 
            "M1_ADJ": [
                1
            ]
        }, 
        "sentence": "the loud speaker function on the 6610 is great because you do n't need to put your phone right next to your ear to talk ."
    }
}