{
    "4e3e16c7d6dc2759d671c13215fece25": {
        "(13, 23)": {
            "AM2L": [
                437
            ], 
            "AM2F": [
                2957
            ], 
            "WBF": [
                1490
            ], 
            "BM1F": [
                413
            ], 
            "M1": [
                1333
            ], 
            "irrelevant_Adj": [
                0
            ], 
            "M2": [
                2458
            ], 
            "BM1L": [
                1371
            ], 
            "WBO": [
                2866, 
                875, 
                317, 
                2778, 
                275, 
                1490
            ], 
            "WBL": [
                2338
            ], 
            "irrelevant_Noun": [
                0
            ], 
            "M1_ADJ": [
                1
            ]
        }, 
        "location1": [
            13
        ], 
        "location2": [
            23
        ], 
        "sentence": "i have had the phone for 1 week , the signal quality has been great in the detroit area ( suburb ) and in my recent road trip between detroit and northern kentucky ( cincinnati ) i experienced perfect signal and reception along i-75 , far superior to at & # 38 ; t 's which does not work along several long stretch on that same route ."
    }
}