{
    "8709abbebe927492ab2305fce12bac51": {
        "(8, 9)": {
            "AM2L": [
                1490
            ], 
            "BM1F": [
                1297
            ], 
            "M1": [
                1333
            ], 
            "irrelevant_Adj": [
                0
            ], 
            "M2": [
                2340
            ], 
            "BM1L": [
                2869
            ], 
            "WBNULL": [
                1
            ], 
            "irrelevant_Noun": [
                0
            ], 
            "AM2F": [
                1691
            ], 
            "M1_ADJ": [
                1
            ]
        }, 
        "location1": [
            8
        ], 
        "location2": [
            9
        ], 
        "sentence": "we hardly ever have to charge them , get great reception ( live in chicago ) , and the customization and application are awesome ."
    }, 
    "5f632c925abff8ea973237469d07a2aa": {
        "(9, 10)": {
            "AM2L": [
                1562
            ], 
            "BM1F": [
                1298
            ], 
            "M1": [
                1333
            ], 
            "irrelevant_Adj": [
                0
            ], 
            "M2": [
                2340
            ], 
            "BM1L": [
                1566
            ], 
            "WBNULL": [
                1
            ], 
            "irrelevant_Noun": [
                0
            ], 
            "AM2F": [
                2864
            ], 
            "M1_ADJ": [
                1
            ]
        }, 
        "location1": [
            9
        ], 
        "location2": [
            10
        ], 
        "sentence": "the voice quality is very good , and it gets great reception ( that is , in place where you get t-mobile coverage , which is not that good ; see below ) ."
    }, 
    "4e3e16c7d6dc2759d671c13215fece25": {
        "(13, 36)": {
            "AM2L": [
                1450
            ], 
            "AM2F": [
                249
            ], 
            "WBF": [
                1490
            ], 
            "BM1F": [
                413
            ], 
            "M1": [
                1333
            ], 
            "irrelevant_Adj": [
                0
            ], 
            "M2": [
                2340
            ], 
            "BM1L": [
                1371
            ], 
            "WBO": [
                2866, 
                875, 
                317, 
                2778, 
                275, 
                1490, 
                1878, 
                2338, 
                2458, 
                2957, 
                437, 
                875, 
                275, 
                1934, 
                1598, 
                623, 
                1449, 
                1107, 
                2104
            ], 
            "WBL": [
                275
            ], 
            "irrelevant_Noun": [
                0
            ], 
            "M1_ADJ": [
                1
            ]
        }, 
        "location1": [
            13
        ], 
        "location2": [
            36
        ], 
        "sentence": "i have had the phone for 1 week , the signal quality has been great in the detroit area ( suburb ) and in my recent road trip between detroit and northern kentucky ( cincinnati ) i experienced perfect signal and reception along i-75 , far superior to at & # 38 ; t 's which does not work along several long stretch on that same route ."
    }
}