{
    "c942e7617c5617c46364266d80a29f69": {
        "(11, 12)": {
            "AM2L": [
                1562
            ], 
            "BM1F": [
                150
            ], 
            "M1": [
                1333
            ], 
            "irrelevant_Adj": [
                0
            ], 
            "M2": [
                2118
            ], 
            "BM1L": [
                3144
            ], 
            "WBNULL": [
                1
            ], 
            "irrelevant_Noun": [
                0
            ], 
            "AM2F": [
                1566
            ], 
            "M1_ADJ": [
                1
            ]
        }, 
        "(11, 7)": {
            "AM2L": [
                1566
            ], 
            "AM2F": [
                2118
            ], 
            "WBF": [
                275
            ], 
            "BM1F": [
                1903
            ], 
            "M1": [
                2118
            ], 
            "irrelevant_Adj": [
                0
            ], 
            "M2": [
                1333
            ], 
            "BM1L": [
                2376
            ], 
            "WBO": [
                3144
            ], 
            "WBL": [
                150
            ], 
            "irrelevant_Noun": [
                0
            ], 
            "M1_ADJ": [
                0
            ]
        }, 
        "location1": [
            11
        ], 
        "location2": [
            7, 
            12
        ], 
        "sentence": "the nokia 6610 is a relatively new phone , and what a great phone it is ."
    }, 
    "bda6c10fbfa269bc9c256d0a04ea7069": {
        "(0, 1)": {
            "AM2L": [
                2909
            ], 
            "M1": [
                1333
            ], 
            "irrelevant_Adj": [
                0
            ], 
            "M2": [
                2118
            ], 
            "WBNULL": [
                1
            ], 
            "irrelevant_Noun": [
                0
            ], 
            "AM2F": [
                1005
            ], 
            "M1_ADJ": [
                1
            ]
        }, 
        "location1": [
            0
        ], 
        "location2": [
            1
        ], 
        "sentence": "great phone , easy to use , excellent network , no regret ! ! !"
    }, 
    "d3039095351362825c0bb445adb849f3": {
        "(4, 5)": {
            "AM2L": [
                2
            ], 
            "BM1F": [
                2236
            ], 
            "M1": [
                1333
            ], 
            "irrelevant_Adj": [
                0
            ], 
            "M2": [
                2118
            ], 
            "BM1L": [
                1917
            ], 
            "WBNULL": [
                1
            ], 
            "irrelevant_Noun": [
                0
            ], 
            "AM2F": [
                1449
            ], 
            "M1_ADJ": [
                1
            ]
        }, 
        "location1": [
            4
        ], 
        "location2": [
            5, 
            13
        ], 
        "(4, 13)": {
            "WBF": [
                2118
            ], 
            "BM1F": [
                2236
            ], 
            "M1": [
                1333
            ], 
            "irrelevant_Adj": [
                0
            ], 
            "M2": [
                2118
            ], 
            "BM1L": [
                1917
            ], 
            "WBO": [
                1449, 
                2, 
                3075, 
                2164, 
                3181
            ], 
            "WBL": [
                128
            ], 
            "irrelevant_Noun": [
                0
            ], 
            "M1_ADJ": [
                1
            ]
        }, 
        "sentence": "1 month , no problem , great phone i 'm very pleased with my 6610 phone ."
    }, 
    "8d147490bc04d64017ad35bd9084f37f": {
        "(0, 1)": {
            "AM2L": [
                0
            ], 
            "M1": [
                1333
            ], 
            "irrelevant_Adj": [
                0
            ], 
            "M2": [
                2118
            ], 
            "WBNULL": [
                1
            ], 
            "irrelevant_Noun": [
                0
            ], 
            "AM2F": [
                1449
            ], 
            "M1_ADJ": [
                1
            ]
        }, 
        "location1": [
            0
        ], 
        "location2": [
            1
        ], 
        "sentence": "great phone , i 'd buy another ."
    }, 
    "58e7e474b8ea3dcf3293853aae627fc1": {
        "location1": [
            4, 
            14
        ], 
        "location2": [
            6
        ], 
        "(4, 6)": {
            "AM2L": [
                1322
            ], 
            "WBFL": [
                1690
            ], 
            "BM1F": [
                150
            ], 
            "M1": [
                1333
            ], 
            "irrelevant_Adj": [
                0
            ], 
            "M2": [
                2118
            ], 
            "BM1L": [
                1562
            ], 
            "AM2F": [
                1569
            ], 
            "irrelevant_Noun": [
                0
            ], 
            "M1_ADJ": [
                1
            ]
        }, 
        "(14, 6)": {
            "AM2L": [
                275
            ], 
            "AM2F": [
                1068
            ], 
            "WBF": [
                1569
            ], 
            "BM1F": [
                1690
            ], 
            "M1": [
                2118
            ], 
            "irrelevant_Adj": [
                0
            ], 
            "M2": [
                1333
            ], 
            "BM1L": [
                1333
            ], 
            "WBO": [
                1322, 
                1907, 
                1163, 
                150
            ], 
            "WBL": [
                2501
            ], 
            "irrelevant_Noun": [
                0
            ], 
            "M1_ADJ": [
                0
            ]
        }, 
        "sentence": "this really is a great little phone ; its got nice feature , a beatiful screen , great ergonomics , and its tiny !"
    }, 
    "0640603a2170d71444627f4f433fd0bd": {
        "(19, 20)": {
            "AM2L": [
                3193
            ], 
            "BM1F": [
                150
            ], 
            "M1": [
                1333
            ], 
            "irrelevant_Adj": [
                0
            ], 
            "M2": [
                2118
            ], 
            "BM1L": [
                1562
            ], 
            "WBNULL": [
                1
            ], 
            "irrelevant_Noun": [
                0
            ], 
            "AM2F": [
                1815
            ], 
            "M1_ADJ": [
                1
            ]
        }, 
        "location1": [
            19
        ], 
        "location2": [
            15, 
            20
        ], 
        "(19, 15)": {
            "AM2L": [
                1815
            ], 
            "AM2F": [
                2118
            ], 
            "WBF": [
                1566
            ], 
            "BM1F": [
                2882
            ], 
            "M1": [
                2118
            ], 
            "irrelevant_Adj": [
                0
            ], 
            "M2": [
                1333
            ], 
            "BM1L": [
                1971
            ], 
            "WBO": [
                1562
            ], 
            "WBL": [
                150
            ], 
            "irrelevant_Noun": [
                0
            ], 
            "M1_ADJ": [
                0
            ]
        }, 
        "sentence": "there is much which has been said in other review about the feature of this phone , it is a great phone , mine worked without any problem right out of the box ."
    }, 
    "f118bd4e6e431fb2d34e5648c625bd6d": {
        "location1": [
            8
        ], 
        "location2": [
            17
        ], 
        "(8, 17)": {
            "AM2L": [
                1906
            ], 
            "AM2F": [
                2447
            ], 
            "WBF": [
                407
            ], 
            "BM1F": [
                1562
            ], 
            "M1": [
                1333
            ], 
            "irrelevant_Adj": [
                0
            ], 
            "M2": [
                2118
            ], 
            "BM1L": [
                128
            ], 
            "WBO": [
                3229, 
                931, 
                1881, 
                1896, 
                2909
            ], 
            "WBL": [
                3230
            ], 
            "irrelevant_Noun": [
                0
            ], 
            "M1_ADJ": [
                1
            ]
        }, 
        "sentence": "the loud speaker function on the 6610 is great because you do n't need to put your phone right next to your ear to talk ."
    }, 
    "bab7c888a49b92e4221b1c4a319f20de": {
        "(3, 4)": {
            "AM2L": [
                4
            ], 
            "BM1F": [
                150
            ], 
            "M1": [
                1333
            ], 
            "irrelevant_Adj": [
                0
            ], 
            "M2": [
                2118
            ], 
            "BM1L": [
                1745
            ], 
            "WBNULL": [
                1
            ], 
            "irrelevant_Noun": [
                0
            ], 
            "AM2F": [
                2864
            ], 
            "M1_ADJ": [
                1
            ]
        }, 
        "location1": [
            3
        ], 
        "location2": [
            4
        ], 
        "sentence": "nokia makes a great phone , that 's clear ."
    }, 
    "2ba94a2d6897c0dc29eaf3f1c90562af": {
        "location1": [
            18
        ], 
        "location2": [
            10
        ], 
        "(18, 10)": {
            "AM2L": [
                537
            ], 
            "AM2F": [
                2227
            ], 
            "WBF": [
                407
            ], 
            "BM1F": [
                2882
            ], 
            "M1": [
                2118
            ], 
            "irrelevant_Adj": [
                0
            ], 
            "M2": [
                1333
            ], 
            "BM1L": [
                1987
            ], 
            "WBO": [
                1971, 
                2866, 
                2637, 
                2617
            ], 
            "WBL": [
                2017
            ], 
            "irrelevant_Noun": [
                0
            ], 
            "M1_ADJ": [
                0
            ]
        }, 
        "sentence": "i did a ton of research and settled on this phone because of the small size , speakerphone option , great priced calling plan and access to my corporate email ."
    }, 
    "74ab0cc3f6e22fc34b2fa57efbcb6936": {
        "(3, 1)": {
            "AM2L": [
                150
            ], 
            "WBFL": [
                1562
            ], 
            "BM1F": [
                2882
            ], 
            "M1": [
                2118
            ], 
            "irrelevant_Adj": [
                0
            ], 
            "M2": [
                1333
            ], 
            "AM2F": [
                325
            ], 
            "irrelevant_Noun": [
                0
            ], 
            "M1_ADJ": [
                0
            ]
        }, 
        "location1": [
            3
        ], 
        "location2": [
            1
        ], 
        "sentence": "this phone is great as a whole and is not like others with one or two good quality ."
    }, 
    "f7ad72dd81513ff8fba2a51a2ac0bd2f": {
        "(13, 17)": {
            "WBF": [
                1449
            ], 
            "BM1F": [
                1075
            ], 
            "M1": [
                1333
            ], 
            "irrelevant_Adj": [
                0
            ], 
            "M2": [
                2118
            ], 
            "BM1L": [
                1566
            ], 
            "WBO": [
                1722
            ], 
            "WBL": [
                2882
            ], 
            "irrelevant_Noun": [
                0
            ], 
            "M1_ADJ": [
                1
            ]
        }, 
        "location1": [
            13
        ], 
        "location2": [
            17
        ], 
        "sentence": "technology wise , i think this is awesome plus the speaker makes it even great ! ! ! ! i love this phone ! ! !"
    }, 
    "5e621b8f3d3b01939c7ca7308eec4cd4": {
        "(9, 10)": {
            "BM1F": [
                150
            ], 
            "M1": [
                1333
            ], 
            "irrelevant_Adj": [
                0
            ], 
            "M2": [
                2118
            ], 
            "BM1L": [
                1569
            ], 
            "WBNULL": [
                1
            ], 
            "irrelevant_Noun": [
                0
            ], 
            "M1_ADJ": [
                1
            ]
        }, 
        "location1": [
            9
        ], 
        "location2": [
            10
        ], 
        "sentence": "for a specific location , i still think its a great phone ."
    }, 
    "abd74cd1dba7bfb5fe0802beda2c54f5": {
        "(0, 1)": {
            "M1": [
                1333
            ], 
            "irrelevant_Adj": [
                0
            ], 
            "M2": [
                2118
            ], 
            "WBNULL": [
                1
            ], 
            "irrelevant_Noun": [
                0
            ], 
            "M1_ADJ": [
                1
            ]
        }, 
        "location1": [
            0
        ], 
        "location2": [
            1
        ], 
        "sentence": "great phone .. ."
    }, 
    "bbdd399a8aa07bc878d531a293918676": {
        "(3, 4)": {
            "AM2L": [
                3229
            ], 
            "BM1F": [
                150
            ], 
            "M1": [
                1333
            ], 
            "irrelevant_Adj": [
                0
            ], 
            "M2": [
                2118
            ], 
            "BM1L": [
                1562
            ], 
            "WBNULL": [
                1
            ], 
            "irrelevant_Noun": [
                0
            ], 
            "AM2F": [
                1463
            ], 
            "M1_ADJ": [
                1
            ]
        }, 
        "location1": [
            3
        ], 
        "location2": [
            4
        ], 
        "sentence": "it is a great phone , if you are traveling all over the world , packed with wonderful feature ."
    }, 
    "6f9adbe48884c146062517217a8d680d": {
        "(6, 1)": {
            "AM2L": [
                3029
            ], 
            "AM2F": [
                2967
            ], 
            "WBF": [
                4
            ], 
            "BM1F": [
                2866
            ], 
            "M1": [
                2118
            ], 
            "irrelevant_Adj": [
                0
            ], 
            "M2": [
                1333
            ], 
            "WBO": [
                2676
            ], 
            "WBL": [
                1562
            ], 
            "irrelevant_Noun": [
                0
            ], 
            "M1_ADJ": [
                0
            ]
        }, 
        "location1": [
            6
        ], 
        "location2": [
            1, 
            28
        ], 
        "(6, 28)": {
            "AM2L": [
                2866
            ], 
            "AM2F": [
                275
            ], 
            "WBF": [
                2967
            ], 
            "BM1F": [
                1562
            ], 
            "M1": [
                1333
            ], 
            "irrelevant_Adj": [
                0
            ], 
            "M2": [
                2118
            ], 
            "BM1L": [
                2281
            ], 
            "WBO": [
                3029, 
                2866, 
                3097, 
                1463, 
                1569, 
                2919, 
                2285, 
                2100, 
                2882, 
                2876, 
                3168, 
                1297, 
                1720, 
                1449, 
                941, 
                1375, 
                286, 
                686
            ], 
            "WBL": [
                2882
            ], 
            "irrelevant_Noun": [
                0
            ], 
            "M1_ADJ": [
                1
            ]
        }, 
        "sentence": "the phone 's sound quality is great ( turn up the volume if its too quiet , people , this thing will get loud ) i dont have any complaint about this phone and the only thing that i miss from my 8290 is voice dialing ."
    }, 
    "4e3e16c7d6dc2759d671c13215fece25": {
        "location1": [
            13
        ], 
        "location2": [
            4
        ], 
        "(13, 4)": {
            "AM2L": [
                2866
            ], 
            "AM2F": [
                1490
            ], 
            "WBF": [
                1232
            ], 
            "BM1F": [
                2866
            ], 
            "M1": [
                2118
            ], 
            "irrelevant_Adj": [
                0
            ], 
            "M2": [
                1333
            ], 
            "BM1L": [
                1348
            ], 
            "WBO": [
                8, 
                3133, 
                2866, 
                2598, 
                2281
            ], 
            "WBL": [
                413
            ], 
            "irrelevant_Noun": [
                0
            ], 
            "M1_ADJ": [
                0
            ]
        }, 
        "sentence": "i have had the phone for 1 week , the signal quality has been great in the detroit area ( suburb ) and in my recent road trip between detroit and northern kentucky ( cincinnati ) i experienced perfect signal and reception along i-75 , far superior to at & # 38 ; t 's which does not work along several long stretch on that same route ."
    }
}