{
    "cd4327cb2d23f487b5853995261ec659": {
        "location1": [
            1
        ], 
        "location2": [
            9
        ], 
        "(1, 9)": {
            "AM2L": [
                3043
            ], 
            "AM2F": [
                1449
            ], 
            "WBF": [
                2688
            ], 
            "BM1F": [
                2866
            ], 
            "M1": [
                1354
            ], 
            "irrelevant_Adj": [
                0
            ], 
            "M2": [
                2118
            ], 
            "WBO": [
                1562, 
                2291, 
                2205, 
                1669
            ], 
            "WBL": [
                1857
            ], 
            "irrelevant_Noun": [
                0
            ], 
            "M1_ADJ": [
                1
            ]
        }, 
        "sentence": "the hands-free speakerphone is quite powerful ( like the motorola phone , i used to own ) ."
    }
}