{
    "dc8970a7ae3535e224c0efcde6cdc284": {
        "location1": [
            35
        ], 
        "location2": [
            8
        ], 
        "(35, 8)": {
            "AM2L": [
                711
            ], 
            "AM2F": [
                1549
            ], 
            "WBF": [
                541
            ], 
            "BM1F": [
                3181
            ], 
            "M1": [
                2017
            ], 
            "irrelevant_Adj": [
                0
            ], 
            "M2": [
                1411
            ], 
            "BM1L": [
                1283
            ], 
            "WBO": [
                340, 
                150, 
                533, 
                2027, 
                235, 
                639, 
                3181, 
                2646, 
                1221, 
                2296, 
                3123, 
                744, 
                1075, 
                1463, 
                1566, 
                1562, 
                1591, 
                2890, 
                273, 
                993, 
                1284, 
                1575, 
                309
            ], 
            "WBL": [
                1324
            ], 
            "irrelevant_Noun": [
                1
            ], 
            "M1_ADJ": [
                0
            ]
        }, 
        "sentence": "the phone also sport an image gallery ( with option camera attachment ) , a calendar / organizer , alarm clock with snooze , fm radio ( way cool , even if it is just through an ear-peice ) , game , java application and gprs high-speed internet connection ."
    }
}