{
    "dc8970a7ae3535e224c0efcde6cdc284": {
        "(35, 30)": {
            "AM2L": [
                711
            ], 
            "AM2F": [
                1549
            ], 
            "WBF": [
                1575
            ], 
            "BM1F": [
                993
            ], 
            "M1": [
                1284
            ], 
            "irrelevant_Adj": [
                0
            ], 
            "M2": [
                1411
            ], 
            "BM1L": [
                273
            ], 
            "WBO": [
                309
            ], 
            "WBL": [
                1324
            ], 
            "irrelevant_Noun": [
                0
            ], 
            "M1_ADJ": [
                0
            ]
        }, 
        "location1": [
            35
        ], 
        "location2": [
            30
        ], 
        "sentence": "the phone also sport an image gallery ( with option camera attachment ) , a calendar / organizer , alarm clock with snooze , fm radio ( way cool , even if it is just through an ear-peice ) , game , java application and gprs high-speed internet connection ."
    }
}