{
    "c67d6bcd1ecc6effe34a9f8354eddaa0": {
        "location1": [
            16
        ], 
        "location2": [
            13
        ], 
        "(16, 13)": {
            "AM2L": [
                1549
            ], 
            "AM2F": [
                2698
            ], 
            "WBF": [
                459
            ], 
            "BM1F": [
                2884
            ], 
            "M1": [
                1163
            ], 
            "irrelevant_Adj": [
                0
            ], 
            "M2": [
                1407
            ], 
            "BM1L": [
                1616
            ], 
            "WBO": [
                275
            ], 
            "WBL": [
                275
            ], 
            "irrelevant_Noun": [
                0
            ], 
            "M1_ADJ": [
                0
            ]
        }, 
        "sentence": "the phone has a few minor inconvenience , but only because it lack those feature , bluetooth and high spend internet , but there are very few problem with thing that you expected this phone to do ."
    }, 
    "9b759b22613ccb3d5a5909c5cd771409": {
        "(16, 9)": {
            "AM2L": [
                1463
            ], 
            "AM2F": [
                2281
            ], 
            "WBF": [
                3191
            ], 
            "BM1F": [
                2853
            ], 
            "M1": [
                1163
            ], 
            "irrelevant_Adj": [
                0
            ], 
            "M2": [
                1407
            ], 
            "BM1L": [
                543
            ], 
            "WBO": [
                1669, 
                150, 
                599
            ], 
            "WBL": [
                316
            ], 
            "irrelevant_Noun": [
                0
            ], 
            "M1_ADJ": [
                0
            ]
        }, 
        "location1": [
            16
        ], 
        "location2": [
            9
        ], 
        "sentence": "service is great as far as i can tell , feature work like a charm , ringtones are high quality if you buy them from t-mobile and aim is great ."
    }
}