{
    "9b759b22613ccb3d5a5909c5cd771409": {
        "(16, 14)": {
            "AM2L": [
                1463
            ], 
            "WBFL": [
                316
            ], 
            "BM1F": [
                599
            ], 
            "M1": [
                2452
            ], 
            "irrelevant_Adj": [
                0
            ], 
            "M2": [
                1407
            ], 
            "BM1L": [
                150
            ], 
            "AM2F": [
                2281
            ], 
            "irrelevant_Noun": [
                0
            ], 
            "M1_ADJ": [
                0
            ]
        }, 
        "location1": [
            16
        ], 
        "location2": [
            14
        ], 
        "sentence": "service is great as far as i can tell , feature work like a charm , ringtones are high quality if you buy them from t-mobile and aim is great ."
    }
}