{
    "75724e991eee9149c45dd759aeb7f1fd": {
        "(11, 22)": {
            "WBF": [
                2118
            ], 
            "BM1F": [
                273
            ], 
            "M1": [
                1548
            ], 
            "irrelevant_Adj": [
                0
            ], 
            "M2": [
                3196
            ], 
            "BM1L": [
                2961
            ], 
            "WBO": [
                2866, 
                128, 
                1562, 
                2654, 
                1490, 
                248, 
                1085
            ], 
            "WBL": [
                2866
            ], 
            "irrelevant_Noun": [
                0
            ], 
            "M1_ADJ": [
                1
            ]
        }, 
        "location1": [
            11
        ], 
        "location2": [
            22
        ], 
        "sentence": "another benefit of this phone is that it is truly an international phone ; the 6610 is sold in almost everywhere in the world ."
    }
}