{
    "3f9cc3c78af4f8f3dbd173ab2962564f": {
        "location1": [
            4
        ], 
        "location2": [
            6
        ], 
        "(4, 6)": {
            "WBFL": [
                1698
            ], 
            "BM1F": [
                356
            ], 
            "M1": [
                1600
            ], 
            "irrelevant_Adj": [
                0
            ], 
            "M2": [
                1272
            ], 
            "BM1L": [
                2866
            ], 
            "irrelevant_Noun": [
                0
            ], 
            "M1_ADJ": [
                1
            ]
        }, 
        "sentence": "i like the automatic key lock function ."
    }
}