{
    "8c8bbd4a1f9a38c0933fcbd3803b117e": {
        "(1, 16)": {
            "AM2L": [
                1601
            ], 
            "AM2F": [
                1635
            ], 
            "WBF": [
                316
            ], 
            "BM1F": [
                2866
            ], 
            "M1": [
                1600
            ], 
            "irrelevant_Adj": [
                0
            ], 
            "M2": [
                2360
            ], 
            "WBO": [
                640, 
                2912, 
                275, 
                2866, 
                1635, 
                1562, 
                150, 
                444, 
                1275, 
                1490, 
                2374
            ], 
            "WBL": [
                2716
            ], 
            "irrelevant_Noun": [
                0
            ], 
            "M1_ADJ": [
                1
            ]
        }, 
        "location1": [
            1
        ], 
        "location2": [
            16
        ], 
        "sentence": "the key are close together , and the layout is a bit funky in relation to standard rectangular layout keypad , but it 's not too weird ."
    }
}