{
    "b04114762c3824238acb69a9f7c5cc55": {
        "location1": [
            2
        ], 
        "location2": [
            19
        ], 
        "(2, 19)": {
            "AM2L": [
                2909
            ], 
            "AM2F": [
                2109
            ], 
            "WBF": [
                543
            ], 
            "BM1F": [
                3097
            ], 
            "M1": [
                1600
            ], 
            "irrelevant_Adj": [
                0
            ], 
            "M2": [
                1211
            ], 
            "BM1L": [
                2866
            ], 
            "WBO": [
                402, 
                1363, 
                2909, 
                2216, 
                522, 
                1449, 
                2878, 
                2882, 
                1769, 
                402, 
                528, 
                864, 
                2308
            ], 
            "WBL": [
                150
            ], 
            "irrelevant_Noun": [
                0
            ], 
            "M1_ADJ": [
                1
            ]
        }, 
        "sentence": "the volume key can be hard to press , but i think this may be by design rather than a flaw , perhaps to keep you from pressing it accidentally when you are in a call ."
    }
}