{
    "8c8bbd4a1f9a38c0933fcbd3803b117e": {
        "(1, 17)": {
            "AM2L": [
                522
            ], 
            "AM2F": [
                1601
            ], 
            "WBF": [
                316
            ], 
            "BM1F": [
                2866
            ], 
            "M1": [
                1600
            ], 
            "irrelevant_Adj": [
                0
            ], 
            "M2": [
                1635
            ], 
            "WBO": [
                640, 
                2912, 
                275, 
                2866, 
                1635, 
                1562, 
                150, 
                444, 
                1275, 
                1490, 
                2374, 
                2909
            ], 
            "WBL": [
                2360
            ], 
            "irrelevant_Noun": [
                0
            ], 
            "M1_ADJ": [
                1
            ]
        }, 
        "location1": [
            1
        ], 
        "location2": [
            7, 
            17
        ], 
        "(1, 7)": {
            "AM2L": [
                150
            ], 
            "AM2F": [
                1562
            ], 
            "WBF": [
                316
            ], 
            "BM1F": [
                2866
            ], 
            "M1": [
                1600
            ], 
            "irrelevant_Adj": [
                0
            ], 
            "M2": [
                1635
            ], 
            "WBO": [
                640, 
                2912
            ], 
            "WBL": [
                2866
            ], 
            "irrelevant_Noun": [
                0
            ], 
            "M1_ADJ": [
                1
            ]
        }, 
        "sentence": "the key are close together , and the layout is a bit funky in relation to standard rectangular layout keypad , but it 's not too weird ."
    }
}