{
    "7aba4051c00fd6801f9538e897377aed": {
        "(10, 1)": {
            "AM2L": [
                2637
            ], 
            "AM2F": [
                1562
            ], 
            "WBF": [
                1562
            ], 
            "BM1F": [
                2866
            ], 
            "M1": [
                1601
            ], 
            "irrelevant_Adj": [
                0
            ], 
            "M2": [
                1600
            ], 
            "WBO": [
                150, 
                827, 
                2617, 
                522, 
                2866
            ], 
            "WBL": [
                1991
            ], 
            "irrelevant_Noun": [
                0
            ], 
            "M1_ADJ": [
                0
            ]
        }, 
        "location1": [
            10
        ], 
        "location2": [
            1
        ], 
        "sentence": "the keypad is a decent size , but the power on/off key is small and difficult to press ."
    }, 
    "8c8bbd4a1f9a38c0933fcbd3803b117e": {
        "(1, 18)": {
            "AM2L": [
                1566
            ], 
            "AM2F": [
                522
            ], 
            "WBF": [
                316
            ], 
            "BM1F": [
                2866
            ], 
            "M1": [
                1600
            ], 
            "irrelevant_Adj": [
                0
            ], 
            "M2": [
                1601
            ], 
            "WBO": [
                640, 
                2912, 
                275, 
                2866, 
                1635, 
                1562, 
                150, 
                444, 
                1275, 
                1490, 
                2374, 
                2909, 
                2716
            ], 
            "WBL": [
                1635
            ], 
            "irrelevant_Noun": [
                0
            ], 
            "M1_ADJ": [
                1
            ]
        }, 
        "location1": [
            1
        ], 
        "location2": [
            18
        ], 
        "sentence": "the key are close together , and the layout is a bit funky in relation to standard rectangular layout keypad , but it 's not too weird ."
    }
}