{
    "82e64d953b29aae10303bde70a8ad379": {
        "(4, 5)": {
            "BM1F": [
                3075
            ], 
            "M1": [
                1665
            ], 
            "irrelevant_Adj": [
                0
            ], 
            "M2": [
                3135
            ], 
            "BM1L": [
                1562
            ], 
            "WBNULL": [
                1
            ], 
            "irrelevant_Noun": [
                0
            ], 
            "M1_ADJ": [
                1
            ]
        }, 
        "location1": [
            4
        ], 
        "location2": [
            5
        ], 
        "sentence": "the phone is very light weight ."
    }, 
    "b89efe0de0fd797ce86e413b78bcc046": {
        "(35, 31)": {
            "AM2L": [
                1167
            ], 
            "AM2F": [
                275
            ], 
            "WBF": [
                289
            ], 
            "BM1F": [
                937
            ], 
            "M1": [
                3135
            ], 
            "irrelevant_Adj": [
                0
            ], 
            "M2": [
                1665
            ], 
            "BM1L": [
                1570
            ], 
            "WBO": [
                1569
            ], 
            "WBL": [
                2919
            ], 
            "irrelevant_Noun": [
                0
            ], 
            "M1_ADJ": [
                0
            ]
        }, 
        "location1": [
            35
        ], 
        "location2": [
            31
        ], 
        "sentence": "the first night i got this phone i put it next to me when i went to bed just to listen to my favorite music station and the handset itself doesnt weight anything its too light and feel so comfy with it ."
    }, 
    "f814470075f9eaffe13f9b92b246daab": {
        "(3, 4)": {
            "AM2L": [
                1371
            ], 
            "BM1F": [
                3075
            ], 
            "M1": [
                1665
            ], 
            "irrelevant_Adj": [
                0
            ], 
            "M2": [
                3135
            ], 
            "BM1L": [
                1562
            ], 
            "WBNULL": [
                1
            ], 
            "irrelevant_Noun": [
                0
            ], 
            "AM2F": [
                275
            ], 
            "M1_ADJ": [
                1
            ]
        }, 
        "location1": [
            3
        ], 
        "location2": [
            4
        ], 
        "sentence": "it is very light weight and has a good signal strength ."
    }
}