{
    "b89efe0de0fd797ce86e413b78bcc046": {
        "(35, 24)": {
            "AM2L": [
                1167
            ], 
            "AM2F": [
                275
            ], 
            "WBF": [
                2725
            ], 
            "BM1F": [
                1161
            ], 
            "M1": [
                1875
            ], 
            "irrelevant_Adj": [
                0
            ], 
            "M2": [
                1665
            ], 
            "BM1L": [
                1878
            ], 
            "WBO": [
                275, 
                2866, 
                1355, 
                1570, 
                937, 
                3135, 
                289
            ], 
            "WBL": [
                2919
            ], 
            "irrelevant_Noun": [
                0
            ], 
            "M1_ADJ": [
                0
            ]
        }, 
        "location1": [
            35
        ], 
        "location2": [
            24
        ], 
        "sentence": "the first night i got this phone i put it next to me when i went to bed just to listen to my favorite music station and the handset itself doesnt weight anything its too light and feel so comfy with it ."
    }
}