{
    "f814470075f9eaffe13f9b92b246daab": {
        "(3, 10)": {
            "WBF": [
                3135
            ], 
            "BM1F": [
                3075
            ], 
            "M1": [
                1665
            ], 
            "irrelevant_Adj": [
                0
            ], 
            "M2": [
                2756
            ], 
            "BM1L": [
                1562
            ], 
            "WBO": [
                275, 
                1371, 
                150
            ], 
            "WBL": [
                2598
            ], 
            "irrelevant_Noun": [
                0
            ], 
            "M1_ADJ": [
                1
            ]
        }, 
        "location1": [
            3
        ], 
        "location2": [
            10
        ], 
        "sentence": "it is very light weight and has a good signal strength ."
    }
}