{
    "0774bbf5a1f65c236eec818161d3b56d": {
        "(4, 14)": {
            "AM2L": [
                1935
            ], 
            "AM2F": [
                1664
            ], 
            "WBF": [
                2118
            ], 
            "BM1F": [
                3075
            ], 
            "M1": [
                1665
            ], 
            "irrelevant_Adj": [
                0
            ], 
            "M2": [
                400
            ], 
            "BM1L": [
                150
            ], 
            "WBO": [
                150, 
                1690, 
                1655, 
                2862, 
                74, 
                2061
            ], 
            "WBL": [
                1706
            ], 
            "irrelevant_Noun": [
                0
            ], 
            "M1_ADJ": [
                1
            ]
        }, 
        "location1": [
            4
        ], 
        "location2": [
            14
        ], 
        "sentence": "this is a very light phone - a little less than 3 oz , with long battery life ( not as long as the new polymer technology ) ."
    }, 
    "068bd7c0f0afc39243b4899bb1fe99a4": {
        "(16, 5)": {
            "WBF": [
                1626
            ], 
            "BM1F": [
                2866
            ], 
            "M1": [
                400
            ], 
            "irrelevant_Adj": [
                0
            ], 
            "M2": [
                1665
            ], 
            "BM1L": [
                2864
            ], 
            "WBO": [
                2650, 
                1706, 
                3147, 
                2866, 
                2118, 
                1562, 
                2650
            ], 
            "WBL": [
                275
            ], 
            "irrelevant_Noun": [
                0
            ], 
            "M1_ADJ": [
                0
            ]
        }, 
        "location1": [
            16
        ], 
        "location2": [
            5
        ], 
        "sentence": "it is amazing that the battery last so long when the phone is so small and light ."
    }
}