{
    "86fbc0120dc9e7b25d672355dc9d3046": {
        "location1": [
            20
        ], 
        "location2": [
            7
        ], 
        "(20, 7)": {
            "WBF": [
                3229
            ], 
            "BM1F": [
                3230
            ], 
            "M1": [
                2171
            ], 
            "irrelevant_Adj": [
                0
            ], 
            "M2": [
                1665
            ], 
            "BM1L": [
                1490
            ], 
            "WBO": [
                1235, 
                1566, 
                1562, 
                2873, 
                1566, 
                1562, 
                2990, 
                2637, 
                275
            ], 
            "WBL": [
                2650
            ], 
            "irrelevant_Noun": [
                0
            ], 
            "M1_ADJ": [
                0
            ]
        }, 
        "sentence": "when you put this phone in your pocket you forget it is there ; it is unbelievably small and oh , so light ."
    }, 
    "10bcb3bda84444e8fa4320cb8f64d4a5": {
        "(3, 8)": {
            "WBF": [
                275
            ], 
            "BM1F": [
                1123
            ], 
            "M1": [
                1665
            ], 
            "irrelevant_Adj": [
                0
            ], 
            "M2": [
                2171
            ], 
            "BM1L": [
                1562
            ], 
            "WBO": [
                921
            ], 
            "WBL": [
                3230
            ], 
            "irrelevant_Noun": [
                0
            ], 
            "M1_ADJ": [
                1
            ]
        }, 
        "location1": [
            3
        ], 
        "location2": [
            8
        ], 
        "sentence": "it is extremely light and dissapears in your pocket ."
    }
}