{
    "60918d91db20f0758f77fc85122e79da": {
        "(4, 19)": {
            "AM2L": [
                2866
            ], 
            "AM2F": [
                275
            ], 
            "WBF": [
                806
            ], 
            "BM1F": [
                1971
            ], 
            "M1": [
                1690
            ], 
            "irrelevant_Adj": [
                1
            ], 
            "M2": [
                2027
            ], 
            "BM1L": [
                1719
            ], 
            "WBO": [
                1163, 
                1878, 
                1161, 
                423, 
                2866, 
                1284, 
                275, 
                2866, 
                2138, 
                2113, 
                1515
            ], 
            "WBL": [
                1452
            ], 
            "irrelevant_Noun": [
                0
            ], 
            "M1_ADJ": [
                1
            ]
        }, 
        "location1": [
            4
        ], 
        "location2": [
            19
        ], 
        "sentence": "it has lot of little cute feature , my favorite being the game and the pim ( personal information manager -- i.e . organizer ) , and the radio !"
    }
}