{
    "25b1cc0cda02ef1722164f8b75bb7712": {
        "location1": [
            12
        ], 
        "location2": [
            7
        ], 
        "(12, 7)": {
            "AM2F": [
                1498
            ], 
            "WBF": [
                2864
            ], 
            "BM1F": [
                3046
            ], 
            "M1": [
                1544
            ], 
            "irrelevant_Adj": [
                1
            ], 
            "M2": [
                1690
            ], 
            "BM1L": [
                2866
            ], 
            "WBO": [
                1449
            ], 
            "WBL": [
                150
            ], 
            "irrelevant_Noun": [
                0
            ], 
            "M1_ADJ": [
                0
            ]
        }, 
        "sentence": "there are some feature in the user interface that i find a little inconvenient ."
    }
}