{
    "cb424d3ece8282ce9d98ff9e19d23c6c": {
        "(12, 10)": {
            "AM2L": [
                2866
            ], 
            "WBFL": [
                1616
            ], 
            "BM1F": [
                1232
            ], 
            "M1": [
                2826
            ], 
            "irrelevant_Adj": [
                1
            ], 
            "M2": [
                1758
            ], 
            "BM1L": [
                1754
            ], 
            "AM2F": [
                1971
            ], 
            "irrelevant_Noun": [
                0
            ], 
            "M1_ADJ": [
                0
            ]
        }, 
        "location1": [
            12
        ], 
        "location2": [
            10
        ], 
        "sentence": "the one huge disappointment is that the phone manufactured for t-mobile lack many of the menus and function that a nokia straight from the manufacturer should have ."
    }
}