{
    "1e497d003ead8f158733c4abb51c307b": {
        "location1": [
            6
        ], 
        "location2": [
            12
        ], 
        "(6, 12)": {
            "AM2L": [
                2866
            ], 
            "AM2F": [
                275
            ], 
            "WBF": [
                316
            ], 
            "BM1F": [
                316
            ], 
            "M1": [
                1758
            ], 
            "irrelevant_Adj": [
                1
            ], 
            "M2": [
                2296
            ], 
            "BM1L": [
                2873
            ], 
            "WBO": [
                2866, 
                2687
            ], 
            "WBL": [
                2866
            ], 
            "irrelevant_Noun": [
                0
            ], 
            "M1_ADJ": [
                1
            ]
        }, 
        "sentence": "my favorite feature , although there are many , are the speaker phone , the radio and the infrared ."
    }
}