{
    "88b9aa2d53178b2ce98e7c56d5c5e0d8": {
        "(18, 1)": {
            "AM2L": [
                3041
            ], 
            "AM2F": [
                2118
            ], 
            "WBF": [
                2864
            ], 
            "BM1F": [
                2866
            ], 
            "M1": [
                1132
            ], 
            "irrelevant_Adj": [
                1
            ], 
            "M2": [
                1758
            ], 
            "WBO": [
                2866, 
                7, 
                1600, 
                1562, 
                2866, 
                2682, 
                1600, 
                1232, 
                2861, 
                1521, 
                1562, 
                150, 
                444
            ], 
            "WBL": [
                325
            ], 
            "irrelevant_Noun": [
                0
            ], 
            "M1_ADJ": [
                0
            ]
        }, 
        "location1": [
            18
        ], 
        "location2": [
            1
        ], 
        "sentence": "the fact that the `` 0 `` key is the space key for text input is a bit confusing , as many phone use the `` # `` key instead ."
    }
}