{
    "cb424d3ece8282ce9d98ff9e19d23c6c": {
        "(12, 15)": {
            "AM2L": [
                1272
            ], 
            "AM2F": [
                275
            ], 
            "WBF": [
                1971
            ], 
            "BM1F": [
                1616
            ], 
            "M1": [
                1758
            ], 
            "irrelevant_Adj": [
                1
            ], 
            "M2": [
                1796
            ], 
            "BM1L": [
                2826
            ], 
            "WBO": [
                2866
            ], 
            "WBL": [
                2866
            ], 
            "irrelevant_Noun": [
                0
            ], 
            "M1_ADJ": [
                1
            ]
        }, 
        "location1": [
            12
        ], 
        "location2": [
            15
        ], 
        "sentence": "the one huge disappointment is that the phone manufactured for t-mobile lack many of the menus and function that a nokia straight from the manufacturer should have ."
    }
}