{
    "88b9aa2d53178b2ce98e7c56d5c5e0d8": {
        "(18, 12)": {
            "AM2L": [
                3041
            ], 
            "AM2F": [
                2118
            ], 
            "WBF": [
                1562
            ], 
            "BM1F": [
                2861
            ], 
            "M1": [
                1521
            ], 
            "irrelevant_Adj": [
                1
            ], 
            "M2": [
                1758
            ], 
            "BM1L": [
                1232
            ], 
            "WBO": [
                150, 
                444
            ], 
            "WBL": [
                325
            ], 
            "irrelevant_Noun": [
                0
            ], 
            "M1_ADJ": [
                0
            ]
        }, 
        "location1": [
            18
        ], 
        "location2": [
            12
        ], 
        "sentence": "the fact that the `` 0 `` key is the space key for text input is a bit confusing , as many phone use the `` # `` key instead ."
    }
}