{
    "c67d6bcd1ecc6effe34a9f8354eddaa0": {
        "(5, 6)": {
            "AM2L": [
                1999
            ], 
            "BM1F": [
                1171
            ], 
            "M1": [
                1819
            ], 
            "irrelevant_Adj": [
                0
            ], 
            "M2": [
                1497
            ], 
            "BM1L": [
                150
            ], 
            "WBNULL": [
                1
            ], 
            "irrelevant_Noun": [
                0
            ], 
            "AM2F": [
                522
            ], 
            "M1_ADJ": [
                1
            ]
        }, 
        "location1": [
            5
        ], 
        "location2": [
            6
        ], 
        "sentence": "the phone has a few minor inconvenience , but only because it lack those feature , bluetooth and high spend internet , but there are very few problem with thing that you expected this phone to do ."
    }
}