{
    "c67d6bcd1ecc6effe34a9f8354eddaa0": {
        "(5, 13)": {
            "AM2L": [
                275
            ], 
            "AM2F": [
                459
            ], 
            "WBF": [
                1497
            ], 
            "BM1F": [
                1171
            ], 
            "M1": [
                1819
            ], 
            "irrelevant_Adj": [
                0
            ], 
            "M2": [
                1163
            ], 
            "BM1L": [
                150
            ], 
            "WBO": [
                522, 
                1999, 
                407, 
                1566
            ], 
            "WBL": [
                2884
            ], 
            "irrelevant_Noun": [
                0
            ], 
            "M1_ADJ": [
                1
            ]
        }, 
        "location1": [
            5
        ], 
        "location2": [
            13
        ], 
        "sentence": "the phone has a few minor inconvenience , but only because it lack those feature , bluetooth and high spend internet , but there are very few problem with thing that you expected this phone to do ."
    }
}