{
    "7c8f3f41daa8a96742203572b5b47386": {
        "(1, 5)": {
            "AM2L": [
                1074
            ], 
            "AM2F": [
                2563
            ], 
            "WBF": [
                2861
            ], 
            "BM1F": [
                2866
            ], 
            "M1": [
                1835
            ], 
            "irrelevant_Adj": [
                0
            ], 
            "M2": [
                2133
            ], 
            "WBO": [
                1798
            ], 
            "WBL": [
                600
            ], 
            "irrelevant_Noun": [
                0
            ], 
            "M1_ADJ": [
                1
            ]
        }, 
        "location1": [
            1
        ], 
        "location2": [
            5
        ], 
        "sentence": "the mobile text messaging , chat , picture sharing etc . other nicities , that you would enjoy ."
    }
}