{
    "147682229af074d2520a07e45499562b": {
        "(1, 3)": {
            "AM2L": [
                3143
            ], 
            "WBFL": [
                2777
            ], 
            "BM1F": [
                2866
            ], 
            "M1": [
                1851
            ], 
            "irrelevant_Adj": [
                1
            ], 
            "M2": [
                2918
            ], 
            "AM2F": [
                2864
            ], 
            "irrelevant_Noun": [
                0
            ], 
            "M1_ADJ": [
                1
            ]
        }, 
        "location1": [
            1
        ], 
        "location2": [
            3
        ], 
        "sentence": "the more subtle tone that were included with the phone are hard to hear at time ."
    }, 
    "7d7d4d07552660b8043027100c94a48d": {
        "(3, 8)": {
            "AM2L": [
                2502
            ], 
            "AM2F": [
                3107
            ], 
            "WBF": [
                1271
            ], 
            "BM1F": [
                1371
            ], 
            "M1": [
                1851
            ], 
            "irrelevant_Adj": [
                1
            ], 
            "M2": [
                2918
            ], 
            "BM1L": [
                1566
            ], 
            "WBO": [
                2764
            ], 
            "WBL": [
                1851
            ], 
            "irrelevant_Noun": [
                0
            ], 
            "M1_ADJ": [
                1
            ]
        }, 
        "(7, 8)": {
            "AM2L": [
                2502
            ], 
            "BM1F": [
                1669
            ], 
            "M1": [
                1851
            ], 
            "irrelevant_Adj": [
                1
            ], 
            "M2": [
                2918
            ], 
            "BM1L": [
                2764
            ], 
            "WBNULL": [
                1
            ], 
            "irrelevant_Noun": [
                0
            ], 
            "AM2F": [
                3107
            ], 
            "M1_ADJ": [
                1
            ]
        }, 
        "location1": [
            3, 
            7
        ], 
        "location2": [
            8
        ], 
        "sentence": "additionally , it has more fun stuff like more tone , wallpaper , screensaver , stop clock , alarm , java application ( chess , currency converter etc . )"
    }
}