{
    "7d7d4d07552660b8043027100c94a48d": {
        "(7, 5)": {
            "AM2L": [
                3107
            ], 
            "WBFL": [
                1669
            ], 
            "BM1F": [
                1271
            ], 
            "M1": [
                2764
            ], 
            "irrelevant_Adj": [
                1
            ], 
            "M2": [
                1851
            ], 
            "BM1L": [
                1851
            ], 
            "AM2F": [
                2918
            ], 
            "irrelevant_Noun": [
                0
            ], 
            "M1_ADJ": [
                0
            ]
        }, 
        "(3, 5)": {
            "AM2L": [
                1851
            ], 
            "WBFL": [
                1271
            ], 
            "BM1F": [
                1371
            ], 
            "M1": [
                1851
            ], 
            "irrelevant_Adj": [
                1
            ], 
            "M2": [
                2764
            ], 
            "BM1L": [
                1566
            ], 
            "AM2F": [
                1669
            ], 
            "irrelevant_Noun": [
                0
            ], 
            "M1_ADJ": [
                1
            ]
        }, 
        "location1": [
            3, 
            7
        ], 
        "location2": [
            5
        ], 
        "sentence": "additionally , it has more fun stuff like more tone , wallpaper , screensaver , stop clock , alarm , java application ( chess , currency converter etc . )"
    }
}