{
    "c942e7617c5617c46364266d80a29f69": {
        "(6, 1)": {
            "AM2L": [
                275
            ], 
            "AM2F": [
                2118
            ], 
            "WBF": [
                128
            ], 
            "BM1F": [
                2866
            ], 
            "M1": [
                1920
            ], 
            "irrelevant_Adj": [
                1
            ], 
            "M2": [
                1903
            ], 
            "WBO": [
                1562
            ], 
            "WBL": [
                2376
            ], 
            "irrelevant_Noun": [
                0
            ], 
            "M1_ADJ": [
                0
            ]
        }, 
        "location1": [
            6
        ], 
        "location2": [
            1
        ], 
        "sentence": "the nokia 6610 is a relatively new phone , and what a great phone it is ."
    }
}