{
    "6fe554bb692034563c238b99119b81ec": {
        "(4, 5)": {
            "AM2L": [
                1449
            ], 
            "BM1F": [
                1199
            ], 
            "M1": [
                1929
            ], 
            "irrelevant_Adj": [
                0
            ], 
            "M2": [
                2118
            ], 
            "BM1L": [
                1878
            ], 
            "WBNULL": [
                1
            ], 
            "irrelevant_Noun": [
                0
            ], 
            "AM2F": [
                275
            ], 
            "M1_ADJ": [
                1
            ]
        }, 
        "location1": [
            4
        ], 
        "location2": [
            5
        ], 
        "sentence": "nokia was my first nonflip phone , and i 'm glad i decided to go with them ."
    }
}