{
    "cb73b87bc53d6be47ba62c64c5eefff1": {
        "location1": [
            4
        ], 
        "location2": [
            8
        ], 
        "(4, 8)": {
            "AM2L": [
                522
            ], 
            "AM2F": [
                2503
            ], 
            "WBF": [
                2452
            ], 
            "BM1F": [
                3181
            ], 
            "M1": [
                1983
            ], 
            "irrelevant_Adj": [
                0
            ], 
            "M2": [
                378
            ], 
            "BM1L": [
                664
            ], 
            "WBO": [
                2659
            ], 
            "WBL": [
                827
            ], 
            "irrelevant_Noun": [
                0
            ], 
            "M1_ADJ": [
                1
            ]
        }, 
        "sentence": "the phone comes with okay ringtones , some decent background / screensavers , but the phone has very little memory ( mine had 230kb as it arrived from amazon , so you do n't have too many option on what you can put on there ) ."
    }
}