{
    "014aa078aecf0b50593f6613db26ebbc": {
        "(4, 14)": {
            "WBF": [
                1387
            ], 
            "BM1F": [
                2866
            ], 
            "M1": [
                2018
            ], 
            "irrelevant_Adj": [
                0
            ], 
            "M2": [
                2296
            ], 
            "BM1L": [
                3181
            ], 
            "WBO": [
                3229, 
                543, 
                1683, 
                2909, 
                1875, 
                2045
            ], 
            "WBL": [
                1537
            ], 
            "irrelevant_Noun": [
                0
            ], 
            "M1_ADJ": [
                1
            ]
        }, 
        "location1": [
            4
        ], 
        "location2": [
            14
        ], 
        "sentence": "even better , with the optional headset you can listen to music over the integrated radio ."
    }
}