{
    "b7fe89c7512fb83bb17ebeaa6b53d631": {
        "(7, 8)": {
            "BM1F": [
                1261
            ], 
            "M1": [
                2032
            ], 
            "irrelevant_Adj": [
                1
            ], 
            "M2": [
                1341
            ], 
            "BM1L": [
                2133
            ], 
            "WBNULL": [
                1
            ], 
            "irrelevant_Noun": [
                0
            ], 
            "AM2F": [
                2118
            ], 
            "M1_ADJ": [
                1
            ]
        }, 
        "location1": [
            7
        ], 
        "location2": [
            8
        ], 
        "sentence": "it receives very nice mms picture from other gsm phone ."
    }
}