{
    "8b06ee9536157bdc30f89af9097efd4e": {
        "(4, 15)": {
            "AM2L": [
                2866
            ], 
            "AM2F": [
                325
            ], 
            "WBF": [
                1163
            ], 
            "BM1F": [
                1758
            ], 
            "M1": [
                2032
            ], 
            "irrelevant_Adj": [
                1
            ], 
            "M2": [
                3081
            ], 
            "BM1L": [
                1371
            ], 
            "WBO": [
                1559, 
                1591, 
                2909, 
                1882, 
                1994, 
                2866, 
                1163
            ], 
            "WBL": [
                1449
            ], 
            "irrelevant_Noun": [
                0
            ], 
            "M1_ADJ": [
                1
            ]
        }, 
        "location1": [
            4
        ], 
        "location2": [
            15
        ], 
        "sentence": "this phone has many other feature , ir , ; just to name one , the feature above i view as the most beneficial ."
    }
}