{
    "6678ea63baf21e42ca34ff9c60e47c7c": {
        "(22, 2)": {
            "AM2L": [
                309
            ], 
            "AM2F": [
                2828
            ], 
            "WBF": [
                1562
            ], 
            "BM1F": [
                1324
            ], 
            "M1": [
                711
            ], 
            "irrelevant_Adj": [
                1
            ], 
            "M2": [
                2032
            ], 
            "BM1L": [
                2866
            ], 
            "WBO": [
                2663, 
                2631, 
                275, 
                3209, 
                1533, 
                1797, 
                3181, 
                2866, 
                1496, 
                293, 
                1533, 
                1800, 
                2653, 
                1562, 
                150, 
                2070
            ], 
            "WBL": [
                2866
            ], 
            "irrelevant_Noun": [
                0
            ], 
            "M1_ADJ": [
                0
            ]
        }, 
        "location1": [
            22
        ], 
        "location2": [
            2
        ], 
        "sentence": "the gprs connection is sometimes slow , and writing instant message with the included aol instant messenger software is a pain , but the other t-zones application are quite useful ."
    }
}