{
    "6678ea63baf21e42ca34ff9c60e47c7c": {
        "(22, 15)": {
            "AM2L": [
                309
            ], 
            "AM2F": [
                2828
            ], 
            "WBF": [
                2653
            ], 
            "BM1F": [
                1533
            ], 
            "M1": [
                1800
            ], 
            "irrelevant_Adj": [
                1
            ], 
            "M2": [
                2032
            ], 
            "BM1L": [
                293
            ], 
            "WBO": [
                1562, 
                150, 
                2070
            ], 
            "WBL": [
                2866
            ], 
            "irrelevant_Noun": [
                0
            ], 
            "M1_ADJ": [
                0
            ]
        }, 
        "location1": [
            22
        ], 
        "location2": [
            15
        ], 
        "sentence": "the gprs connection is sometimes slow , and writing instant message with the included aol instant messenger software is a pain , but the other t-zones application are quite useful ."
    }
}