{
    "0640603a2170d71444627f4f433fd0bd": {
        "(8, 30)": {
            "WBF": [
                2438
            ], 
            "BM1F": [
                1490
            ], 
            "M1": [
                2032
            ], 
            "irrelevant_Adj": [
                1
            ], 
            "M2": [
                481
            ], 
            "BM1L": [
                2476
            ], 
            "WBO": [
                154, 
                2866, 
                1163, 
                1971, 
                2882, 
                2118, 
                1566, 
                1562, 
                150, 
                1333, 
                2118, 
                1815, 
                3193, 
                3183, 
                286, 
                2236, 
                2447, 
                2037
            ], 
            "WBL": [
                2866
            ], 
            "irrelevant_Noun": [
                0
            ], 
            "M1_ADJ": [
                1
            ]
        }, 
        "location1": [
            8
        ], 
        "location2": [
            30
        ], 
        "sentence": "there is much which has been said in other review about the feature of this phone , it is a great phone , mine worked without any problem right out of the box ."
    }
}