{
    "bc5f1642b16101e4228c81997a833126": {
        "(13, 9)": {
            "AM2L": [
                316
            ], 
            "AM2F": [
                2118
            ], 
            "WBF": [
                1490
            ], 
            "BM1F": [
                1878
            ], 
            "M1": [
                465
            ], 
            "irrelevant_Adj": [
                1
            ], 
            "M2": [
                2032
            ], 
            "BM1L": [
                2909
            ], 
            "WBO": [
                2147
            ], 
            "WBL": [
                3149
            ], 
            "irrelevant_Noun": [
                0
            ], 
            "M1_ADJ": [
                0
            ]
        }, 
        "location1": [
            13
        ], 
        "location2": [
            9
        ], 
        "sentence": "i am able to carry it close to my body , in place where other phone are not so easily concealed ."
    }
}