{
    "7c8f3f41daa8a96742203572b5b47386": {
        "location1": [
            8
        ], 
        "location2": [
            2
        ], 
        "(8, 2)": {
            "AM2L": [
                2864
            ], 
            "AM2F": [
                1911
            ], 
            "WBF": [
                1798
            ], 
            "BM1F": [
                1835
            ], 
            "M1": [
                2861
            ], 
            "irrelevant_Adj": [
                1
            ], 
            "M2": [
                2032
            ], 
            "BM1L": [
                2866
            ], 
            "WBO": [
                600, 
                2133
            ], 
            "WBL": [
                1074
            ], 
            "irrelevant_Noun": [
                0
            ], 
            "M1_ADJ": [
                0
            ]
        }, 
        "sentence": "the mobile text messaging , chat , picture sharing etc . other nicities , that you would enjoy ."
    }
}