{
    "38ea99941efb67acbdadb452537a05bc": {
        "location1": [
            14
        ], 
        "location2": [
            6
        ], 
        "(14, 6)": {
            "AM2L": [
                1566
            ], 
            "AM2F": [
                1163
            ], 
            "WBF": [
                880
            ], 
            "BM1F": [
                1975
            ], 
            "M1": [
                3095
            ], 
            "irrelevant_Adj": [
                1
            ], 
            "M2": [
                2032
            ], 
            "BM1L": [
                1935
            ], 
            "WBO": [
                1669, 
                1878, 
                2223, 
                2118
            ], 
            "WBL": [
                2866
            ], 
            "irrelevant_Noun": [
                0
            ], 
            "M1_ADJ": [
                0
            ]
        }, 
        "sentence": "unfortunately , the 6610 does not offer voice dialing like my previous phone , but the other feature it pack outweighs this shortcoming ."
    }
}