{
    "5951baa50c5670e7c4fcac86438fba32": {
        "location1": [
            1
        ], 
        "location2": [
            12
        ], 
        "(1, 12)": {
            "WBF": [
                656
            ], 
            "BM1F": [
                1917
            ], 
            "M1": [
                2032
            ], 
            "irrelevant_Adj": [
                1
            ], 
            "M2": [
                1975
            ], 
            "WBO": [
                2118, 
                1371, 
                2866, 
                659, 
                1971, 
                1163, 
                2864
            ], 
            "WBL": [
                128
            ], 
            "irrelevant_Noun": [
                0
            ], 
            "M1_ADJ": [
                1
            ]
        }, 
        "sentence": "no other color phone has the combination of feature that the 6610 offer ."
    }, 
    "38ea99941efb67acbdadb452537a05bc": {
        "(14, 5)": {
            "AM2L": [
                1566
            ], 
            "AM2F": [
                1163
            ], 
            "WBF": [
                3095
            ], 
            "BM1F": [
                1935
            ], 
            "M1": [
                1975
            ], 
            "irrelevant_Adj": [
                1
            ], 
            "M2": [
                2032
            ], 
            "BM1L": [
                936
            ], 
            "WBO": [
                880, 
                1669, 
                1878, 
                2223, 
                2118
            ], 
            "WBL": [
                2866
            ], 
            "irrelevant_Noun": [
                0
            ], 
            "M1_ADJ": [
                0
            ]
        }, 
        "location1": [
            14
        ], 
        "location2": [
            5
        ], 
        "sentence": "unfortunately , the 6610 does not offer voice dialing like my previous phone , but the other feature it pack outweighs this shortcoming ."
    }
}