{
    "6678ea63baf21e42ca34ff9c60e47c7c": {
        "(22, 24)": {
            "AM2L": [
                2291
            ], 
            "WBFL": [
                2828
            ], 
            "BM1F": [
                2866
            ], 
            "M1": [
                2032
            ], 
            "irrelevant_Adj": [
                1
            ], 
            "M2": [
                309
            ], 
            "BM1L": [
                522
            ], 
            "AM2F": [
                316
            ], 
            "irrelevant_Noun": [
                0
            ], 
            "M1_ADJ": [
                1
            ]
        }, 
        "location1": [
            22
        ], 
        "location2": [
            24
        ], 
        "sentence": "the gprs connection is sometimes slow , and writing instant message with the included aol instant messenger software is a pain , but the other t-zones application are quite useful ."
    }
}