{
    "8b06ee9536157bdc30f89af9097efd4e": {
        "(4, 5)": {
            "AM2L": [
                1591
            ], 
            "BM1F": [
                1758
            ], 
            "M1": [
                2032
            ], 
            "irrelevant_Adj": [
                1
            ], 
            "M2": [
                1163
            ], 
            "BM1L": [
                1371
            ], 
            "WBNULL": [
                1
            ], 
            "irrelevant_Noun": [
                0
            ], 
            "AM2F": [
                1559
            ], 
            "M1_ADJ": [
                1
            ]
        }, 
        "location1": [
            4
        ], 
        "location2": [
            5, 
            12
        ], 
        "(4, 12)": {
            "AM2L": [
                1449
            ], 
            "AM2F": [
                155
            ], 
            "WBF": [
                1163
            ], 
            "BM1F": [
                1758
            ], 
            "M1": [
                2032
            ], 
            "irrelevant_Adj": [
                1
            ], 
            "M2": [
                1163
            ], 
            "BM1L": [
                1371
            ], 
            "WBO": [
                1559, 
                1591, 
                2909, 
                1882
            ], 
            "WBL": [
                2866
            ], 
            "irrelevant_Noun": [
                0
            ], 
            "M1_ADJ": [
                1
            ]
        }, 
        "sentence": "this phone has many other feature , ir , ; just to name one , the feature above i view as the most beneficial ."
    }, 
    "0640603a2170d71444627f4f433fd0bd": {
        "(8, 12)": {
            "AM2L": [
                2882
            ], 
            "AM2F": [
                1971
            ], 
            "WBF": [
                2438
            ], 
            "BM1F": [
                1490
            ], 
            "M1": [
                2032
            ], 
            "irrelevant_Adj": [
                1
            ], 
            "M2": [
                1163
            ], 
            "BM1L": [
                2476
            ], 
            "WBO": [
                154
            ], 
            "WBL": [
                2866
            ], 
            "irrelevant_Noun": [
                0
            ], 
            "M1_ADJ": [
                1
            ]
        }, 
        "location1": [
            8
        ], 
        "location2": [
            12
        ], 
        "sentence": "there is much which has been said in other review about the feature of this phone , it is a great phone , mine worked without any problem right out of the box ."
    }, 
    "5951baa50c5670e7c4fcac86438fba32": {
        "(1, 8)": {
            "AM2L": [
                2866
            ], 
            "AM2F": [
                2864
            ], 
            "WBF": [
                656
            ], 
            "BM1F": [
                1917
            ], 
            "M1": [
                2032
            ], 
            "irrelevant_Adj": [
                1
            ], 
            "M2": [
                1163
            ], 
            "WBO": [
                2118, 
                1371, 
                2866
            ], 
            "WBL": [
                1971
            ], 
            "irrelevant_Noun": [
                0
            ], 
            "M1_ADJ": [
                1
            ]
        }, 
        "location1": [
            1
        ], 
        "location2": [
            8
        ], 
        "sentence": "no other color phone has the combination of feature that the 6610 offer ."
    }, 
    "38ea99941efb67acbdadb452537a05bc": {
        "location1": [
            14
        ], 
        "location2": [
            15
        ], 
        "(14, 15)": {
            "AM2L": [
                2064
            ], 
            "BM1F": [
                2866
            ], 
            "M1": [
                2032
            ], 
            "irrelevant_Adj": [
                1
            ], 
            "M2": [
                1163
            ], 
            "BM1L": [
                522
            ], 
            "WBNULL": [
                1
            ], 
            "irrelevant_Noun": [
                0
            ], 
            "AM2F": [
                1566
            ], 
            "M1_ADJ": [
                1
            ]
        }, 
        "sentence": "unfortunately , the 6610 does not offer voice dialing like my previous phone , but the other feature it pack outweighs this shortcoming ."
    }
}