{
    "47e3873452377bfeaeb451bfad9ba553": {
        "(0, 8)": {
            "WBF": [
                2882
            ], 
            "M1": [
                2046
            ], 
            "irrelevant_Adj": [
                0
            ], 
            "M2": [
                2118
            ], 
            "WBO": [
                1562, 
                150, 
                2628, 
                436
            ], 
            "WBL": [
                361
            ], 
            "irrelevant_Noun": [
                0
            ], 
            "M1_ADJ": [
                1
            ]
        }, 
        "location1": [
            0
        ], 
        "location2": [
            8
        ], 
        "sentence": "overall this is a slightly better than average phone ."
    }, 
    "28fd6ff95028de4d9ea392d1a09a45ff": {
        "(0, 5)": {
            "WBF": [
                2882
            ], 
            "AM2L": [
                1375
            ], 
            "M1": [
                2046
            ], 
            "irrelevant_Adj": [
                0
            ], 
            "M2": [
                2118
            ], 
            "WBO": [
                1562
            ], 
            "WBL": [
                434
            ], 
            "irrelevant_Noun": [
                0
            ], 
            "AM2F": [
                1449
            ], 
            "M1_ADJ": [
                1
            ]
        }, 
        "location1": [
            0
        ], 
        "location2": [
            5
        ], 
        "sentence": "overall this is the best phone i have ever owned ."
    }, 
    "962d0a03e1daebad970b1586234fc351": {
        "(0, 3)": {
            "WBF": [
                273
            ], 
            "M1": [
                2046
            ], 
            "irrelevant_Adj": [
                0
            ], 
            "M2": [
                2118
            ], 
            "WBO": [
                1092
            ], 
            "WBL": [
                1092
            ], 
            "irrelevant_Noun": [
                0
            ], 
            "M1_ADJ": [
                1
            ]
        }, 
        "location1": [
            0
        ], 
        "location2": [
            3
        ], 
        "sentence": "overall an excellent phone ."
    }, 
    "17f6d670f0087e4bd79ea3d9763fd40b": {
        "(0, 5)": {
            "WBF": [
                1449
            ], 
            "M1": [
                2046
            ], 
            "irrelevant_Adj": [
                0
            ], 
            "M2": [
                2118
            ], 
            "WBO": [
                1416
            ], 
            "WBL": [
                2882
            ], 
            "irrelevant_Noun": [
                0
            ], 
            "M1_ADJ": [
                1
            ]
        }, 
        "location1": [
            0
        ], 
        "location2": [
            5
        ], 
        "sentence": "overall , i highly recommend this phone ."
    }, 
    "d59318453bccd6b57857e2fa7b73f426": {
        "(5, 4)": {
            "AM2L": [
                1305
            ], 
            "BM1F": [
                2882
            ], 
            "M1": [
                2118
            ], 
            "irrelevant_Adj": [
                0
            ], 
            "M2": [
                2046
            ], 
            "BM1L": [
                1669
            ], 
            "WBNULL": [
                1
            ], 
            "irrelevant_Noun": [
                0
            ], 
            "AM2F": [
                3204
            ], 
            "M1_ADJ": [
                0
            ]
        }, 
        "location1": [
            5
        ], 
        "location2": [
            4
        ], 
        "sentence": "i do like this phone overall ( would give it a 3.5 ) , but unforutnately , i am returning it ."
    }, 
    "0a672f3d94178693fef4a061788aba10": {
        "(0, 6)": {
            "WBF": [
                2882
            ], 
            "AM2L": [
                1449
            ], 
            "M1": [
                2046
            ], 
            "irrelevant_Adj": [
                0
            ], 
            "M2": [
                2118
            ], 
            "WBO": [
                1371, 
                413
            ], 
            "WBL": [
                1161
            ], 
            "irrelevant_Noun": [
                0
            ], 
            "AM2F": [
                2864
            ], 
            "M1_ADJ": [
                1
            ]
        }, 
        "location1": [
            0
        ], 
        "location2": [
            6
        ], 
        "sentence": "overall this has been my favorite phone that i have owned ."
    }
}