{
    "947e4a7f76574c8d9e61e6f0a4bf403d": {
        "(3, 4)": {
            "AM2L": [
                2782
            ], 
            "BM1F": [
                150
            ], 
            "M1": [
                2104
            ], 
            "irrelevant_Adj": [
                0
            ], 
            "M2": [
                2118
            ], 
            "BM1L": [
                1562
            ], 
            "WBNULL": [
                1
            ], 
            "irrelevant_Noun": [
                0
            ], 
            "AM2F": [
                1490
            ], 
            "M1_ADJ": [
                1
            ]
        }, 
        "location1": [
            3
        ], 
        "location2": [
            4
        ], 
        "sentence": "it is a perfect phone in such a small and appealing package ."
    }, 
    "13e3ad521538757c809d312f2b720148": {
        "(5, 21)": {
            "AM2L": [
                3204
            ], 
            "AM2F": [
                3046
            ], 
            "WBF": [
                2617
            ], 
            "BM1F": [
                2866
            ], 
            "M1": [
                2104
            ], 
            "irrelevant_Adj": [
                0
            ], 
            "M2": [
                2118
            ], 
            "BM1L": [
                1566
            ], 
            "WBO": [
                1935, 
                2919, 
                2637, 
                1935, 
                2919, 
                1623, 
                1566, 
                254, 
                1371, 
                242, 
                2866, 
                1163
            ], 
            "WBL": [
                1412
            ], 
            "irrelevant_Noun": [
                0
            ], 
            "M1_ADJ": [
                1
            ]
        }, 
        "location1": [
            5
        ], 
        "location2": [
            21
        ], 
        "sentence": "not only is it the perfect size ( not too small , not too large ) , it also has all the feature a high-tech phone user would want ."
    }, 
    "437957753d095bc51aec7470946afeac": {
        "(6, 7)": {
            "AM2L": [
                2884
            ], 
            "BM1F": [
                150
            ], 
            "M1": [
                2104
            ], 
            "irrelevant_Adj": [
                0
            ], 
            "M2": [
                2118
            ], 
            "BM1L": [
                1562
            ], 
            "WBNULL": [
                1
            ], 
            "irrelevant_Noun": [
                0
            ], 
            "AM2F": [
                1232
            ], 
            "M1_ADJ": [
                1
            ]
        }, 
        "location1": [
            6
        ], 
        "location2": [
            7
        ], 
        "sentence": "other than that , this is a perfect phone for those of us with no patience for flip ."
    }, 
    "4e3e16c7d6dc2759d671c13215fece25": {
        "(33, 4)": {
            "AM2L": [
                275
            ], 
            "AM2F": [
                2598
            ], 
            "WBF": [
                1232
            ], 
            "BM1F": [
                2866
            ], 
            "M1": [
                2118
            ], 
            "irrelevant_Adj": [
                0
            ], 
            "M2": [
                2104
            ], 
            "BM1L": [
                1348
            ], 
            "WBO": [
                8, 
                3133, 
                2866, 
                2598, 
                2281, 
                1371, 
                413, 
                1333, 
                1490, 
                2866, 
                875, 
                317, 
                2778, 
                275, 
                1490, 
                1878, 
                2338, 
                2458, 
                2957, 
                437, 
                875, 
                275, 
                1934, 
                1598, 
                623
            ], 
            "WBL": [
                1107
            ], 
            "irrelevant_Noun": [
                0
            ], 
            "M1_ADJ": [
                0
            ]
        }, 
        "location1": [
            33
        ], 
        "location2": [
            4
        ], 
        "sentence": "i have had the phone for 1 week , the signal quality has been great in the detroit area ( suburb ) and in my recent road trip between detroit and northern kentucky ( cincinnati ) i experienced perfect signal and reception along i-75 , far superior to at & # 38 ; t 's which does not work along several long stretch on that same route ."
    }
}