{
    "4e3e16c7d6dc2759d671c13215fece25": {
        "(33, 9)": {
            "AM2L": [
                275
            ], 
            "AM2F": [
                2598
            ], 
            "WBF": [
                2281
            ], 
            "BM1F": [
                2866
            ], 
            "M1": [
                2598
            ], 
            "irrelevant_Adj": [
                0
            ], 
            "M2": [
                2104
            ], 
            "BM1L": [
                3133
            ], 
            "WBO": [
                1371, 
                413, 
                1333, 
                1490, 
                2866, 
                875, 
                317, 
                2778, 
                275, 
                1490, 
                1878, 
                2338, 
                2458, 
                2957, 
                437, 
                875, 
                275, 
                1934, 
                1598, 
                623
            ], 
            "WBL": [
                1107
            ], 
            "irrelevant_Noun": [
                0
            ], 
            "M1_ADJ": [
                0
            ]
        }, 
        "location1": [
            33
        ], 
        "location2": [
            9, 
            34
        ], 
        "(33, 34)": {
            "AM2L": [
                2340
            ], 
            "BM1F": [
                1107
            ], 
            "M1": [
                2104
            ], 
            "irrelevant_Adj": [
                0
            ], 
            "M2": [
                2598
            ], 
            "BM1L": [
                1449
            ], 
            "WBNULL": [
                1
            ], 
            "irrelevant_Noun": [
                0
            ], 
            "AM2F": [
                275
            ], 
            "M1_ADJ": [
                1
            ]
        }, 
        "sentence": "i have had the phone for 1 week , the signal quality has been great in the detroit area ( suburb ) and in my recent road trip between detroit and northern kentucky ( cincinnati ) i experienced perfect signal and reception along i-75 , far superior to at & # 38 ; t 's which does not work along several long stretch on that same route ."
    }
}