{
    "4e3e16c7d6dc2759d671c13215fece25": {
        "(33, 53)": {
            "AM2L": [
                2864
            ], 
            "AM2F": [
                1987
            ], 
            "WBF": [
                2598
            ], 
            "BM1F": [
                1107
            ], 
            "M1": [
                2104
            ], 
            "irrelevant_Adj": [
                0
            ], 
            "M2": [
                2757
            ], 
            "BM1L": [
                1449
            ], 
            "WBO": [
                275, 
                2340, 
                249, 
                1450, 
                1154, 
                2793, 
                2909, 
                337, 
                89, 
                2825, 
                4, 
                3152, 
                936, 
                1935, 
                3191, 
                249
            ], 
            "WBL": [
                1706
            ], 
            "irrelevant_Noun": [
                0
            ], 
            "M1_ADJ": [
                1
            ]
        }, 
        "location1": [
            33
        ], 
        "location2": [
            53
        ], 
        "sentence": "i have had the phone for 1 week , the signal quality has been great in the detroit area ( suburb ) and in my recent road trip between detroit and northern kentucky ( cincinnati ) i experienced perfect signal and reception along i-75 , far superior to at & # 38 ; t 's which does not work along several long stretch on that same route ."
    }
}