{
    "d0d621d83a44b4ab35ea2f818978ec04": {
        "(3, 2)": {
            "AM2L": [
                522
            ], 
            "BM1F": [
                400
            ], 
            "M1": [
                1664
            ], 
            "irrelevant_Adj": [
                0
            ], 
            "M2": [
                2104
            ], 
            "BM1L": [
                1333
            ], 
            "WBNULL": [
                1
            ], 
            "irrelevant_Noun": [
                0
            ], 
            "AM2F": [
                2617
            ], 
            "M1_ADJ": [
                0
            ]
        }, 
        "location1": [
            3
        ], 
        "location2": [
            2
        ], 
        "sentence": "great battery life , perfect size , but a tid bit quieter than i would like ."
    }
}