{
    "d0d621d83a44b4ab35ea2f818978ec04": {
        "(3, 8)": {
            "AM2L": [
                2862
            ], 
            "AM2F": [
                2286
            ], 
            "WBF": [
                2617
            ], 
            "BM1F": [
                1664
            ], 
            "M1": [
                2104
            ], 
            "irrelevant_Adj": [
                0
            ], 
            "M2": [
                444
            ], 
            "BM1L": [
                400
            ], 
            "WBO": [
                522
            ], 
            "WBL": [
                2897
            ], 
            "irrelevant_Noun": [
                0
            ], 
            "M1_ADJ": [
                1
            ]
        }, 
        "location1": [
            3
        ], 
        "location2": [
            8
        ], 
        "sentence": "great battery life , perfect size , but a tid bit quieter than i would like ."
    }
}