{
    "4e3e16c7d6dc2759d671c13215fece25": {
        "(33, 23)": {
            "AM2L": [
                275
            ], 
            "AM2F": [
                2598
            ], 
            "WBF": [
                2957
            ], 
            "BM1F": [
                2338
            ], 
            "M1": [
                2458
            ], 
            "irrelevant_Adj": [
                0
            ], 
            "M2": [
                2104
            ], 
            "BM1L": [
                1878
            ], 
            "WBO": [
                437, 
                875, 
                275, 
                1934, 
                1598, 
                623
            ], 
            "WBL": [
                1107
            ], 
            "irrelevant_Noun": [
                0
            ], 
            "M1_ADJ": [
                0
            ]
        }, 
        "location1": [
            33
        ], 
        "location2": [
            23
        ], 
        "sentence": "i have had the phone for 1 week , the signal quality has been great in the detroit area ( suburb ) and in my recent road trip between detroit and northern kentucky ( cincinnati ) i experienced perfect signal and reception along i-75 , far superior to at & # 38 ; t 's which does not work along several long stretch on that same route ."
    }
}