{
    "e52d5fd102dc709b3e64330ff8edc1b0": {
        "(17, 27)": {
            "WBF": [
                1789
            ], 
            "BM1F": [
                950
            ], 
            "M1": [
                2175
            ], 
            "irrelevant_Adj": [
                0
            ], 
            "M2": [
                2118
            ], 
            "BM1L": [
                2866
            ], 
            "WBO": [
                2864, 
                201, 
                150, 
                2113, 
                2928, 
                2909
            ], 
            "WBL": [
                1912
            ], 
            "irrelevant_Noun": [
                0
            ], 
            "M1_ADJ": [
                1
            ]
        }, 
        "location1": [
            17
        ], 
        "location2": [
            27
        ], 
        "sentence": "from the speakerphone that can be used up to 15 foot away with clarity , to the downloadable poly-graphic megatones that adds a personal touch to this nifty phone ."
    }
}