{
    "e52d5fd102dc709b3e64330ff8edc1b0": {
        "location1": [
            17
        ], 
        "location2": [
            23
        ], 
        "(17, 23)": {
            "AM2L": [
                2882
            ], 
            "AM2F": [
                2909
            ], 
            "WBF": [
                1789
            ], 
            "BM1F": [
                950
            ], 
            "M1": [
                2175
            ], 
            "irrelevant_Adj": [
                0
            ], 
            "M2": [
                2928
            ], 
            "BM1L": [
                2866
            ], 
            "WBO": [
                2864, 
                201
            ], 
            "WBL": [
                2113
            ], 
            "irrelevant_Noun": [
                0
            ], 
            "M1_ADJ": [
                1
            ]
        }, 
        "sentence": "from the speakerphone that can be used up to 15 foot away with clarity , to the downloadable poly-graphic megatones that adds a personal touch to this nifty phone ."
    }
}