{
    "867e0d28796d18caa886b83e1e446570": {
        "(6, 18)": {
            "WBF": [
                1163
            ], 
            "BM1F": [
                2866
            ], 
            "M1": [
                2192
            ], 
            "irrelevant_Adj": [
                0
            ], 
            "M2": [
                1000
            ], 
            "BM1L": [
                2118
            ], 
            "WBO": [
                3143, 
                1320, 
                2676, 
                2281, 
                275, 
                273, 
                1092, 
                1221
            ], 
            "WBL": [
                275
            ], 
            "irrelevant_Noun": [
                0
            ], 
            "M1_ADJ": [
                1
            ]
        }, 
        "location1": [
            6
        ], 
        "location2": [
            18
        ], 
        "sentence": "while i had the phone , the positive feature were : good sound quality and an excellent fm phone and earpiece ."
    }
}