{
    "9d0740971a20ab06bf942f4cdc6c18bf": {
        "(8, 1)": {
            "WBF": [
                1566
            ], 
            "BM1F": [
                1490
            ], 
            "M1": [
                197
            ], 
            "irrelevant_Adj": [
                0
            ], 
            "M2": [
                2205
            ], 
            "WBO": [
                664, 
                3181, 
                150
            ], 
            "WBL": [
                275
            ], 
            "irrelevant_Noun": [
                0
            ], 
            "AM2F": [
                1387
            ], 
            "M1_ADJ": [
                0
            ]
        }, 
        "location1": [
            8
        ], 
        "location2": [
            1
        ], 
        "sentence": "in addition it comes with a sleek and powerful headset ."
    }
}