{
    "dc93b572e66d7cee8d1301ab1059f27f": {
        "location1": [
            18
        ], 
        "location2": [
            10
        ], 
        "(18, 10)": {
            "AM2L": [
                498
            ], 
            "AM2F": [
                1072
            ], 
            "WBF": [
                1562
            ], 
            "BM1F": [
                1549
            ], 
            "M1": [
                2549
            ], 
            "irrelevant_Adj": [
                0
            ], 
            "M2": [
                2322
            ], 
            "BM1L": [
                2866
            ], 
            "WBO": [
                2864, 
                1566, 
                936, 
                1935
            ], 
            "WBL": [
                1831
            ], 
            "irrelevant_Noun": [
                0
            ], 
            "M1_ADJ": [
                0
            ]
        }, 
        "sentence": "the only problem that i have found with the internet service is that it does not access mls ( real estate broker software ) very well at all ."
    }
}