{
    "2ba94a2d6897c0dc29eaf3f1c90562af": {
        "(14, 21)": {
            "AM2L": [
                166
            ], 
            "AM2F": [
                275
            ], 
            "WBF": [
                2617
            ], 
            "BM1F": [
                2866
            ], 
            "M1": [
                2637
            ], 
            "irrelevant_Adj": [
                0
            ], 
            "M2": [
                2151
            ], 
            "BM1L": [
                1971
            ], 
            "WBO": [
                2688, 
                2017, 
                1333
            ], 
            "WBL": [
                537
            ], 
            "irrelevant_Noun": [
                0
            ], 
            "M1_ADJ": [
                1
            ]
        }, 
        "location1": [
            14
        ], 
        "location2": [
            21
        ], 
        "sentence": "i did a ton of research and settled on this phone because of the small size , speakerphone option , great priced calling plan and access to my corporate email ."
    }
}