{
    "0fd1a39fbd9bf7572e59b5af4057aeba": {
        "(6, 1)": {
            "AM2L": [
                1232
            ], 
            "AM2F": [
                1075
            ], 
            "WBF": [
                1987
            ], 
            "BM1F": [
                2866
            ], 
            "M1": [
                523
            ], 
            "irrelevant_Adj": [
                0
            ], 
            "M2": [
                2637
            ], 
            "WBO": [
                2866
            ], 
            "WBL": [
                316
            ], 
            "irrelevant_Noun": [
                0
            ], 
            "M1_ADJ": [
                0
            ]
        }, 
        "location1": [
            6, 
            10
        ], 
        "location2": [
            1
        ], 
        "(10, 1)": {
            "AM2L": [
                522
            ], 
            "AM2F": [
                1192
            ], 
            "WBF": [
                1987
            ], 
            "BM1F": [
                2866
            ], 
            "M1": [
                523
            ], 
            "irrelevant_Adj": [
                0
            ], 
            "M2": [
                2637
            ], 
            "WBO": [
                2866, 
                2118, 
                316, 
                2637, 
                1075
            ], 
            "WBL": [
                1878
            ], 
            "irrelevant_Noun": [
                0
            ], 
            "M1_ADJ": [
                0
            ]
        }, 
        "sentence": "the button on the phone are small , even for my small fingertip , but you get used to them rather quickly ."
    }
}