{
    "f18154e30404fb3775505cae4d99fcb0": {
        "(5, 4)": {
            "AM2L": [
                1424
            ], 
            "BM1F": [
                150
            ], 
            "M1": [
                2831
            ], 
            "irrelevant_Adj": [
                0
            ], 
            "M2": [
                2637
            ], 
            "BM1L": [
                1591
            ], 
            "WBNULL": [
                1
            ], 
            "irrelevant_Noun": [
                0
            ], 
            "AM2F": [
                2909
            ], 
            "M1_ADJ": [
                0
            ]
        }, 
        "location1": [
            5
        ], 
        "location2": [
            4
        ], 
        "sentence": "it is just a tad small to hold to your ear with your shoulder , but that is solved with the very comfortable handsfree ear-piece which is included ."
    }
}