{
    "d36bdc5dfa57c2ffcd3b26042b66d2e6": {
        "(0, 15)": {
            "WBF": [
                1092
            ], 
            "AM2L": [
                1562
            ], 
            "M1": [
                2676
            ], 
            "irrelevant_Adj": [
                1
            ], 
            "M2": [
                2296
            ], 
            "WBO": [
                2177, 
                2451, 
                2918, 
                316, 
                3075, 
                1907, 
                605, 
                695, 
                1566, 
                254, 
                943
            ], 
            "WBL": [
                150
            ], 
            "irrelevant_Noun": [
                0
            ], 
            "AM2F": [
                3152
            ], 
            "M1_ADJ": [
                1
            ]
        }, 
        "location1": [
            0
        ], 
        "location2": [
            15
        ], 
        "sentence": "sound - excellent polyphonic ringing tone are very nice ( check con ) it also double as a radio , which is a nice feature when you are bored ."
    }, 
    "f5cbb3d03ebbfc0942b32ad9a8187168": {
        "(5, 1)": {
            "WBF": [
                1163
            ], 
            "BM1F": [
                2866
            ], 
            "M1": [
                2296
            ], 
            "irrelevant_Adj": [
                1
            ], 
            "M2": [
                2676
            ], 
            "WBO": [
                1371
            ], 
            "WBL": [
                2791
            ], 
            "irrelevant_Noun": [
                0
            ], 
            "AM2F": [
                2281
            ], 
            "M1_ADJ": [
                0
            ]
        }, 
        "location1": [
            5
        ], 
        "location2": [
            1
        ], 
        "sentence": "the radio feature has superb sound quality ."
    }
}