{
    "ceb0982ee639d31ed4e5f43a46e69336": {
        "location1": [
            5
        ], 
        "location2": [
            16
        ], 
        "(5, 16)": {
            "WBF": [
                2883
            ], 
            "BM1F": [
                1690
            ], 
            "M1": [
                2733
            ], 
            "irrelevant_Adj": [
                0
            ], 
            "M2": [
                2236
            ], 
            "BM1L": [
                150
            ], 
            "WBO": [
                275, 
                2866, 
                1351, 
                1250, 
                1606, 
                712, 
                1810
            ], 
            "WBL": [
                150
            ], 
            "irrelevant_Noun": [
                0
            ], 
            "M1_ADJ": [
                1
            ]
        }, 
        "sentence": "button do seem a little sticky tho .. and the hand free kit ' connector might be a problem .."
    }
}