{
    "64fb66cc374fec3973bcd3984f004f56": {
        "(15, 24)": {
            "AM2L": [
                1744
            ], 
            "AM2F": [
                2875
            ], 
            "WBF": [
                2340
            ], 
            "BM1F": [
                2866
            ], 
            "M1": [
                2791
            ], 
            "irrelevant_Adj": [
                0
            ], 
            "M2": [
                2118
            ], 
            "BM1L": [
                275
            ], 
            "WBO": [
                1920, 
                1562, 
                1612, 
                1232, 
                1490
            ], 
            "WBL": [
                1341
            ], 
            "irrelevant_Noun": [
                0
            ], 
            "M1_ADJ": [
                1
            ]
        }, 
        "location1": [
            15
        ], 
        "location2": [
            24
        ], 
        "sentence": "the two biggest thing is the excellent working speakerphone `` unlike the nokia 3650 `` and the superb reception nokia is known for in the gsm phone they make ..."
    }
}