{
    "f5cbb3d03ebbfc0942b32ad9a8187168": {
        "(4, 2)": {
            "AM2L": [
                2281
            ], 
            "WBFL": [
                1371
            ], 
            "BM1F": [
                2296
            ], 
            "M1": [
                1163
            ], 
            "irrelevant_Adj": [
                0
            ], 
            "M2": [
                2791
            ], 
            "BM1L": [
                2866
            ], 
            "AM2F": [
                2676
            ], 
            "irrelevant_Noun": [
                0
            ], 
            "M1_ADJ": [
                0
            ]
        }, 
        "location1": [
            4
        ], 
        "location2": [
            2
        ], 
        "sentence": "the radio feature has superb sound quality ."
    }, 
    "2788e7b6f62d9a35ddbc41822916180e": {
        "(5, 3)": {
            "AM2L": [
                664
            ], 
            "WBFL": [
                1562
            ], 
            "BM1F": [
                2820
            ], 
            "M1": [
                1163
            ], 
            "irrelevant_Adj": [
                0
            ], 
            "M2": [
                2791
            ], 
            "BM1L": [
                2094
            ], 
            "AM2F": [
                2864
            ], 
            "irrelevant_Noun": [
                0
            ], 
            "M1_ADJ": [
                0
            ]
        }, 
        "location1": [
            5
        ], 
        "location2": [
            3
        ], 
        "sentence": "the pc sync feature is superb that comes with nokia pc suite software ( with data cable or infrared port or bluetooth ) ."
    }
}