{
    "2788e7b6f62d9a35ddbc41822916180e": {
        "(5, 12)": {
            "AM2L": [
                817
            ], 
            "AM2F": [
                3181
            ], 
            "WBF": [
                2864
            ], 
            "BM1F": [
                1562
            ], 
            "M1": [
                2791
            ], 
            "irrelevant_Adj": [
                0
            ], 
            "M2": [
                2653
            ], 
            "BM1L": [
                1163
            ], 
            "WBO": [
                664, 
                3181, 
                1920
            ], 
            "WBL": [
                2786
            ], 
            "irrelevant_Noun": [
                0
            ], 
            "M1_ADJ": [
                1
            ]
        }, 
        "location1": [
            5
        ], 
        "location2": [
            12
        ], 
        "sentence": "the pc sync feature is superb that comes with nokia pc suite software ( with data cable or infrared port or bluetooth ) ."
    }
}