{
    "285382587275bb6699276d5b9ea9c3ab": {
        "(9, 10)": {
            "BM1F": [
                2177
            ], 
            "M1": [
                2815
            ], 
            "irrelevant_Adj": [
                0
            ], 
            "M2": [
                2965
            ], 
            "BM1L": [
                275
            ], 
            "WBNULL": [
                1
            ], 
            "irrelevant_Noun": [
                0
            ], 
            "M1_ADJ": [
                1
            ]
        }, 
        "location1": [
            9
        ], 
        "location2": [
            10
        ], 
        "sentence": "it comes equipped with lot of wallpaper and polyphonic sweet tune ."
    }
}