{
    "cb424d3ece8282ce9d98ff9e19d23c6c": {
        "location1": [
            10
        ], 
        "location2": [
            20
        ], 
        "(10, 20)": {
            "AM2L": [
                1261
            ], 
            "AM2F": [
                2751
            ], 
            "WBF": [
                1616
            ], 
            "BM1F": [
                1232
            ], 
            "M1": [
                2826
            ], 
            "irrelevant_Adj": [
                0
            ], 
            "M2": [
                1920
            ], 
            "BM1L": [
                1754
            ], 
            "WBO": [
                1758, 
                1971, 
                2866, 
                1796, 
                275, 
                1272
            ], 
            "WBL": [
                150
            ], 
            "irrelevant_Noun": [
                0
            ], 
            "M1_ADJ": [
                1
            ]
        }, 
        "sentence": "the one huge disappointment is that the phone manufactured for t-mobile lack many of the menus and function that a nokia straight from the manufacturer should have ."
    }, 
    "51b1770d89037fd1f2b3010444b9217d": {
        "(2, 0)": {
            "AM2L": [
                2846
            ], 
            "WBFL": [
                275
            ], 
            "M1": [
                1920
            ], 
            "irrelevant_Adj": [
                0
            ], 
            "M2": [
                2826
            ], 
            "AM2F": [
                2325
            ], 
            "irrelevant_Noun": [
                0
            ], 
            "M1_ADJ": [
                0
            ]
        }, 
        "location1": [
            2
        ], 
        "location2": [
            0
        ], 
        "sentence": "nokia and t-mobile really teamed up well on this baby ."
    }
}