{
    "42f9a3d24c13151b0c3eee5b5a85dd48": {
        "location1": [
            5
        ], 
        "location2": [
            22
        ], 
        "(5, 22)": {
            "AM2L": [
                1566
            ], 
            "AM2F": [
                2650
            ], 
            "WBF": [
                1600
            ], 
            "BM1F": [
                2866
            ], 
            "M1": [
                2936
            ], 
            "irrelevant_Adj": [
                0
            ], 
            "M2": [
                2562
            ], 
            "BM1L": [
                1375
            ], 
            "WBO": [
                320, 
                1566, 
                4, 
                1591, 
                2864, 
                2875, 
                316, 
                2325, 
                640, 
                2909, 
                1994, 
                282, 
                275
            ], 
            "WBL": [
                2993
            ], 
            "irrelevant_Noun": [
                0
            ], 
            "M1_ADJ": [
                1
            ]
        }, 
        "sentence": "this model does have the traditional key arrangement , it 's just that they are really close to one another , and have unconventional shape , so it takes a big getting used to for someone like me with big hand ."
    }
}