{
    "42f9a3d24c13151b0c3eee5b5a85dd48": {
        "(5, 37)": {
            "WBF": [
                1600
            ], 
            "BM1F": [
                2866
            ], 
            "M1": [
                2936
            ], 
            "irrelevant_Adj": [
                0
            ], 
            "M2": [
                1351
            ], 
            "BM1L": [
                1375
            ], 
            "WBO": [
                320, 
                1566, 
                4, 
                1591, 
                2864, 
                2875, 
                316, 
                2325, 
                640, 
                2909, 
                1994, 
                282, 
                275, 
                1375, 
                2993, 
                2562, 
                2650, 
                1566, 
                2836, 
                150, 
                440, 
                1299, 
                3043, 
                2909, 
                1232, 
                2660, 
                1669, 
                1773
            ], 
            "WBL": [
                440
            ], 
            "irrelevant_Noun": [
                0
            ], 
            "M1_ADJ": [
                1
            ]
        }, 
        "location1": [
            5
        ], 
        "location2": [
            37
        ], 
        "sentence": "this model does have the traditional key arrangement , it 's just that they are really close to one another , and have unconventional shape , so it takes a big getting used to for someone like me with big hand ."
    }
}