{
    "44319df7de849e736c4e09bf62fef41e": {
        "(16, 7)": {
            "AM2L": [
                2118
            ], 
            "AM2F": [
                269
            ], 
            "WBF": [
                2864
            ], 
            "BM1F": [
                1320
            ], 
            "M1": [
                589
            ], 
            "irrelevant_Adj": [
                0
            ], 
            "M2": [
                2978
            ], 
            "BM1L": [
                150
            ], 
            "WBO": [
                2882, 
                2118, 
                3168, 
                1935, 
                485
            ], 
            "WBL": [
                1669
            ], 
            "irrelevant_Noun": [
                1
            ], 
            "M1_ADJ": [
                0
            ]
        }, 
        "location1": [
            16
        ], 
        "location2": [
            7
        ], 
        "sentence": "this mean that there is a good chance that this phone will not break easily like typical american phone ."
    }
}