{
    "44319df7de849e736c4e09bf62fef41e": {
        "(16, 18)": {
            "WBFL": [
                269
            ], 
            "BM1F": [
                1669
            ], 
            "M1": [
                2978
            ], 
            "irrelevant_Adj": [
                0
            ], 
            "M2": [
                2118
            ], 
            "BM1L": [
                1004
            ], 
            "irrelevant_Noun": [
                0
            ], 
            "M1_ADJ": [
                1
            ]
        }, 
        "(16, 10)": {
            "AM2L": [
                2118
            ], 
            "AM2F": [
                269
            ], 
            "WBF": [
                3168
            ], 
            "BM1F": [
                2882
            ], 
            "M1": [
                2118
            ], 
            "irrelevant_Adj": [
                0
            ], 
            "M2": [
                2978
            ], 
            "BM1L": [
                2864
            ], 
            "WBO": [
                1935, 
                485
            ], 
            "WBL": [
                1669
            ], 
            "irrelevant_Noun": [
                0
            ], 
            "M1_ADJ": [
                0
            ]
        }, 
        "location1": [
            16
        ], 
        "location2": [
            10, 
            18
        ], 
        "sentence": "this mean that there is a good chance that this phone will not break easily like typical american phone ."
    }
}