{
    "bc2579b51229368645d63774f91960e1": {
        "location1": [
            14
        ], 
        "location2": [
            24
        ], 
        "(14, 24)": {
            "AM2F": [
                1074
            ], 
            "WBF": [
                309
            ], 
            "BM1F": [
                2664
            ], 
            "M1": [
                3044
            ], 
            "irrelevant_Adj": [
                0
            ], 
            "M2": [
                317
            ], 
            "BM1L": [
                150
            ], 
            "WBO": [
                3152, 
                740, 
                242, 
                2977, 
                1971, 
                1806
            ], 
            "WBL": [
                1651
            ], 
            "irrelevant_Noun": [
                0
            ], 
            "M1_ADJ": [
                1
            ]
        }, 
        "sentence": "it also has a stock tracking app built in ( also useless ) and a somewhat useful application which convert all type of metric ( currency , length , area , etc ) ."
    }
}