{
    "d2fa4332430086507ce16ebe69abca1e": {
        "(1, 2)": {
            "BM1F": [
                490
            ], 
            "M1": [
                3090
            ], 
            "irrelevant_Adj": [
                0
            ], 
            "M2": [
                2501
            ], 
            "WBNULL": [
                1
            ], 
            "irrelevant_Noun": [
                0
            ], 
            "M1_ADJ": [
                1
            ]
        }, 
        "location1": [
            1
        ], 
        "location2": [
            2
        ], 
        "sentence": "- bright , visible screen"
    }
}