{
    "32ea776ee4efc0b2bbcd509ec2656593": {
        "(4, 5)": {
            "AM2L": [
                3117
            ], 
            "BM1F": [
                673
            ], 
            "M1": [
                343
            ], 
            "irrelevant_Adj": [
                0
            ], 
            "M2": [
                1736
            ], 
            "BM1L": [
                150
            ], 
            "WBNULL": [
                1
            ], 
            "irrelevant_Noun": [
                0
            ], 
            "AM2F": [
                275
            ], 
            "M1_ADJ": [
                1
            ]
        }, 
        "location1": [
            4
        ], 
        "location2": [
            5
        ], 
        "sentence": "it 's a compact , attractive machine and was easy to set up ."
    }
}