{
    "84b3210547b32bd5ab20ec53b3438380": {
        "(4, 10)": {
            "AM2L": [
                2866
            ], 
            "AM2F": [
                275
            ], 
            "WBF": [
                1163
            ], 
            "BM1F": [
                1171
            ], 
            "M1": [
                343
            ], 
            "irrelevant_Adj": [
                0
            ], 
            "M2": [
                2617
            ], 
            "BM1L": [
                150
            ], 
            "WBO": [
                2782, 
                325
            ], 
            "WBL": [
                2637
            ], 
            "irrelevant_Noun": [
                0
            ], 
            "M1_ADJ": [
                1
            ]
        }, 
        "location1": [
            4
        ], 
        "location2": [
            10
        ], 
        "sentence": "there were a few attractive feature , such as the small size and the layout of the remote ."
    }
}