{
    "542d552b6a80169971106c0493d88457": {
        "(21, 10)": {
            "AM2L": [
                2133
            ], 
            "AM2F": [
                1917
            ], 
            "WBF": [
                2159
            ], 
            "BM1F": [
                150
            ], 
            "M1": [
                574
            ], 
            "irrelevant_Adj": [
                1
            ], 
            "M2": [
                347
            ], 
            "BM1L": [
                2676
            ], 
            "WBO": [
                1188, 
                522, 
                3181, 
                150, 
                981, 
                1449, 
                1999
            ], 
            "WBL": [
                2866
            ], 
            "irrelevant_Noun": [
                0
            ], 
            "M1_ADJ": [
                0
            ]
        }, 
        "location1": [
            21
        ], 
        "location2": [
            10
        ], 
        "sentence": "when i hooked it up it only produced sound - a cd played fine , but with a dvd i only got the audio - no picture !"
    }, 
    "83e9f5a06e9e14fe2fc55a1563f15ee0": {
        "location1": [
            10
        ], 
        "location2": [
            11
        ], 
        "(10, 11)": {
            "AM2L": [
                1566
            ], 
            "BM1F": [
                982
            ], 
            "M1": [
                347
            ], 
            "irrelevant_Adj": [
                1
            ], 
            "M2": [
                574
            ], 
            "BM1L": [
                3066
            ], 
            "WBNULL": [
                1
            ], 
            "irrelevant_Noun": [
                0
            ], 
            "AM2F": [
                275
            ], 
            "M1_ADJ": [
                1
            ]
        }, 
        "sentence": "ability to play most discs - i tried dvd , vcd , dvd-r , audio cd and it played all"
    }, 
    "c82e6d350f624f918e300fffbbcad423": {
        "(7, 6)": {
            "BM1F": [
                242
            ], 
            "M1": [
                574
            ], 
            "irrelevant_Adj": [
                1
            ], 
            "M2": [
                347
            ], 
            "BM1L": [
                2157
            ], 
            "WBNULL": [
                1
            ], 
            "irrelevant_Noun": [
                0
            ], 
            "AM2F": [
                909
            ], 
            "M1_ADJ": [
                0
            ]
        }, 
        "location1": [
            7
        ], 
        "location2": [
            6
        ], 
        "sentence": "it will read and play all cd audio disc ."
    }
}