{
    "83e9f5a06e9e14fe2fc55a1563f15ee0": {
        "(10, 0)": {
            "WBF": [
                2909
            ], 
            "AM2L": [
                275
            ], 
            "M1": [
                152
            ], 
            "irrelevant_Adj": [
                1
            ], 
            "M2": [
                347
            ], 
            "WBO": [
                2157, 
                1854, 
                913, 
                1449, 
                2955, 
                981
            ], 
            "WBL": [
                982
            ], 
            "irrelevant_Noun": [
                0
            ], 
            "AM2F": [
                574
            ], 
            "M1_ADJ": [
                0
            ]
        }, 
        "location1": [
            10
        ], 
        "location2": [
            0
        ], 
        "sentence": "ability to play most discs - i tried dvd , vcd , dvd-r , audio cd and it played all"
    }
}