{
    "542d552b6a80169971106c0493d88457": {
        "location1": [
            21
        ], 
        "location2": [
            23
        ], 
        "(21, 23)": {
            "WBFL": [
                1917
            ], 
            "BM1F": [
                2866
            ], 
            "M1": [
                347
            ], 
            "irrelevant_Adj": [
                1
            ], 
            "M2": [
                2133
            ], 
            "BM1L": [
                1322
            ], 
            "irrelevant_Noun": [
                0
            ], 
            "M1_ADJ": [
                1
            ]
        }, 
        "sentence": "when i hooked it up it only produced sound - a cd played fine , but with a dvd i only got the audio - no picture !"
    }
}