{
    "291b89defbbe4a497ff51c7d8d63f47c": {
        "(3, 8)": {
            "AM2F": [
                2160
            ], 
            "WBF": [
                601
            ], 
            "BM1F": [
                2866
            ], 
            "M1": [
                434
            ], 
            "irrelevant_Adj": [
                0
            ], 
            "M2": [
                981
            ], 
            "BM1L": [
                1562
            ], 
            "WBO": [
                2281
            ], 
            "WBL": [
                1232
            ], 
            "irrelevant_Noun": [
                0
            ], 
            "M1_ADJ": [
                1
            ]
        }, 
        "location1": [
            3
        ], 
        "location2": [
            8
        ], 
        "sentence": "apex is the best cheap quality brand for dvd player ."
    }, 
    "d8105077a4434e718fee25bbe1966b63": {
        "(24, 6)": {
            "AM2L": [
                2864
            ], 
            "AM2F": [
                1490
            ], 
            "WBF": [
                2160
            ], 
            "BM1F": [
                1511
            ], 
            "M1": [
                981
            ], 
            "irrelevant_Adj": [
                0
            ], 
            "M2": [
                434
            ], 
            "BM1L": [
                273
            ], 
            "WBO": [
                2864, 
                1348, 
                1851, 
                2862, 
                2866, 
                2716, 
                2551, 
                1971, 
                1163, 
                275, 
                2882, 
                1567, 
                2521, 
                2909
            ], 
            "WBL": [
                2866
            ], 
            "irrelevant_Noun": [
                0
            ], 
            "M1_ADJ": [
                0
            ]
        }, 
        "location1": [
            24
        ], 
        "location2": [
            6
        ], 
        "sentence": "i looked into buying an inexpensive dvd player that had more than the standard set of feature and this item seemed to be the best in that category ."
    }, 
    "192d1feac80f1b657136f3ef38389d3c": {
        "(3, 4)": {
            "AM2L": [
                1449
            ], 
            "BM1F": [
                2866
            ], 
            "M1": [
                434
            ], 
            "irrelevant_Adj": [
                0
            ], 
            "M2": [
                981
            ], 
            "BM1L": [
                1562
            ], 
            "WBNULL": [
                1
            ], 
            "irrelevant_Noun": [
                0
            ], 
            "AM2F": [
                2160
            ], 
            "M1_ADJ": [
                1
            ]
        }, 
        "location1": [
            3
        ], 
        "location2": [
            4
        ], 
        "sentence": "this is the best dvd player i 've purchased ."
    }, 
    "862e0d8256d5175b4c962e3c6454f2af": {
        "(5, 6)": {
            "AM2L": [
                3229
            ], 
            "BM1F": [
                2866
            ], 
            "M1": [
                434
            ], 
            "irrelevant_Adj": [
                0
            ], 
            "M2": [
                981
            ], 
            "BM1L": [
                1562
            ], 
            "WBNULL": [
                1
            ], 
            "irrelevant_Noun": [
                0
            ], 
            "AM2F": [
                2160
            ], 
            "M1_ADJ": [
                1
            ]
        }, 
        "location1": [
            5
        ], 
        "location2": [
            6
        ], 
        "sentence": "i think , apex is the best dvd player you can get for the price ."
    }, 
    "31aa5c3f5d31378b6c3d2a52028a86f5": {
        "location1": [
            10
        ], 
        "location2": [
            5
        ], 
        "(10, 5)": {
            "AM2L": [
                2873
            ], 
            "AM2F": [
                2037
            ], 
            "WBF": [
                2160
            ], 
            "BM1F": [
                2882
            ], 
            "M1": [
                981
            ], 
            "irrelevant_Adj": [
                0
            ], 
            "M2": [
                434
            ], 
            "BM1L": [
                939
            ], 
            "WBO": [
                1562
            ], 
            "WBL": [
                2866
            ], 
            "irrelevant_Noun": [
                0
            ], 
            "M1_ADJ": [
                0
            ]
        }, 
        "sentence": "but , dollar for dollar , this dvd player is probably the best out there ."
    }
}