{
    "31aa5c3f5d31378b6c3d2a52028a86f5": {
        "(10, 3)": {
            "AM2L": [
                2873
            ], 
            "AM2F": [
                2037
            ], 
            "WBF": [
                2882
            ], 
            "BM1F": [
                1232
            ], 
            "M1": [
                939
            ], 
            "irrelevant_Adj": [
                0
            ], 
            "M2": [
                434
            ], 
            "BM1L": [
                939
            ], 
            "WBO": [
                981, 
                2160, 
                1562
            ], 
            "WBL": [
                2866
            ], 
            "irrelevant_Noun": [
                0
            ], 
            "M1_ADJ": [
                0
            ]
        }, 
        "(10, 1)": {
            "AM2L": [
                2873
            ], 
            "AM2F": [
                2037
            ], 
            "WBF": [
                1232
            ], 
            "BM1F": [
                522
            ], 
            "M1": [
                939
            ], 
            "irrelevant_Adj": [
                0
            ], 
            "M2": [
                434
            ], 
            "WBO": [
                939, 
                2882, 
                981, 
                2160, 
                1562
            ], 
            "WBL": [
                2866
            ], 
            "irrelevant_Noun": [
                0
            ], 
            "M1_ADJ": [
                0
            ]
        }, 
        "location1": [
            10
        ], 
        "location2": [
            1, 
            3
        ], 
        "sentence": "but , dollar for dollar , this dvd player is probably the best out there ."
    }
}