{
    "d8105077a4434e718fee25bbe1966b63": {
        "(24, 19)": {
            "AM2L": [
                2864
            ], 
            "AM2F": [
                1490
            ], 
            "WBF": [
                2521
            ], 
            "BM1F": [
                2882
            ], 
            "M1": [
                1567
            ], 
            "irrelevant_Adj": [
                0
            ], 
            "M2": [
                434
            ], 
            "BM1L": [
                275
            ], 
            "WBO": [
                2909
            ], 
            "WBL": [
                2866
            ], 
            "irrelevant_Noun": [
                0
            ], 
            "M1_ADJ": [
                0
            ]
        }, 
        "location1": [
            24
        ], 
        "location2": [
            19
        ], 
        "sentence": "i looked into buying an inexpensive dvd player that had more than the standard set of feature and this item seemed to be the best in that category ."
    }
}