{
    "9947e0d4813586c77a652fb805fbac2e": {
        "(41, 7)": {
            "AM2L": [
                915
            ], 
            "AM2F": [
                817
            ], 
            "WBF": [
                2626
            ], 
            "BM1F": [
                2157
            ], 
            "M1": [
                1584
            ], 
            "irrelevant_Adj": [
                0
            ], 
            "M2": [
                575
            ], 
            "BM1L": [
                3204
            ], 
            "WBO": [
                3117, 
                150, 
                440, 
                2170, 
                1232, 
                1773, 
                325, 
                150, 
                3091, 
                324, 
                275, 
                1449, 
                911, 
                528, 
                171, 
                1566, 
                1562, 
                1935, 
                1794, 
                292, 
                1490, 
                2866, 
                1688, 
                2864, 
                1566, 
                3168, 
                2157, 
                1868, 
                1176, 
                1987
            ], 
            "WBL": [
                2372
            ], 
            "irrelevant_Noun": [
                0
            ], 
            "M1_ADJ": [
                0
            ]
        }, 
        "location1": [
            41
        ], 
        "location2": [
            7
        ], 
        "sentence": "the fact that this model would play jpeg slideshows was a big plus for me as a visual artist , and i discovered by accident ( it is not mentioned anywhere in the literature ) that it will play mpeg1 file on a regular cd-r data disk without vcd formatting ."
    }
}