{
    "80cb6fbb20332fa22c5eba0f351a1901": {
        "(15, 3)": {
            "AM2L": [
                2228
            ], 
            "AM2F": [
                275
            ], 
            "WBF": [
                2912
            ], 
            "BM1F": [
                2629
            ], 
            "M1": [
                1238
            ], 
            "irrelevant_Adj": [
                0
            ], 
            "M2": [
                744
            ], 
            "BM1L": [
                2866
            ], 
            "WBO": [
                3181, 
                2866, 
                1824, 
                1262, 
                2076, 
                2800, 
                1745, 
                2866
            ], 
            "WBL": [
                1710
            ], 
            "irrelevant_Noun": [
                0
            ], 
            "M1_ADJ": [
                0
            ]
        }, 
        "location1": [
            15
        ], 
        "location2": [
            3
        ], 
        "sentence": "and the slim form-factor together with the mirror-like front panel sure makes the player look cool and pricey !"
    }
}