{
    "972c9a8ae7cdb01c2d55a7fe93e6ecd2": {
        "location1": [
            6
        ], 
        "location2": [
            14
        ], 
        "(6, 14)": {
            "AM2F": [
                3010
            ], 
            "WBF": [
                2387
            ], 
            "BM1F": [
                1501
            ], 
            "M1": [
                775
            ], 
            "irrelevant_Adj": [
                0
            ], 
            "M2": [
                297
            ], 
            "BM1L": [
                2866
            ], 
            "WBO": [
                3152, 
                1562, 
                3199, 
                2862
            ], 
            "WBL": [
                602
            ], 
            "irrelevant_Noun": [
                0
            ], 
            "M1_ADJ": [
                1
            ]
        }, 
        "sentence": "my other gripe is the incredibly crappy remote , which is worse than other , cheaper apex unit ."
    }
}