{
    "a8ace68534381de6693b2cd4a413efea": {
        "(18, 9)": {
            "AM2F": [
                2160
            ], 
            "WBF": [
                275
            ], 
            "BM1F": [
                1250
            ], 
            "M1": [
                2574
            ], 
            "irrelevant_Adj": [
                0
            ], 
            "M2": [
                827
            ], 
            "BM1L": [
                3181
            ], 
            "WBO": [
                1917, 
                2845, 
                2650, 
                2046, 
                1566
            ], 
            "WBL": [
                150
            ], 
            "irrelevant_Noun": [
                0
            ], 
            "M1_ADJ": [
                0
            ]
        }, 
        "location1": [
            18
        ], 
        "location2": [
            9
        ], 
        "sentence": "also , it was only $ 39.99 ( after rebate ) with free shipping and no tax so overall it is a decent player ."
    }
}