{
    "f7c6a30b651882d1ae5523552ba03649": {
        "(9, 16)": {
            "AM2L": [
                1449
            ], 
            "AM2F": [
                275
            ], 
            "WBF": [
                2971
            ], 
            "BM1F": [
                2555
            ], 
            "M1": [
                888
            ], 
            "irrelevant_Adj": [
                1
            ], 
            "M2": [
                1805
            ], 
            "BM1L": [
                2909
            ], 
            "WBO": [
                3049, 
                150, 
                1874
            ], 
            "WBL": [
                711
            ], 
            "irrelevant_Noun": [
                0
            ], 
            "M1_ADJ": [
                1
            ]
        }, 
        "location1": [
            9
        ], 
        "location2": [
            16
        ], 
        "sentence": "i 've attempted to connect this unit to several different tv , using a multitude of connection method , and i still can 't get a video signal from the machine ."
    }
}