{
    "d1f5cf6191b3c90d8622b5f87670e411": {
        "location1": [
            10
        ], 
        "location2": [
            16
        ], 
        "(10, 16)": {
            "AM2L": [
                1613
            ], 
            "AM2F": [
                275
            ], 
            "WBF": [
                1176
            ], 
            "BM1F": [
                1971
            ], 
            "M1": [
                888
            ], 
            "irrelevant_Adj": [
                1
            ], 
            "M2": [
                1584
            ], 
            "BM1L": [
                250
            ], 
            "WBO": [
                1669, 
                1864
            ], 
            "WBL": [
                574
            ], 
            "irrelevant_Noun": [
                0
            ], 
            "M1_ADJ": [
                1
            ]
        }, 
        "sentence": "the cool thing about the ad-2600 it play alot of different file like mp3 , wma cd , jpeg and kodak picture cd , dvd 's , dvd - / + r 's ."
    }
}