{
    "fe7e064c5f0fe9bf989fab990cc0ea99": {
        "location1": [
            27
        ], 
        "location2": [
            6
        ], 
        "(27, 6)": {
            "AM2F": [
                2613
            ], 
            "WBF": [
                1232
            ], 
            "BM1F": [
                981
            ], 
            "M1": [
                2160
            ], 
            "irrelevant_Adj": [
                1
            ], 
            "M2": [
                888
            ], 
            "BM1L": [
                65
            ], 
            "WBO": [
                1880, 
                337, 
                619, 
                407, 
                1566, 
                1322, 
                1320, 
                2438, 
                325, 
                150, 
                1320, 
                3058, 
                1232, 
                2866, 
                1844, 
                1987, 
                150
            ], 
            "WBL": [
                1971
            ], 
            "irrelevant_Noun": [
                0
            ], 
            "M1_ADJ": [
                0
            ]
        }, 
        "sentence": "i bought this apex 2600 dvd player for myself at christmas because it got good review as a good value for the money on a variety of different site ."
    }
}