{
    "76d840b24bd2063c716af94af9053f6b": {
        "(13, 14)": {
            "AM2L": [
                2242
            ], 
            "BM1F": [
                3133
            ], 
            "M1": [
                941
            ], 
            "irrelevant_Adj": [
                0
            ], 
            "M2": [
                524
            ], 
            "BM1L": [
                150
            ], 
            "WBNULL": [
                1
            ], 
            "irrelevant_Noun": [
                0
            ], 
            "AM2F": [
                2882
            ], 
            "M1_ADJ": [
                1
            ]
        }, 
        "location1": [
            13
        ], 
        "location2": [
            14
        ], 
        "sentence": "update : january 27th 2004 - the second one crapped out only after a week - dont buy this product !"
    }
}