{
    "1b4b8b00a1be6322acc0a3232c0e902d": {
        "(23, 15)": {
            "AM2L": [
                735
            ], 
            "AM2F": [
                2387
            ], 
            "WBF": [
                3152
            ], 
            "BM1F": [
                2387
            ], 
            "M1": [
                735
            ], 
            "irrelevant_Adj": [
                0
            ], 
            "M2": [
                1003
            ], 
            "BM1L": [
                2866
            ], 
            "WBO": [
                1562, 
                1994, 
                1971, 
                2866
            ], 
            "WBL": [
                275
            ], 
            "irrelevant_Noun": [
                0
            ], 
            "M1_ADJ": [
                0
            ]
        }, 
        "(23, 25)": {
            "AM2L": [
                1375
            ], 
            "WBFL": [
                2387
            ], 
            "BM1F": [
                275
            ], 
            "M1": [
                1003
            ], 
            "irrelevant_Adj": [
                0
            ], 
            "M2": [
                735
            ], 
            "BM1L": [
                2606
            ], 
            "AM2F": [
                1449
            ], 
            "irrelevant_Noun": [
                0
            ], 
            "M1_ADJ": [
                1
            ]
        }, 
        "location1": [
            23
        ], 
        "location2": [
            15, 
            25
        ], 
        "sentence": "the progressive scan option can be turned off easily by a button on the remote control which is one of the simplest and easiest remote control i have ever seen or used ."
    }
}