{
    "4fb852ec14462e823ccc18ab597d17b6": {
        "(31, 15)": {
            "AM2L": [
                2160
            ], 
            "AM2F": [
                1408
            ], 
            "WBF": [
                522
            ], 
            "BM1F": [
                2866
            ], 
            "M1": [
                2225
            ], 
            "irrelevant_Adj": [
                0
            ], 
            "M2": [
                1105
            ], 
            "BM1L": [
                1971
            ], 
            "WBO": [
                1566, 
                1562, 
                843, 
                3195, 
                2037, 
                1870, 
                436, 
                2862, 
                3144, 
                1449, 
                3204, 
                1101
            ], 
            "WBL": [
                273
            ], 
            "irrelevant_Noun": [
                0
            ], 
            "M1_ADJ": [
                0
            ]
        }, 
        "location1": [
            31
        ], 
        "location2": [
            15
        ], 
        "sentence": "i did not want to have high expectation for this apex player because of the price but it is definitely working out much better than what i would expect from an expensive high-end player ."
    }
}