{
    "8fd7717f6f4b86db0002350fe4354721": {
        "(15, 16)": {
            "AM2L": [
                1782
            ], 
            "BM1F": [
                1851
            ], 
            "M1": [
                1105
            ], 
            "irrelevant_Adj": [
                0
            ], 
            "M2": [
                981
            ], 
            "BM1L": [
                2866
            ], 
            "WBNULL": [
                1
            ], 
            "irrelevant_Noun": [
                0
            ], 
            "AM2F": [
                2293
            ], 
            "M1_ADJ": [
                1
            ]
        }, 
        "(15, 52)": {
            "AM2L": [
                1570
            ], 
            "AM2F": [
                517
            ], 
            "WBF": [
                981
            ], 
            "BM1F": [
                1851
            ], 
            "M1": [
                1105
            ], 
            "irrelevant_Adj": [
                0
            ], 
            "M2": [
                981
            ], 
            "BM1L": [
                2866
            ], 
            "WBO": [
                2293, 
                1782, 
                909, 
                4, 
                2864, 
                2032, 
                2160, 
                3204, 
                2157, 
                522, 
                2909, 
                1878, 
                2805, 
                3117, 
                153, 
                2909, 
                2157, 
                608, 
                1782, 
                2864, 
                1449, 
                1348, 
                516, 
                2864, 
                1449, 
                758, 
                1881, 
                1297, 
                2909, 
                3191, 
                415, 
                1490, 
                289
            ], 
            "WBL": [
                2866
            ], 
            "irrelevant_Noun": [
                0
            ], 
            "M1_ADJ": [
                1
            ]
        }, 
        "location1": [
            15
        ], 
        "location2": [
            16, 
            52
        ], 
        "sentence": "when i 1st tried it i found that it had no problem playing the more expensive dvd - r medium disc 's that other player would play but to my surprise was able to play cheep medium that i had burned that i could n't get to work before in anything but the dvd burner itself that i had made the disc with ."
    }
}