{
    "c6b55dc63ae357379b1ceebd32e4b39a": {
        "(9, 7)": {
            "AM2L": [
                2909
            ], 
            "WBFL": [
                150
            ], 
            "BM1F": [
                2882
            ], 
            "M1": [
                2160
            ], 
            "irrelevant_Adj": [
                1
            ], 
            "M2": [
                1171
            ], 
            "BM1L": [
                3043
            ], 
            "AM2F": [
                2901
            ], 
            "irrelevant_Noun": [
                0
            ], 
            "M1_ADJ": [
                0
            ]
        }, 
        "location1": [
            9
        ], 
        "location2": [
            7
        ], 
        "sentence": "so far , we 've only used this player a few time to watch movie and it has worked fine ."
    }, 
    "d460f81b43998cfb748cde2be9836aec": {
        "(3, 18)": {
            "AM2L": [
                150
            ], 
            "AM2F": [
                3181
            ], 
            "WBF": [
                3133
            ], 
            "BM1F": [
                1199
            ], 
            "M1": [
                1171
            ], 
            "irrelevant_Adj": [
                1
            ], 
            "M2": [
                2160
            ], 
            "BM1L": [
                2866
            ], 
            "WBO": [
                2882, 
                2160, 
                3117, 
                1084, 
                1449, 
                1103, 
                1566, 
                2909, 
                402, 
                273, 
                218
            ], 
            "WBL": [
                981
            ], 
            "irrelevant_Noun": [
                0
            ], 
            "M1_ADJ": [
                1
            ]
        }, 
        "location1": [
            3
        ], 
        "location2": [
            6, 
            18
        ], 
        "(3, 6)": {
            "AM2L": [
                1084
            ], 
            "AM2F": [
                3117
            ], 
            "WBF": [
                3133
            ], 
            "BM1F": [
                1199
            ], 
            "M1": [
                1171
            ], 
            "irrelevant_Adj": [
                1
            ], 
            "M2": [
                2160
            ], 
            "BM1L": [
                2866
            ], 
            "WBO": [
                2882
            ], 
            "WBL": [
                2882
            ], 
            "irrelevant_Noun": [
                0
            ], 
            "M1_ADJ": [
                1
            ]
        }, 
        "sentence": "for the first few week , this player was everything i expected it to be , an affordable multi-format dvd player with a stylish slim case as advertised ."
    }, 
    "01718f91df378fcdfc1e18e529d84f5e": {
        "location1": [
            6
        ], 
        "location2": [
            8
        ], 
        "(6, 8)": {
            "AM2L": [
                101
            ], 
            "WBFL": [
                981
            ], 
            "BM1F": [
                2866
            ], 
            "M1": [
                1171
            ], 
            "irrelevant_Adj": [
                1
            ], 
            "M2": [
                2160
            ], 
            "BM1L": [
                1971
            ], 
            "AM2F": [
                337
            ], 
            "irrelevant_Noun": [
                0
            ], 
            "M1_ADJ": [
                1
            ]
        }, 
        "sentence": "this is probably one of the few dvd player at $ 40 that can play almost everything you throw at it ."
    }
}