{
    "01bd9627b997fb43d6e384241050849a": {
        "(12, 11)": {
            "BM1F": [
                275
            ], 
            "M1": [
                3191
            ], 
            "irrelevant_Adj": [
                0
            ], 
            "M2": [
                1188
            ], 
            "BM1L": [
                864
            ], 
            "WBNULL": [
                1
            ], 
            "irrelevant_Noun": [
                0
            ], 
            "M1_ADJ": [
                0
            ]
        }, 
        "location1": [
            12
        ], 
        "location2": [
            11
        ], 
        "sentence": "as a whole , the dvd player has a sleek design and work fine ."
    }, 
    "328564a122898c77ba7fd6bd1d5f8da8": {
        "(5, 4)": {
            "AM2L": [
                1084
            ], 
            "BM1F": [
                2909
            ], 
            "M1": [
                3191
            ], 
            "irrelevant_Adj": [
                0
            ], 
            "M2": [
                1188
            ], 
            "BM1L": [
                2522
            ], 
            "WBNULL": [
                1
            ], 
            "irrelevant_Noun": [
                0
            ], 
            "AM2F": [
                3181
            ], 
            "M1_ADJ": [
                0
            ]
        }, 
        "location1": [
            5
        ], 
        "location2": [
            4
        ], 
        "sentence": "this player seems to work fine with everything else ."
    }, 
    "cc11c712dec9b78a5e6186104998785b": {
        "(3, 2)": {
            "AM2L": [
                2032
            ], 
            "BM1F": [
                2734
            ], 
            "M1": [
                3191
            ], 
            "irrelevant_Adj": [
                0
            ], 
            "M2": [
                1188
            ], 
            "BM1L": [
                1994
            ], 
            "WBNULL": [
                1
            ], 
            "irrelevant_Noun": [
                0
            ], 
            "AM2F": [
                2866
            ], 
            "M1_ADJ": [
                0
            ]
        }, 
        "location1": [
            3
        ], 
        "location2": [
            2
        ], 
        "sentence": "one still work fine , the other quit after one day ."
    }, 
    "98987f7c3d051f108c91a160e1342d6f": {
        "(15, 14)": {
            "AM2L": [
                2037
            ], 
            "BM1F": [
                3193
            ], 
            "M1": [
                3191
            ], 
            "irrelevant_Adj": [
                0
            ], 
            "M2": [
                1188
            ], 
            "BM1L": [
                1815
            ], 
            "WBNULL": [
                1
            ], 
            "irrelevant_Noun": [
                0
            ], 
            "AM2F": [
                2447
            ], 
            "M1_ADJ": [
                0
            ]
        }, 
        "location1": [
            15
        ], 
        "location2": [
            14
        ], 
        "sentence": "i checked out the amazon review and i 'm pleased to say mine worked , work , fine right out of the box ."
    }
}