{
    "499db2ac0845c79245f70ba7c8bc100b": {
        "(0, 12)": {
            "WBF": [
                2866
            ], 
            "M1": [
                1199
            ], 
            "irrelevant_Adj": [
                1
            ], 
            "M2": [
                986
            ], 
            "WBO": [
                2160, 
                882, 
                1935, 
                244, 
                1773, 
                2909, 
                166, 
                2866
            ], 
            "WBL": [
                1971
            ], 
            "irrelevant_Noun": [
                0
            ], 
            "M1_ADJ": [
                1
            ]
        }, 
        "location1": [
            0
        ], 
        "location2": [
            12
        ], 
        "sentence": "first , the player did not allow me to access the menus of dvds ."
    }, 
    "37f15e561ae7ac9028bbedac55bbb567": {
        "(1, 23)": {
            "AM2L": [
                3138
            ], 
            "AM2F": [
                325
            ], 
            "WBF": [
                1449
            ], 
            "BM1F": [
                337
            ], 
            "M1": [
                1199
            ], 
            "irrelevant_Adj": [
                1
            ], 
            "M2": [
                986
            ], 
            "WBO": [
                2886, 
                1566, 
                1562, 
                1999, 
                150, 
                1564, 
                1493, 
                522, 
                1449, 
                3117, 
                2263, 
                3211, 
                3147, 
                2866, 
                2160, 
                3204, 
                1935, 
                2317
            ], 
            "WBL": [
                239
            ], 
            "irrelevant_Noun": [
                0
            ], 
            "M1_ADJ": [
                1
            ]
        }, 
        "location1": [
            1
        ], 
        "location2": [
            23
        ], 
        "sentence": "at first i thought it is only a isolated incident , but i was proven wrong when the player would not read my `` alias `` dvds as well ."
    }
}