{
    "fe7e064c5f0fe9bf989fab990cc0ea99": {
        "(18, 25)": {
            "AM2L": [
                888
            ], 
            "AM2F": [
                1971
            ], 
            "WBF": [
                3058
            ], 
            "BM1F": [
                150
            ], 
            "M1": [
                1320
            ], 
            "irrelevant_Adj": [
                0
            ], 
            "M2": [
                3061
            ], 
            "BM1L": [
                325
            ], 
            "WBO": [
                1232, 
                2866, 
                1844
            ], 
            "WBL": [
                150
            ], 
            "irrelevant_Noun": [
                0
            ], 
            "M1_ADJ": [
                1
            ]
        }, 
        "location1": [
            14, 
            18
        ], 
        "location2": [
            25
        ], 
        "(14, 25)": {
            "AM2L": [
                888
            ], 
            "AM2F": [
                1971
            ], 
            "WBF": [
                2438
            ], 
            "BM1F": [
                1322
            ], 
            "M1": [
                1320
            ], 
            "irrelevant_Adj": [
                0
            ], 
            "M2": [
                3061
            ], 
            "BM1L": [
                1566
            ], 
            "WBO": [
                325, 
                150, 
                1320, 
                3058, 
                1232, 
                2866, 
                1844
            ], 
            "WBL": [
                150
            ], 
            "irrelevant_Noun": [
                0
            ], 
            "M1_ADJ": [
                1
            ]
        }, 
        "sentence": "i bought this apex 2600 dvd player for myself at christmas because it got good review as a good value for the money on a variety of different site ."
    }
}