{
    "fe7e064c5f0fe9bf989fab990cc0ea99": {
        "(14, 22)": {
            "AM2L": [
                150
            ], 
            "AM2F": [
                1987
            ], 
            "WBF": [
                2438
            ], 
            "BM1F": [
                1322
            ], 
            "M1": [
                1320
            ], 
            "irrelevant_Adj": [
                0
            ], 
            "M2": [
                1844
            ], 
            "BM1L": [
                1566
            ], 
            "WBO": [
                325, 
                150, 
                1320, 
                3058
            ], 
            "WBL": [
                2866
            ], 
            "irrelevant_Noun": [
                0
            ], 
            "M1_ADJ": [
                1
            ]
        }, 
        "(18, 22)": {
            "AM2L": [
                150
            ], 
            "AM2F": [
                1987
            ], 
            "WBF": [
                3058
            ], 
            "BM1F": [
                150
            ], 
            "M1": [
                1320
            ], 
            "irrelevant_Adj": [
                0
            ], 
            "M2": [
                1844
            ], 
            "BM1L": [
                325
            ], 
            "WBO": [
                1232
            ], 
            "WBL": [
                2866
            ], 
            "irrelevant_Noun": [
                0
            ], 
            "M1_ADJ": [
                1
            ]
        }, 
        "location1": [
            14, 
            18
        ], 
        "location2": [
            22
        ], 
        "sentence": "i bought this apex 2600 dvd player for myself at christmas because it got good review as a good value for the money on a variety of different site ."
    }, 
    "b5938c00042cd746390dea8b55ef54ef": {
        "(6, 2)": {
            "AM2F": [
                1163
            ], 
            "WBF": [
                297
            ], 
            "BM1F": [
                2866
            ], 
            "M1": [
                1844
            ], 
            "irrelevant_Adj": [
                0
            ], 
            "M2": [
                1320
            ], 
            "BM1L": [
                1232
            ], 
            "WBO": [
                1736
            ], 
            "WBL": [
                1375
            ], 
            "irrelevant_Noun": [
                0
            ], 
            "M1_ADJ": [
                0
            ]
        }, 
        "location1": [
            6
        ], 
        "location2": [
            2
        ], 
        "sentence": "for the money apex machine have good feature ."
    }
}