{
    "63310a5e17e811681d048ee50bff3ac2": {
        "(27, 25)": {
            "WBFL": [
                2676
            ], 
            "BM1F": [
                275
            ], 
            "M1": [
                822
            ], 
            "irrelevant_Adj": [
                0
            ], 
            "M2": [
                1320
            ], 
            "BM1L": [
                969
            ], 
            "irrelevant_Noun": [
                0
            ], 
            "M1_ADJ": [
                0
            ]
        }, 
        "location1": [
            27
        ], 
        "location2": [
            25
        ], 
        "sentence": "the build quality feel solid , it does n't shake or whine while playing discs , and the picture and sound is top notch ( both dts and dd5.1 sound good ) ."
    }
}