{
    "b3d6250f8c0e2d723e032191144e6c20": {
        "(3, 1)": {
            "AM2L": [
                2037
            ], 
            "WBFL": [
                1711
            ], 
            "BM1F": [
                2866
            ], 
            "M1": [
                2160
            ], 
            "irrelevant_Adj": [
                0
            ], 
            "M2": [
                1320
            ], 
            "AM2F": [
                2447
            ], 
            "irrelevant_Noun": [
                0
            ], 
            "M1_ADJ": [
                0
            ]
        }, 
        "location1": [
            3, 
            14
        ], 
        "location2": [
            1
        ], 
        "(14, 1)": {
            "WBF": [
                1711
            ], 
            "BM1F": [
                2866
            ], 
            "M1": [
                2160
            ], 
            "irrelevant_Adj": [
                0
            ], 
            "M2": [
                1320
            ], 
            "WBO": [
                1320, 
                2447, 
                2037, 
                1971, 
                2866, 
                481, 
                1977, 
                1719, 
                1971
            ], 
            "WBL": [
                275
            ], 
            "irrelevant_Noun": [
                0
            ], 
            "AM2F": [
                2770
            ], 
            "M1_ADJ": [
                0
            ]
        }, 
        "sentence": "the player looked good right out of the box , offering lot of feature and good styling ."
    }, 
    "fe7e064c5f0fe9bf989fab990cc0ea99": {
        "(18, 6)": {
            "AM2L": [
                1232
            ], 
            "AM2F": [
                3058
            ], 
            "WBF": [
                1232
            ], 
            "BM1F": [
                981
            ], 
            "M1": [
                2160
            ], 
            "irrelevant_Adj": [
                0
            ], 
            "M2": [
                1320
            ], 
            "BM1L": [
                65
            ], 
            "WBO": [
                1880, 
                337, 
                619, 
                407, 
                1566, 
                1322, 
                1320, 
                2438
            ], 
            "WBL": [
                150
            ], 
            "irrelevant_Noun": [
                0
            ], 
            "M1_ADJ": [
                0
            ]
        }, 
        "location1": [
            14, 
            18
        ], 
        "location2": [
            6
        ], 
        "(14, 6)": {
            "AM2L": [
                325
            ], 
            "AM2F": [
                2438
            ], 
            "WBF": [
                1232
            ], 
            "BM1F": [
                981
            ], 
            "M1": [
                2160
            ], 
            "irrelevant_Adj": [
                0
            ], 
            "M2": [
                1320
            ], 
            "BM1L": [
                65
            ], 
            "WBO": [
                1880, 
                337, 
                619, 
                407
            ], 
            "WBL": [
                1322
            ], 
            "irrelevant_Noun": [
                0
            ], 
            "M1_ADJ": [
                0
            ]
        }, 
        "sentence": "i bought this apex 2600 dvd player for myself at christmas because it got good review as a good value for the money on a variety of different site ."
    }, 
    "1bb0466c467ad147fa770ae552afdb45": {
        "location1": [
            7
        ], 
        "location2": [
            9
        ], 
        "(7, 9)": {
            "WBFL": [
                981
            ], 
            "BM1F": [
                150
            ], 
            "M1": [
                1320
            ], 
            "irrelevant_Adj": [
                0
            ], 
            "M2": [
                2160
            ], 
            "BM1L": [
                1562
            ], 
            "irrelevant_Noun": [
                0
            ], 
            "M1_ADJ": [
                1
            ]
        }, 
        "sentence": "for the most part this is a good dvd player ."
    }, 
    "29d2614f705ec8f146e4eddeb3c87bcf": {
        "location1": [
            8
        ], 
        "location2": [
            17
        ], 
        "(8, 17)": {
            "AM2L": [
                2315
            ], 
            "AM2F": [
                2909
            ], 
            "WBF": [
                1566
            ], 
            "BM1F": [
                1299
            ], 
            "M1": [
                1320
            ], 
            "irrelevant_Adj": [
                0
            ], 
            "M2": [
                2160
            ], 
            "BM1L": [
                2325
            ], 
            "WBO": [
                2920, 
                1999, 
                74, 
                3195, 
                820
            ], 
            "WBL": [
                2866
            ], 
            "irrelevant_Noun": [
                0
            ], 
            "M1_ADJ": [
                1
            ]
        }, 
        "sentence": "finally , amazon 's free shipping is really getting good , it took only 3 working day for the player to reach me !"
    }
}