{
    "1884b63b7e64eae77c5a882b7904a99b": {
        "(8, 4)": {
            "AM2L": [
                471
            ], 
            "AM2F": [
                2909
            ], 
            "WBF": [
                1133
            ], 
            "BM1F": [
                2637
            ], 
            "M1": [
                1237
            ], 
            "irrelevant_Adj": [
                0
            ], 
            "M2": [
                1320
            ], 
            "BM1L": [
                3041
            ], 
            "WBO": [
                275
            ], 
            "WBL": [
                1710
            ], 
            "irrelevant_Noun": [
                0
            ], 
            "M1_ADJ": [
                0
            ]
        }, 
        "location1": [
            8
        ], 
        "location2": [
            4
        ], 
        "sentence": "easy to use , small form factor , and look good to boot ."
    }
}