{
    "29d2614f705ec8f146e4eddeb3c87bcf": {
        "(8, 4)": {
            "AM2L": [
                2920
            ], 
            "AM2F": [
                1566
            ], 
            "WBF": [
                1562
            ], 
            "BM1F": [
                1250
            ], 
            "M1": [
                2574
            ], 
            "irrelevant_Adj": [
                0
            ], 
            "M2": [
                1320
            ], 
            "BM1L": [
                4
            ], 
            "WBO": [
                2325
            ], 
            "WBL": [
                1299
            ], 
            "irrelevant_Noun": [
                0
            ], 
            "M1_ADJ": [
                0
            ]
        }, 
        "location1": [
            8
        ], 
        "location2": [
            4
        ], 
        "sentence": "finally , amazon 's free shipping is really getting good , it took only 3 working day for the player to reach me !"
    }
}