{
    "1bb0466c467ad147fa770ae552afdb45": {
        "(7, 3)": {
            "AM2L": [
                2160
            ], 
            "AM2F": [
                981
            ], 
            "WBF": [
                2882
            ], 
            "BM1F": [
                1854
            ], 
            "M1": [
                2082
            ], 
            "irrelevant_Adj": [
                0
            ], 
            "M2": [
                1320
            ], 
            "BM1L": [
                2866
            ], 
            "WBO": [
                1562
            ], 
            "WBL": [
                150
            ], 
            "irrelevant_Noun": [
                0
            ], 
            "M1_ADJ": [
                0
            ]
        }, 
        "location1": [
            7
        ], 
        "location2": [
            3
        ], 
        "sentence": "for the most part this is a good dvd player ."
    }
}