{
    "fe7e064c5f0fe9bf989fab990cc0ea99": {
        "(18, 15)": {
            "AM2L": [
                1232
            ], 
            "AM2F": [
                3058
            ], 
            "WBF": [
                325
            ], 
            "BM1F": [
                1320
            ], 
            "M1": [
                2438
            ], 
            "irrelevant_Adj": [
                0
            ], 
            "M2": [
                1320
            ], 
            "BM1L": [
                1322
            ], 
            "WBO": [
                150
            ], 
            "WBL": [
                150
            ], 
            "irrelevant_Noun": [
                0
            ], 
            "M1_ADJ": [
                0
            ]
        }, 
        "location1": [
            14, 
            18
        ], 
        "location2": [
            15
        ], 
        "(14, 15)": {
            "AM2L": [
                150
            ], 
            "BM1F": [
                1322
            ], 
            "M1": [
                1320
            ], 
            "irrelevant_Adj": [
                0
            ], 
            "M2": [
                2438
            ], 
            "BM1L": [
                1566
            ], 
            "WBNULL": [
                1
            ], 
            "irrelevant_Noun": [
                0
            ], 
            "AM2F": [
                325
            ], 
            "M1_ADJ": [
                1
            ]
        }, 
        "sentence": "i bought this apex 2600 dvd player for myself at christmas because it got good review as a good value for the money on a variety of different site ."
    }, 
    "554c4ad0dd6259a9c61e4817388e8064": {
        "(26, 23)": {
            "AM2L": [
                2668
            ], 
            "AM2F": [
                275
            ], 
            "WBF": [
                275
            ], 
            "BM1F": [
                2032
            ], 
            "M1": [
                2438
            ], 
            "irrelevant_Adj": [
                0
            ], 
            "M2": [
                1320
            ], 
            "BM1L": [
                2317
            ], 
            "WBO": [
                2659
            ], 
            "WBL": [
                2659
            ], 
            "irrelevant_Noun": [
                0
            ], 
            "M1_ADJ": [
                0
            ]
        }, 
        "location1": [
            26, 
            31
        ], 
        "location2": [
            23
        ], 
        "(31, 23)": {
            "AM2L": [
                1878
            ], 
            "AM2F": [
                522
            ], 
            "WBF": [
                275
            ], 
            "BM1F": [
                2032
            ], 
            "M1": [
                2438
            ], 
            "irrelevant_Adj": [
                0
            ], 
            "M2": [
                1320
            ], 
            "BM1L": [
                2317
            ], 
            "WBO": [
                2659, 
                1320, 
                275, 
                2668
            ], 
            "WBL": [
                2650
            ], 
            "irrelevant_Noun": [
                0
            ], 
            "M1_ADJ": [
                0
            ]
        }, 
        "sentence": "the unit seems to play all format that i have put in it ( jpeg , kodak pic 's and dvd-r ) i have read other review and some good and soom not so good , but my feeling at this time is `` two thumb up `` !"
    }
}