{
    "fe7e064c5f0fe9bf989fab990cc0ea99": {
        "(14, 5)": {
            "AM2L": [
                325
            ], 
            "AM2F": [
                2438
            ], 
            "WBF": [
                2160
            ], 
            "BM1F": [
                65
            ], 
            "M1": [
                981
            ], 
            "irrelevant_Adj": [
                0
            ], 
            "M2": [
                1320
            ], 
            "BM1L": [
                297
            ], 
            "WBO": [
                1232, 
                1880, 
                337, 
                619, 
                407
            ], 
            "WBL": [
                1322
            ], 
            "irrelevant_Noun": [
                0
            ], 
            "M1_ADJ": [
                0
            ]
        }, 
        "location1": [
            14, 
            18
        ], 
        "location2": [
            5
        ], 
        "(18, 5)": {
            "AM2L": [
                1232
            ], 
            "AM2F": [
                3058
            ], 
            "WBF": [
                2160
            ], 
            "BM1F": [
                65
            ], 
            "M1": [
                981
            ], 
            "irrelevant_Adj": [
                0
            ], 
            "M2": [
                1320
            ], 
            "BM1L": [
                297
            ], 
            "WBO": [
                1232, 
                1880, 
                337, 
                619, 
                407, 
                1566, 
                1322, 
                1320, 
                2438
            ], 
            "WBL": [
                150
            ], 
            "irrelevant_Noun": [
                0
            ], 
            "M1_ADJ": [
                0
            ]
        }, 
        "sentence": "i bought this apex 2600 dvd player for myself at christmas because it got good review as a good value for the money on a variety of different site ."
    }, 
    "1bb0466c467ad147fa770ae552afdb45": {
        "(7, 8)": {
            "BM1F": [
                150
            ], 
            "M1": [
                1320
            ], 
            "irrelevant_Adj": [
                0
            ], 
            "M2": [
                981
            ], 
            "BM1L": [
                1562
            ], 
            "WBNULL": [
                1
            ], 
            "irrelevant_Noun": [
                0
            ], 
            "AM2F": [
                2160
            ], 
            "M1_ADJ": [
                1
            ]
        }, 
        "location1": [
            7
        ], 
        "location2": [
            8
        ], 
        "sentence": "for the most part this is a good dvd player ."
    }
}