{
    "fe7e064c5f0fe9bf989fab990cc0ea99": {
        "(14, 19)": {
            "AM2L": [
                2866
            ], 
            "AM2F": [
                1232
            ], 
            "WBF": [
                2438
            ], 
            "BM1F": [
                1322
            ], 
            "M1": [
                1320
            ], 
            "irrelevant_Adj": [
                0
            ], 
            "M2": [
                3058
            ], 
            "BM1L": [
                1566
            ], 
            "WBO": [
                325
            ], 
            "WBL": [
                1320
            ], 
            "irrelevant_Noun": [
                0
            ], 
            "M1_ADJ": [
                1
            ]
        }, 
        "location1": [
            14, 
            18
        ], 
        "location2": [
            19
        ], 
        "(18, 19)": {
            "AM2L": [
                2866
            ], 
            "BM1F": [
                150
            ], 
            "M1": [
                1320
            ], 
            "irrelevant_Adj": [
                0
            ], 
            "M2": [
                3058
            ], 
            "BM1L": [
                325
            ], 
            "WBNULL": [
                1
            ], 
            "irrelevant_Noun": [
                0
            ], 
            "AM2F": [
                1232
            ], 
            "M1_ADJ": [
                1
            ]
        }, 
        "sentence": "i bought this apex 2600 dvd player for myself at christmas because it got good review as a good value for the money on a variety of different site ."
    }
}