{
    "554c4ad0dd6259a9c61e4817388e8064": {
        "(31, 15)": {
            "AM2L": [
                1878
            ], 
            "AM2F": [
                522
            ], 
            "WBF": [
                4
            ], 
            "BM1F": [
                1613
            ], 
            "M1": [
                2128
            ], 
            "irrelevant_Adj": [
                0
            ], 
            "M2": [
                1320
            ], 
            "BM1L": [
                1584
            ], 
            "WBO": [
                275, 
                982, 
                1449, 
                1375, 
                2317, 
                2032, 
                2438, 
                275, 
                2659, 
                1320, 
                275, 
                2668
            ], 
            "WBL": [
                2650
            ], 
            "irrelevant_Noun": [
                0
            ], 
            "M1_ADJ": [
                0
            ]
        }, 
        "location1": [
            26, 
            31
        ], 
        "location2": [
            15
        ], 
        "(26, 15)": {
            "AM2L": [
                2668
            ], 
            "AM2F": [
                275
            ], 
            "WBF": [
                4
            ], 
            "BM1F": [
                1613
            ], 
            "M1": [
                2128
            ], 
            "irrelevant_Adj": [
                0
            ], 
            "M2": [
                1320
            ], 
            "BM1L": [
                1584
            ], 
            "WBO": [
                275, 
                982, 
                1449, 
                1375, 
                2317, 
                2032, 
                2438
            ], 
            "WBL": [
                2659
            ], 
            "irrelevant_Noun": [
                0
            ], 
            "M1_ADJ": [
                0
            ]
        }, 
        "sentence": "the unit seems to play all format that i have put in it ( jpeg , kodak pic 's and dvd-r ) i have read other review and some good and soom not so good , but my feeling at this time is `` two thumb up `` !"
    }
}