{
    "9f50c25f5f7fb84cc8995a85ac62697d": {
        "(7, 13)": {
            "WBF": [
                3147
            ], 
            "BM1F": [
                3117
            ], 
            "M1": [
                1333
            ], 
            "irrelevant_Adj": [
                0
            ], 
            "M2": [
                712
            ], 
            "BM1L": [
                2133
            ], 
            "WBO": [
                2551, 
                3029
            ], 
            "WBL": [
                2472
            ], 
            "irrelevant_Noun": [
                0
            ], 
            "M1_ADJ": [
                1
            ]
        }, 
        "location1": [
            7
        ], 
        "location2": [
            13
        ], 
        "sentence": "received apex dvd and the picture was great when set up with s connector ."
    }
}