{
    "d4aea072a4d82c259b1c6322dc4b650a": {
        "location1": [
            17
        ], 
        "location2": [
            9
        ], 
        "(17, 9)": {
            "AM2L": [
                2551
            ], 
            "AM2F": [
                1163
            ], 
            "WBF": [
                2076
            ], 
            "BM1F": [
                1320
            ], 
            "M1": [
                1262
            ], 
            "irrelevant_Adj": [
                0
            ], 
            "M2": [
                1333
            ], 
            "BM1L": [
                3075
            ], 
            "WBO": [
                523, 
                1635, 
                275, 
                1566
            ], 
            "WBL": [
                150
            ], 
            "irrelevant_Noun": [
                0
            ], 
            "M1_ADJ": [
                0
            ]
        }, 
        "sentence": "it 's very sleek looking with a very good front panel button layout , and it has a great feature set ."
    }
}