{
    "9982cf025cf09cf43f1be57afa09155b": {
        "(16, 7)": {
            "AM2L": [
                1851
            ], 
            "AM2F": [
                824
            ], 
            "WBF": [
                1987
            ], 
            "BM1F": [
                2659
            ], 
            "M1": [
                1844
            ], 
            "irrelevant_Adj": [
                0
            ], 
            "M2": [
                1333
            ], 
            "BM1L": [
                2486
            ], 
            "WBO": [
                2882, 
                2160, 
                2430, 
                1490, 
                1773
            ], 
            "WBL": [
                150
            ], 
            "irrelevant_Noun": [
                0
            ], 
            "M1_ADJ": [
                0
            ]
        }, 
        "location1": [
            16
        ], 
        "location2": [
            7
        ], 
        "sentence": "all in all , trying to save some money on this player resulted in me shelling a great deal more when i purchased a much nicer dvd vcr combo player to make up for blazing crappiness of this very embarassing gift ."
    }, 
    "3f04a58bcda5a12c04c16b5a555e8d34": {
        "location1": [
            11
        ], 
        "location2": [
            15
        ], 
        "(11, 15)": {
            "WBF": [
                3058
            ], 
            "BM1F": [
                282
            ], 
            "M1": [
                1333
            ], 
            "irrelevant_Adj": [
                0
            ], 
            "M2": [
                1844
            ], 
            "BM1L": [
                3117
            ], 
            "WBO": [
                1232
            ], 
            "WBL": [
                2866
            ], 
            "irrelevant_Noun": [
                0
            ], 
            "M1_ADJ": [
                1
            ]
        }, 
        "sentence": "my dad also has an apex tv and it was another great value for the money ."
    }
}