{
    "4fb852ec14462e823ccc18ab597d17b6": {
        "(32, 33)": {
            "BM1F": [
                1105
            ], 
            "M1": [
                1408
            ], 
            "irrelevant_Adj": [
                0
            ], 
            "M2": [
                2160
            ], 
            "BM1L": [
                273
            ], 
            "WBNULL": [
                1
            ], 
            "irrelevant_Noun": [
                0
            ], 
            "M1_ADJ": [
                1
            ]
        }, 
        "location1": [
            32
        ], 
        "location2": [
            11, 
            33
        ], 
        "(32, 11)": {
            "AM2F": [
                2160
            ], 
            "WBF": [
                407
            ], 
            "BM1F": [
                297
            ], 
            "M1": [
                2160
            ], 
            "irrelevant_Adj": [
                0
            ], 
            "M2": [
                1408
            ], 
            "BM1L": [
                2882
            ], 
            "WBO": [
                1971, 
                2866, 
                2225, 
                522, 
                1566, 
                1562, 
                843, 
                3195, 
                2037, 
                1870, 
                436, 
                2862, 
                3144, 
                1449, 
                3204, 
                1101, 
                1261
            ], 
            "WBL": [
                1105
            ], 
            "irrelevant_Noun": [
                0
            ], 
            "M1_ADJ": [
                0
            ]
        }, 
        "sentence": "i did not want to have high expectation for this apex player because of the price but it is definitely working out much better than what i would expect from an expensive high-end player ."
    }
}