{
    "d8105077a4434e718fee25bbe1966b63": {
        "location1": [
            5
        ], 
        "location2": [
            16
        ], 
        "(5, 16)": {
            "AM2L": [
                2882
            ], 
            "AM2F": [
                275
            ], 
            "WBF": [
                981
            ], 
            "BM1F": [
                273
            ], 
            "M1": [
                1511
            ], 
            "irrelevant_Adj": [
                0
            ], 
            "M2": [
                1163
            ], 
            "BM1L": [
                526
            ], 
            "WBO": [
                2160, 
                2864, 
                1348, 
                1851, 
                2862, 
                2866, 
                2716
            ], 
            "WBL": [
                1971
            ], 
            "irrelevant_Noun": [
                0
            ], 
            "M1_ADJ": [
                1
            ]
        }, 
        "sentence": "i looked into buying an inexpensive dvd player that had more than the standard set of feature and this item seemed to be the best in that category ."
    }
}