{
    "2025b4edf2d69fbd4b39760b1f763881": {
        "location1": [
            6
        ], 
        "location2": [
            12
        ], 
        "(6, 12)": {
            "AM2L": [
                2872
            ], 
            "AM2F": [
                275
            ], 
            "WBF": [
                2160
            ], 
            "BM1F": [
                3075
            ], 
            "M1": [
                1511
            ], 
            "irrelevant_Adj": [
                0
            ], 
            "M2": [
                1442
            ], 
            "BM1L": [
                2882
            ], 
            "WBO": [
                1232, 
                2866
            ], 
            "WBL": [
                2888
            ], 
            "irrelevant_Noun": [
                0
            ], 
            "M1_ADJ": [
                1
            ]
        }, 
        "sentence": "i was impressed by this very inexpensive player , for the first three hour , and then it died ."
    }
}