{
    "559deec06532af818dc647a493e9e9dc": {
        "(6, 2)": {
            "AM2L": [
                258
            ], 
            "AM2F": [
                2225
            ], 
            "WBF": [
                1232
            ], 
            "BM1F": [
                2494
            ], 
            "M1": [
                2160
            ], 
            "irrelevant_Adj": [
                0
            ], 
            "M2": [
                1724
            ], 
            "BM1L": [
                2250
            ], 
            "WBO": [
                150
            ], 
            "WBL": [
                2376
            ], 
            "irrelevant_Noun": [
                0
            ], 
            "M1_ADJ": [
                0
            ]
        }, 
        "location1": [
            6
        ], 
        "location2": [
            2, 
            24
        ], 
        "(6, 24)": {
            "AM2L": [
                3138
            ], 
            "AM2F": [
                325
            ], 
            "WBF": [
                2225
            ], 
            "BM1F": [
                2376
            ], 
            "M1": [
                1724
            ], 
            "irrelevant_Adj": [
                0
            ], 
            "M2": [
                2160
            ], 
            "BM1L": [
                150
            ], 
            "WBO": [
                258, 
                2866, 
                436, 
                1612, 
                1755, 
                1669, 
                2925, 
                2139, 
                275, 
                2075, 
                316, 
                1946, 
                1977, 
                1727
            ], 
            "WBL": [
                2494
            ], 
            "irrelevant_Noun": [
                0
            ], 
            "M1_ADJ": [
                1
            ]
        }, 
        "sentence": "progressive scan player for a relatively low price ( although the better known manufacturer like toshiba , pioneer , and panasonic are now offering lower-priced progressive scan player as well ) ."
    }
}