{
    "559deec06532af818dc647a493e9e9dc": {
        "location1": [
            6
        ], 
        "location2": [
            12
        ], 
        "(6, 12)": {
            "AM2L": [
                2925
            ], 
            "AM2F": [
                1669
            ], 
            "WBF": [
                2225
            ], 
            "BM1F": [
                2376
            ], 
            "M1": [
                1724
            ], 
            "irrelevant_Adj": [
                0
            ], 
            "M2": [
                1755
            ], 
            "BM1L": [
                150
            ], 
            "WBO": [
                258, 
                2866
            ], 
            "WBL": [
                1612
            ], 
            "irrelevant_Noun": [
                0
            ], 
            "M1_ADJ": [
                1
            ]
        }, 
        "sentence": "progressive scan player for a relatively low price ( although the better known manufacturer like toshiba , pioneer , and panasonic are now offering lower-priced progressive scan player as well ) ."
    }
}