{
    "559deec06532af818dc647a493e9e9dc": {
        "(6, 7)": {
            "AM2L": [
                2866
            ], 
            "BM1F": [
                2376
            ], 
            "M1": [
                1724
            ], 
            "irrelevant_Adj": [
                0
            ], 
            "M2": [
                2225
            ], 
            "BM1L": [
                150
            ], 
            "WBNULL": [
                1
            ], 
            "irrelevant_Noun": [
                0
            ], 
            "AM2F": [
                258
            ], 
            "M1_ADJ": [
                1
            ]
        }, 
        "location1": [
            6
        ], 
        "location2": [
            7
        ], 
        "sentence": "progressive scan player for a relatively low price ( although the better known manufacturer like toshiba , pioneer , and panasonic are now offering lower-priced progressive scan player as well ) ."
    }
}