{
    "e84bda7445af61e44a722324fcdbccf7": {
        "(16, 10)": {
            "AM2L": [
                1163
            ], 
            "AM2F": [
                1971
            ], 
            "WBF": [
                1710
            ], 
            "BM1F": [
                2882
            ], 
            "M1": [
                3010
            ], 
            "irrelevant_Adj": [
                0
            ], 
            "M2": [
                1879
            ], 
            "BM1L": [
                325
            ], 
            "WBO": [
                2622, 
                275
            ], 
            "WBL": [
                150
            ], 
            "irrelevant_Noun": [
                0
            ], 
            "M1_ADJ": [
                0
            ]
        }, 
        "location1": [
            16
        ], 
        "location2": [
            10
        ], 
        "sentence": "still , i was willing to overlook those thing as this unit look sleek and has a myriad of feature !"
    }
}