{
    "e84bda7445af61e44a722324fcdbccf7": {
        "(16, 18)": {
            "WBFL": [
                1971
            ], 
            "BM1F": [
                150
            ], 
            "M1": [
                1879
            ], 
            "irrelevant_Adj": [
                0
            ], 
            "M2": [
                1163
            ], 
            "BM1L": [
                1371
            ], 
            "irrelevant_Noun": [
                0
            ], 
            "M1_ADJ": [
                1
            ]
        }, 
        "location1": [
            16
        ], 
        "location2": [
            18
        ], 
        "sentence": "still , i was willing to overlook those thing as this unit look sleek and has a myriad of feature !"
    }
}