{
    "ded43ef4232c5c23698e001714547447": {
        "(0, 9)": {
            "WBF": [
                574
            ], 
            "M1": [
                1903
            ], 
            "irrelevant_Adj": [
                1
            ], 
            "M2": [
                2157
            ], 
            "WBO": [
                248, 
                259, 
                417, 
                2621, 
                221
            ], 
            "WBL": [
                1171
            ], 
            "irrelevant_Noun": [
                0
            ], 
            "M1_ADJ": [
                1
            ]
        }, 
        "location1": [
            0
        ], 
        "location2": [
            9
        ], 
        "sentence": "new cd almost always began skipping after a few play ."
    }, 
    "6e5204af1151707aebba1f5f0526b68d": {
        "location1": [
            15
        ], 
        "location2": [
            11
        ], 
        "(15, 11)": {
            "AM2F": [
                1994
            ], 
            "WBF": [
                275
            ], 
            "BM1F": [
                1881
            ], 
            "M1": [
                2157
            ], 
            "irrelevant_Adj": [
                1
            ], 
            "M2": [
                1903
            ], 
            "BM1L": [
                3204
            ], 
            "WBO": [
                2875
            ], 
            "WBL": [
                3143
            ], 
            "irrelevant_Noun": [
                0
            ], 
            "M1_ADJ": [
                0
            ]
        }, 
        "sentence": "( on here of course ) also , a couple dvd 's would n't play and they were new one !"
    }
}