{
    "03e1cd38959d29902a3f05c616118533": {
        "(8, 10)": {
            "AM2L": [
                2659
            ], 
            "WBFL": [
                1019
            ], 
            "BM1F": [
                2759
            ], 
            "M1": [
                1903
            ], 
            "irrelevant_Adj": [
                1
            ], 
            "M2": [
                2640
            ], 
            "BM1L": [
                150
            ], 
            "AM2F": [
                1232
            ], 
            "irrelevant_Noun": [
                0
            ], 
            "M1_ADJ": [
                1
            ]
        }, 
        "location1": [
            8
        ], 
        "location2": [
            10
        ], 
        "sentence": "it did also seem to have a strong `` new electronics `` smell for some time ."
    }
}