{
    "9982cf025cf09cf43f1be57afa09155b": {
        "(24, 28)": {
            "AM2L": [
                1744
            ], 
            "AM2F": [
                2909
            ], 
            "WBF": [
                981
            ], 
            "BM1F": [
                1870
            ], 
            "M1": [
                1909
            ], 
            "irrelevant_Adj": [
                0
            ], 
            "M2": [
                2160
            ], 
            "BM1L": [
                150
            ], 
            "WBO": [
                3068
            ], 
            "WBL": [
                662
            ], 
            "irrelevant_Noun": [
                0
            ], 
            "M1_ADJ": [
                1
            ]
        }, 
        "(24, 10)": {
            "AM2L": [
                3068
            ], 
            "AM2F": [
                981
            ], 
            "WBF": [
                2430
            ], 
            "BM1F": [
                2882
            ], 
            "M1": [
                2160
            ], 
            "irrelevant_Adj": [
                0
            ], 
            "M2": [
                1909
            ], 
            "BM1L": [
                1987
            ], 
            "WBO": [
                1490, 
                1773, 
                2569, 
                150, 
                1333, 
                824, 
                1851, 
                3147, 
                1449, 
                2273
            ], 
            "WBL": [
                1870
            ], 
            "irrelevant_Noun": [
                0
            ], 
            "M1_ADJ": [
                0
            ]
        }, 
        "location1": [
            24
        ], 
        "location2": [
            10, 
            28
        ], 
        "sentence": "all in all , trying to save some money on this player resulted in me shelling a great deal more when i purchased a much nicer dvd vcr combo player to make up for blazing crappiness of this very embarassing gift ."
    }
}