{
    "9982cf025cf09cf43f1be57afa09155b": {
        "location1": [
            24
        ], 
        "location2": [
            17
        ], 
        "(24, 17)": {
            "AM2L": [
                3068
            ], 
            "AM2F": [
                981
            ], 
            "WBF": [
                1851
            ], 
            "BM1F": [
                1333
            ], 
            "M1": [
                824
            ], 
            "irrelevant_Adj": [
                0
            ], 
            "M2": [
                1909
            ], 
            "BM1L": [
                150
            ], 
            "WBO": [
                3147, 
                1449, 
                2273
            ], 
            "WBL": [
                1870
            ], 
            "irrelevant_Noun": [
                0
            ], 
            "M1_ADJ": [
                0
            ]
        }, 
        "sentence": "all in all , trying to save some money on this player resulted in me shelling a great deal more when i purchased a much nicer dvd vcr combo player to make up for blazing crappiness of this very embarassing gift ."
    }
}