{
    "9982cf025cf09cf43f1be57afa09155b": {
        "location1": [
            24
        ], 
        "location2": [
            25
        ], 
        "(24, 25)": {
            "AM2L": [
                662
            ], 
            "BM1F": [
                1870
            ], 
            "M1": [
                1909
            ], 
            "irrelevant_Adj": [
                0
            ], 
            "M2": [
                981
            ], 
            "BM1L": [
                150
            ], 
            "WBNULL": [
                1
            ], 
            "irrelevant_Noun": [
                0
            ], 
            "AM2F": [
                3068
            ], 
            "M1_ADJ": [
                1
            ]
        }, 
        "sentence": "all in all , trying to save some money on this player resulted in me shelling a great deal more when i purchased a much nicer dvd vcr combo player to make up for blazing crappiness of this very embarassing gift ."
    }
}