{
    "9151bec746be1369933e0711724fabba": {
        "(8, 24)": {
            "AM2L": [
                2901
            ], 
            "AM2F": [
                1080
            ], 
            "WBF": [
                2236
            ], 
            "BM1F": [
                1371
            ], 
            "M1": [
                1965
            ], 
            "irrelevant_Adj": [
                0
            ], 
            "M2": [
                1861
            ], 
            "BM1L": [
                522
            ], 
            "WBO": [
                2782, 
                325, 
                8, 
                1935, 
                2351, 
                150, 
                981, 
                46, 
                2744, 
                150, 
                2084, 
                2172
            ], 
            "WBL": [
                150
            ], 
            "irrelevant_Noun": [
                0
            ], 
            "M1_ADJ": [
                1
            ]
        }, 
        "location1": [
            8
        ], 
        "location2": [
            24
        ], 
        "sentence": "the player usually play dvd 's , but has occasional problem such as : 1 ) not recognizing a dvd 2 ) stopping a particular point in a movie every time we played it 3 ) not being able to access certain special feature on a rental dvd ."
    }
}