{
    "b04a1b6bbf5356e9d6ebf7e31273b479": {
        "(10, 12)": {
            "WBFL": [
                2117
            ], 
            "BM1F": [
                1878
            ], 
            "M1": [
                1986
            ], 
            "irrelevant_Adj": [
                0
            ], 
            "M2": [
                1736
            ], 
            "BM1L": [
                1490
            ], 
            "irrelevant_Noun": [
                0
            ], 
            "M1_ADJ": [
                1
            ]
        }, 
        "location1": [
            10
        ], 
        "location2": [
            12
        ], 
        "sentence": "it did play a dvd-r which was unplayable in my older philip machine ."
    }
}