{
    "805fb64ce9cfd89eb965b553110a9c78": {
        "(2, 3)": {
            "AM2L": [
                574
            ], 
            "BM1F": [
                2157
            ], 
            "M1": [
                2029
            ], 
            "irrelevant_Adj": [
                0
            ], 
            "M2": [
                986
            ], 
            "BM1L": [
                1566
            ], 
            "WBNULL": [
                1
            ], 
            "irrelevant_Noun": [
                0
            ], 
            "AM2F": [
                275
            ], 
            "M1_ADJ": [
                1
            ]
        }, 
        "location1": [
            2
        ], 
        "location2": [
            3
        ], 
        "sentence": "it play original dvds and cd and play mp3s and jpegs ."
    }
}