{
    "805fb64ce9cfd89eb965b553110a9c78": {
        "location1": [
            2
        ], 
        "location2": [
            10
        ], 
        "(2, 10)": {
            "WBF": [
                986
            ], 
            "BM1F": [
                2157
            ], 
            "M1": [
                2029
            ], 
            "irrelevant_Adj": [
                0
            ], 
            "M2": [
                1585
            ], 
            "BM1L": [
                1566
            ], 
            "WBO": [
                275, 
                574, 
                275, 
                2157
            ], 
            "WBL": [
                275
            ], 
            "irrelevant_Noun": [
                0
            ], 
            "M1_ADJ": [
                1
            ]
        }, 
        "sentence": "it play original dvds and cd and play mp3s and jpegs ."
    }
}