{
    "5af90fdafd59b525226aefa2ffc9fd00": {
        "location1": [
            18
        ], 
        "location2": [
            4
        ], 
        "(18, 4)": {
            "AM2L": [
                1449
            ], 
            "AM2F": [
                2438
            ], 
            "WBF": [
                2864
            ], 
            "BM1F": [
                724
            ], 
            "M1": [
                2408
            ], 
            "irrelevant_Adj": [
                1
            ], 
            "M2": [
                2032
            ], 
            "BM1L": [
                1490
            ], 
            "WBO": [
                297, 
                1562, 
                150, 
                2382, 
                484, 
                522, 
                3181, 
                1878, 
                1106, 
                275
            ], 
            "WBL": [
                2866
            ], 
            "irrelevant_Noun": [
                0
            ], 
            "M1_ADJ": [
                0
            ]
        }, 
        "sentence": "i read in consumer report that apex is a reliable brand , but with my experience and reading the other review , i think i will be doing a little more homework before considering another apex product ."
    }
}