{
    "62cf1a8d3b2e903f5a6f46e8d99bb3c2": {
        "(16, 14)": {
            "AM2L": [
                1861
            ], 
            "WBFL": [
                275
            ], 
            "BM1F": [
                584
            ], 
            "M1": [
                916
            ], 
            "irrelevant_Adj": [
                1
            ], 
            "M2": [
                2032
            ], 
            "BM1L": [
                2157
            ], 
            "AM2F": [
                981
            ], 
            "irrelevant_Noun": [
                0
            ], 
            "M1_ADJ": [
                0
            ]
        }, 
        "location1": [
            16
        ], 
        "location2": [
            14
        ], 
        "sentence": "i have sent my ad2600 back to apex because it wo n't play certain disney and other dvd movie ( no disc message ) ."
    }
}