{
    "52dcfd70b988f7387128d0690c5725e0": {
        "(1, 2)": {
            "AM2L": [
                931
            ], 
            "BM1F": [
                2866
            ], 
            "M1": [
                2032
            ], 
            "irrelevant_Adj": [
                1
            ], 
            "M2": [
                2876
            ], 
            "AM2F": [
                1449
            ], 
            "irrelevant_Noun": [
                1
            ], 
            "WBNULL": [
                1
            ], 
            "M1_ADJ": [
                1
            ]
        }, 
        "location1": [
            1
        ], 
        "location2": [
            2
        ], 
        "sentence": "the other thing i do n't like about this 2600 is that it makes the color look over saturated ."
    }
}