{
    "554c4ad0dd6259a9c61e4817388e8064": {
        "location1": [
            22
        ], 
        "location2": [
            34
        ], 
        "(22, 34)": {
            "AM2L": [
                2882
            ], 
            "AM2F": [
                337
            ], 
            "WBF": [
                2438
            ], 
            "BM1F": [
                2317
            ], 
            "M1": [
                2032
            ], 
            "irrelevant_Adj": [
                1
            ], 
            "M2": [
                1168
            ], 
            "BM1L": [
                1375
            ], 
            "WBO": [
                275, 
                2659, 
                1320, 
                275, 
                2668, 
                1935, 
                2650, 
                1320
            ], 
            "WBL": [
                1878
            ], 
            "irrelevant_Noun": [
                0
            ], 
            "M1_ADJ": [
                1
            ]
        }, 
        "sentence": "the unit seems to play all format that i have put in it ( jpeg , kodak pic 's and dvd-r ) i have read other review and some good and soom not so good , but my feeling at this time is `` two thumb up `` !"
    }
}