{
    "0d0f8d64973f708c799e4e49d6909dfd": {
        "(23, 5)": {
            "AM2F": [
                1842
            ], 
            "WBF": [
                2650
            ], 
            "BM1F": [
                2909
            ], 
            "M1": [
                2971
            ], 
            "irrelevant_Adj": [
                1
            ], 
            "M2": [
                2032
            ], 
            "BM1L": [
                2598
            ], 
            "WBO": [
                2866, 
                2971, 
                1371, 
                2866, 
                2133, 
                1232, 
                1994, 
                1842, 
                275, 
                1371, 
                1999, 
                2866, 
                3156, 
                1918
            ], 
            "WBL": [
                2866
            ], 
            "irrelevant_Noun": [
                0
            ], 
            "M1_ADJ": [
                0
            ]
        }, 
        "(23, 8)": {
            "AM2F": [
                1842
            ], 
            "WBF": [
                1371
            ], 
            "BM1F": [
                2866
            ], 
            "M1": [
                2971
            ], 
            "irrelevant_Adj": [
                1
            ], 
            "M2": [
                2032
            ], 
            "BM1L": [
                2650
            ], 
            "WBO": [
                2866, 
                2133, 
                1232, 
                1994, 
                1842, 
                275, 
                1371, 
                1999, 
                2866, 
                3156, 
                1918
            ], 
            "WBL": [
                2866
            ], 
            "irrelevant_Noun": [
                0
            ], 
            "M1_ADJ": [
                0
            ]
        }, 
        "location1": [
            23
        ], 
        "location2": [
            5, 
            8
        ], 
        "sentence": "it sends discoutinous signal to tv , so the tv has the picture for one moment and has only the white noise for the other moment ."
    }
}