{
    "554c4ad0dd6259a9c61e4817388e8064": {
        "(22, 13)": {
            "AM2L": [
                275
            ], 
            "AM2F": [
                2438
            ], 
            "WBF": [
                1613
            ], 
            "BM1F": [
                1566
            ], 
            "M1": [
                1584
            ], 
            "irrelevant_Adj": [
                1
            ], 
            "M2": [
                2032
            ], 
            "BM1L": [
                1490
            ], 
            "WBO": [
                2128, 
                4, 
                275, 
                982, 
                1449
            ], 
            "WBL": [
                2317
            ], 
            "irrelevant_Noun": [
                0
            ], 
            "M1_ADJ": [
                0
            ]
        }, 
        "location1": [
            22
        ], 
        "location2": [
            13
        ], 
        "sentence": "the unit seems to play all format that i have put in it ( jpeg , kodak pic 's and dvd-r ) i have read other review and some good and soom not so good , but my feeling at this time is `` two thumb up `` !"
    }
}