{
    "9b11689d3b0c95dc2f00e7b8943b4934": {
        "location1": [
            4
        ], 
        "location2": [
            12
        ], 
        "(4, 12)": {
            "AM2L": [
                1490
            ], 
            "AM2F": [
                539
            ], 
            "WBF": [
                2100
            ], 
            "BM1F": [
                2866
            ], 
            "M1": [
                2032
            ], 
            "irrelevant_Adj": [
                1
            ], 
            "M2": [
                2160
            ], 
            "BM1L": [
                1971
            ], 
            "WBO": [
                3158, 
                2334, 
                150, 
                1649
            ], 
            "WBL": [
                981
            ], 
            "irrelevant_Noun": [
                0
            ], 
            "M1_ADJ": [
                1
            ]
        }, 
        "sentence": "unlike some of the other people who received a `` lemon `` , my dvd player came in perfect working condition ."
    }, 
    "8fd7717f6f4b86db0002350fe4354721": {
        "location1": [
            22
        ], 
        "location2": [
            23
        ], 
        "(22, 23)": {
            "AM2L": [
                2157
            ], 
            "BM1F": [
                2864
            ], 
            "M1": [
                2032
            ], 
            "irrelevant_Adj": [
                1
            ], 
            "M2": [
                2160
            ], 
            "BM1L": [
                4
            ], 
            "WBNULL": [
                1
            ], 
            "irrelevant_Noun": [
                0
            ], 
            "AM2F": [
                3204
            ], 
            "M1_ADJ": [
                1
            ]
        }, 
        "sentence": "when i 1st tried it i found that it had no problem playing the more expensive dvd - r medium disc 's that other player would play but to my surprise was able to play cheep medium that i had burned that i could n't get to work before in anything but the dvd burner itself that i had made the disc with ."
    }, 
    "6513c98716058aac2f83fc6564af3fd0": {
        "location1": [
            26
        ], 
        "location2": [
            4, 
            27
        ], 
        "(26, 27)": {
            "AM2L": [
                1258
            ], 
            "BM1F": [
                1987
            ], 
            "M1": [
                2032
            ], 
            "irrelevant_Adj": [
                1
            ], 
            "M2": [
                2160
            ], 
            "BM1L": [
                2317
            ], 
            "WBNULL": [
                1
            ], 
            "irrelevant_Noun": [
                0
            ], 
            "AM2F": [
                1261
            ], 
            "M1_ADJ": [
                1
            ]
        }, 
        "(26, 4)": {
            "AM2L": [
                1261
            ], 
            "AM2F": [
                2160
            ], 
            "WBF": [
                1232
            ], 
            "BM1F": [
                2882
            ], 
            "M1": [
                2160
            ], 
            "irrelevant_Adj": [
                1
            ], 
            "M2": [
                2032
            ], 
            "BM1L": [
                1348
            ], 
            "WBO": [
                2555, 
                1849, 
                275, 
                1566, 
                2317, 
                1854, 
                913, 
                522, 
                1566, 
                3204, 
                1935, 
                2348, 
                2555, 
                913, 
                2864, 
                3143, 
                632, 
                275
            ], 
            "WBL": [
                1987
            ], 
            "irrelevant_Noun": [
                0
            ], 
            "M1_ADJ": [
                0
            ]
        }, 
        "sentence": "i 've had this player for several month and it read most discs , but it would not recognize several discs that were clean and read on other player ( from friend season 2 ) ."
    }
}