{
    "559deec06532af818dc647a493e9e9dc": {
        "(0, 15)": {
            "WBF": [
                2494
            ], 
            "AM2L": [
                2075
            ], 
            "M1": [
                2250
            ], 
            "irrelevant_Adj": [
                0
            ], 
            "M2": [
                2139
            ], 
            "WBO": [
                2160, 
                1232, 
                150, 
                2376, 
                1724, 
                2225, 
                258, 
                2866, 
                436, 
                1612, 
                1755
            ], 
            "WBL": [
                2925
            ], 
            "irrelevant_Noun": [
                0
            ], 
            "AM2F": [
                275
            ], 
            "M1_ADJ": [
                1
            ]
        }, 
        "(22, 15)": {
            "AM2L": [
                2160
            ], 
            "AM2F": [
                2494
            ], 
            "WBF": [
                275
            ], 
            "BM1F": [
                2925
            ], 
            "M1": [
                2139
            ], 
            "irrelevant_Adj": [
                0
            ], 
            "M2": [
                2250
            ], 
            "BM1L": [
                1669
            ], 
            "WBO": [
                2075, 
                316, 
                1946
            ], 
            "WBL": [
                1727
            ], 
            "irrelevant_Noun": [
                0
            ], 
            "M1_ADJ": [
                0
            ]
        }, 
        "location1": [
            0, 
            22
        ], 
        "location2": [
            15
        ], 
        "sentence": "progressive scan player for a relatively low price ( although the better known manufacturer like toshiba , pioneer , and panasonic are now offering lower-priced progressive scan player as well ) ."
    }
}