{
    "304f55c4c30167a6dd8bf365c2f321c6": {
        "location1": [
            27
        ], 
        "location2": [
            7
        ], 
        "(27, 7)": {
            "AM2L": [
                1163
            ], 
            "AM2F": [
                2494
            ], 
            "WBF": [
                3080
            ], 
            "BM1F": [
                275
            ], 
            "M1": [
                1868
            ], 
            "irrelevant_Adj": [
                0
            ], 
            "M2": [
                2250
            ], 
            "BM1L": [
                1869
            ], 
            "WBO": [
                1584, 
                3185, 
                579, 
                580, 
                984, 
                985, 
                275, 
                1971, 
                765, 
                2157, 
                981, 
                1861, 
                1261, 
                2983, 
                1449, 
                1722
            ], 
            "WBL": [
                231
            ], 
            "irrelevant_Noun": [
                0
            ], 
            "M1_ADJ": [
                0
            ]
        }, 
        "sentence": "this dvd player play raw mpeg2 and mpeg1 video , jpeg , wma , cdr / cdrw / dvdr / dvdrw , and of course play dvd movie from uk . i love the aiff , progressive scan feature ."
    }
}