{
    "3f3779a73e73c8430f134c2c7dca084f": {
        "(13, 14)": {
            "BM1F": [
                3230
            ], 
            "M1": [
                2322
            ], 
            "irrelevant_Adj": [
                0
            ], 
            "M2": [
                986
            ], 
            "BM1L": [
                1971
            ], 
            "WBNULL": [
                1
            ], 
            "irrelevant_Noun": [
                0
            ], 
            "M1_ADJ": [
                1
            ]
        }, 
        "location1": [
            13
        ], 
        "location2": [
            14
        ], 
        "sentence": "forget about the sleek look if it can 't play some of your real dvds ."
    }
}