{
    "9947e0d4813586c77a652fb805fbac2e": {
        "location1": [
            40
        ], 
        "location2": [
            23
        ], 
        "(40, 23)": {
            "AM2L": [
                817
            ], 
            "AM2F": [
                575
            ], 
            "WBF": [
                1566
            ], 
            "BM1F": [
                528
            ], 
            "M1": [
                171
            ], 
            "irrelevant_Adj": [
                0
            ], 
            "M2": [
                2372
            ], 
            "BM1L": [
                911
            ], 
            "WBO": [
                1562, 
                1935, 
                1794, 
                292, 
                1490, 
                2866, 
                1688, 
                2864, 
                1566, 
                3168, 
                2157, 
                1868, 
                1176
            ], 
            "WBL": [
                150
            ], 
            "irrelevant_Noun": [
                0
            ], 
            "M1_ADJ": [
                0
            ]
        }, 
        "sentence": "the fact that this model would play jpeg slideshows was a big plus for me as a visual artist , and i discovered by accident ( it is not mentioned anywhere in the literature ) that it will play mpeg1 file on a regular cd-r data disk without vcd formatting ."
    }
}