{
    "5af90fdafd59b525226aefa2ffc9fd00": {
        "location1": [
            9
        ], 
        "location2": [
            34
        ], 
        "(9, 34)": {
            "WBF": [
                484
            ], 
            "BM1F": [
                150
            ], 
            "M1": [
                2382
            ], 
            "irrelevant_Adj": [
                0
            ], 
            "M2": [
                2242
            ], 
            "BM1L": [
                1562
            ], 
            "WBO": [
                522, 
                3181, 
                1878, 
                1106, 
                275, 
                2320, 
                2866, 
                2032, 
                2438, 
                1449, 
                2878, 
                1449, 
                3168, 
                402, 
                938, 
                150, 
                1690, 
                1851, 
                1430, 
                415, 
                717
            ], 
            "WBL": [
                297
            ], 
            "irrelevant_Noun": [
                0
            ], 
            "M1_ADJ": [
                1
            ]
        }, 
        "sentence": "i read in consumer report that apex is a reliable brand , but with my experience and reading the other review , i think i will be doing a little more homework before considering another apex product ."
    }
}