{
    "1a75f65daeb3cf2d68dd0dd806a825e8": {
        "(6, 11)": {
            "AM2L": [
                1449
            ], 
            "AM2F": [
                2864
            ], 
            "WBF": [
                1371
            ], 
            "BM1F": [
                2866
            ], 
            "M1": [
                2387
            ], 
            "irrelevant_Adj": [
                0
            ], 
            "M2": [
                523
            ], 
            "BM1L": [
                522
            ], 
            "WBO": [
                150
            ], 
            "WBL": [
                1971
            ], 
            "irrelevant_Noun": [
                0
            ], 
            "M1_ADJ": [
                1
            ]
        }, 
        "location1": [
            6
        ], 
        "location2": [
            11
        ], 
        "sentence": "basic usage is easy , but the remote has a lot of button that i have n't used ."
    }, 
    "1b4b8b00a1be6322acc0a3232c0e902d": {
        "(24, 11)": {
            "AM2L": [
                1449
            ], 
            "AM2F": [
                735
            ], 
            "WBF": [
                1987
            ], 
            "BM1F": [
                150
            ], 
            "M1": [
                523
            ], 
            "irrelevant_Adj": [
                0
            ], 
            "M2": [
                2387
            ], 
            "BM1L": [
                528
            ], 
            "WBO": [
                2866, 
                2387, 
                735, 
                3152, 
                1562, 
                1994, 
                1971, 
                2866, 
                2606
            ], 
            "WBL": [
                1003
            ], 
            "irrelevant_Noun": [
                0
            ], 
            "M1_ADJ": [
                0
            ]
        }, 
        "(14, 11)": {
            "AM2L": [
                3152
            ], 
            "AM2F": [
                735
            ], 
            "WBF": [
                1987
            ], 
            "BM1F": [
                150
            ], 
            "M1": [
                523
            ], 
            "irrelevant_Adj": [
                0
            ], 
            "M2": [
                2387
            ], 
            "BM1L": [
                528
            ], 
            "WBO": [
                2866
            ], 
            "WBL": [
                2866
            ], 
            "irrelevant_Noun": [
                0
            ], 
            "M1_ADJ": [
                0
            ]
        }, 
        "location1": [
            14, 
            24
        ], 
        "location2": [
            11
        ], 
        "sentence": "the progressive scan option can be turned off easily by a button on the remote control which is one of the simplest and easiest remote control i have ever seen or used ."
    }, 
    "f01bd384c7ae77d1a2329c0a9d0cd49f": {
        "(1, 14)": {
            "WBF": [
                1562
            ], 
            "BM1F": [
                2866
            ], 
            "M1": [
                2387
            ], 
            "irrelevant_Adj": [
                0
            ], 
            "M2": [
                523
            ], 
            "WBO": [
                1983, 
                522, 
                1449, 
                260, 
                1935, 
                150, 
                1150, 
                1971, 
                2387
            ], 
            "WBL": [
                2906
            ], 
            "irrelevant_Noun": [
                0
            ], 
            "M1_ADJ": [
                1
            ]
        }, 
        "location1": [
            1, 
            11
        ], 
        "location2": [
            14
        ], 
        "(11, 14)": {
            "WBF": [
                3181
            ], 
            "BM1F": [
                1971
            ], 
            "M1": [
                2387
            ], 
            "irrelevant_Adj": [
                0
            ], 
            "M2": [
                523
            ], 
            "BM1L": [
                1150
            ], 
            "WBO": [
                2906
            ], 
            "WBL": [
                2906
            ], 
            "irrelevant_Noun": [
                0
            ], 
            "M1_ADJ": [
                1
            ]
        }, 
        "sentence": "the remote is okay , but i am not a fan of remote with tiny button ."
    }, 
    "d79245d81b4060e7f727fdd27f624fad": {
        "(0, 1)": {
            "AM2L": [
                2637
            ], 
            "M1": [
                2387
            ], 
            "irrelevant_Adj": [
                0
            ], 
            "M2": [
                523
            ], 
            "WBNULL": [
                1
            ], 
            "irrelevant_Noun": [
                0
            ], 
            "AM2F": [
                316
            ], 
            "M1_ADJ": [
                1
            ]
        }, 
        "(0, 11)": {
            "WBF": [
                523
            ], 
            "M1": [
                2387
            ], 
            "irrelevant_Adj": [
                0
            ], 
            "M2": [
                523
            ], 
            "WBO": [
                316, 
                2637, 
                275, 
                643, 
                2683, 
                1071, 
                3181
            ], 
            "WBL": [
                1795
            ], 
            "irrelevant_Noun": [
                0
            ], 
            "M1_ADJ": [
                1
            ]
        }, 
        "location1": [
            0
        ], 
        "location2": [
            1, 
            11
        ], 
        "sentence": "remote button are small and closely spaced , especially with the menu button ."
    }
}