{
    "1a0284a937d6f776c0dd445ba87180e1": {
        "location1": [
            5
        ], 
        "location2": [
            8
        ], 
        "(5, 8)": {
            "AM2L": [
                3191
            ], 
            "AM2F": [
                2909
            ], 
            "WBF": [
                2650
            ], 
            "BM1F": [
                3011
            ], 
            "M1": [
                2387
            ], 
            "irrelevant_Adj": [
                0
            ], 
            "M2": [
                627
            ], 
            "BM1L": [
                74
            ], 
            "WBO": [
                1155
            ], 
            "WBL": [
                1155
            ], 
            "irrelevant_Noun": [
                0
            ], 
            "M1_ADJ": [
                1
            ]
        }, 
        "sentence": "we 've purchased 3 universal remote so far-all claiming to work `` apex `` dvd player and none worked ."
    }
}