{
    "21b5b1779d52da82b0a477fbf05b65d0": {
        "(9, 22)": {
            "AM2L": [
                2325
            ], 
            "AM2F": [
                3181
            ], 
            "WBF": [
                735
            ], 
            "BM1F": [
                2866
            ], 
            "M1": [
                2387
            ], 
            "irrelevant_Adj": [
                0
            ], 
            "M2": [
                1865
            ], 
            "BM1L": [
                1971
            ], 
            "WBO": [
                316, 
                1999, 
                2651, 
                1566, 
                936, 
                1881, 
                2589, 
                2866, 
                687
            ], 
            "WBL": [
                1971
            ], 
            "irrelevant_Noun": [
                0
            ], 
            "M1_ADJ": [
                1
            ]
        }, 
        "location1": [
            9
        ], 
        "location2": [
            22
        ], 
        "sentence": "weakness are minor : the feel and layout of the remote control are only so-so ; it does n't show the complete filename of mp3s with really long name ; you must cycle through every zoom setting ( 2x , 3x , 4x , 1/2x , etc . ) before getting back to normal size [ sorry if i 'm just ignorant of a way to get back to 1x quickly ] ."
    }
}