{
    "9151bec746be1369933e0711724fabba": {
        "(41, 9)": {
            "AM2F": [
                981
            ], 
            "WBF": [
                2782
            ], 
            "BM1F": [
                1965
            ], 
            "M1": [
                2236
            ], 
            "irrelevant_Adj": [
                0
            ], 
            "M2": [
                2394
            ], 
            "BM1L": [
                1371
            ], 
            "WBO": [
                325, 
                8, 
                1935, 
                2351, 
                150, 
                981, 
                46, 
                2744, 
                150, 
                2084, 
                2172, 
                1490, 
                150, 
                1861, 
                1080, 
                2901, 
                3125, 
                2159, 
                1566, 
                74, 
                1935, 
                423, 
                153, 
                2909, 
                166, 
                584, 
                2690, 
                1163
            ], 
            "WBL": [
                150
            ], 
            "irrelevant_Noun": [
                0
            ], 
            "M1_ADJ": [
                0
            ]
        }, 
        "location1": [
            41
        ], 
        "location2": [
            9
        ], 
        "sentence": "the player usually play dvd 's , but has occasional problem such as : 1 ) not recognizing a dvd 2 ) stopping a particular point in a movie every time we played it 3 ) not being able to access certain special feature on a rental dvd ."
    }
}