{
    "9151bec746be1369933e0711724fabba": {
        "(41, 24)": {
            "AM2F": [
                981
            ], 
            "WBF": [
                1080
            ], 
            "BM1F": [
                150
            ], 
            "M1": [
                1861
            ], 
            "irrelevant_Adj": [
                0
            ], 
            "M2": [
                2394
            ], 
            "BM1L": [
                1490
            ], 
            "WBO": [
                2901, 
                3125, 
                2159, 
                1566, 
                74, 
                1935, 
                423, 
                153, 
                2909, 
                166, 
                584, 
                2690, 
                1163
            ], 
            "WBL": [
                150
            ], 
            "irrelevant_Noun": [
                0
            ], 
            "M1_ADJ": [
                0
            ]
        }, 
        "location1": [
            41
        ], 
        "location2": [
            24
        ], 
        "sentence": "the player usually play dvd 's , but has occasional problem such as : 1 ) not recognizing a dvd 2 ) stopping a particular point in a movie every time we played it 3 ) not being able to access certain special feature on a rental dvd ."
    }
}