{
    "e4730539ff132950b9f794e6c42e8042": {
        "(16, 17)": {
            "AM2L": [
                1881
            ], 
            "BM1F": [
                1898
            ], 
            "M1": [
                2440
            ], 
            "irrelevant_Adj": [
                0
            ], 
            "M2": [
                3010
            ], 
            "BM1L": [
                2032
            ], 
            "WBNULL": [
                1
            ], 
            "irrelevant_Noun": [
                0
            ], 
            "AM2F": [
                3117
            ], 
            "M1_ADJ": [
                1
            ]
        }, 
        "location1": [
            16
        ], 
        "location2": [
            17
        ], 
        "sentence": "it worked from 12-26 to 1-9 at which time the picture failed completely ( see other negative reviews-my unit was n't the only one this happened to . )"
    }
}