{
    "034391c92fae4d4613f259670a4dc0e4": {
        "(6, 17)": {
            "AM2F": [
                1014
            ], 
            "WBF": [
                981
            ], 
            "BM1F": [
                2866
            ], 
            "M1": [
                2516
            ], 
            "irrelevant_Adj": [
                0
            ], 
            "M2": [
                3191
            ], 
            "BM1L": [
                1527
            ], 
            "WBO": [
                2160, 
                1490, 
                1878, 
                499, 
                1443, 
                2864, 
                1994
            ], 
            "WBL": [
                2825
            ], 
            "irrelevant_Noun": [
                0
            ], 
            "M1_ADJ": [
                1
            ]
        }, 
        "location1": [
            6
        ], 
        "location2": [
            17
        ], 
        "sentence": "when i tried to install the second dvd player in my brother house , that one didn `` t work either !"
    }
}