{
    "cb2481936526033884407b90cc7ee91a": {
        "(4, 20)": {
            "WBF": [
                377
            ], 
            "BM1F": [
                1739
            ], 
            "M1": [
                2555
            ], 
            "irrelevant_Adj": [
                1
            ], 
            "M2": [
                986
            ], 
            "BM1L": [
                1449
            ], 
            "WBO": [
                1971, 
                1878, 
                981, 
                1861, 
                3049, 
                982, 
                3099, 
                275, 
                2293, 
                3099, 
                275, 
                1566
            ], 
            "WBL": [
                2866
            ], 
            "irrelevant_Noun": [
                0
            ], 
            "M1_ADJ": [
                1
            ]
        }, 
        "location1": [
            4
        ], 
        "location2": [
            20
        ], 
        "sentence": "for instance , i made several back-ups of my dvd movie using dvd-r ( w ) and + r ( w ) and it play the dvds ."
    }
}