{
    "62e789092dd8cdbdc780fb92af24cb33": {
        "(3, 12)": {
            "AM2L": [
                275
            ], 
            "AM2F": [
                2613
            ], 
            "WBF": [
                2901
            ], 
            "BM1F": [
                2955
            ], 
            "M1": [
                2555
            ], 
            "irrelevant_Adj": [
                1
            ], 
            "M2": [
                2797
            ], 
            "BM1L": [
                1375
            ], 
            "WBO": [
                2909, 
                725, 
                297, 
                894, 
                2890
            ], 
            "WBL": [
                1988
            ], 
            "irrelevant_Noun": [
                0
            ], 
            "M1_ADJ": [
                1
            ]
        }, 
        "location1": [
            3
        ], 
        "location2": [
            12
        ], 
        "sentence": "i have tried several time to contact apex digital through their on-line support site and their telephone line , but they wo n't answer my email and their telephone line is always busy ."
    }, 
    "4e76cc39ae9044560ecd410fbbf8ce76": {
        "location1": [
            9
        ], 
        "location2": [
            4
        ], 
        "(9, 4)": {
            "AM2L": [
                150
            ], 
            "AM2F": [
                2901
            ], 
            "WBF": [
                1949
            ], 
            "BM1F": [
                2866
            ], 
            "M1": [
                2797
            ], 
            "irrelevant_Adj": [
                1
            ], 
            "M2": [
                2555
            ], 
            "BM1L": [
                537
            ], 
            "WBO": [
                1232
            ], 
            "WBL": [
                3133
            ], 
            "irrelevant_Noun": [
                0
            ], 
            "M1_ADJ": [
                0
            ]
        }, 
        "sentence": "i tried calling the support number for a week , several time a day , and always got a busy signal ."
    }
}