{
    "cb2481936526033884407b90cc7ee91a": {
        "(4, 1)": {
            "AM2L": [
                1971
            ], 
            "AM2F": [
                377
            ], 
            "WBF": [
                1449
            ], 
            "BM1F": [
                1232
            ], 
            "M1": [
                1531
            ], 
            "irrelevant_Adj": [
                1
            ], 
            "M2": [
                2555
            ], 
            "WBO": [
                1739
            ], 
            "WBL": [
                1739
            ], 
            "irrelevant_Noun": [
                0
            ], 
            "M1_ADJ": [
                0
            ]
        }, 
        "location1": [
            4
        ], 
        "location2": [
            1
        ], 
        "sentence": "for instance , i made several back-ups of my dvd movie using dvd-r ( w ) and + r ( w ) and it play the dvds ."
    }
}