{
    "1b4b8b00a1be6322acc0a3232c0e902d": {
        "(21, 11)": {
            "AM2L": [
                1003
            ], 
            "AM2F": [
                275
            ], 
            "WBF": [
                1987
            ], 
            "BM1F": [
                150
            ], 
            "M1": [
                523
            ], 
            "irrelevant_Adj": [
                0
            ], 
            "M2": [
                2606
            ], 
            "BM1L": [
                528
            ], 
            "WBO": [
                2866, 
                2387, 
                735, 
                3152, 
                1562, 
                1994
            ], 
            "WBL": [
                2866
            ], 
            "irrelevant_Noun": [
                0
            ], 
            "M1_ADJ": [
                0
            ]
        }, 
        "location1": [
            21
        ], 
        "location2": [
            11
        ], 
        "sentence": "the progressive scan option can be turned off easily by a button on the remote control which is one of the simplest and easiest remote control i have ever seen or used ."
    }
}