{
    "9151bec746be1369933e0711724fabba": {
        "(37, 35)": {
            "AM2L": [
                1987
            ], 
            "WBFL": [
                584
            ], 
            "BM1F": [
                2909
            ], 
            "M1": [
                166
            ], 
            "irrelevant_Adj": [
                0
            ], 
            "M2": [
                2690
            ], 
            "BM1L": [
                153
            ], 
            "AM2F": [
                1163
            ], 
            "irrelevant_Noun": [
                0
            ], 
            "M1_ADJ": [
                0
            ]
        }, 
        "location1": [
            37
        ], 
        "location2": [
            35
        ], 
        "sentence": "the player usually play dvd 's , but has occasional problem such as : 1 ) not recognizing a dvd 2 ) stopping a particular point in a movie every time we played it 3 ) not being able to access certain special feature on a rental dvd ."
    }
}