{
    "d8105077a4434e718fee25bbe1966b63": {
        "location1": [
            13
        ], 
        "location2": [
            27
        ], 
        "(13, 27)": {
            "WBF": [
                2551
            ], 
            "BM1F": [
                2866
            ], 
            "M1": [
                2716
            ], 
            "irrelevant_Adj": [
                0
            ], 
            "M2": [
                569
            ], 
            "BM1L": [
                2862
            ], 
            "WBO": [
                1971, 
                1163, 
                275, 
                2882, 
                1567, 
                2521, 
                2909, 
                402, 
                2866, 
                434
            ], 
            "WBL": [
                2864
            ], 
            "irrelevant_Noun": [
                0
            ], 
            "M1_ADJ": [
                1
            ]
        }, 
        "sentence": "i looked into buying an inexpensive dvd player that had more than the standard set of feature and this item seemed to be the best in that category ."
    }
}