{
    "03e1cd38959d29902a3f05c616118533": {
        "location1": [
            7
        ], 
        "location2": [
            10
        ], 
        "(7, 10)": {
            "AM2L": [
                2659
            ], 
            "AM2F": [
                1232
            ], 
            "WBF": [
                1903
            ], 
            "BM1F": [
                150
            ], 
            "M1": [
                2759
            ], 
            "irrelevant_Adj": [
                0
            ], 
            "M2": [
                2640
            ], 
            "BM1L": [
                1375
            ], 
            "WBO": [
                1019
            ], 
            "WBL": [
                1019
            ], 
            "irrelevant_Noun": [
                0
            ], 
            "M1_ADJ": [
                1
            ]
        }, 
        "sentence": "it did also seem to have a strong `` new electronics `` smell for some time ."
    }
}