{
    "0d0f8d64973f708c799e4e49d6909dfd": {
        "(19, 11)": {
            "AM2L": [
                1232
            ], 
            "AM2F": [
                1918
            ], 
            "WBF": [
                1232
            ], 
            "BM1F": [
                2866
            ], 
            "M1": [
                2133
            ], 
            "irrelevant_Adj": [
                0
            ], 
            "M2": [
                3156
            ], 
            "BM1L": [
                1371
            ], 
            "WBO": [
                1994, 
                1842, 
                275, 
                1371
            ], 
            "WBL": [
                2866
            ], 
            "irrelevant_Noun": [
                0
            ], 
            "M1_ADJ": [
                0
            ]
        }, 
        "location1": [
            19
        ], 
        "location2": [
            11
        ], 
        "sentence": "it sends discoutinous signal to tv , so the tv has the picture for one moment and has only the white noise for the other moment ."
    }
}