{
    "304678fb79adc7d18bc570816e65c16f": {
        "(9, 6)": {
            "WBF": [
                275
            ], 
            "BM1F": [
                2637
            ], 
            "M1": [
                562
            ], 
            "M2": [
                218
            ], 
            "BM1L": [
                150
            ], 
            "WBO": [
                3075
            ], 
            "WBL": [
                3075
            ], 
            "M1_ADJ": [
                0
            ]
        }, 
        "location1": [
            9
        ], 
        "location2": [
            6
        ], 
        "sentence": "so much packed in a small case and very affordable !"
    }, 
    "d460f81b43998cfb748cde2be9836aec": {
        "(15, 23)": {
            "WBF": [
                1871
            ], 
            "AM2L": [
                212
            ], 
            "BM1F": [
                273
            ], 
            "M1": [
                218
            ], 
            "M2": [
                562
            ], 
            "BM1L": [
                402
            ], 
            "WBO": [
                981, 
                2160, 
                3181, 
                150
            ], 
            "WBL": [
                2629
            ], 
            "AM2F": [
                325
            ], 
            "M1_ADJ": [
                1
            ]
        }, 
        "location1": [
            15
        ], 
        "location2": [
            23
        ], 
        "sentence": "for the first few week , this player was everything i expected it to be , an affordable multi-format dvd player with a stylish slim case as advertised ."
    }
}