{
    "84b3210547b32bd5ab20ec53b3438380": {
        "location1": [
            4
        ], 
        "location2": [
            13
        ], 
        "(4, 13)": {
            "WBF": [
                1163
            ], 
            "AM2L": [
                2866
            ], 
            "BM1F": [
                1171
            ], 
            "M1": [
                343
            ], 
            "M2": [
                1635
            ], 
            "BM1L": [
                150
            ], 
            "WBO": [
                2782, 
                325, 
                2866, 
                2637, 
                2617
            ], 
            "WBL": [
                2866
            ], 
            "AM2F": [
                1971
            ], 
            "M1_ADJ": [
                1
            ]
        }, 
        "sentence": "there were a few attractive feature , such as the small size and the layout of the remote ."
    }
}