{
    "862e0d8256d5175b4c962e3c6454f2af": {
        "(5, 13)": {
            "WBF": [
                981
            ], 
            "BM1F": [
                2866
            ], 
            "M1": [
                434
            ], 
            "M2": [
                2225
            ], 
            "BM1L": [
                1562
            ], 
            "WBO": [
                2160, 
                3229, 
                543, 
                1297
            ], 
            "WBL": [
                2866
            ], 
            "M1_ADJ": [
                1
            ]
        }, 
        "location1": [
            5
        ], 
        "location2": [
            13
        ], 
        "sentence": "i think , apex is the best dvd player you can get for the price ."
    }
}