{
    "a3501130193708007cd28c5fd53b8965": {
        "location1": [
            9
        ], 
        "location2": [
            13
        ], 
        "(9, 13)": {
            "WBF": [
                1060
            ], 
            "AM2L": [
                2866
            ], 
            "BM1F": [
                2157
            ], 
            "M1": [
                584
            ], 
            "M2": [
                2236
            ], 
            "BM1L": [
                2909
            ], 
            "WBO": [
                3181
            ], 
            "WBL": [
                1917
            ], 
            "AM2F": [
                1987
            ], 
            "M1_ADJ": [
                1
            ]
        }, 
        "sentence": "on 2 dvds so far it refuse to play certain episode with no problem on the others on the dvd ."
    }, 
    "9151bec746be1369933e0711724fabba": {
        "location1": [
            36
        ], 
        "location2": [
            9
        ], 
        "(36, 9)": {
            "WBF": [
                2782
            ], 
            "AM2L": [
                1163
            ], 
            "BM1F": [
                1965
            ], 
            "M1": [
                2236
            ], 
            "M2": [
                584
            ], 
            "BM1L": [
                1371
            ], 
            "WBO": [
                325, 
                8, 
                1935, 
                2351, 
                150, 
                981, 
                46, 
                2744, 
                150, 
                2084, 
                2172, 
                1490, 
                150, 
                1861, 
                1080, 
                2901, 
                3125, 
                2159, 
                1566, 
                74, 
                1935, 
                423, 
                153
            ], 
            "WBL": [
                166
            ], 
            "AM2F": [
                2690
            ], 
            "M1_ADJ": [
                0
            ]
        }, 
        "sentence": "the player usually play dvd 's , but has occasional problem such as : 1 ) not recognizing a dvd 2 ) stopping a particular point in a movie every time we played it 3 ) not being able to access certain special feature on a rental dvd ."
    }
}