{
    "a3501130193708007cd28c5fd53b8965": {
        "(9, 10)": {
            "AM2L": [
                1917
            ], 
            "BM1F": [
                2157
            ], 
            "M1": [
                584
            ], 
            "M2": [
                1060
            ], 
            "BM1L": [
                2909
            ], 
            "WBNULL": [
                1
            ], 
            "AM2F": [
                3181
            ], 
            "M1_ADJ": [
                1
            ]
        }, 
        "location1": [
            9
        ], 
        "location2": [
            10
        ], 
        "sentence": "on 2 dvds so far it refuse to play certain episode with no problem on the others on the dvd ."
    }
}