{
    "62cf1a8d3b2e903f5a6f46e8d99bb3c2": {
        "(13, 17)": {
            "WBF": [
                916
            ], 
            "AM2L": [
                1917
            ], 
            "BM1F": [
                2157
            ], 
            "M1": [
                584
            ], 
            "M2": [
                981
            ], 
            "BM1L": [
                1881
            ], 
            "WBO": [
                275
            ], 
            "WBL": [
                2032
            ], 
            "AM2F": [
                1861
            ], 
            "M1_ADJ": [
                1
            ]
        }, 
        "location1": [
            13
        ], 
        "location2": [
            17
        ], 
        "sentence": "i have sent my ad2600 back to apex because it wo n't play certain disney and other dvd movie ( no disc message ) ."
    }, 
    "a3501130193708007cd28c5fd53b8965": {
        "location1": [
            9
        ], 
        "location2": [
            19
        ], 
        "(9, 19)": {
            "WBF": [
                1060
            ], 
            "BM1F": [
                2157
            ], 
            "M1": [
                584
            ], 
            "M2": [
                981
            ], 
            "BM1L": [
                2909
            ], 
            "WBO": [
                3181, 
                1917, 
                2236, 
                1987, 
                2866, 
                2033
            ], 
            "WBL": [
                2866
            ], 
            "M1_ADJ": [
                1
            ]
        }, 
        "sentence": "on 2 dvds so far it refuse to play certain episode with no problem on the others on the dvd ."
    }, 
    "9151bec746be1369933e0711724fabba": {
        "(36, 4)": {
            "WBF": [
                4
            ], 
            "AM2L": [
                1163
            ], 
            "BM1F": [
                2157
            ], 
            "M1": [
                981
            ], 
            "M2": [
                584
            ], 
            "BM1L": [
                3051
            ], 
            "WBO": [
                522, 
                1371, 
                1965, 
                2236, 
                2782, 
                325, 
                8, 
                1935, 
                2351, 
                150, 
                981, 
                46, 
                2744, 
                150, 
                2084, 
                2172, 
                1490, 
                150, 
                1861, 
                1080, 
                2901, 
                3125, 
                2159, 
                1566, 
                74, 
                1935, 
                423, 
                153
            ], 
            "WBL": [
                166
            ], 
            "AM2F": [
                2690
            ], 
            "M1_ADJ": [
                0
            ]
        }, 
        "(36, 16)": {
            "WBF": [
                46
            ], 
            "AM2L": [
                1163
            ], 
            "BM1F": [
                150
            ], 
            "M1": [
                981
            ], 
            "M2": [
                584
            ], 
            "BM1L": [
                2351
            ], 
            "WBO": [
                2744, 
                150, 
                2084, 
                2172, 
                1490, 
                150, 
                1861, 
                1080, 
                2901, 
                3125, 
                2159, 
                1566, 
                74, 
                1935, 
                423, 
                153
            ], 
            "WBL": [
                166
            ], 
            "AM2F": [
                2690
            ], 
            "M1_ADJ": [
                0
            ]
        }, 
        "sentence": "the player usually play dvd 's , but has occasional problem such as : 1 ) not recognizing a dvd 2 ) stopping a particular point in a movie every time we played it 3 ) not being able to access certain special feature on a rental dvd .", 
        "location2": [
            4, 
            16, 
            42
        ], 
        "location1": [
            36
        ], 
        "(36, 42)": {
            "WBF": [
                2690
            ], 
            "BM1F": [
                166
            ], 
            "M1": [
                584
            ], 
            "M2": [
                981
            ], 
            "BM1L": [
                2909
            ], 
            "WBO": [
                1163, 
                1987
            ], 
            "WBL": [
                2394
            ], 
            "M1_ADJ": [
                1
            ]
        }
    }
}