{
    "291b89defbbe4a497ff51c7d8d63f47c": {
        "location1": [
            4
        ], 
        "location2": [
            8
        ], 
        "(4, 8)": {
            "WBF": [
                2281
            ], 
            "BM1F": [
                434
            ], 
            "M1": [
                601
            ], 
            "M2": [
                981
            ], 
            "BM1L": [
                2866
            ], 
            "WBO": [
                484
            ], 
            "WBL": [
                1232
            ], 
            "AM2F": [
                2160
            ], 
            "M1_ADJ": [
                1
            ]
        }, 
        "sentence": "apex is the best cheap quality brand for dvd player ."
    }
}