{
    "d1f5cf6191b3c90d8622b5f87670e411": {
        "(1, 21)": {
            "WBF": [
                2876
            ], 
            "AM2L": [
                981
            ], 
            "BM1F": [
                2866
            ], 
            "M1": [
                744
            ], 
            "M2": [
                981
            ], 
            "WBO": [
                154, 
                2866, 
                189, 
                1566, 
                2157, 
                250, 
                1971, 
                888, 
                1176, 
                1669, 
                1864, 
                3185, 
                574, 
                1584, 
                275, 
                1613
            ], 
            "WBL": [
                574
            ], 
            "AM2F": [
                4
            ], 
            "M1_ADJ": [
                1
            ]
        }, 
        "(1, 23)": {
            "WBF": [
                2876
            ], 
            "AM2L": [
                4
            ], 
            "BM1F": [
                2866
            ], 
            "M1": [
                744
            ], 
            "M2": [
                981
            ], 
            "WBO": [
                154, 
                2866, 
                189, 
                1566, 
                2157, 
                250, 
                1971, 
                888, 
                1176, 
                1669, 
                1864, 
                3185, 
                574, 
                1584, 
                275, 
                1613, 
                2133, 
                574
            ], 
            "WBL": [
                4
            ], 
            "AM2F": [
                2293
            ], 
            "M1_ADJ": [
                1
            ]
        }, 
        "location1": [
            1
        ], 
        "location2": [
            21, 
            23
        ], 
        "sentence": "the cool thing about the ad-2600 it play alot of different file like mp3 , wma cd , jpeg and kodak picture cd , dvd 's , dvd - / + r 's ."
    }
}