{
    "a8ace68534381de6693b2cd4a413efea": {
        "(18, 12)": {
            "WBF": [
                2650
            ], 
            "BM1F": [
                1917
            ], 
            "M1": [
                2845
            ], 
            "M2": [
                827
            ], 
            "BM1L": [
                275
            ], 
            "WBO": [
                2046, 
                1566
            ], 
            "WBL": [
                150
            ], 
            "AM2F": [
                2160
            ], 
            "M1_ADJ": [
                0
            ]
        }, 
        "location1": [
            18
        ], 
        "location2": [
            12
        ], 
        "sentence": "also , it was only $ 39.99 ( after rebate ) with free shipping and no tax so overall it is a decent player ."
    }
}