{
    "be4b7903a9d098dd895e2eb70527204a": {
        "(5, 6)": {
            "AM2L": [
                275
            ], 
            "BM1F": [
                2555
            ], 
            "M1": [
                888
            ], 
            "M2": [
                981
            ], 
            "BM1L": [
                3181
            ], 
            "WBNULL": [
                1
            ], 
            "AM2F": [
                4
            ], 
            "M1_ADJ": [
                1
            ]
        }, 
        "location1": [
            5
        ], 
        "location2": [
            6
        ], 
        "sentence": "this has happened with several different dvd 's and occasionally if we keep trying something , it will work when it did not work one time before ."
    }, 
    "fe7e064c5f0fe9bf989fab990cc0ea99": {
        "(27, 5)": {
            "WBF": [
                2160
            ], 
            "BM1F": [
                65
            ], 
            "M1": [
                981
            ], 
            "M2": [
                888
            ], 
            "BM1L": [
                297
            ], 
            "WBO": [
                1232, 
                1880, 
                337, 
                619, 
                407, 
                1566, 
                1322, 
                1320, 
                2438, 
                325, 
                150, 
                1320, 
                3058, 
                1232, 
                2866, 
                1844, 
                1987, 
                150
            ], 
            "WBL": [
                1971
            ], 
            "AM2F": [
                2613
            ], 
            "M1_ADJ": [
                0
            ]
        }, 
        "location1": [
            27
        ], 
        "location2": [
            5
        ], 
        "sentence": "i bought this apex 2600 dvd player for myself at christmas because it got good review as a good value for the money on a variety of different site ."
    }, 
    "d1f5cf6191b3c90d8622b5f87670e411": {
        "location1": [
            10
        ], 
        "location2": [
            21, 
            23
        ], 
        "(10, 21)": {
            "WBF": [
                1176
            ], 
            "AM2L": [
                981
            ], 
            "BM1F": [
                1971
            ], 
            "M1": [
                888
            ], 
            "M2": [
                981
            ], 
            "BM1L": [
                250
            ], 
            "WBO": [
                1669, 
                1864, 
                3185, 
                574, 
                1584, 
                275, 
                1613
            ], 
            "WBL": [
                574
            ], 
            "AM2F": [
                4
            ], 
            "M1_ADJ": [
                1
            ]
        }, 
        "(10, 23)": {
            "WBF": [
                1176
            ], 
            "AM2L": [
                4
            ], 
            "BM1F": [
                1971
            ], 
            "M1": [
                888
            ], 
            "M2": [
                981
            ], 
            "BM1L": [
                250
            ], 
            "WBO": [
                1669, 
                1864, 
                3185, 
                574, 
                1584, 
                275, 
                1613, 
                2133, 
                574
            ], 
            "WBL": [
                4
            ], 
            "AM2F": [
                2293
            ], 
            "M1_ADJ": [
                1
            ]
        }, 
        "sentence": "the cool thing about the ad-2600 it play alot of different file like mp3 , wma cd , jpeg and kodak picture cd , dvd 's , dvd - / + r 's ."
    }
}