{
    "f7c6a30b651882d1ae5523552ba03649": {
        "(9, 10)": {
            "AM2L": [
                150
            ], 
            "BM1F": [
                2555
            ], 
            "M1": [
                888
            ], 
            "M2": [
                2971
            ], 
            "BM1L": [
                2909
            ], 
            "WBNULL": [
                1
            ], 
            "AM2F": [
                3049
            ], 
            "M1_ADJ": [
                1
            ]
        }, 
        "location1": [
            9
        ], 
        "location2": [
            10
        ], 
        "sentence": "i 've attempted to connect this unit to several different tv , using a multitude of connection method , and i still can 't get a video signal from the machine ."
    }
}