{
    "fe7e064c5f0fe9bf989fab990cc0ea99": {
        "(27, 25)": {
            "WBFL": [
                1971
            ], 
            "BM1F": [
                150
            ], 
            "M1": [
                3061
            ], 
            "M2": [
                888
            ], 
            "BM1L": [
                1987
            ], 
            "AM2F": [
                2613
            ], 
            "M1_ADJ": [
                0
            ]
        }, 
        "location1": [
            27
        ], 
        "location2": [
            25
        ], 
        "sentence": "i bought this apex 2600 dvd player for myself at christmas because it got good review as a good value for the money on a variety of different site ."
    }
}