{
    "fe7e064c5f0fe9bf989fab990cc0ea99": {
        "location1": [
            27
        ], 
        "location2": [
            22
        ], 
        "(27, 22)": {
            "WBF": [
                1987
            ], 
            "BM1F": [
                2866
            ], 
            "M1": [
                1844
            ], 
            "M2": [
                888
            ], 
            "BM1L": [
                1232
            ], 
            "WBO": [
                150
            ], 
            "WBL": [
                1971
            ], 
            "AM2F": [
                2613
            ], 
            "M1_ADJ": [
                0
            ]
        }, 
        "sentence": "i bought this apex 2600 dvd player for myself at christmas because it got good review as a good value for the money on a variety of different site ."
    }
}