{
    "61b0cbdba9d3d1062735828f148c2ac5": {
        "(5, 3)": {
            "AM2L": [
                2909
            ], 
            "WBFL": [
                1971
            ], 
            "BM1F": [
                325
            ], 
            "M1": [
                513
            ], 
            "M2": [
                888
            ], 
            "BM1L": [
                2955
            ], 
            "AM2F": [
                1239
            ], 
            "M1_ADJ": [
                0
            ]
        }, 
        "location1": [
            5
        ], 
        "location2": [
            3
        ], 
        "sentence": "i tried as bunch of different format to see if it would play and it did ."
    }
}