{
    "f7c6a30b651882d1ae5523552ba03649": {
        "location1": [
            9
        ], 
        "location2": [
            28
        ], 
        "(9, 28)": {
            "WBF": [
                2971
            ], 
            "BM1F": [
                2555
            ], 
            "M1": [
                888
            ], 
            "M2": [
                1736
            ], 
            "BM1L": [
                2909
            ], 
            "WBO": [
                3049, 
                150, 
                1874, 
                1971, 
                711, 
                1805, 
                275, 
                1449, 
                2734, 
                543, 
                5, 
                1297, 
                150, 
                3080, 
                2598
            ], 
            "WBL": [
                2866
            ], 
            "M1_ADJ": [
                1
            ]
        }, 
        "sentence": "i 've attempted to connect this unit to several different tv , using a multitude of connection method , and i still can 't get a video signal from the machine ."
    }
}