{
    "76d840b24bd2063c716af94af9053f6b": {
        "(13, 16)": {
            "WBF": [
                524
            ], 
            "BM1F": [
                3133
            ], 
            "M1": [
                941
            ], 
            "M2": [
                2242
            ], 
            "BM1L": [
                150
            ], 
            "WBO": [
                2882
            ], 
            "WBL": [
                2882
            ], 
            "M1_ADJ": [
                1
            ]
        }, 
        "location1": [
            13
        ], 
        "location2": [
            16
        ], 
        "sentence": "update : january 27th 2004 - the second one crapped out only after a week - dont buy this product !"
    }
}