{
    "eb49671e2b0f5b54b7dfefe2d8de0a1b": {
        "location1": [
            3
        ], 
        "location2": [
            6
        ], 
        "(3, 6)": {
            "WBF": [
                899
            ], 
            "AM2L": [
                1173
            ], 
            "BM1F": [
                2325
            ], 
            "M1": [
                1005
            ], 
            "M2": [
                2554
            ], 
            "BM1L": [
                316
            ], 
            "WBO": [
                1232
            ], 
            "WBL": [
                1232
            ], 
            "AM2F": [
                275
            ], 
            "M1_ADJ": [
                1
            ]
        }, 
        "sentence": "there are really easy direction for setup and fiddling around with the picture , zoom etc ."
    }
}