{
    "1884b63b7e64eae77c5a882b7904a99b": {
        "(0, 5)": {
            "WBF": [
                2909
            ], 
            "AM2L": [
                1710
            ], 
            "M1": [
                1005
            ], 
            "M2": [
                1133
            ], 
            "WBO": [
                3041
            ], 
            "WBL": [
                1237
            ], 
            "AM2F": [
                275
            ], 
            "M1_ADJ": [
                1
            ]
        }, 
        "location1": [
            0
        ], 
        "location2": [
            5
        ], 
        "sentence": "easy to use , small form factor , and look good to boot ."
    }
}