{
    "8fd7717f6f4b86db0002350fe4354721": {
        "location1": [
            15
        ], 
        "location2": [
            11
        ], 
        "(15, 11)": {
            "WBF": [
                2161
            ], 
            "AM2L": [
                2293
            ], 
            "BM1F": [
                1917
            ], 
            "M1": [
                2236
            ], 
            "M2": [
                1105
            ], 
            "BM1L": [
                1348
            ], 
            "WBO": [
                2866
            ], 
            "WBL": [
                1851
            ], 
            "AM2F": [
                981
            ], 
            "M1_ADJ": [
                0
            ]
        }, 
        "sentence": "when i 1st tried it i found that it had no problem playing the more expensive dvd - r medium disc 's that other player would play but to my surprise was able to play cheep medium that i had burned that i could n't get to work before in anything but the dvd burner itself that i had made the disc with ."
    }
}