{
    "d460f81b43998cfb748cde2be9836aec": {
        "(3, 23)": {
            "WBF": [
                3133
            ], 
            "AM2L": [
                212
            ], 
            "BM1F": [
                1199
            ], 
            "M1": [
                1171
            ], 
            "M2": [
                562
            ], 
            "BM1L": [
                2866
            ], 
            "WBO": [
                2882, 
                2160, 
                3117, 
                1084, 
                1449, 
                1103, 
                1566, 
                2909, 
                402, 
                273, 
                218, 
                1871, 
                981, 
                2160, 
                3181, 
                150
            ], 
            "WBL": [
                2629
            ], 
            "AM2F": [
                325
            ], 
            "M1_ADJ": [
                1
            ]
        }, 
        "location1": [
            3
        ], 
        "location2": [
            23
        ], 
        "sentence": "for the first few week , this player was everything i expected it to be , an affordable multi-format dvd player with a stylish slim case as advertised ."
    }
}