{
    "d460f81b43998cfb748cde2be9836aec": {
        "(3, 4)": {
            "AM2L": [
                2160
            ], 
            "BM1F": [
                1199
            ], 
            "M1": [
                1171
            ], 
            "M2": [
                3133
            ], 
            "BM1L": [
                2866
            ], 
            "WBNULL": [
                1
            ], 
            "AM2F": [
                2882
            ], 
            "M1_ADJ": [
                1
            ]
        }, 
        "location1": [
            3
        ], 
        "location2": [
            4
        ], 
        "sentence": "for the first few week , this player was everything i expected it to be , an affordable multi-format dvd player with a stylish slim case as advertised ."
    }
}