{
    "c6d4707ef2fab9972637895ce8590367": {
        "(5, 4)": {
            "AM2L": [
                2317
            ], 
            "BM1F": [
                1854
            ], 
            "M1": [
                986
            ], 
            "M2": [
                1188
            ], 
            "BM1L": [
                2317
            ], 
            "WBNULL": [
                1
            ], 
            "AM2F": [
                275
            ], 
            "M1_ADJ": [
                0
            ]
        }, 
        "location1": [
            5
        ], 
        "location2": [
            4
        ], 
        "sentence": "seems to read most dvds fine , and read quietly ( i had a pioneer player that had fairly loud disc spin noise ) ."
    }
}