{
    "c6d4707ef2fab9972637895ce8590367": {
        "(5, 18)": {
            "WBF": [
                275
            ], 
            "AM2L": [
                1918
            ], 
            "BM1F": [
                986
            ], 
            "M1": [
                1188
            ], 
            "M2": [
                909
            ], 
            "BM1L": [
                1854
            ], 
            "WBO": [
                2317, 
                2287, 
                1449, 
                1348, 
                150, 
                2139, 
                2160, 
                2864, 
                1348
            ], 
            "WBL": [
                1720
            ], 
            "AM2F": [
                2702
            ], 
            "M1_ADJ": [
                1
            ]
        }, 
        "location1": [
            5
        ], 
        "location2": [
            18
        ], 
        "sentence": "seems to read most dvds fine , and read quietly ( i had a pioneer player that had fairly loud disc spin noise ) ."
    }
}