{
    "c43abed7f15effb4bbf9b56cd5cdb4e1": {
        "(4, 5)": {
            "AM2L": [
                2159
            ], 
            "BM1F": [
                2866
            ], 
            "M1": [
                1199
            ], 
            "M2": [
                915
            ], 
            "BM1L": [
                2890
            ], 
            "WBNULL": [
                1
            ], 
            "AM2F": [
                3125
            ], 
            "M1_ADJ": [
                1
            ]
        }, 
        "location1": [
            4
        ], 
        "location2": [
            5
        ], 
        "sentence": "3/4 way through the first disk we played on it ( naturally on 31 day after purchase ) the dvd player froze ."
    }
}