{
    "7b185dc9dc52f36cb42d1ebf9b7745f6": {
        "(1, 14)": {
            "WBF": [
                942
            ], 
            "AM2L": [
                3029
            ], 
            "BM1F": [
                2866
            ], 
            "M1": [
                1262
            ], 
            "M2": [
                1664
            ], 
            "WBO": [
                1562, 
                1826, 
                240, 
                1987, 
                1878, 
                3010, 
                275, 
                3229, 
                1375
            ], 
            "WBL": [
                1753
            ], 
            "AM2F": [
                1566
            ], 
            "M1_ADJ": [
                1
            ]
        }, 
        "location1": [
            1
        ], 
        "location2": [
            14
        ], 
        "sentence": "the front door is miss aligned on my unit and you have to manually life it up just so slightly for the door to close , a very annoying thing after ahwile ."
    }
}