{
    "d4aea072a4d82c259b1c6322dc4b650a": {
        "(8, 11)": {
            "WBF": [
                1262
            ], 
            "AM2L": [
                275
            ], 
            "BM1F": [
                3075
            ], 
            "M1": [
                1320
            ], 
            "M2": [
                523
            ], 
            "BM1L": [
                150
            ], 
            "WBO": [
                2076
            ], 
            "WBL": [
                2076
            ], 
            "AM2F": [
                1635
            ], 
            "M1_ADJ": [
                1
            ]
        }, 
        "location1": [
            8
        ], 
        "location2": [
            11
        ], 
        "sentence": "it 's very sleek looking with a very good front panel button layout , and it has a great feature set ."
    }
}