{
    "b3d6250f8c0e2d723e032191144e6c20": {
        "(3, 4)": {
            "AM2L": [
                1971
            ], 
            "BM1F": [
                1711
            ], 
            "M1": [
                1320
            ], 
            "M2": [
                2447
            ], 
            "BM1L": [
                2160
            ], 
            "WBNULL": [
                1
            ], 
            "AM2F": [
                2037
            ], 
            "M1_ADJ": [
                1
            ]
        }, 
        "location1": [
            3, 
            14
        ], 
        "location2": [
            4
        ], 
        "(14, 4)": {
            "WBF": [
                2037
            ], 
            "BM1F": [
                1320
            ], 
            "M1": [
                2447
            ], 
            "M2": [
                1320
            ], 
            "BM1L": [
                1711
            ], 
            "WBO": [
                1971, 
                2866, 
                481, 
                1977, 
                1719, 
                1971
            ], 
            "WBL": [
                275
            ], 
            "AM2F": [
                2770
            ], 
            "M1_ADJ": [
                0
            ]
        }, 
        "sentence": "the player looked good right out of the box , offering lot of feature and good styling ."
    }
}