{
    "b5938c00042cd746390dea8b55ef54ef": {
        "(6, 4)": {
            "WBFL": [
                1375
            ], 
            "BM1F": [
                297
            ], 
            "M1": [
                1736
            ], 
            "M2": [
                1320
            ], 
            "BM1L": [
                1844
            ], 
            "AM2F": [
                1163
            ], 
            "M1_ADJ": [
                0
            ]
        }, 
        "location1": [
            6
        ], 
        "location2": [
            4
        ], 
        "sentence": "for the money apex machine have good feature ."
    }
}