{
    "554c4ad0dd6259a9c61e4817388e8064": {
        "(26, 6)": {
            "WBF": [
                2864
            ], 
            "AM2L": [
                2668
            ], 
            "BM1F": [
                242
            ], 
            "M1": [
                1239
            ], 
            "M2": [
                1320
            ], 
            "BM1L": [
                2157
            ], 
            "WBO": [
                1449, 
                1375, 
                2280, 
                1490, 
                1566, 
                1584, 
                1613, 
                2128, 
                4, 
                275, 
                982, 
                1449, 
                1375, 
                2317, 
                2032, 
                2438
            ], 
            "WBL": [
                2659
            ], 
            "AM2F": [
                275
            ], 
            "M1_ADJ": [
                0
            ]
        }, 
        "(31, 6)": {
            "WBF": [
                2864
            ], 
            "AM2L": [
                1878
            ], 
            "BM1F": [
                242
            ], 
            "M1": [
                1239
            ], 
            "M2": [
                1320
            ], 
            "BM1L": [
                2157
            ], 
            "WBO": [
                1449, 
                1375, 
                2280, 
                1490, 
                1566, 
                1584, 
                1613, 
                2128, 
                4, 
                275, 
                982, 
                1449, 
                1375, 
                2317, 
                2032, 
                2438, 
                275, 
                2659, 
                1320, 
                275, 
                2668
            ], 
            "WBL": [
                2650
            ], 
            "AM2F": [
                522
            ], 
            "M1_ADJ": [
                0
            ]
        }, 
        "location1": [
            26, 
            31
        ], 
        "location2": [
            6
        ], 
        "sentence": "the unit seems to play all format that i have put in it ( jpeg , kodak pic 's and dvd-r ) i have read other review and some good and soom not so good , but my feeling at this time is `` two thumb up `` !"
    }
}