{
    "554c4ad0dd6259a9c61e4817388e8064": {
        "(26, 34)": {
            "WBF": [
                275
            ], 
            "AM2L": [
                2882
            ], 
            "BM1F": [
                2659
            ], 
            "M1": [
                1320
            ], 
            "M2": [
                1168
            ], 
            "BM1L": [
                275
            ], 
            "WBO": [
                2668, 
                1935, 
                2650, 
                1320
            ], 
            "WBL": [
                1878
            ], 
            "AM2F": [
                337
            ], 
            "M1_ADJ": [
                1
            ]
        }, 
        "location1": [
            26, 
            31
        ], 
        "location2": [
            34
        ], 
        "(31, 34)": {
            "WBF": [
                522
            ], 
            "AM2L": [
                2882
            ], 
            "BM1F": [
                2650
            ], 
            "M1": [
                1320
            ], 
            "M2": [
                1168
            ], 
            "BM1L": [
                1935
            ], 
            "WBO": [
                1878
            ], 
            "WBL": [
                1878
            ], 
            "AM2F": [
                337
            ], 
            "M1_ADJ": [
                1
            ]
        }, 
        "sentence": "the unit seems to play all format that i have put in it ( jpeg , kodak pic 's and dvd-r ) i have read other review and some good and soom not so good , but my feeling at this time is `` two thumb up `` !"
    }
}