{
    "9982cf025cf09cf43f1be57afa09155b": {
        "location1": [
            16
        ], 
        "location2": [
            27
        ], 
        "(16, 27)": {
            "WBF": [
                824
            ], 
            "AM2L": [
                2909
            ], 
            "BM1F": [
                150
            ], 
            "M1": [
                1333
            ], 
            "M2": [
                662
            ], 
            "BM1L": [
                2569
            ], 
            "WBO": [
                1851, 
                3147, 
                1449, 
                2273, 
                150, 
                1870, 
                1909
            ], 
            "WBL": [
                3068
            ], 
            "AM2F": [
                2160
            ], 
            "M1_ADJ": [
                1
            ]
        }, 
        "sentence": "all in all , trying to save some money on this player resulted in me shelling a great deal more when i purchased a much nicer dvd vcr combo player to make up for blazing crappiness of this very embarassing gift ."
    }
}