{
    "d4aea072a4d82c259b1c6322dc4b650a": {
        "(17, 19)": {
            "WBFL": [
                1163
            ], 
            "BM1F": [
                150
            ], 
            "M1": [
                1333
            ], 
            "M2": [
                2551
            ], 
            "BM1L": [
                1371
            ], 
            "M1_ADJ": [
                1
            ]
        }, 
        "location1": [
            17
        ], 
        "location2": [
            19
        ], 
        "sentence": "it 's very sleek looking with a very good front panel button layout , and it has a great feature set ."
    }, 
    "9f50c25f5f7fb84cc8995a85ac62697d": {
        "location1": [
            7
        ], 
        "location2": [
            9
        ], 
        "(7, 9)": {
            "AM2L": [
                3181
            ], 
            "WBFL": [
                3147
            ], 
            "BM1F": [
                3117
            ], 
            "M1": [
                1333
            ], 
            "M2": [
                2551
            ], 
            "BM1L": [
                2133
            ], 
            "AM2F": [
                3029
            ], 
            "M1_ADJ": [
                1
            ]
        }, 
        "sentence": "received apex dvd and the picture was great when set up with s connector ."
    }
}