{
    "c6d4707ef2fab9972637895ce8590367": {
        "(17, 13)": {
            "WBF": [
                2864
            ], 
            "AM2L": [
                2702
            ], 
            "BM1F": [
                2139
            ], 
            "M1": [
                2160
            ], 
            "M2": [
                1720
            ], 
            "BM1L": [
                150
            ], 
            "WBO": [
                1348
            ], 
            "WBL": [
                1142
            ], 
            "AM2F": [
                909
            ], 
            "M1_ADJ": [
                0
            ]
        }, 
        "location1": [
            17
        ], 
        "location2": [
            13
        ], 
        "sentence": "seems to read most dvds fine , and read quietly ( i had a pioneer player that had fairly loud disc spin noise ) ."
    }
}