{
    "0a3d6bf18633218545bbb81dd93b8f68": {
        "location1": [
            2
        ], 
        "location2": [
            6
        ], 
        "(2, 6)": {
            "WBF": [
                2245
            ], 
            "AM2L": [
                1907
            ], 
            "BM1F": [
                4
            ], 
            "M1": [
                1724
            ], 
            "M2": [
                864
            ], 
            "BM1L": [
                1566
            ], 
            "WBO": [
                2682
            ], 
            "WBL": [
                2489
            ], 
            "AM2F": [
                1710
            ], 
            "M1_ADJ": [
                1
            ]
        }, 
        "sentence": "it 's low profile , space saving design look nice ."
    }
}