{
    "d8105077a4434e718fee25bbe1966b63": {
        "(10, 7)": {
            "WBF": [
                2864
            ], 
            "AM2L": [
                2866
            ], 
            "BM1F": [
                981
            ], 
            "M1": [
                2160
            ], 
            "M2": [
                1851
            ], 
            "BM1L": [
                1511
            ], 
            "WBO": [
                1348
            ], 
            "WBL": [
                1348
            ], 
            "AM2F": [
                2862
            ], 
            "M1_ADJ": [
                0
            ]
        }, 
        "location1": [
            10
        ], 
        "location2": [
            7
        ], 
        "sentence": "i looked into buying an inexpensive dvd player that had more than the standard set of feature and this item seemed to be the best in that category ."
    }, 
    "8fd7717f6f4b86db0002350fe4354721": {
        "(14, 23)": {
            "WBF": [
                1105
            ], 
            "AM2L": [
                2157
            ], 
            "BM1F": [
                2866
            ], 
            "M1": [
                1851
            ], 
            "M2": [
                2160
            ], 
            "BM1L": [
                2161
            ], 
            "WBO": [
                981, 
                2293, 
                1782, 
                909, 
                4
            ], 
            "WBL": [
                2032
            ], 
            "AM2F": [
                3204
            ], 
            "M1_ADJ": [
                1
            ]
        }, 
        "location1": [
            14
        ], 
        "location2": [
            23
        ], 
        "sentence": "when i 1st tried it i found that it had no problem playing the more expensive dvd - r medium disc 's that other player would play but to my surprise was able to play cheep medium that i had burned that i could n't get to work before in anything but the dvd burner itself that i had made the disc with ."
    }, 
    "9982cf025cf09cf43f1be57afa09155b": {
        "location1": [
            18
        ], 
        "location2": [
            10, 
            28
        ], 
        "(18, 10)": {
            "WBF": [
                2430
            ], 
            "AM2L": [
                1449
            ], 
            "BM1F": [
                2882
            ], 
            "M1": [
                2160
            ], 
            "M2": [
                1851
            ], 
            "BM1L": [
                1987
            ], 
            "WBO": [
                1490, 
                1773, 
                2569, 
                150
            ], 
            "WBL": [
                824
            ], 
            "AM2F": [
                3147
            ], 
            "M1_ADJ": [
                0
            ]
        }, 
        "(18, 28)": {
            "WBF": [
                3147
            ], 
            "AM2L": [
                1744
            ], 
            "BM1F": [
                824
            ], 
            "M1": [
                1851
            ], 
            "M2": [
                2160
            ], 
            "BM1L": [
                1333
            ], 
            "WBO": [
                1449, 
                2273, 
                150, 
                1870, 
                1909, 
                981
            ], 
            "WBL": [
                662
            ], 
            "AM2F": [
                2909
            ], 
            "M1_ADJ": [
                1
            ]
        }, 
        "sentence": "all in all , trying to save some money on this player resulted in me shelling a great deal more when i purchased a much nicer dvd vcr combo player to make up for blazing crappiness of this very embarassing gift ."
    }
}