{
    "9982cf025cf09cf43f1be57afa09155b": {
        "(18, 17)": {
            "AM2L": [
                1449
            ], 
            "BM1F": [
                1333
            ], 
            "M1": [
                824
            ], 
            "M2": [
                1851
            ], 
            "BM1L": [
                150
            ], 
            "WBNULL": [
                1
            ], 
            "AM2F": [
                3147
            ], 
            "M1_ADJ": [
                0
            ]
        }, 
        "location1": [
            18
        ], 
        "location2": [
            17
        ], 
        "sentence": "all in all , trying to save some money on this player resulted in me shelling a great deal more when i purchased a much nicer dvd vcr combo player to make up for blazing crappiness of this very embarassing gift ."
    }
}