{
    "fe19754870ba8de34ab8b68d4788bf6a": {
        "(4, 2)": {
            "AM2L": [
                2862
            ], 
            "WBFL": [
                1562
            ], 
            "BM1F": [
                2866
            ], 
            "M1": [
                1194
            ], 
            "M2": [
                1851
            ], 
            "BM1L": [
                3031
            ], 
            "AM2F": [
                1823
            ], 
            "M1_ADJ": [
                0
            ]
        }, 
        "location1": [
            4
        ], 
        "location2": [
            2
        ], 
        "sentence": "update : the finish is more `` mirror `` than silver -- and i like it !"
    }
}