{
    "d460f81b43998cfb748cde2be9836aec": {
        "(16, 23)": {
            "WBF": [
                981
            ], 
            "AM2L": [
                212
            ], 
            "BM1F": [
                218
            ], 
            "M1": [
                1871
            ], 
            "M2": [
                562
            ], 
            "BM1L": [
                273
            ], 
            "WBO": [
                2160, 
                3181, 
                150
            ], 
            "WBL": [
                2629
            ], 
            "AM2F": [
                325
            ], 
            "M1_ADJ": [
                1
            ]
        }, 
        "location1": [
            16
        ], 
        "location2": [
            23
        ], 
        "sentence": "for the first few week , this player was everything i expected it to be , an affordable multi-format dvd player with a stylish slim case as advertised ."
    }
}