{
    "e4730539ff132950b9f794e6c42e8042": {
        "location1": [
            15
        ], 
        "location2": [
            10
        ], 
        "(15, 10)": {
            "WBF": [
                1139
            ], 
            "AM2L": [
                3010
            ], 
            "BM1F": [
                2866
            ], 
            "M1": [
                2133
            ], 
            "M2": [
                1898
            ], 
            "BM1L": [
                2901
            ], 
            "WBO": [
                688
            ], 
            "WBL": [
                2032
            ], 
            "AM2F": [
                2440
            ], 
            "M1_ADJ": [
                0
            ]
        }, 
        "sentence": "it worked from 12-26 to 1-9 at which time the picture failed completely ( see other negative reviews-my unit was n't the only one this happened to . )"
    }
}