{
    "e4730539ff132950b9f794e6c42e8042": {
        "location1": [
            15
        ], 
        "location2": [
            17
        ], 
        "(15, 17)": {
            "AM2L": [
                1881
            ], 
            "WBFL": [
                2440
            ], 
            "BM1F": [
                2032
            ], 
            "M1": [
                1898
            ], 
            "M2": [
                3010
            ], 
            "BM1L": [
                2518
            ], 
            "AM2F": [
                3117
            ], 
            "M1_ADJ": [
                1
            ]
        }, 
        "sentence": "it worked from 12-26 to 1-9 at which time the picture failed completely ( see other negative reviews-my unit was n't the only one this happened to . )"
    }
}