{
    "9bda6f3b3d54d3179789e2d0c3aa99fa": {
        "(6, 7)": {
            "AM2L": [
                2866
            ], 
            "BM1F": [
                1878
            ], 
            "M1": [
                1903
            ], 
            "M2": [
                2140
            ], 
            "BM1L": [
                2161
            ], 
            "WBNULL": [
                1
            ], 
            "AM2F": [
                1971
            ], 
            "M1_ADJ": [
                1
            ]
        }, 
        "location1": [
            6
        ], 
        "location2": [
            7
        ], 
        "sentence": "for example , i tried playing my new `` pirate of the carribean `` extra feature dvd , but this dvd player can not read it ."
    }
}