{
    "9bda6f3b3d54d3179789e2d0c3aa99fa": {
        "location1": [
            6
        ], 
        "location2": [
            12
        ], 
        "(6, 12)": {
            "WBF": [
                2140
            ], 
            "AM2L": [
                522
            ], 
            "BM1F": [
                1878
            ], 
            "M1": [
                1903
            ], 
            "M2": [
                1163
            ], 
            "BM1L": [
                2161
            ], 
            "WBO": [
                1971, 
                2866
            ], 
            "WBL": [
                1120
            ], 
            "AM2F": [
                981
            ], 
            "M1_ADJ": [
                1
            ]
        }, 
        "sentence": "for example , i tried playing my new `` pirate of the carribean `` extra feature dvd , but this dvd player can not read it ."
    }
}