{
    "9982cf025cf09cf43f1be57afa09155b": {
        "location1": [
            24
        ], 
        "location2": [
            39
        ], 
        "(24, 39)": {
            "WBF": [
                981
            ], 
            "BM1F": [
                1870
            ], 
            "M1": [
                1909
            ], 
            "M2": [
                1301
            ], 
            "BM1L": [
                150
            ], 
            "WBO": [
                3068, 
                662, 
                2160, 
                2909, 
                1744, 
                3029, 
                1232, 
                449, 
                774, 
                1971, 
                2882
            ], 
            "WBL": [
                1027
            ], 
            "M1_ADJ": [
                1
            ]
        }, 
        "sentence": "all in all , trying to save some money on this player resulted in me shelling a great deal more when i purchased a much nicer dvd vcr combo player to make up for blazing crappiness of this very embarassing gift ."
    }
}