{
    "d1f50b170c43b383723518bc9faf225b": {
        "location1": [
            16
        ], 
        "location2": [
            12
        ], 
        "(16, 12)": {
            "WBF": [
                319
            ], 
            "AM2L": [
                981
            ], 
            "BM1F": [
                2882
            ], 
            "M1": [
                372
            ], 
            "M2": [
                1923
            ], 
            "BM1L": [
                1597
            ], 
            "WBO": [
                2909
            ], 
            "WBL": [
                3120
            ], 
            "AM2F": [
                2370
            ], 
            "M1_ADJ": [
                0
            ]
        }, 
        "sentence": "because of it 's hidden feature ( no macrovision , non-regional ) i keep this baby around to watch non-american region dvd 's ."
    }
}