{
    "cd5b349634b4fc9c4d56bec8bf4015ef": {
        "(20, 17)": {
            "WBF": [
                1971
            ], 
            "AM2L": [
                2676
            ], 
            "BM1F": [
                2866
            ], 
            "M1": [
                1095
            ], 
            "M2": [
                1965
            ], 
            "BM1L": [
                3181
            ], 
            "WBO": [
                273
            ], 
            "WBL": [
                273
            ], 
            "AM2F": [
                3212
            ], 
            "M1_ADJ": [
                0
            ]
        }, 
        "location1": [
            20
        ], 
        "location2": [
            17
        ], 
        "sentence": "i 've had the player for about 2 year now and it still performs nicely with the exception of an occasional wwhhhrrr sound from the motor ."
    }
}