{
    "521121be8f6569821c970c8fc219b7d7": {
        "location1": [
            2
        ], 
        "location2": [
            10
        ], 
        "(2, 10)": {
            "WBF": [
                1994
            ], 
            "AM2L": [
                2032
            ], 
            "BM1F": [
                2159
            ], 
            "M1": [
                1999
            ], 
            "M2": [
                2236
            ], 
            "BM1L": [
                1566
            ], 
            "WBO": [
                2037, 
                1971, 
                2888, 
                981
            ], 
            "WBL": [
                3183
            ], 
            "AM2F": [
                2866
            ], 
            "M1_ADJ": [
                1
            ]
        }, 
        "sentence": "it played only one out of three dvd 's without problem , the other two being afflicted by a number of glitch ."
    }, 
    "5a3288ba1d03d602b3367a0c74ac0315": {
        "(1, 8)": {
            "WBF": [
                2876
            ], 
            "AM2L": [
                2866
            ], 
            "BM1F": [
                2866
            ], 
            "M1": [
                1999
            ], 
            "M2": [
                2236
            ], 
            "WBO": [
                1449, 
                882, 
                1106
            ], 
            "WBL": [
                150
            ], 
            "AM2F": [
                1971
            ], 
            "M1_ADJ": [
                1
            ]
        }, 
        "location1": [
            1
        ], 
        "location2": [
            8
        ], 
        "sentence": "the only thing i did experience was a problem of the player freezing while playing , which i was able to clear by opening it up and blowing it out with `` canned air . ``"
    }, 
    "256a16fc9dc0e71824538ba5f5652a2a": {
        "(3, 29)": {
            "WBF": [
                3043
            ], 
            "AM2L": [
                2882
            ], 
            "BM1F": [
                1375
            ], 
            "M1": [
                1999
            ], 
            "M2": [
                2236
            ], 
            "BM1L": [
                1449
            ], 
            "WBO": [
                2882, 
                981, 
                2160, 
                1232, 
                154, 
                46, 
                1442, 
                2552, 
                1566, 
                3029, 
                1232, 
                1878, 
                1841, 
                1232, 
                619, 
                522, 
                2864, 
                3117, 
                1706, 
                1050, 
                1232, 
                1773
            ], 
            "WBL": [
                1185
            ], 
            "AM2F": [
                3181
            ], 
            "M1_ADJ": [
                1
            ]
        }, 
        "location1": [
            3
        ], 
        "location2": [
            29
        ], 
        "sentence": "granted , i have only used this dvd player for about 2 hour setting it up for my mom for christmas , but that was long enough for me to find problem with this dvd player ."
    }
}