{
    "972c9a8ae7cdb01c2d55a7fe93e6ecd2": {
        "(1, 2)": {
            "AM2L": [
                2866
            ], 
            "BM1F": [
                1878
            ], 
            "M1": [
                2032
            ], 
            "M2": [
                1338
            ], 
            "AM2F": [
                1562
            ], 
            "WBNULL": [
                1
            ], 
            "M1_ADJ": [
                1
            ]
        }, 
        "(12, 2)": {
            "WBF": [
                1562
            ], 
            "AM2L": [
                297
            ], 
            "BM1F": [
                2032
            ], 
            "M1": [
                1338
            ], 
            "M2": [
                2032
            ], 
            "BM1L": [
                1878
            ], 
            "WBO": [
                2866, 
                1501, 
                775, 
                2387, 
                3152, 
                1562
            ], 
            "WBL": [
                2862
            ], 
            "AM2F": [
                602
            ], 
            "M1_ADJ": [
                0
            ]
        }, 
        "location1": [
            1, 
            12
        ], 
        "location2": [
            2
        ], 
        "sentence": "my other gripe is the incredibly crappy remote , which is worse than other , cheaper apex unit ."
    }
}