{
    "52dcfd70b988f7387128d0690c5725e0": {
        "location1": [
            1
        ], 
        "location2": [
            15
        ], 
        "(1, 15)": {
            "WBF": [
                2876
            ], 
            "AM2L": [
                2045
            ], 
            "BM1F": [
                2866
            ], 
            "M1": [
                2032
            ], 
            "M2": [
                656
            ], 
            "WBO": [
                1449, 
                931, 
                1881, 
                1669, 
                154, 
                2882, 
                65, 
                1562, 
                2864, 
                1566
            ], 
            "WBL": [
                2866
            ], 
            "AM2F": [
                1710
            ], 
            "M1_ADJ": [
                1
            ]
        }, 
        "sentence": "the other thing i do n't like about this 2600 is that it makes the color look over saturated ."
    }
}