{
    "5af90fdafd59b525226aefa2ffc9fd00": {
        "location1": [
            18
        ], 
        "location2": [
            34
        ], 
        "(18, 34)": {
            "WBF": [
                2438
            ], 
            "BM1F": [
                2866
            ], 
            "M1": [
                2032
            ], 
            "M2": [
                2242
            ], 
            "BM1L": [
                2320
            ], 
            "WBO": [
                1449, 
                2878, 
                1449, 
                3168, 
                402, 
                938, 
                150, 
                1690, 
                1851, 
                1430, 
                415, 
                717
            ], 
            "WBL": [
                297
            ], 
            "M1_ADJ": [
                1
            ]
        }, 
        "sentence": "i read in consumer report that apex is a reliable brand , but with my experience and reading the other review , i think i will be doing a little more homework before considering another apex product ."
    }
}