{
    "5af90fdafd59b525226aefa2ffc9fd00": {
        "location1": [
            18
        ], 
        "location2": [
            10
        ], 
        "(18, 10)": {
            "WBF": [
                522
            ], 
            "AM2L": [
                1449
            ], 
            "BM1F": [
                2382
            ], 
            "M1": [
                484
            ], 
            "M2": [
                2032
            ], 
            "BM1L": [
                150
            ], 
            "WBO": [
                3181, 
                1878, 
                1106, 
                275
            ], 
            "WBL": [
                2866
            ], 
            "AM2F": [
                2438
            ], 
            "M1_ADJ": [
                0
            ]
        }, 
        "sentence": "i read in consumer report that apex is a reliable brand , but with my experience and reading the other review , i think i will be doing a little more homework before considering another apex product ."
    }
}