{
    "6513c98716058aac2f83fc6564af3fd0": {
        "location1": [
            26
        ], 
        "location2": [
            30
        ], 
        "(26, 30)": {
            "WBF": [
                2160
            ], 
            "BM1F": [
                1987
            ], 
            "M1": [
                2032
            ], 
            "M2": [
                2513
            ], 
            "BM1L": [
                2317
            ], 
            "WBO": [
                1261
            ], 
            "WBL": [
                1258
            ], 
            "AM2F": [
                46
            ], 
            "M1_ADJ": [
                1
            ]
        }, 
        "sentence": "i 've had this player for several month and it read most discs , but it would not recognize several discs that were clean and read on other player ( from friend season 2 ) ."
    }
}