{
    "972c9a8ae7cdb01c2d55a7fe93e6ecd2": {
        "(12, 15)": {
            "WBF": [
                602
            ], 
            "BM1F": [
                2862
            ], 
            "M1": [
                2032
            ], 
            "M2": [
                3010
            ], 
            "BM1L": [
                3199
            ], 
            "WBO": [
                297
            ], 
            "WBL": [
                297
            ], 
            "M1_ADJ": [
                1
            ]
        }, 
        "location1": [
            1, 
            12
        ], 
        "location2": [
            15
        ], 
        "(1, 15)": {
            "WBF": [
                1338
            ], 
            "BM1F": [
                1878
            ], 
            "M1": [
                2032
            ], 
            "M2": [
                3010
            ], 
            "WBO": [
                1562, 
                2866, 
                1501, 
                775, 
                2387, 
                3152, 
                1562, 
                3199, 
                2862, 
                2032
            ], 
            "WBL": [
                297
            ], 
            "M1_ADJ": [
                1
            ]
        }, 
        "sentence": "my other gripe is the incredibly crappy remote , which is worse than other , cheaper apex unit ."
    }, 
    "e4730539ff132950b9f794e6c42e8042": {
        "(14, 17)": {
            "WBF": [
                1898
            ], 
            "AM2L": [
                1881
            ], 
            "BM1F": [
                2518
            ], 
            "M1": [
                2032
            ], 
            "M2": [
                3010
            ], 
            "BM1L": [
                688
            ], 
            "WBO": [
                2440
            ], 
            "WBL": [
                2440
            ], 
            "AM2F": [
                3117
            ], 
            "M1_ADJ": [
                1
            ]
        }, 
        "location1": [
            14
        ], 
        "location2": [
            17
        ], 
        "sentence": "it worked from 12-26 to 1-9 at which time the picture failed completely ( see other negative reviews-my unit was n't the only one this happened to . )"
    }, 
    "554c4ad0dd6259a9c61e4817388e8064": {
        "location1": [
            22
        ], 
        "location2": [
            1
        ], 
        "(22, 1)": {
            "WBF": [
                2522
            ], 
            "AM2L": [
                275
            ], 
            "BM1F": [
                2866
            ], 
            "M1": [
                3010
            ], 
            "M2": [
                2032
            ], 
            "WBO": [
                2909, 
                2157, 
                242, 
                1239, 
                2864, 
                1449, 
                1375, 
                2280, 
                1490, 
                1566, 
                1584, 
                1613, 
                2128, 
                4, 
                275, 
                982, 
                1449
            ], 
            "WBL": [
                2317
            ], 
            "AM2F": [
                2438
            ], 
            "M1_ADJ": [
                0
            ]
        }, 
        "sentence": "the unit seems to play all format that i have put in it ( jpeg , kodak pic 's and dvd-r ) i have read other review and some good and soom not so good , but my feeling at this time is `` two thumb up `` !"
    }
}