{
    "304f55c4c30167a6dd8bf365c2f321c6": {
        "(27, 14)": {
            "WBF": [
                275
            ], 
            "AM2L": [
                1163
            ], 
            "BM1F": [
                984
            ], 
            "M1": [
                985
            ], 
            "M2": [
                2250
            ], 
            "BM1L": [
                580
            ], 
            "WBO": [
                1971, 
                765, 
                2157, 
                981, 
                1861, 
                1261, 
                2983, 
                1449, 
                1722
            ], 
            "WBL": [
                231
            ], 
            "AM2F": [
                2494
            ], 
            "M1_ADJ": [
                0
            ]
        }, 
        "location1": [
            27
        ], 
        "location2": [
            14
        ], 
        "sentence": "this dvd player play raw mpeg2 and mpeg1 video , jpeg , wma , cdr / cdrw / dvdr / dvdrw , and of course play dvd movie from uk . i love the aiff , progressive scan feature ."
    }
}