{
    "9947e0d4813586c77a652fb805fbac2e": {
        "(40, 45)": {
            "WBF": [
                575
            ], 
            "BM1F": [
                150
            ], 
            "M1": [
                2372
            ], 
            "M2": [
                3066
            ], 
            "BM1L": [
                1987
            ], 
            "WBO": [
                817
            ], 
            "WBL": [
                3183
            ], 
            "AM2F": [
                1240
            ], 
            "M1_ADJ": [
                1
            ]
        }, 
        "location1": [
            40
        ], 
        "location2": [
            45
        ], 
        "sentence": "the fact that this model would play jpeg slideshows was a big plus for me as a visual artist , and i discovered by accident ( it is not mentioned anywhere in the literature ) that it will play mpeg1 file on a regular cd-r data disk without vcd formatting ."
    }
}