{
    "5af90fdafd59b525226aefa2ffc9fd00": {
        "location1": [
            9
        ], 
        "location2": [
            4
        ], 
        "(9, 4)": {
            "WBF": [
                2864
            ], 
            "AM2L": [
                522
            ], 
            "BM1F": [
                724
            ], 
            "M1": [
                2408
            ], 
            "M2": [
                2382
            ], 
            "BM1L": [
                1490
            ], 
            "WBO": [
                297
            ], 
            "WBL": [
                150
            ], 
            "AM2F": [
                484
            ], 
            "M1_ADJ": [
                0
            ]
        }, 
        "sentence": "i read in consumer report that apex is a reliable brand , but with my experience and reading the other review , i think i will be doing a little more homework before considering another apex product ."
    }
}