{
    "21b5b1779d52da82b0a477fbf05b65d0": {
        "(9, 44)": {
            "WBF": [
                735
            ], 
            "AM2L": [
                1463
            ], 
            "BM1F": [
                2866
            ], 
            "M1": [
                2387
            ], 
            "M2": [
                2617
            ], 
            "BM1L": [
                1971
            ], 
            "WBO": [
                316, 
                1999, 
                2651, 
                1566, 
                936, 
                1881, 
                2589, 
                2866, 
                687, 
                1177, 
                1971, 
                1865, 
                3181, 
                2325, 
                1706, 
                1882, 
                3229, 
                1877, 
                808, 
                2890, 
                1080, 
                3239, 
                2552, 
                73, 
                94, 
                111, 
                15, 
                1074, 
                415, 
                1299, 
                373
            ], 
            "WBL": [
                1932
            ], 
            "AM2F": [
                2672
            ], 
            "M1_ADJ": [
                1
            ]
        }, 
        "location1": [
            9
        ], 
        "location2": [
            44
        ], 
        "sentence": "weakness are minor : the feel and layout of the remote control are only so-so ; it does n't show the complete filename of mp3s with really long name ; you must cycle through every zoom setting ( 2x , 3x , 4x , 1/2x , etc . ) before getting back to normal size [ sorry if i 'm just ignorant of a way to get back to 1x quickly ] ."
    }, 
    "84b3210547b32bd5ab20ec53b3438380": {
        "(16, 10)": {
            "WBF": [
                275
            ], 
            "BM1F": [
                2637
            ], 
            "M1": [
                2617
            ], 
            "M2": [
                2387
            ], 
            "BM1L": [
                2866
            ], 
            "WBO": [
                2866, 
                1635
            ], 
            "WBL": [
                2866
            ], 
            "M1_ADJ": [
                0
            ]
        }, 
        "location1": [
            16
        ], 
        "location2": [
            10
        ], 
        "sentence": "there were a few attractive feature , such as the small size and the layout of the remote ."
    }
}