{
    "1a0284a937d6f776c0dd445ba87180e1": {
        "(5, 10)": {
            "WBF": [
                2650
            ], 
            "AM2L": [
                981
            ], 
            "BM1F": [
                3011
            ], 
            "M1": [
                2387
            ], 
            "M2": [
                3191
            ], 
            "BM1L": [
                74
            ], 
            "WBO": [
                1155
            ], 
            "WBL": [
                2909
            ], 
            "AM2F": [
                297
            ], 
            "M1_ADJ": [
                1
            ]
        }, 
        "location1": [
            5
        ], 
        "location2": [
            10
        ], 
        "sentence": "we 've purchased 3 universal remote so far-all claiming to work `` apex `` dvd player and none worked ."
    }, 
    "bbe63f0328f52170d91cf129c76fd211": {
        "(2, 3)": {
            "AM2L": [
                2872
            ], 
            "BM1F": [
                2866
            ], 
            "M1": [
                2387
            ], 
            "M2": [
                3191
            ], 
            "BM1L": [
                46
            ], 
            "WBNULL": [
                1
            ], 
            "AM2F": [
                522
            ], 
            "M1_ADJ": [
                1
            ]
        }, 
        "location1": [
            2
        ], 
        "location2": [
            3, 
            9
        ], 
        "(2, 9)": {
            "WBF": [
                3191
            ], 
            "AM2L": [
                3229
            ], 
            "BM1F": [
                2866
            ], 
            "M1": [
                2387
            ], 
            "M2": [
                3191
            ], 
            "BM1L": [
                46
            ], 
            "WBO": [
                522, 
                2872, 
                1566
            ], 
            "WBL": [
                1935
            ], 
            "AM2F": [
                275
            ], 
            "M1_ADJ": [
                1
            ]
        }, 
        "sentence": "2 ) the remote work , but then it does not work , and you are left standing there thinking you are doing something wrong ."
    }, 
    "a475cd1c0454d10a130c0e05e28e193d": {
        "(11, 7)": {
            "WBF": [
                3181
            ], 
            "BM1F": [
                1935
            ], 
            "M1": [
                3191
            ], 
            "M2": [
                2387
            ], 
            "BM1L": [
                3168
            ], 
            "WBO": [
                1878
            ], 
            "WBL": [
                3011
            ], 
            "AM2F": [
                735
            ], 
            "M1_ADJ": [
                0
            ]
        }, 
        "location1": [
            11
        ], 
        "location2": [
            7
        ], 
        "sentence": "5 ) this apex model 2600 will not work with my universal remote control ."
    }
}