{
    "f1ea952ffd3cb666c023f31c40f6900f": {
        "(21, 13)": {
            "WBF": [
                2864
            ], 
            "AM2L": [
                2864
            ], 
            "BM1F": [
                1985
            ], 
            "M1": [
                3066
            ], 
            "M2": [
                2394
            ], 
            "BM1L": [
                273
            ], 
            "WBO": [
                1449, 
                2454, 
                3222, 
                226
            ], 
            "WBL": [
                2866
            ], 
            "AM2F": [
                981
            ], 
            "M1_ADJ": [
                0
            ]
        }, 
        "location1": [
            21
        ], 
        "location2": [
            13
        ], 
        "sentence": "it play basically every medium i 've tested so far , even an old vcd that i ripped year ago and the rental dvd that could n't be played on my old $ 200 sharp player !"
    }
}