{
    "4eadb02423a841209104f9bbc14fba06": {
        "(15, 16)": {
            "AM2L": [
                2866
            ], 
            "BM1F": [
                2317
            ], 
            "M1": [
                2516
            ], 
            "M2": [
                913
            ], 
            "BM1L": [
                2909
            ], 
            "WBNULL": [
                1
            ], 
            "AM2F": [
                3181
            ], 
            "M1_ADJ": [
                1
            ]
        }, 
        "location1": [
            15
        ], 
        "location2": [
            16
        ], 
        "sentence": "the catch is that , while it play movie just fine , it has refused to read second discs with the movie `` extra `` on them on the two occaisions when i tried to do that ."
    }
}