{
    "4eadb02423a841209104f9bbc14fba06": {
        "(15, 1)": {
            "WBF": [
                1562
            ], 
            "AM2L": [
                3181
            ], 
            "BM1F": [
                2866
            ], 
            "M1": [
                567
            ], 
            "M2": [
                2516
            ], 
            "WBO": [
                2864, 
                3153, 
                1566, 
                2157, 
                1861, 
                1591, 
                1188, 
                1566, 
                1371, 
                2367
            ], 
            "WBL": [
                2317
            ], 
            "AM2F": [
                913
            ], 
            "M1_ADJ": [
                0
            ]
        }, 
        "location1": [
            15
        ], 
        "location2": [
            1
        ], 
        "sentence": "the catch is that , while it play movie just fine , it has refused to read second discs with the movie `` extra `` on them on the two occaisions when i tried to do that ."
    }
}