{
    "6513c98716058aac2f83fc6564af3fd0": {
        "(18, 4)": {
            "WBF": [
                1232
            ], 
            "AM2L": [
                2864
            ], 
            "BM1F": [
                2882
            ], 
            "M1": [
                2160
            ], 
            "M2": [
                2555
            ], 
            "BM1L": [
                1348
            ], 
            "WBO": [
                2555, 
                1849, 
                275, 
                1566, 
                2317, 
                1854, 
                913, 
                522, 
                1566, 
                3204
            ], 
            "WBL": [
                2348
            ], 
            "AM2F": [
                913
            ], 
            "M1_ADJ": [
                0
            ]
        }, 
        "sentence": "i 've had this player for several month and it read most discs , but it would not recognize several discs that were clean and read on other player ( from friend season 2 ) .", 
        "(6, 4)": {
            "AM2L": [
                275
            ], 
            "WBFL": [
                1232
            ], 
            "BM1F": [
                2882
            ], 
            "M1": [
                2160
            ], 
            "M2": [
                2555
            ], 
            "BM1L": [
                1348
            ], 
            "AM2F": [
                1849
            ], 
            "M1_ADJ": [
                0
            ]
        }, 
        "location2": [
            4, 
            27
        ], 
        "location1": [
            6, 
            18
        ], 
        "(18, 27)": {
            "WBF": [
                913
            ], 
            "AM2L": [
                1258
            ], 
            "BM1F": [
                2348
            ], 
            "M1": [
                2555
            ], 
            "M2": [
                2160
            ], 
            "BM1L": [
                1935
            ], 
            "WBO": [
                2864, 
                3143, 
                632, 
                275, 
                2317
            ], 
            "WBL": [
                2032
            ], 
            "AM2F": [
                1261
            ], 
            "M1_ADJ": [
                1
            ]
        }, 
        "(6, 27)": {
            "WBF": [
                1849
            ], 
            "AM2L": [
                1258
            ], 
            "BM1F": [
                1232
            ], 
            "M1": [
                2555
            ], 
            "M2": [
                2160
            ], 
            "BM1L": [
                2160
            ], 
            "WBO": [
                275, 
                1566, 
                2317, 
                1854, 
                913, 
                522, 
                1566, 
                3204, 
                1935, 
                2348, 
                2555, 
                913, 
                2864, 
                3143, 
                632, 
                275, 
                2317
            ], 
            "WBL": [
                2032
            ], 
            "AM2F": [
                1261
            ], 
            "M1_ADJ": [
                1
            ]
        }
    }
}