{
    "62e789092dd8cdbdc780fb92af24cb33": {
        "location1": [
            3
        ], 
        "location2": [
            24
        ], 
        "(3, 24)": {
            "WBF": [
                2901
            ], 
            "AM2L": [
                2868
            ], 
            "BM1F": [
                2955
            ], 
            "M1": [
                2555
            ], 
            "M2": [
                1025
            ], 
            "BM1L": [
                1375
            ], 
            "WBO": [
                2909, 
                725, 
                297, 
                894, 
                2890, 
                2868, 
                1988, 
                2797, 
                2613, 
                275, 
                2868, 
                2851, 
                1676, 
                522, 
                2875, 
                3186, 
                1881
            ], 
            "WBL": [
                1878
            ], 
            "AM2F": [
                275
            ], 
            "M1_ADJ": [
                1
            ]
        }, 
        "sentence": "i have tried several time to contact apex digital through their on-line support site and their telephone line , but they wo n't answer my email and their telephone line is always busy ."
    }
}