{
    "1b4b8b00a1be6322acc0a3232c0e902d": {
        "location1": [
            21
        ], 
        "location2": [
            14, 
            24
        ], 
        "(21, 14)": {
            "WBF": [
                735
            ], 
            "AM2L": [
                1003
            ], 
            "BM1F": [
                2866
            ], 
            "M1": [
                2387
            ], 
            "M2": [
                2606
            ], 
            "BM1L": [
                1987
            ], 
            "WBO": [
                3152, 
                1562, 
                1994
            ], 
            "WBL": [
                2866
            ], 
            "AM2F": [
                275
            ], 
            "M1_ADJ": [
                0
            ]
        }, 
        "(21, 24)": {
            "WBF": [
                275
            ], 
            "AM2L": [
                1449
            ], 
            "BM1F": [
                2866
            ], 
            "M1": [
                2606
            ], 
            "M2": [
                2387
            ], 
            "BM1L": [
                1971
            ], 
            "WBO": [
                1003
            ], 
            "WBL": [
                1003
            ], 
            "AM2F": [
                735
            ], 
            "M1_ADJ": [
                1
            ]
        }, 
        "sentence": "the progressive scan option can be turned off easily by a button on the remote control which is one of the simplest and easiest remote control i have ever seen or used ."
    }
}