{
    "80cb6fbb20332fa22c5eba0f351a1901": {
        "(2, 14)": {
            "WBF": [
                1238
            ], 
            "AM2L": [
                275
            ], 
            "BM1F": [
                2866
            ], 
            "M1": [
                2629
            ], 
            "M2": [
                1710
            ], 
            "BM1L": [
                275
            ], 
            "WBO": [
                2912, 
                3181, 
                2866, 
                1824, 
                1262, 
                2076, 
                2800, 
                1745
            ], 
            "WBL": [
                2160
            ], 
            "AM2F": [
                744
            ], 
            "M1_ADJ": [
                1
            ]
        }, 
        "location1": [
            2
        ], 
        "location2": [
            14
        ], 
        "sentence": "and the slim form-factor together with the mirror-like front panel sure makes the player look cool and pricey !"
    }
}