{
    "80cb6fbb20332fa22c5eba0f351a1901": {
        "(2, 13)": {
            "WBF": [
                1238
            ], 
            "AM2L": [
                744
            ], 
            "BM1F": [
                2866
            ], 
            "M1": [
                2629
            ], 
            "M2": [
                2160
            ], 
            "BM1L": [
                275
            ], 
            "WBO": [
                2912, 
                3181, 
                2866, 
                1824, 
                1262, 
                2076, 
                2800
            ], 
            "WBL": [
                2866
            ], 
            "AM2F": [
                1710
            ], 
            "M1_ADJ": [
                1
            ]
        }, 
        "location1": [
            2
        ], 
        "location2": [
            13
        ], 
        "sentence": "and the slim form-factor together with the mirror-like front panel sure makes the player look cool and pricey !"
    }, 
    "d460f81b43998cfb748cde2be9836aec": {
        "(22, 18)": {
            "WBF": [
                3181
            ], 
            "AM2L": [
                325
            ], 
            "BM1F": [
                981
            ], 
            "M1": [
                2160
            ], 
            "M2": [
                2629
            ], 
            "BM1L": [
                1871
            ], 
            "WBO": [
                150
            ], 
            "WBL": [
                2771
            ], 
            "AM2F": [
                562
            ], 
            "M1_ADJ": [
                0
            ]
        }, 
        "(22, 6)": {
            "WBF": [
                3117
            ], 
            "AM2L": [
                325
            ], 
            "BM1F": [
                2882
            ], 
            "M1": [
                2160
            ], 
            "M2": [
                2629
            ], 
            "BM1L": [
                3133
            ], 
            "WBO": [
                1084, 
                1449, 
                1103, 
                1566, 
                2909, 
                402, 
                273, 
                218, 
                1871, 
                981, 
                2160, 
                3181
            ], 
            "WBL": [
                2771
            ], 
            "AM2F": [
                562
            ], 
            "M1_ADJ": [
                0
            ]
        }, 
        "location1": [
            22
        ], 
        "location2": [
            6, 
            18
        ], 
        "sentence": "for the first few week , this player was everything i expected it to be , an affordable multi-format dvd player with a stylish slim case as advertised ."
    }
}