{
    "168375c1396ae73de3fde98510ddc928": {
        "location1": [
            8
        ], 
        "location2": [
            22
        ], 
        "(8, 22)": {
            "WBF": [
                2499
            ], 
            "AM2L": [
                273
            ], 
            "BM1F": [
                601
            ], 
            "M1": [
                2637
            ], 
            "M2": [
                2667
            ], 
            "BM1L": [
                2650
            ], 
            "WBO": [
                1987, 
                2866, 
                392, 
                2156, 
                2661, 
                2864, 
                3229, 
                3204, 
                1881, 
                2518
            ], 
            "WBL": [
                150
            ], 
            "AM2F": [
                275
            ], 
            "M1_ADJ": [
                1
            ]
        }, 
        "sentence": "the build quality show why its so cheap - small scratch on the base plate , something that you would n't see on a sony and an overall plasticky feel"
    }
}