{
    "304678fb79adc7d18bc570816e65c16f": {
        "(5, 6)": {
            "AM2L": [
                3075
            ], 
            "BM1F": [
                150
            ], 
            "M1": [
                2637
            ], 
            "M2": [
                562
            ], 
            "BM1L": [
                1490
            ], 
            "WBNULL": [
                1
            ], 
            "AM2F": [
                275
            ], 
            "M1_ADJ": [
                1
            ]
        }, 
        "location1": [
            5
        ], 
        "location2": [
            6
        ], 
        "sentence": "so much packed in a small case and very affordable !"
    }
}