{
    "168375c1396ae73de3fde98510ddc928": {
        "(8, 12)": {
            "WBF": [
                2499
            ], 
            "AM2L": [
                2661
            ], 
            "BM1F": [
                601
            ], 
            "M1": [
                2637
            ], 
            "M2": [
                392
            ], 
            "BM1L": [
                2650
            ], 
            "WBO": [
                1987
            ], 
            "WBL": [
                2866
            ], 
            "AM2F": [
                2156
            ], 
            "M1_ADJ": [
                1
            ]
        }, 
        "location1": [
            8
        ], 
        "location2": [
            12
        ], 
        "sentence": "the build quality show why its so cheap - small scratch on the base plate , something that you would n't see on a sony and an overall plasticky feel"
    }
}