{
    "9151bec746be1369933e0711724fabba": {
        "(37, 16)": {
            "WBF": [
                46
            ], 
            "AM2L": [
                1987
            ], 
            "BM1F": [
                150
            ], 
            "M1": [
                981
            ], 
            "M2": [
                2690
            ], 
            "BM1L": [
                2351
            ], 
            "WBO": [
                2744, 
                150, 
                2084, 
                2172, 
                1490, 
                150, 
                1861, 
                1080, 
                2901, 
                3125, 
                2159, 
                1566, 
                74, 
                1935, 
                423, 
                153, 
                2909
            ], 
            "WBL": [
                584
            ], 
            "AM2F": [
                1163
            ], 
            "M1_ADJ": [
                0
            ]
        }, 
        "(37, 42)": {
            "WBF": [
                1163
            ], 
            "BM1F": [
                584
            ], 
            "M1": [
                2690
            ], 
            "M2": [
                981
            ], 
            "BM1L": [
                166
            ], 
            "WBO": [
                1987
            ], 
            "WBL": [
                2394
            ], 
            "M1_ADJ": [
                1
            ]
        }, 
        "sentence": "the player usually play dvd 's , but has occasional problem such as : 1 ) not recognizing a dvd 2 ) stopping a particular point in a movie every time we played it 3 ) not being able to access certain special feature on a rental dvd .", 
        "location2": [
            4, 
            16, 
            42
        ], 
        "location1": [
            37
        ], 
        "(37, 4)": {
            "WBF": [
                4
            ], 
            "AM2L": [
                1987
            ], 
            "BM1F": [
                2157
            ], 
            "M1": [
                981
            ], 
            "M2": [
                2690
            ], 
            "BM1L": [
                3051
            ], 
            "WBO": [
                522, 
                1371, 
                1965, 
                2236, 
                2782, 
                325, 
                8, 
                1935, 
                2351, 
                150, 
                981, 
                46, 
                2744, 
                150, 
                2084, 
                2172, 
                1490, 
                150, 
                1861, 
                1080, 
                2901, 
                3125, 
                2159, 
                1566, 
                74, 
                1935, 
                423, 
                153, 
                2909
            ], 
            "WBL": [
                584
            ], 
            "AM2F": [
                1163
            ], 
            "M1_ADJ": [
                0
            ]
        }
    }
}