{
    "9151bec746be1369933e0711724fabba": {
        "location1": [
            37
        ], 
        "location2": [
            1
        ], 
        "(37, 1)": {
            "WBF": [
                3051
            ], 
            "AM2L": [
                1987
            ], 
            "BM1F": [
                2866
            ], 
            "M1": [
                2160
            ], 
            "M2": [
                2690
            ], 
            "WBO": [
                2157, 
                981, 
                4, 
                522, 
                1371, 
                1965, 
                2236, 
                2782, 
                325, 
                8, 
                1935, 
                2351, 
                150, 
                981, 
                46, 
                2744, 
                150, 
                2084, 
                2172, 
                1490, 
                150, 
                1861, 
                1080, 
                2901, 
                3125, 
                2159, 
                1566, 
                74, 
                1935, 
                423, 
                153, 
                2909
            ], 
            "WBL": [
                584
            ], 
            "AM2F": [
                1163
            ], 
            "M1_ADJ": [
                0
            ]
        }, 
        "sentence": "the player usually play dvd 's , but has occasional problem such as : 1 ) not recognizing a dvd 2 ) stopping a particular point in a movie every time we played it 3 ) not being able to access certain special feature on a rental dvd ."
    }
}