{
    "d8105077a4434e718fee25bbe1966b63": {
        "location1": [
            13
        ], 
        "location2": [
            19
        ], 
        "(13, 19)": {
            "WBF": [
                2551
            ], 
            "AM2L": [
                2909
            ], 
            "BM1F": [
                2866
            ], 
            "M1": [
                2716
            ], 
            "M2": [
                1567
            ], 
            "BM1L": [
                2862
            ], 
            "WBO": [
                1971, 
                1163
            ], 
            "WBL": [
                2882
            ], 
            "AM2F": [
                2521
            ], 
            "M1_ADJ": [
                1
            ]
        }, 
        "sentence": "i looked into buying an inexpensive dvd player that had more than the standard set of feature and this item seemed to be the best in that category ."
    }
}