{
    "75a1c2102d97efb4fbb45ac6e92cc92c": {
        "(6, 7)": {
            "AM2L": [
                1773
            ], 
            "BM1F": [
                150
            ], 
            "M1": [
                2728
            ], 
            "M2": [
                2107
            ], 
            "BM1L": [
                413
            ], 
            "WBNULL": [
                1
            ], 
            "AM2F": [
                1232
            ], 
            "M1_ADJ": [
                1
            ]
        }, 
        "location1": [
            6
        ], 
        "location2": [
            7
        ], 
        "sentence": "the apex 2600 has been a steady performer for me ."
    }
}