{
    "d460f81b43998cfb748cde2be9836aec": {
        "(21, 6)": {
            "WBF": [
                3117
            ], 
            "AM2L": [
                562
            ], 
            "BM1F": [
                2882
            ], 
            "M1": [
                2160
            ], 
            "M2": [
                2771
            ], 
            "BM1L": [
                3133
            ], 
            "WBO": [
                1084, 
                1449, 
                1103, 
                1566, 
                2909, 
                402, 
                273, 
                218, 
                1871, 
                981, 
                2160
            ], 
            "WBL": [
                150
            ], 
            "AM2F": [
                2629
            ], 
            "M1_ADJ": [
                0
            ]
        }, 
        "(21, 18)": {
            "WBF": [
                3181
            ], 
            "AM2L": [
                562
            ], 
            "BM1F": [
                981
            ], 
            "M1": [
                2160
            ], 
            "M2": [
                2771
            ], 
            "BM1L": [
                1871
            ], 
            "WBO": [
                150
            ], 
            "WBL": [
                150
            ], 
            "AM2F": [
                2629
            ], 
            "M1_ADJ": [
                0
            ]
        }, 
        "location1": [
            21
        ], 
        "location2": [
            6, 
            18
        ], 
        "sentence": "for the first few week , this player was everything i expected it to be , an affordable multi-format dvd player with a stylish slim case as advertised ."
    }
}