{
    "cd704648bf583767f520f7800329f7ce": {
        "(3, 16)": {
            "WBF": [
                297
            ], 
            "BM1F": [
                2866
            ], 
            "M1": [
                2880
            ], 
            "M2": [
                2225
            ], 
            "BM1L": [
                1562
            ], 
            "WBO": [
                2242, 
                1449, 
                6, 
                479, 
                275, 
                2875, 
                728, 
                2909, 
                1483
            ], 
            "WBL": [
                2866
            ], 
            "M1_ADJ": [
                1
            ]
        }, 
        "location1": [
            3
        ], 
        "location2": [
            16
        ], 
        "sentence": "this is the third apex product i 've bought and they continue to impress for the price ."
    }
}