{
    "63310a5e17e811681d048ee50bff3ac2": {
        "(20, 26)": {
            "WBF": [
                1936
            ], 
            "BM1F": [
                1562
            ], 
            "M1": [
                2921
            ], 
            "M2": [
                2676
            ], 
            "BM1L": [
                2676
            ], 
            "WBO": [
                475, 
                969
            ], 
            "WBL": [
                822
            ], 
            "AM2F": [
                1320
            ], 
            "M1_ADJ": [
                1
            ]
        }, 
        "location1": [
            20
        ], 
        "location2": [
            18, 
            26
        ], 
        "(20, 18)": {
            "AM2L": [
                475
            ], 
            "WBFL": [
                1562
            ], 
            "BM1F": [
                275
            ], 
            "M1": [
                2676
            ], 
            "M2": [
                2921
            ], 
            "BM1L": [
                2133
            ], 
            "AM2F": [
                1936
            ], 
            "M1_ADJ": [
                0
            ]
        }, 
        "sentence": "the build quality feel solid , it does n't shake or whine while playing discs , and the picture and sound is top notch ( both dts and dd5.1 sound good ) ."
    }
}