{
    "0d0f8d64973f708c799e4e49d6909dfd": {
        "location1": [
            19
        ], 
        "location2": [
            14, 
            24
        ], 
        "(19, 24)": {
            "WBF": [
                1918
            ], 
            "BM1F": [
                2866
            ], 
            "M1": [
                3156
            ], 
            "M2": [
                1842
            ], 
            "BM1L": [
                1999
            ], 
            "WBO": [
                1232
            ], 
            "WBL": [
                2032
            ], 
            "M1_ADJ": [
                1
            ]
        }, 
        "(19, 14)": {
            "WBF": [
                275
            ], 
            "AM2L": [
                1232
            ], 
            "BM1F": [
                1994
            ], 
            "M1": [
                1842
            ], 
            "M2": [
                3156
            ], 
            "BM1L": [
                1232
            ], 
            "WBO": [
                1371
            ], 
            "WBL": [
                2866
            ], 
            "AM2F": [
                1918
            ], 
            "M1_ADJ": [
                0
            ]
        }, 
        "sentence": "it sends discoutinous signal to tv , so the tv has the picture for one moment and has only the white noise for the other moment ."
    }
}