{
    "0d8185b14013eb0f62080f7c2c1f1129": {
        "(8, 9)": {
            "BM1F": [
                275
            ], 
            "M1": [
                406
            ], 
            "M2": [
                2232
            ], 
            "BM1L": [
                2128
            ], 
            "WBNULL": [
                1
            ], 
            "M1_ADJ": [
                1
            ]
        }, 
        "(5, 9)": {
            "WBF": [
                2128
            ], 
            "BM1F": [
                1084
            ], 
            "M1": [
                406
            ], 
            "M2": [
                2232
            ], 
            "BM1L": [
                154
            ], 
            "WBO": [
                275
            ], 
            "WBL": [
                406
            ], 
            "M1_ADJ": [
                1
            ]
        }, 
        "location1": [
            5, 
            8
        ], 
        "location2": [
            9
        ], 
        "sentence": "setting for just about everything , beautiful pic and beautiful print ."
    }
}