{
    "22acb9431eff5025a15adbaf9c736917": {
        "(1, 3)": {
            "AM2L": [
                1071
            ], 
            "WBFL": [
                894
            ], 
            "BM1F": [
                2866
            ], 
            "M1": [
                673
            ], 
            "M2": [
                541
            ], 
            "AM2F": [
                1562
            ], 
            "M1_ADJ": [
                1
            ]
        }, 
        "(1, 19)": {
            "WBF": [
                894
            ], 
            "AM2L": [
                3229
            ], 
            "BM1F": [
                2866
            ], 
            "M1": [
                673
            ], 
            "M2": [
                541
            ], 
            "WBO": [
                541, 
                1562, 
                1071, 
                3044, 
                1463, 
                3229, 
                1375, 
                1690, 
                613, 
                319, 
                275, 
                3229, 
                543, 
                259
            ], 
            "WBL": [
                2866
            ], 
            "AM2F": [
                3181
            ], 
            "M1_ADJ": [
                1
            ]
        }, 
        "location1": [
            1
        ], 
        "location2": [
            3, 
            19
        ], 
        "sentence": "the compact digital camera is especially useful if you have little child around and you can always take the camera with you and take many picture of them ."
    }, 
    "2d3d3d47aa5812c5767bcd8d62c2bc24": {
        "location1": [
            7
        ], 
        "location2": [
            11
        ], 
        "(7, 11)": {
            "WBF": [
                2790
            ], 
            "AM2L": [
                543
            ], 
            "BM1F": [
                2637
            ], 
            "M1": [
                673
            ], 
            "M2": [
                541
            ], 
            "BM1L": [
                150
            ], 
            "WBO": [
                2420
            ], 
            "WBL": [
                894
            ], 
            "AM2F": [
                3229
            ], 
            "M1_ADJ": [
                1
            ]
        }, 
        "sentence": "if you 're looking for a small , compact , super resolution digital camera , you can end your search with the nikon 4300 !"
    }, 
    "113723c117c44d3f1da9fb6a41a2ac71": {
        "(5, 6)": {
            "AM2L": [
                1739
            ], 
            "BM1F": [
                3075
            ], 
            "M1": [
                673
            ], 
            "M2": [
                541
            ], 
            "BM1L": [
                1152
            ], 
            "WBNULL": [
                1
            ], 
            "AM2F": [
                3152
            ], 
            "M1_ADJ": [
                1
            ]
        }, 
        "location1": [
            5
        ], 
        "location2": [
            6
        ], 
        "sentence": "over all a fantastic very compact camera , which made us experience photography on a totally new level !"
    }
}