{
    "164dda298348d815567dec7d16e56e32": {
        "(47, 40)": {
            "WBF": [
                275
            ], 
            "AM2L": [
                2864
            ], 
            "BM1F": [
                2635
            ], 
            "M1": [
                1837
            ], 
            "M2": [
                894
            ], 
            "BM1L": [
                2909
            ], 
            "WBO": [
                3181, 
                195, 
                737
            ], 
            "WBL": [
                150
            ], 
            "AM2F": [
                541
            ], 
            "M1_ADJ": [
                0
            ]
        }, 
        "location1": [
            47
        ], 
        "location2": [
            40
        ], 
        "sentence": "recently bought this coolpix 4300 along with a 256mb ultra flash card . as expected , i happily found that quality of the picture are excellent with 3m-4m pixel / fine combo and many of the user-friendly function are very similar to slr model , and with added convenience of a digital camera that you can see picture immediately ."
    }
}