{
    "9f0a61055e1f449cb62f85d3d95c52bd": {
        "(17, 6)": {
            "WBF": [
                437
            ], 
            "AM2L": [
                2650
            ], 
            "BM1F": [
                150
            ], 
            "M1": [
                1761
            ], 
            "M2": [
                894
            ], 
            "BM1L": [
                780
            ], 
            "WBO": [
                1880, 
                275, 
                1914, 
                1902, 
                1607, 
                1449, 
                758
            ], 
            "WBL": [
                150
            ], 
            "AM2F": [
                541
            ], 
            "M1_ADJ": [
                0
            ]
        }, 
        "location1": [
            17
        ], 
        "location2": [
            6
        ], 
        "sentence": "this little camera has created a marriage between myself and nikon . never knew i could love a digital camera so much ."
    }
}