{
    "ac4ab040f5068449f5d661c742ded24a": {
        "(4, 17)": {
            "WBF": [
                541
            ], 
            "AM2L": [
                1566
            ], 
            "BM1F": [
                1199
            ], 
            "M1": [
                894
            ], 
            "M2": [
                1163
            ], 
            "BM1L": [
                1878
            ], 
            "WBO": [
                275, 
                1449, 
                543, 
                2491, 
                2864, 
                1449, 
                260, 
                2291, 
                1484
            ], 
            "WBL": [
                2866
            ], 
            "AM2F": [
                2864
            ], 
            "M1_ADJ": [
                1
            ]
        }, 
        "location1": [
            4
        ], 
        "location2": [
            17
        ], 
        "sentence": "this is my first digital camera and i can say that i am quite impressed with the feature that it has ."
    }
}