{
    "39e5ba4fdeb5f16fb0a7683a6195790c": {
        "(16, 7)": {
            "WBF": [
                316
            ], 
            "AM2L": [
                3041
            ], 
            "BM1F": [
                2866
            ], 
            "M1": [
                735
            ], 
            "M2": [
                1005
            ], 
            "BM1L": [
                522
            ], 
            "WBO": [
                2650, 
                3138, 
                865, 
                2864, 
                2875
            ], 
            "WBL": [
                2734
            ], 
            "AM2F": [
                2909
            ], 
            "M1_ADJ": [
                0
            ]
        }, 
        "location1": [
            16
        ], 
        "location2": [
            7
        ], 
        "sentence": "3 it is very compact but the control are so well designed that they 're still easy to use ."
    }, 
    "385f6554344ce3fdba684ad8bf694cd7": {
        "(1, 0)": {
            "AM2L": [
                3041
            ], 
            "M1": [
                735
            ], 
            "M2": [
                1005
            ], 
            "WBNULL": [
                1
            ], 
            "AM2F": [
                3228
            ], 
            "M1_ADJ": [
                0
            ]
        }, 
        "location1": [
            1, 
            5
        ], 
        "location2": [
            0
        ], 
        "(5, 0)": {
            "WBF": [
                1005
            ], 
            "AM2L": [
                1297
            ], 
            "M1": [
                735
            ], 
            "M2": [
                1005
            ], 
            "WBO": [
                3228
            ], 
            "WBL": [
                275
            ], 
            "AM2F": [
                2909
            ], 
            "M1_ADJ": [
                0
            ]
        }, 
        "sentence": "control easy yo use and easy to get to ."
    }
}