{
    "611cd84ef2797167021575937265cb17": {
        "(2, 8)": {
            "WBF": [
                2909
            ], 
            "BM1F": [
                4
            ], 
            "M1": [
                1005
            ], 
            "M2": [
                1163
            ], 
            "BM1L": [
                1566
            ], 
            "WBO": [
                3041, 
                275
            ], 
            "WBL": [
                3075
            ], 
            "AM2F": [
                2444
            ], 
            "M1_ADJ": [
                1
            ]
        }, 
        "location1": [
            2
        ], 
        "location2": [
            8
        ], 
        "sentence": "it 's easy to use , and yet very feature rich ."
    }, 
    "1769a914d0cd227d1f05d83abc44b3d3": {
        "location1": [
            2
        ], 
        "location2": [
            9
        ], 
        "(2, 9)": {
            "WBF": [
                1232
            ], 
            "AM2L": [
                1851
            ], 
            "BM1F": [
                4
            ], 
            "M1": [
                1005
            ], 
            "M2": [
                1163
            ], 
            "BM1L": [
                1566
            ], 
            "WBO": [
                420, 
                2909, 
                3041
            ], 
            "WBL": [
                1371
            ], 
            "AM2F": [
                2864
            ], 
            "M1_ADJ": [
                1
            ]
        }, 
        "sentence": "it 's easy for beginner to use , but has feature that more serious photographer will love , so it 's an excellent camera to grow into ."
    }, 
    "edb3b3c6a9612649298f6346ee785f39": {
        "(5, 3)": {
            "AM2L": [
                1751
            ], 
            "WBFL": [
                316
            ], 
            "BM1F": [
                275
            ], 
            "M1": [
                1163
            ], 
            "M2": [
                1005
            ], 
            "BM1L": [
                1796
            ], 
            "AM2F": [
                2909
            ], 
            "M1_ADJ": [
                0
            ]
        }, 
        "location1": [
            5
        ], 
        "location2": [
            3
        ], 
        "sentence": "the menus and feature are easy to manipulate and access , and it takes silent movie ."
    }, 
    "a3b0eea6fef24303e358dc36a867f602": {
        "(2, 16)": {
            "WBF": [
                1050
            ], 
            "AM2L": [
                1773
            ], 
            "BM1F": [
                1562
            ], 
            "M1": [
                1005
            ], 
            "M2": [
                1163
            ], 
            "BM1L": [
                1566
            ], 
            "WBO": [
                2909, 
                3041, 
                1232, 
                150, 
                420, 
                1669, 
                1773, 
                522, 
                1566, 
                1371
            ], 
            "WBL": [
                1971
            ], 
            "AM2F": [
                1232
            ], 
            "M1_ADJ": [
                1
            ]
        }, 
        "location1": [
            2
        ], 
        "location2": [
            16
        ], 
        "sentence": "it is easy enough to use for a beginner like me but it has plenty of feature for me to grow into ."
    }, 
    "f4ed4ae3305445dd6ec6f73ce7ad7b7c": {
        "(5, 3)": {
            "AM2L": [
                1980
            ], 
            "WBFL": [
                1562
            ], 
            "BM1F": [
                1758
            ], 
            "M1": [
                1163
            ], 
            "M2": [
                1005
            ], 
            "BM1L": [
                1569
            ], 
            "AM2F": [
                275
            ], 
            "M1_ADJ": [
                0
            ]
        }, 
        "location1": [
            5
        ], 
        "location2": [
            3
        ], 
        "sentence": "operating its many feature is easy and often obvious - i 'm no annie lebovitz , but i was able to figure out most of its ability just messing around with it at a camera store ."
    }
}