{
    "1769a914d0cd227d1f05d83abc44b3d3": {
        "location1": [
            2
        ], 
        "location2": [
            4
        ], 
        "(2, 4)": {
            "AM2L": [
                3041
            ], 
            "WBFL": [
                1232
            ], 
            "BM1F": [
                4
            ], 
            "M1": [
                1005
            ], 
            "M2": [
                420
            ], 
            "BM1L": [
                1566
            ], 
            "AM2F": [
                2909
            ], 
            "M1_ADJ": [
                1
            ]
        }, 
        "sentence": "it 's easy for beginner to use , but has feature that more serious photographer will love , so it 's an excellent camera to grow into ."
    }, 
    "a3b0eea6fef24303e358dc36a867f602": {
        "(2, 8)": {
            "WBF": [
                1050
            ], 
            "AM2L": [
                1773
            ], 
            "BM1F": [
                1562
            ], 
            "M1": [
                1005
            ], 
            "M2": [
                420
            ], 
            "BM1L": [
                1566
            ], 
            "WBO": [
                2909, 
                3041
            ], 
            "WBL": [
                150
            ], 
            "AM2F": [
                1669
            ], 
            "M1_ADJ": [
                1
            ]
        }, 
        "location1": [
            2
        ], 
        "location2": [
            8
        ], 
        "sentence": "it is easy enough to use for a beginner like me but it has plenty of feature for me to grow into ."
    }
}