{
    "ef8b221188025f77306dd1fd16320e12": {
        "(12, 19)": {
            "WBF": [
                2429
            ], 
            "AM2L": [
                2038
            ], 
            "BM1F": [
                1322
            ], 
            "M1": [
                1092
            ], 
            "M2": [
                2496
            ], 
            "BM1L": [
                275
            ], 
            "WBO": [
                2605, 
                1259, 
                3039
            ], 
            "WBL": [
                1758
            ], 
            "AM2F": [
                1510
            ], 
            "M1_ADJ": [
                1
            ]
        }, 
        "location1": [
            12
        ], 
        "location2": [
            19
        ], 
        "sentence": "great camera , i have been using this for several month and got excellent result , simple friendly usage , in many scene indoor , outdoor , snow , close up macro etc ."
    }
}