{
    "164dda298348d815567dec7d16e56e32": {
        "(23, 21)": {
            "AM2L": [
                91
            ], 
            "WBFL": [
                316
            ], 
            "BM1F": [
                2866
            ], 
            "M1": [
                2133
            ], 
            "M2": [
                1092
            ], 
            "BM1L": [
                1971
            ], 
            "AM2F": [
                3181
            ], 
            "M1_ADJ": [
                0
            ]
        }, 
        "(23, 53)": {
            "WBF": [
                3181
            ], 
            "BM1F": [
                316
            ], 
            "M1": [
                1092
            ], 
            "M2": [
                2133
            ], 
            "BM1L": [
                2133
            ], 
            "WBO": [
                91, 
                2146, 
                1188, 
                662, 
                275, 
                1758, 
                1971, 
                2866, 
                3047, 
                1272, 
                316, 
                3075, 
                2604, 
                2909, 
                2635, 
                1837, 
                275, 
                3181, 
                195, 
                737, 
                1971, 
                150, 
                894, 
                541, 
                2864, 
                3229
            ], 
            "WBL": [
                2518
            ], 
            "AM2F": [
                1476
            ], 
            "M1_ADJ": [
                1
            ]
        }, 
        "location1": [
            23
        ], 
        "location2": [
            21, 
            53
        ], 
        "sentence": "recently bought this coolpix 4300 along with a 256mb ultra flash card . as expected , i happily found that quality of the picture are excellent with 3m-4m pixel / fine combo and many of the user-friendly function are very similar to slr model , and with added convenience of a digital camera that you can see picture immediately ."
    }, 
    "a245cc8c0d049db1f832f29a7c5409f3": {
        "(4, 1)": {
            "WBF": [
                2281
            ], 
            "BM1F": [
                130
            ], 
            "M1": [
                2133
            ], 
            "M2": [
                1092
            ], 
            "WBO": [
                1562
            ], 
            "WBL": [
                1562
            ], 
            "M1_ADJ": [
                0
            ]
        }, 
        "location1": [
            4
        ], 
        "location2": [
            1
        ], 
        "sentence": "7 picture quality is excellent ."
    }
}