{
    "1769a914d0cd227d1f05d83abc44b3d3": {
        "(20, 4)": {
            "WBF": [
                2909
            ], 
            "AM2L": [
                2909
            ], 
            "BM1F": [
                1232
            ], 
            "M1": [
                420
            ], 
            "M2": [
                1092
            ], 
            "BM1L": [
                1005
            ], 
            "WBO": [
                3041, 
                522, 
                1371, 
                1163, 
                2864, 
                1851, 
                2545, 
                2123, 
                3168, 
                1722, 
                2650, 
                1566
            ], 
            "WBL": [
                273
            ], 
            "AM2F": [
                541
            ], 
            "M1_ADJ": [
                0
            ]
        }, 
        "location1": [
            20
        ], 
        "location2": [
            4
        ], 
        "sentence": "it 's easy for beginner to use , but has feature that more serious photographer will love , so it 's an excellent camera to grow into ."
    }
}