{
    "4283cf0438864dd7aa4566ca679cc53b": {
        "location1": [
            10
        ], 
        "location2": [
            6
        ], 
        "(10, 6)": {
            "WBF": [
                1712
            ], 
            "AM2L": [
                541
            ], 
            "BM1F": [
                2909
            ], 
            "M1": [
                288
            ], 
            "M2": [
                1320
            ], 
            "BM1L": [
                541
            ], 
            "WBO": [
                1232
            ], 
            "WBL": [
                150
            ], 
            "AM2F": [
                894
            ], 
            "M1_ADJ": [
                0
            ]
        }, 
        "sentence": "i highly recommend this camera to anyone looking for a good digital camera that takes great picture yet does n't take week to figure out how to operate ."
    }
}