{
    "9e23440344513995e9ef9d800416e9c8": {
        "(11, 12)": {
            "AM2L": [
                259
            ], 
            "BM1F": [
                1971
            ], 
            "M1": [
                1320
            ], 
            "M2": [
                1792
            ], 
            "BM1L": [
                1719
            ], 
            "WBNULL": [
                1
            ], 
            "AM2F": [
                325
            ], 
            "M1_ADJ": [
                1
            ]
        }, 
        "location1": [
            11
        ], 
        "location2": [
            12
        ], 
        "sentence": "a nikon will make you happier and leave you lot of good memory , as always ."
    }
}