{
    "695d490cea19970e52fa3608c2ac96c8": {
        "(4, 7)": {
            "WBF": [
                2133
            ], 
            "AM2L": [
                1881
            ], 
            "BM1F": [
                3075
            ], 
            "M1": [
                1320
            ], 
            "M2": [
                844
            ], 
            "BM1L": [
                2836
            ], 
            "WBO": [
                2592
            ], 
            "WBL": [
                2592
            ], 
            "AM2F": [
                1562
            ], 
            "M1_ADJ": [
                1
            ]
        }, 
        "location1": [
            4
        ], 
        "location2": [
            7
        ], 
        "sentence": "otherwise , it takes very good picture ; shutter delay is n't so bad either ."
    }
}