{
    "42f0ce4c366e69f992de1c95467b18e7": {
        "location1": [
            11
        ], 
        "location2": [
            15
        ], 
        "(11, 15)": {
            "WBF": [
                2266
            ], 
            "AM2L": [
                1917
            ], 
            "BM1F": [
                3075
            ], 
            "M1": [
                1320
            ], 
            "M2": [
                2774
            ], 
            "BM1L": [
                316
            ], 
            "WBO": [
                2864
            ], 
            "WBL": [
                3230
            ], 
            "AM2F": [
                1562
            ], 
            "M1_ADJ": [
                1
            ]
        }, 
        "sentence": "the daylight picture are brilliant and the indoor shot are very good provided that your subject is no more than about 8 foot away ."
    }
}