{
    "858a58b51860cbf88e1296d8838558d1": {
        "location1": [
            3
        ], 
        "location2": [
            9
        ], 
        "(3, 9)": {
            "WBF": [
                541
            ], 
            "AM2L": [
                2281
            ], 
            "BM1F": [
                150
            ], 
            "M1": [
                1320
            ], 
            "M2": [
                1272
            ], 
            "BM1L": [
                1562
            ], 
            "WBO": [
                1490, 
                2856
            ], 
            "WBL": [
                2866
            ], 
            "AM2F": [
                275
            ], 
            "M1_ADJ": [
                1
            ]
        }, 
        "sentence": "it is a good camera in term of the function and quality , but take your chance with it because nikon absolutely suck when it comes to customer service ."
    }, 
    "3e862711b9c6b61022e139ccc3d36f8a": {
        "(22, 5)": {
            "WBF": [
                395
            ], 
            "BM1F": [
                1566
            ], 
            "M1": [
                1272
            ], 
            "M2": [
                1320
            ], 
            "BM1L": [
                1836
            ], 
            "WBO": [
                325, 
                150, 
                2172, 
                275, 
                636, 
                2866, 
                2496, 
                1836, 
                316, 
                3075, 
                1005, 
                2909, 
                3041
            ], 
            "WBL": [
                2240
            ], 
            "AM2F": [
                2429
            ], 
            "M1_ADJ": [
                0
            ]
        }, 
        "location1": [
            22
        ], 
        "location2": [
            5
        ], 
        "sentence": "in the auto mode it function basically as a point and click , the scene mode are very easy to use and produce good result ."
    }
}