{
    "0ebcdfef8bb972e3ec21c12e403b87b6": {
        "(7, 13)": {
            "WBF": [
                325
            ], 
            "AM2L": [
                6
            ], 
            "BM1F": [
                325
            ], 
            "M1": [
                1320
            ], 
            "M2": [
                541
            ], 
            "BM1L": [
                316
            ], 
            "WBO": [
                286, 
                2032
            ], 
            "WBL": [
                1863
            ], 
            "AM2F": [
                1449
            ], 
            "M1_ADJ": [
                1
            ]
        }, 
        "location1": [
            7
        ], 
        "location2": [
            13
        ], 
        "sentence": "with nikon , although picture quality are as good as any other 4 mp camera , i 've had the following headache ;"
    }, 
    "0a97bbb3a0da722d9e48e3c05e77a24c": {
        "(23, 7)": {
            "WBF": [
                1232
            ], 
            "AM2L": [
                2946
            ], 
            "BM1F": [
                434
            ], 
            "M1": [
                541
            ], 
            "M2": [
                1320
            ], 
            "BM1L": [
                2866
            ], 
            "WBO": [
                2866, 
                1844, 
                1463, 
                3229, 
                3, 
                1712, 
                1232, 
                2661, 
                2864, 
                4, 
                1005, 
                2909
            ], 
            "WBL": [
                2637
            ], 
            "AM2F": [
                1232
            ], 
            "M1_ADJ": [
                0
            ]
        }, 
        "location1": [
            23
        ], 
        "location2": [
            7
        ], 
        "sentence": "in my opinion it 's the best camera for the money if you 're looking for something that 's easy to use , small good for travel , and provides excellent , sharp image ."
    }, 
    "7c796cc382127a60c5fb968230a6441f": {
        "(5, 6)": {
            "AM2L": [
                150
            ], 
            "BM1F": [
                150
            ], 
            "M1": [
                1320
            ], 
            "M2": [
                541
            ], 
            "BM1L": [
                1562
            ], 
            "WBNULL": [
                1
            ], 
            "AM2F": [
                3181
            ], 
            "M1_ADJ": [
                1
            ]
        }, 
        "location1": [
            5, 
            10
        ], 
        "location2": [
            6
        ], 
        "(10, 6)": {
            "WBF": [
                3181
            ], 
            "AM2L": [
                628
            ], 
            "BM1F": [
                1320
            ], 
            "M1": [
                541
            ], 
            "M2": [
                1320
            ], 
            "BM1L": [
                150
            ], 
            "WBO": [
                150
            ], 
            "WBL": [
                2325
            ], 
            "AM2F": [
                2133
            ], 
            "M1_ADJ": [
                0
            ]
        }, 
        "sentence": "but overall this is a good camera with a ' really good ' picture clarity ; an exceptional close-up shooting capability ."
    }, 
    "858a58b51860cbf88e1296d8838558d1": {
        "(3, 4)": {
            "AM2L": [
                2856
            ], 
            "BM1F": [
                150
            ], 
            "M1": [
                1320
            ], 
            "M2": [
                541
            ], 
            "BM1L": [
                1562
            ], 
            "WBNULL": [
                1
            ], 
            "AM2F": [
                1490
            ], 
            "M1_ADJ": [
                1
            ]
        }, 
        "location1": [
            3
        ], 
        "location2": [
            4
        ], 
        "sentence": "it is a good camera in term of the function and quality , but take your chance with it because nikon absolutely suck when it comes to customer service ."
    }, 
    "4283cf0438864dd7aa4566ca679cc53b": {
        "(10, 12)": {
            "AM2L": [
                2836
            ], 
            "WBFL": [
                894
            ], 
            "BM1F": [
                150
            ], 
            "M1": [
                1320
            ], 
            "M2": [
                541
            ], 
            "BM1L": [
                1232
            ], 
            "AM2F": [
                2864
            ], 
            "M1_ADJ": [
                1
            ]
        }, 
        "location1": [
            10
        ], 
        "location2": [
            4, 
            12
        ], 
        "(10, 4)": {
            "WBF": [
                2909
            ], 
            "AM2L": [
                541
            ], 
            "BM1F": [
                2882
            ], 
            "M1": [
                541
            ], 
            "M2": [
                1320
            ], 
            "BM1L": [
                2353
            ], 
            "WBO": [
                288, 
                1712
            ], 
            "WBL": [
                150
            ], 
            "AM2F": [
                894
            ], 
            "M1_ADJ": [
                0
            ]
        }, 
        "sentence": "i highly recommend this camera to anyone looking for a good digital camera that takes great picture yet does n't take week to figure out how to operate ."
    }
}