{
    "7c796cc382127a60c5fb968230a6441f": {
        "location1": [
            5, 
            10
        ], 
        "location2": [
            16
        ], 
        "(10, 16)": {
            "WBF": [
                2133
            ], 
            "BM1F": [
                2325
            ], 
            "M1": [
                1320
            ], 
            "M2": [
                2580
            ], 
            "BM1L": [
                150
            ], 
            "WBO": [
                628, 
                273
            ], 
            "WBL": [
                641
            ], 
            "AM2F": [
                549
            ], 
            "M1_ADJ": [
                1
            ]
        }, 
        "(5, 16)": {
            "WBF": [
                541
            ], 
            "BM1F": [
                150
            ], 
            "M1": [
                1320
            ], 
            "M2": [
                2580
            ], 
            "BM1L": [
                1562
            ], 
            "WBO": [
                3181, 
                150, 
                2325, 
                1320, 
                2133, 
                628, 
                273
            ], 
            "WBL": [
                641
            ], 
            "AM2F": [
                549
            ], 
            "M1_ADJ": [
                1
            ]
        }, 
        "sentence": "but overall this is a good camera with a ' really good ' picture clarity ; an exceptional close-up shooting capability ."
    }
}