{
    "5881e9601bc8ceb222a7a2d40997a8ab": {
        "(18, 17)": {
            "AM2L": [
                181
            ], 
            "BM1F": [
                2302
            ], 
            "M1": [
                2781
            ], 
            "M2": [
                1333
            ], 
            "BM1L": [
                1490
            ], 
            "WBNULL": [
                1
            ], 
            "AM2F": [
                1232
            ], 
            "M1_ADJ": [
                0
            ]
        }, 
        "location1": [
            18
        ], 
        "location2": [
            17
        ], 
        "sentence": "i love the continuous shot mode , which allows you to take up to 16 pix in rapid succession -- great for action shot ."
    }
}