{
    "9f043f0ebf4759c2f9e477ec5b0d50d5": {
        "(19, 13)": {
            "WBF": [
                2432
            ], 
            "BM1F": [
                275
            ], 
            "M1": [
                1853
            ], 
            "M2": [
                1333
            ], 
            "BM1L": [
                487
            ], 
            "WBO": [
                275, 
                2875
            ], 
            "WBL": [
                850
            ], 
            "AM2F": [
                2429
            ], 
            "M1_ADJ": [
                0
            ]
        }, 
        "location1": [
            19
        ], 
        "location2": [
            13
        ], 
        "sentence": "i experimented with online print ordering with the two major us brick and mortar retailer , and they both delivered great result ."
    }
}