{
    "736ae5070578444c8cf7f228710c97da": {
        "(2, 3)": {
            "BM1F": [
                2836
            ], 
            "M1": [
                1333
            ], 
            "M2": [
                2133
            ], 
            "BM1L": [
                1566
            ], 
            "WBNULL": [
                1
            ], 
            "M1_ADJ": [
                1
            ]
        }, 
        "location1": [
            2
        ], 
        "location2": [
            3
        ], 
        "sentence": "it takes great picture ."
    }, 
    "4283cf0438864dd7aa4566ca679cc53b": {
        "(15, 16)": {
            "AM2L": [
                936
            ], 
            "BM1F": [
                2836
            ], 
            "M1": [
                1333
            ], 
            "M2": [
                2133
            ], 
            "BM1L": [
                2864
            ], 
            "WBNULL": [
                1
            ], 
            "AM2F": [
                3226
            ], 
            "M1_ADJ": [
                1
            ]
        }, 
        "location1": [
            15
        ], 
        "location2": [
            16
        ], 
        "sentence": "i highly recommend this camera to anyone looking for a good digital camera that takes great picture yet does n't take week to figure out how to operate ."
    }
}