{
    "d70accb3661a2674ab2766a0dd695dae": {
        "(15, 23)": {
            "WBF": [
                2281
            ], 
            "AM2L": [
                2301
            ], 
            "BM1F": [
                150
            ], 
            "M1": [
                1407
            ], 
            "M2": [
                1782
            ], 
            "BM1L": [
                3110
            ], 
            "WBO": [
                2172, 
                275, 
                2579, 
                541
            ], 
            "WBL": [
                2866
            ], 
            "AM2F": [
                2225
            ], 
            "M1_ADJ": [
                1
            ]
        }, 
        "location1": [
            15
        ], 
        "location2": [
            23
        ], 
        "sentence": "in summary , i love this camera and would whole-heartedly recommend this to anyone wanting a high quality point and shoot camera in the medium price range ."
    }
}