{
    "fc74409b72829e8f76ff6ce7e7d9c3eb": {
        "(12, 11)": {
            "AM2L": [
                1188
            ], 
            "BM1F": [
                1997
            ], 
            "M1": [
                2617
            ], 
            "M2": [
                1407
            ], 
            "BM1L": [
                522
            ], 
            "WBNULL": [
                1
            ], 
            "AM2F": [
                2909
            ], 
            "M1_ADJ": [
                0
            ]
        }, 
        "location1": [
            12
        ], 
        "location2": [
            11
        ], 
        "sentence": "i expected the 12x digital zoom to be grainy , but onfull size high to fine quality , the zoomed image are quite impressive ."
    }, 
    "1da9da21f6c3e925964f446dfeae9895": {
        "(9, 14)": {
            "WBF": [
                2281
            ], 
            "BM1F": [
                3041
            ], 
            "M1": [
                1407
            ], 
            "M2": [
                2617
            ], 
            "BM1L": [
                2909
            ], 
            "WBO": [
                275
            ], 
            "WBL": [
                1490
            ], 
            "M1_ADJ": [
                1
            ]
        }, 
        "location1": [
            9
        ], 
        "location2": [
            14
        ], 
        "sentence": "the nikon coolpix 4300 is wonderful -- easy to use , high quality , and compact in size ."
    }, 
    "e71bfa23d0bac20249b5f7a3754b3ca7": {
        "location1": [
            9
        ], 
        "location2": [
            12
        ], 
        "(9, 12)": {
            "WBF": [
                2106
            ], 
            "AM2L": [
                1449
            ], 
            "BM1F": [
                1164
            ], 
            "M1": [
                1407
            ], 
            "M2": [
                2617
            ], 
            "BM1L": [
                150
            ], 
            "WBO": [
                2946
            ], 
            "WBL": [
                2946
            ], 
            "AM2F": [
                541
            ], 
            "M1_ADJ": [
                1
            ]
        }, 
        "sentence": "after a lengthy and extensive journey for a feature-loaded , high performance , travel size camera , i initially gravitated to this little gem because of the superior picture quality 4 mega pixel ."
    }
}