{
    "d70accb3661a2674ab2766a0dd695dae": {
        "location1": [
            15
        ], 
        "location2": [
            17
        ], 
        "(15, 17)": {
            "AM2L": [
                2579
            ], 
            "WBFL": [
                2281
            ], 
            "BM1F": [
                150
            ], 
            "M1": [
                1407
            ], 
            "M2": [
                2172
            ], 
            "BM1L": [
                3110
            ], 
            "AM2F": [
                275
            ], 
            "M1_ADJ": [
                1
            ]
        }, 
        "sentence": "in summary , i love this camera and would whole-heartedly recommend this to anyone wanting a high quality point and shoot camera in the medium price range ."
    }
}