{
    "ef8b221188025f77306dd1fd16320e12": {
        "(20, 16)": {
            "WBF": [
                1490
            ], 
            "AM2L": [
                2647
            ], 
            "BM1F": [
                1259
            ], 
            "M1": [
                3039
            ], 
            "M2": [
                1510
            ], 
            "BM1L": [
                2605
            ], 
            "WBO": [
                1758
            ], 
            "WBL": [
                2496
            ], 
            "AM2F": [
                2038
            ], 
            "M1_ADJ": [
                0
            ]
        }, 
        "location1": [
            20
        ], 
        "location2": [
            16
        ], 
        "sentence": "great camera , i have been using this for several month and got excellent result , simple friendly usage , in many scene indoor , outdoor , snow , close up macro etc ."
    }
}