{
    "747107cdbe2f2c1bbb64da5fa3d529a4": {
        "location1": [
            8
        ], 
        "location2": [
            17
        ], 
        "(8, 17)": {
            "WBF": [
                2586
            ], 
            "AM2L": [
                1449
            ], 
            "BM1F": [
                8
            ], 
            "M1": [
                1510
            ], 
            "M2": [
                656
            ], 
            "BM1L": [
                316
            ], 
            "WBO": [
                1261, 
                150, 
                923, 
                140, 
                1616
            ], 
            "WBL": [
                275
            ], 
            "AM2F": [
                522
            ], 
            "M1_ADJ": [
                1
            ]
        }, 
        "sentence": "the only drawback i 've encountered are : 1 indoor shot from a distance > 8ft lack contrast and color , but i 've found this to be a problem with all camera with built-in flash that i 've used even on a nikon slr ."
    }
}