{
    "4c6c28d1390c22b69d834cde174cecbc": {
        "(1, 6)": {
            "WBF": [
                2128
            ], 
            "AM2L": [
                522
            ], 
            "BM1F": [
                2866
            ], 
            "M1": [
                1525
            ], 
            "M2": [
                444
            ], 
            "WBO": [
                543
            ], 
            "WBL": [
                150
            ], 
            "AM2F": [
                588
            ], 
            "M1_ADJ": [
                1
            ]
        }, 
        "location1": [
            1
        ], 
        "location2": [
            6
        ], 
        "sentence": "the inside pic , can be a bit challenging , but when you can instantly delete pic you dont like , that are not focused perfectly , or need lighting adjustment , make this camera very simple and effective ."
    }
}