{
    "d2ecbc0b6c5a83518582c7e8d313b9b7": {
        "location1": [
            25
        ], 
        "location2": [
            11
        ], 
        "(25, 11)": {
            "WBF": [
                3181
            ], 
            "AM2L": [
                400
            ], 
            "BM1F": [
                94
            ], 
            "M1": [
                3239
            ], 
            "M2": [
                1628
            ], 
            "BM1L": [
                150
            ], 
            "WBO": [
                2866, 
                152, 
                2909, 
                1100, 
                3037, 
                2864, 
                3181, 
                1117, 
                1333, 
                646
            ], 
            "WBL": [
                1706
            ], 
            "AM2F": [
                2341
            ], 
            "M1_ADJ": [
                0
            ]
        }, 
        "sentence": "the same 4mp chip from the 4500 camera , plus a 3x zoom with the ability to expand upon that with extenders , great closeup mode , long lasting rechargable battery , etc etc ."
    }
}