{
    "9a0c2c401f7f0515a8b07827ed8550ab": {
        "(27, 19)": {
            "WBF": [
                275
            ], 
            "AM2L": [
                3102
            ], 
            "BM1F": [
                2866
            ], 
            "M1": [
                523
            ], 
            "M2": [
                1690
            ], 
            "BM1L": [
                636
            ], 
            "WBO": [
                1449, 
                1375, 
                2523, 
                2100
            ], 
            "WBL": [
                150
            ], 
            "AM2F": [
                1479
            ], 
            "M1_ADJ": [
                0
            ]
        }, 
        "location1": [
            27
        ], 
        "location2": [
            19
        ], 
        "sentence": "2 . it takes a while for the camera to actually capture the photograph from the time you click the button and i have seen people becoming a little impatient waiting for the flash to glow ."
    }
}