{
    "9f0a61055e1f449cb62f85d3d95c52bd": {
        "(1, 6)": {
            "WBF": [
                541
            ], 
            "AM2L": [
                1880
            ], 
            "BM1F": [
                2882
            ], 
            "M1": [
                1690
            ], 
            "M2": [
                1761
            ], 
            "WBO": [
                1371
            ], 
            "WBL": [
                150
            ], 
            "AM2F": [
                437
            ], 
            "M1_ADJ": [
                1
            ]
        }, 
        "location1": [
            1
        ], 
        "location2": [
            6
        ], 
        "sentence": "this little camera has created a marriage between myself and nikon . never knew i could love a digital camera so much ."
    }
}