{
    "6ab5e8c4fc8cb5905e79f4c8ff6d9ff5": {
        "location1": [
            14
        ], 
        "location2": [
            15
        ], 
        "(14, 15)": {
            "AM2L": [
                2909
            ], 
            "BM1F": [
                150
            ], 
            "M1": [
                1690
            ], 
            "M2": [
                1271
            ], 
            "BM1L": [
                193
            ], 
            "WBNULL": [
                1
            ], 
            "AM2F": [
                587
            ], 
            "M1_ADJ": [
                1
            ]
        }, 
        "sentence": "autofocus feel exactly like my film camera while scene and manual mode add a little fun challenge to it all ."
    }
}