{
    "ef8b221188025f77306dd1fd16320e12": {
        "(18, 25)": {
            "WBF": [
                2496
            ], 
            "BM1F": [
                1490
            ], 
            "M1": [
                1758
            ], 
            "M2": [
                1737
            ], 
            "BM1L": [
                3039
            ], 
            "WBO": [
                1510, 
                2038, 
                2647
            ], 
            "WBL": [
                3029
            ], 
            "AM2F": [
                1074
            ], 
            "M1_ADJ": [
                1
            ]
        }, 
        "location1": [
            18
        ], 
        "location2": [
            25
        ], 
        "sentence": "great camera , i have been using this for several month and got excellent result , simple friendly usage , in many scene indoor , outdoor , snow , close up macro etc ."
    }
}