{
    "22acb9431eff5025a15adbaf9c736917": {
        "location1": [
            24
        ], 
        "location2": [
            25
        ], 
        "(24, 25)": {
            "AM2L": [
                2869
            ], 
            "BM1F": [
                2834
            ], 
            "M1": [
                1758
            ], 
            "M2": [
                2133
            ], 
            "BM1L": [
                275
            ], 
            "WBNULL": [
                1
            ], 
            "AM2F": [
                1971
            ], 
            "M1_ADJ": [
                1
            ]
        }, 
        "sentence": "the compact digital camera is especially useful if you have little child around and you can always take the camera with you and take many picture of them ."
    }, 
    "164dda298348d815567dec7d16e56e32": {
        "(30, 21)": {
            "WBF": [
                316
            ], 
            "AM2L": [
                2866
            ], 
            "BM1F": [
                2866
            ], 
            "M1": [
                2133
            ], 
            "M2": [
                1758
            ], 
            "BM1L": [
                1971
            ], 
            "WBO": [
                1092, 
                3181, 
                91, 
                2146, 
                1188
            ], 
            "WBL": [
                275
            ], 
            "AM2F": [
                1971
            ], 
            "M1_ADJ": [
                0
            ]
        }, 
        "location1": [
            30
        ], 
        "location2": [
            21, 
            53
        ], 
        "(30, 53)": {
            "WBF": [
                1971
            ], 
            "BM1F": [
                275
            ], 
            "M1": [
                1758
            ], 
            "M2": [
                2133
            ], 
            "BM1L": [
                662
            ], 
            "WBO": [
                2866, 
                3047, 
                1272, 
                316, 
                3075, 
                2604, 
                2909, 
                2635, 
                1837, 
                275, 
                3181, 
                195, 
                737, 
                1971, 
                150, 
                894, 
                541, 
                2864, 
                3229
            ], 
            "WBL": [
                2518
            ], 
            "AM2F": [
                1476
            ], 
            "M1_ADJ": [
                1
            ]
        }, 
        "sentence": "recently bought this coolpix 4300 along with a 256mb ultra flash card . as expected , i happily found that quality of the picture are excellent with 3m-4m pixel / fine combo and many of the user-friendly function are very similar to slr model , and with added convenience of a digital camera that you can see picture immediately ."
    }
}