{
    "f4ed4ae3305445dd6ec6f73ce7ad7b7c": {
        "(2, 12)": {
            "WBF": [
                1163
            ], 
            "AM2L": [
                522
            ], 
            "BM1F": [
                1569
            ], 
            "M1": [
                1758
            ], 
            "M2": [
                278
            ], 
            "BM1L": [
                2008
            ], 
            "WBO": [
                1562, 
                1005, 
                275, 
                1980, 
                1961, 
                1449
            ], 
            "WBL": [
                1917
            ], 
            "AM2F": [
                1645
            ], 
            "M1_ADJ": [
                1
            ]
        }, 
        "location1": [
            2
        ], 
        "location2": [
            12
        ], 
        "sentence": "operating its many feature is easy and often obvious - i 'm no annie lebovitz , but i was able to figure out most of its ability just messing around with it at a camera store ."
    }
}