{
    "2f83fe76d6c65089aa8744a484b1d5d3": {
        "(5, 6)": {
            "AM2L": [
                316
            ], 
            "BM1F": [
                2866
            ], 
            "M1": [
                2119
            ], 
            "M2": [
                2281
            ], 
            "BM1L": [
                337
            ], 
            "WBNULL": [
                1
            ], 
            "AM2F": [
                2232
            ], 
            "M1_ADJ": [
                1
            ]
        }, 
        "location1": [
            5
        ], 
        "location2": [
            6
        ], 
        "sentence": "i 'm amazed at the photo quality -- print are indistinguishable from 35mm print ."
    }
}