{
    "2f83fe76d6c65089aa8744a484b1d5d3": {
        "(5, 7)": {
            "AM2L": [
                1507
            ], 
            "WBFL": [
                2281
            ], 
            "BM1F": [
                2866
            ], 
            "M1": [
                2119
            ], 
            "M2": [
                2232
            ], 
            "BM1L": [
                337
            ], 
            "AM2F": [
                316
            ], 
            "M1_ADJ": [
                1
            ]
        }, 
        "(5, 12)": {
            "WBF": [
                2281
            ], 
            "BM1F": [
                2866
            ], 
            "M1": [
                2119
            ], 
            "M2": [
                2232
            ], 
            "BM1L": [
                337
            ], 
            "WBO": [
                2232, 
                316, 
                1507
            ], 
            "WBL": [
                87
            ], 
            "M1_ADJ": [
                1
            ]
        }, 
        "location1": [
            5
        ], 
        "location2": [
            7, 
            12
        ], 
        "sentence": "i 'm amazed at the photo quality -- print are indistinguishable from 35mm print ."
    }
}