{
    "7e902b1c3bac0da57adc7cb4cce23d18": {
        "(26, 6)": {
            "WBF": [
                1271
            ], 
            "AM2L": [
                1987
            ], 
            "BM1F": [
                2866
            ], 
            "M1": [
                2568
            ], 
            "M2": [
                2264
            ], 
            "BM1L": [
                275
            ], 
            "WBO": [
                1971, 
                423, 
                153, 
                2909, 
                3041, 
                273, 
                321, 
                1971, 
                1914, 
                170, 
                1669, 
                2866, 
                2852, 
                275, 
                3164, 
                1653
            ], 
            "WBL": [
                2866
            ], 
            "AM2F": [
                1455
            ], 
            "M1_ADJ": [
                0
            ]
        }, 
        "location1": [
            26
        ], 
        "location2": [
            6
        ], 
        "sentence": "its easy to use and the sheer fun of being able to use an array of nikon accessory like the telephoto and wide-angle lens is the proverbial icing on the cake ."
    }
}