{
    "0a97bbb3a0da722d9e48e3c05e77a24c": {
        "(29, 10)": {
            "WBF": [
                1463
            ], 
            "BM1F": [
                2866
            ], 
            "M1": [
                1844
            ], 
            "M2": [
                2564
            ], 
            "BM1L": [
                1232
            ], 
            "WBO": [
                3229, 
                3, 
                1712, 
                1232, 
                2661, 
                2864, 
                4, 
                1005, 
                2909, 
                3041, 
                2637, 
                1320, 
                1232, 
                2946, 
                275
            ], 
            "WBL": [
                1092
            ], 
            "AM2F": [
                1470
            ], 
            "M1_ADJ": [
                0
            ]
        }, 
        "location1": [
            29
        ], 
        "location2": [
            10
        ], 
        "sentence": "in my opinion it 's the best camera for the money if you 're looking for something that 's easy to use , small good for travel , and provides excellent , sharp image ."
    }
}