{
    "7e902b1c3bac0da57adc7cb4cce23d18": {
        "(6, 17)": {
            "WBF": [
                1271
            ], 
            "AM2L": [
                2866
            ], 
            "BM1F": [
                2866
            ], 
            "M1": [
                2568
            ], 
            "M2": [
                170
            ], 
            "BM1L": [
                275
            ], 
            "WBO": [
                1971, 
                423, 
                153, 
                2909, 
                3041, 
                273, 
                321
            ], 
            "WBL": [
                1914
            ], 
            "AM2F": [
                1669
            ], 
            "M1_ADJ": [
                1
            ]
        }, 
        "location1": [
            6
        ], 
        "location2": [
            17
        ], 
        "sentence": "its easy to use and the sheer fun of being able to use an array of nikon accessory like the telephoto and wide-angle lens is the proverbial icing on the cake ."
    }
}