{
    "164dda298348d815567dec7d16e56e32": {
        "(33, 21)": {
            "WBF": [
                316
            ], 
            "AM2L": [
                316
            ], 
            "BM1F": [
                2866
            ], 
            "M1": [
                2133
            ], 
            "M2": [
                3047
            ], 
            "BM1L": [
                1971
            ], 
            "WBO": [
                1092, 
                3181, 
                91, 
                2146, 
                1188, 
                662, 
                275, 
                1758
            ], 
            "WBL": [
                2866
            ], 
            "AM2F": [
                1272
            ], 
            "M1_ADJ": [
                0
            ]
        }, 
        "location1": [
            33
        ], 
        "location2": [
            21, 
            53
        ], 
        "(33, 53)": {
            "WBF": [
                1272
            ], 
            "BM1F": [
                2866
            ], 
            "M1": [
                3047
            ], 
            "M2": [
                2133
            ], 
            "BM1L": [
                1971
            ], 
            "WBO": [
                316, 
                3075, 
                2604, 
                2909, 
                2635, 
                1837, 
                275, 
                3181, 
                195, 
                737, 
                1971, 
                150, 
                894, 
                541, 
                2864, 
                3229
            ], 
            "WBL": [
                2518
            ], 
            "AM2F": [
                1476
            ], 
            "M1_ADJ": [
                1
            ]
        }, 
        "sentence": "recently bought this coolpix 4300 along with a 256mb ultra flash card . as expected , i happily found that quality of the picture are excellent with 3m-4m pixel / fine combo and many of the user-friendly function are very similar to slr model , and with added convenience of a digital camera that you can see picture immediately ."
    }
}