{
    "fa9bea2213c882ed1c6758c2c27a2af5": {
        "(3, 4)": {
            "BM1F": [
                150
            ], 
            "M1": [
                3189
            ], 
            "M2": [
                541
            ], 
            "BM1L": [
                1562
            ], 
            "WBNULL": [
                1
            ], 
            "M1_ADJ": [
                1
            ]
        }, 
        "location1": [
            3
        ], 
        "location2": [
            4
        ], 
        "sentence": "this is a wonderful camera ."
    }
}