{
    "expensive_surprise": [
        "8fd7717f6f4b86db0002350fe4354721.(15, 29).Apex"
    ], 
    "other_disney": [
        "62cf1a8d3b2e903f5a6f46e8d99bb3c2.(16, 14).Apex"
    ], 
    "regular_file": [
        "9947e0d4813586c77a652fb805fbac2e.(40, 37).Apex"
    ], 
    "slim_player": [
        "80cb6fbb20332fa22c5eba0f351a1901.(2, 13).Apex", 
        "d460f81b43998cfb748cde2be9836aec.(22, 18).Apex", 
        "d460f81b43998cfb748cde2be9836aec.(22, 6).Apex"
    ], 
    "good_form": [
        "1884b63b7e64eae77c5a882b7904a99b.(8, 4).Apex"
    ], 
    "few_case": [
        "d460f81b43998cfb748cde2be9836aec.(3, 23).Apex"
    ], 
    "expensive_problem": [
        "8fd7717f6f4b86db0002350fe4354721.(15, 11).Apex"
    ], 
    "expensive_medium": [
        "8fd7717f6f4b86db0002350fe4354721.(15, 35).Apex", 
        "8fd7717f6f4b86db0002350fe4354721.(15, 18).Apex"
    ], 
    "annoying_thing": [
        "7b185dc9dc52f36cb42d1ebf9b7745f6.(27, 28).Apex"
    ], 
    "progressive_manufacturer": [
        "559deec06532af818dc647a493e9e9dc.(0, 12).Apex", 
        "559deec06532af818dc647a493e9e9dc.(22, 12).Apex"
    ], 
    "first_incident": [
        "37f15e561ae7ac9028bbedac55bbb567.(1, 9).Apex"
    ], 
    "non-american_macrovision": [
        "d1f50b170c43b383723518bc9faf225b.(16, 7).Apex"
    ], 
    "stylish_dvd": [
        "d460f81b43998cfb748cde2be9836aec.(21, 17).Apex"
    ], 
    "myriad_unit": [
        "e84bda7445af61e44a722324fcdbccf7.(16, 10).Apex"
    ], 
    "progressive_dvdr": [
        "304f55c4c30167a6dd8bf365c2f321c6.(27, 13).Apex"
    ], 
    "rental_dvd": [
        "9151bec746be1369933e0711724fabba.(41, 16).Apex", 
        "9151bec746be1369933e0711724fabba.(41, 42).Apex", 
        "9151bec746be1369933e0711724fabba.(41, 4).Apex", 
        "f1ea952ffd3cb666c023f31c40f6900f.(21, 22).Apex"
    ], 
    "easy_direction": [
        "eb49671e2b0f5b54b7dfefe2d8de0a1b.(3, 4).Apex"
    ], 
    "remote_player": [
        "1a0284a937d6f776c0dd445ba87180e1.(5, 13).Apex"
    ], 
    "stylish_player": [
        "d460f81b43998cfb748cde2be9836aec.(21, 18).Apex", 
        "d460f81b43998cfb748cde2be9836aec.(21, 6).Apex"
    ], 
    "good_output": [
        "89ec4ff01b352ade745a12c65404dee0.(6, 0).Apex"
    ], 
    "remote_mp3s": [
        "21b5b1779d52da82b0a477fbf05b65d0.(9, 22).Apex"
    ], 
    "other_color": [
        "52dcfd70b988f7387128d0690c5725e0.(1, 15).Apex"
    ], 
    "remote_usage": [
        "1a75f65daeb3cf2d68dd0dd806a825e8.(6, 1).Apex"
    ], 
    "more_combo": [
        "9982cf025cf09cf43f1be57afa09155b.(18, 27).Apex"
    ], 
    "low_look": [
        "0a3d6bf18633218545bbb81dd93b8f68.(2, 7).Apex"
    ], 
    "low_toshiba": [
        "559deec06532af818dc647a493e9e9dc.(6, 14).Apex"
    ], 
    "other_signal": [
        "0d0f8d64973f708c799e4e49d6909dfd.(23, 3).Apex"
    ], 
    "different_site": [
        "fe7e064c5f0fe9bf989fab990cc0ea99.(27, 28).Apex"
    ], 
    "progressive_play": [
        "304f55c4c30167a6dd8bf365c2f321c6.(27, 3).Apex", 
        "304f55c4c30167a6dd8bf365c2f321c6.(27, 18).Apex"
    ], 
    "great_reliability": [
        "861504db448efd462039eef3646bd387.(0, 4).Apex"
    ], 
    "different_tv": [
        "f7c6a30b651882d1ae5523552ba03649.(9, 10).Apex"
    ], 
    "certain_player": [
        "9151bec746be1369933e0711724fabba.(36, 1).Apex"
    ], 
    "few_size": [
        "84b3210547b32bd5ab20ec53b3438380.(3, 10).Apex"
    ], 
    "regular_plus": [
        "9947e0d4813586c77a652fb805fbac2e.(40, 12).Apex"
    ], 
    "other_season": [
        "6513c98716058aac2f83fc6564af3fd0.(26, 30).Apex"
    ], 
    "other_people": [
        "9b11689d3b0c95dc2f00e7b8943b4934.(4, 5).Apex"
    ], 
    "different_cd": [
        "d1f5cf6191b3c90d8622b5f87670e411.(10, 15).Apex", 
        "d1f5cf6191b3c90d8622b5f87670e411.(10, 20).Apex"
    ], 
    "different_apex": [
        "fe7e064c5f0fe9bf989fab990cc0ea99.(27, 3).Apex"
    ], 
    "progressive_button": [
        "1b4b8b00a1be6322acc0a3232c0e902d.(1, 11).Apex"
    ], 
    "other_player": [
        "9b11689d3b0c95dc2f00e7b8943b4934.(4, 12).Apex", 
        "8fd7717f6f4b86db0002350fe4354721.(22, 23).Apex", 
        "6513c98716058aac2f83fc6564af3fd0.(26, 4).Apex", 
        "6513c98716058aac2f83fc6564af3fd0.(26, 27).Apex"
    ], 
    "certain_movie": [
        "62cf1a8d3b2e903f5a6f46e8d99bb3c2.(13, 18).Apex", 
        "9151bec746be1369933e0711724fabba.(36, 24).Apex"
    ], 
    "full_cd": [
        "6eef518602a7cd948f9f4698d3515a9f.(3, 2).Apex"
    ], 
    "small_base": [
        "168375c1396ae73de3fde98510ddc928.(8, 12).Apex"
    ], 
    "few_picture": [
        "80a2e096524056f7ac5d85b13f7b69fe.(36, 29).Apex", 
        "80a2e096524056f7ac5d85b13f7b69fe.(36, 18).Apex"
    ], 
    "special_touch": [
        "6d685a8248c25916f3c4493aec1d226c.(5, 6).Apex"
    ], 
    "remote_dvd": [
        "1a0284a937d6f776c0dd445ba87180e1.(5, 12).Apex"
    ], 
    "reviews-my_picture": [
        "e4730539ff132950b9f794e6c42e8042.(16, 10).Apex"
    ], 
    "cool_look": [
        "80cb6fbb20332fa22c5eba0f351a1901.(15, 14).Apex"
    ], 
    "myriad_feature": [
        "e84bda7445af61e44a722324fcdbccf7.(16, 18).Apex"
    ], 
    "other_feeling": [
        "554c4ad0dd6259a9c61e4817388e8064.(22, 34).Apex"
    ], 
    "progressive_toshiba": [
        "559deec06532af818dc647a493e9e9dc.(0, 14).Apex", 
        "559deec06532af818dc647a493e9e9dc.(22, 14).Apex"
    ], 
    "cd-r_file": [
        "9947e0d4813586c77a652fb805fbac2e.(41, 37).Apex"
    ], 
    "standard_set": [
        "d8105077a4434e718fee25bbe1966b63.(13, 14).Apex"
    ], 
    "only_problem": [
        "521121be8f6569821c970c8fc219b7d7.(2, 10).Apex", 
        "5a3288ba1d03d602b3367a0c74ac0315.(1, 8).Apex", 
        "256a16fc9dc0e71824538ba5f5652a2a.(3, 29).Apex"
    ], 
    "occasional_point": [
        "9151bec746be1369933e0711724fabba.(8, 21).Apex"
    ], 
    "third_price": [
        "cd704648bf583767f520f7800329f7ce.(3, 16).Apex"
    ], 
    "real_look": [
        "3f3779a73e73c8430f134c2c7dca084f.(13, 4).Apex"
    ], 
    "good_connection": [
        "89ec4ff01b352ade745a12c65404dee0.(6, 3).Apex"
    ], 
    "special_player": [
        "9151bec746be1369933e0711724fabba.(37, 1).Apex"
    ], 
    "remote_remote": [
        "1b4b8b00a1be6322acc0a3232c0e902d.(14, 24).Apex", 
        "1b4b8b00a1be6322acc0a3232c0e902d.(24, 14).Apex", 
        "f01bd384c7ae77d1a2329c0a9d0cd49f.(1, 11).Apex", 
        "f01bd384c7ae77d1a2329c0a9d0cd49f.(11, 1).Apex"
    ], 
    "rental_year": [
        "f1ea952ffd3cb666c023f31c40f6900f.(21, 17).Apex"
    ], 
    "other_format": [
        "554c4ad0dd6259a9c61e4817388e8064.(22, 6).Apex"
    ], 
    "strong_smell": [
        "03e1cd38959d29902a3f05c616118533.(7, 10).Apex"
    ], 
    "remote_feel": [
        "21b5b1779d52da82b0a477fbf05b65d0.(9, 4).Apex"
    ], 
    "other_noise": [
        "0d0f8d64973f708c799e4e49d6909dfd.(23, 20).Apex"
    ], 
    "more_nicer": [
        "9982cf025cf09cf43f1be57afa09155b.(18, 24).Apex"
    ], 
    "only_experience": [
        "5a3288ba1d03d602b3367a0c74ac0315.(1, 5).Apex"
    ], 
    "good_panel": [
        "d4aea072a4d82c259b1c6322dc4b650a.(8, 10).Apex"
    ], 
    "multi-format_case": [
        "d460f81b43998cfb748cde2be9836aec.(16, 23).Apex"
    ], 
    "nicer_gift": [
        "9982cf025cf09cf43f1be57afa09155b.(24, 39).Apex"
    ], 
    "non-american_baby": [
        "d1f50b170c43b383723518bc9faf225b.(16, 12).Apex"
    ], 
    "cheap_brand": [
        "291b89defbbe4a497ff51c7d8d63f47c.(4, 6).Apex"
    ], 
    "older_machine": [
        "b04a1b6bbf5356e9d6ebf7e31273b479.(10, 12).Apex"
    ], 
    "other_model": [
        "de26e922f5cfd35c976f25852b35be7d.(13, 14).Apex"
    ], 
    "several_discs": [
        "6513c98716058aac2f83fc6564af3fd0.(18, 19).Apex", 
        "6513c98716058aac2f83fc6564af3fd0.(6, 19).Apex", 
        "6513c98716058aac2f83fc6564af3fd0.(18, 12).Apex", 
        "6513c98716058aac2f83fc6564af3fd0.(6, 12).Apex"
    ], 
    "non-american_region": [
        "d1f50b170c43b383723518bc9faf225b.(16, 17).Apex"
    ], 
    "progressive_jpeg": [
        "304f55c4c30167a6dd8bf365c2f321c6.(27, 9).Apex"
    ], 
    "high-end_price": [
        "4fb852ec14462e823ccc18ab597d17b6.(32, 15).Apex"
    ], 
    "more_update": [
        "fe19754870ba8de34ab8b68d4788bf6a.(4, 0).Apex"
    ], 
    "special_access": [
        "9151bec746be1369933e0711724fabba.(37, 35).Apex"
    ], 
    "fine_dvd": [
        "542d552b6a80169971106c0493d88457.(12, 16).Apex", 
        "74f5e24e9641d9668bffdc61cfcfa718.(4, 1).Apex", 
        "01bd9627b997fb43d6e384241050849a.(12, 4).Apex"
    ], 
    "slim_form-factor": [
        "80cb6fbb20332fa22c5eba0f351a1901.(2, 3).Apex"
    ], 
    "good_cd": [
        "eaf28814dbb3074b0659f527029d3186.(3, 15).Apex"
    ], 
    "remote_awkward": [
        "48452b00f56fb6ca13348ad1d92debd5.(1, 5).Apex"
    ], 
    "occasional_access": [
        "9151bec746be1369933e0711724fabba.(8, 35).Apex"
    ], 
    "good_right": [
        "b3d6250f8c0e2d723e032191144e6c20.(3, 4).Apex", 
        "b3d6250f8c0e2d723e032191144e6c20.(14, 4).Apex"
    ], 
    "other_picture": [
        "e4730539ff132950b9f794e6c42e8042.(14, 10).Apex", 
        "0d0f8d64973f708c799e4e49d6909dfd.(23, 11).Apex"
    ], 
    "progressive_course": [
        "304f55c4c30167a6dd8bf365c2f321c6.(27, 17).Apex"
    ], 
    "top_sound": [
        "63310a5e17e811681d048ee50bff3ac2.(20, 18).Apex", 
        "63310a5e17e811681d048ee50bff3ac2.(20, 26).Apex"
    ], 
    "older_philip": [
        "b04a1b6bbf5356e9d6ebf7e31273b479.(10, 11).Apex"
    ], 
    "good_sound": [
        "63310a5e17e811681d048ee50bff3ac2.(27, 26).Apex", 
        "63310a5e17e811681d048ee50bff3ac2.(27, 18).Apex", 
        "5b3429e381941b13bbcb18bc671c6eaf.(11, 9).Apex"
    ], 
    "other_dvd": [
        "62cf1a8d3b2e903f5a6f46e8d99bb3c2.(16, 17).Apex", 
        "521121be8f6569821c970c8fc219b7d7.(12, 7).Apex", 
        "8fd7717f6f4b86db0002350fe4354721.(22, 16).Apex", 
        "8fd7717f6f4b86db0002350fe4354721.(22, 52).Apex", 
        "9b11689d3b0c95dc2f00e7b8943b4934.(4, 11).Apex"
    ], 
    "top_notch": [
        "63310a5e17e811681d048ee50bff3ac2.(20, 21).Apex"
    ], 
    "dont_dont": [], 
    "occasional_sound": [
        "cd5b349634b4fc9c4d56bec8bf4015ef.(20, 22).Apex"
    ], 
    "different_format": [
        "61b0cbdba9d3d1062735828f148c2ac5.(5, 6).Apex"
    ], 
    "disapointed_dvd": [
        "882f8c2afb0b7af577d6c9ab03ee0778.(13, 7).Apex"
    ], 
    "decent_tax": [
        "a8ace68534381de6693b2cd4a413efea.(18, 12).Apex"
    ], 
    "good_picture": [
        "63310a5e17e811681d048ee50bff3ac2.(27, 16).Apex", 
        "5b3429e381941b13bbcb18bc671c6eaf.(11, 1).Apex"
    ], 
    "standard_player": [
        "d8105077a4434e718fee25bbe1966b63.(13, 7).Apex"
    ], 
    "several_dvd": [
        "be4b7903a9d098dd895e2eb70527204a.(4, 6).Apex", 
        "cb2481936526033884407b90cc7ee91a.(4, 8).Apex"
    ], 
    "small_scratch": [
        "168375c1396ae73de3fde98510ddc928.(8, 9).Apex"
    ], 
    "rental_movie": [
        "9151bec746be1369933e0711724fabba.(41, 24).Apex"
    ], 
    "great_nicer": [
        "9982cf025cf09cf43f1be57afa09155b.(16, 24).Apex"
    ], 
    "great_front": [
        "d4aea072a4d82c259b1c6322dc4b650a.(17, 9).Apex"
    ], 
    "certain_dvd": [
        "62cf1a8d3b2e903f5a6f46e8d99bb3c2.(13, 17).Apex", 
        "a3501130193708007cd28c5fd53b8965.(9, 19).Apex", 
        "9151bec746be1369933e0711724fabba.(36, 4).Apex", 
        "9151bec746be1369933e0711724fabba.(36, 16).Apex", 
        "9151bec746be1369933e0711724fabba.(36, 42).Apex"
    ], 
    "fine_movie": [
        "c6b55dc63ae357379b1ceebd32e4b39a.(18, 13).Apex", 
        "4eadb02423a841209104f9bbc14fba06.(9, 19).Apex", 
        "4eadb02423a841209104f9bbc14fba06.(9, 7).Apex"
    ], 
    "front_door": [
        "7b185dc9dc52f36cb42d1ebf9b7745f6.(1, 2).Apex", 
        "7b185dc9dc52f36cb42d1ebf9b7745f6.(1, 22).Apex"
    ], 
    "small_factor": [
        "1884b63b7e64eae77c5a882b7904a99b.(3, 5).Apex"
    ], 
    "myriad_myriad": [], 
    "favorite_dvds": [
        "44fa354def3a024a49de7a6b055cf68c.(12, 13).Apex"
    ], 
    "other_feature": [
        "a981acb506188c8737a2ad731e15dfff.(14, 15).Apex"
    ], 
    "good_site": [
        "fe7e064c5f0fe9bf989fab990cc0ea99.(14, 28).Apex", 
        "fe7e064c5f0fe9bf989fab990cc0ea99.(18, 28).Apex"
    ], 
    "cd-r_jpeg": [
        "9947e0d4813586c77a652fb805fbac2e.(41, 7).Apex"
    ], 
    "steady_performer": [
        "75a1c2102d97efb4fbb45ac6e92cc92c.(6, 7).Apex"
    ], 
    "good_variety": [
        "fe7e064c5f0fe9bf989fab990cc0ea99.(18, 25).Apex", 
        "fe7e064c5f0fe9bf989fab990cc0ea99.(14, 25).Apex"
    ], 
    "nicer_vcr": [
        "9982cf025cf09cf43f1be57afa09155b.(24, 26).Apex"
    ], 
    "several_method": [
        "f7c6a30b651882d1ae5523552ba03649.(8, 16).Apex"
    ], 
    "lemon_people": [
        "9b11689d3b0c95dc2f00e7b8943b4934.(9, 5).Apex"
    ], 
    "audio_disc": [
        "c82e6d350f624f918e300fffbbcad423.(7, 8).Apex"
    ], 
    "expensive_dvd": [
        "8fd7717f6f4b86db0002350fe4354721.(15, 16).Apex", 
        "8fd7717f6f4b86db0002350fe4354721.(15, 52).Apex"
    ], 
    "more_item": [
        "d8105077a4434e718fee25bbe1966b63.(10, 19).Apex"
    ], 
    "second_movie": [
        "4eadb02423a841209104f9bbc14fba06.(15, 7).Apex", 
        "4eadb02423a841209104f9bbc14fba06.(15, 19).Apex"
    ], 
    "second_house": [
        "034391c92fae4d4613f259670a4dc0e4.(6, 12).Apex"
    ], 
    "audio_picture": [
        "542d552b6a80169971106c0493d88457.(21, 23).Apex"
    ], 
    "more_anything": [
        "8fd7717f6f4b86db0002350fe4354721.(14, 49).Apex"
    ], 
    "cd-r_disk": [
        "9947e0d4813586c77a652fb805fbac2e.(41, 43).Apex"
    ], 
    "high-end_player": [
        "4fb852ec14462e823ccc18ab597d17b6.(32, 33).Apex", 
        "4fb852ec14462e823ccc18ab597d17b6.(32, 11).Apex"
    ], 
    "other_gripe": [
        "972c9a8ae7cdb01c2d55a7fe93e6ecd2.(1, 2).Apex", 
        "972c9a8ae7cdb01c2d55a7fe93e6ecd2.(12, 2).Apex"
    ], 
    "other_look": [
        "52dcfd70b988f7387128d0690c5725e0.(1, 16).Apex"
    ], 
    "occasional_movie": [
        "9151bec746be1369933e0711724fabba.(8, 24).Apex"
    ], 
    "pricey_form-factor": [
        "80cb6fbb20332fa22c5eba0f351a1901.(17, 3).Apex"
    ], 
    "top_dts": [
        "63310a5e17e811681d048ee50bff3ac2.(20, 23).Apex"
    ], 
    "great_list": [
        "861504db448efd462039eef3646bd387.(0, 2).Apex"
    ], 
    "remote_apex": [
        "1a0284a937d6f776c0dd445ba87180e1.(5, 11).Apex", 
        "a475cd1c0454d10a130c0e05e28e193d.(11, 2).Apex", 
        "972c9a8ae7cdb01c2d55a7fe93e6ecd2.(7, 14).Apex"
    ], 
    "best_brand": [
        "291b89defbbe4a497ff51c7d8d63f47c.(3, 6).Apex"
    ], 
    "more_medium": [
        "8fd7717f6f4b86db0002350fe4354721.(14, 35).Apex", 
        "8fd7717f6f4b86db0002350fe4354721.(14, 18).Apex"
    ], 
    "progressive_pioneer": [
        "559deec06532af818dc647a493e9e9dc.(0, 15).Apex", 
        "559deec06532af818dc647a493e9e9dc.(22, 15).Apex"
    ], 
    "several_support": [
        "62e789092dd8cdbdc780fb92af24cb33.(3, 12).Apex", 
        "4e76cc39ae9044560ecd410fbbf8ce76.(9, 4).Apex"
    ], 
    "small_case": [
        "304678fb79adc7d18bc570816e65c16f.(5, 6).Apex"
    ], 
    "cheap_dvd": [
        "291b89defbbe4a497ff51c7d8d63f47c.(4, 8).Apex"
    ], 
    "only_player": [
        "29d2614f705ec8f146e4eddeb3c87bcf.(11, 17).Apex", 
        "a8ace68534381de6693b2cd4a413efea.(3, 19).Apex", 
        "8ba70e597cfc6e241555d687623ddb4e.(3, 16).Apex", 
        "5a3288ba1d03d602b3367a0c74ac0315.(1, 11).Apex", 
        "256a16fc9dc0e71824538ba5f5652a2a.(3, 7).Apex", 
        "256a16fc9dc0e71824538ba5f5652a2a.(3, 33).Apex", 
        "c6b55dc63ae357379b1ceebd32e4b39a.(4, 7).Apex", 
        "7f8064a47247d5d7c3d9f96b0cb56d24.(7, 11).Apex", 
        "ef8c9c3238c0997f0a50179e0167afa6.(0, 18).Apex", 
        "37f15e561ae7ac9028bbedac55bbb567.(6, 17).Apex"
    ], 
    "few_cd": [
        "ded43ef4232c5c23698e001714547447.(8, 1).Apex"
    ], 
    "occasional_exception": [
        "cd5b349634b4fc9c4d56bec8bf4015ef.(20, 17).Apex"
    ], 
    "low_manufacturer": [
        "559deec06532af818dc647a493e9e9dc.(6, 12).Apex"
    ], 
    "best_set": [
        "d8105077a4434e718fee25bbe1966b63.(24, 14).Apex"
    ], 
    "first_dvd": [
        "bf481030e644dc8ef932d183242a13dd.(7, 8).Apex", 
        "c43abed7f15effb4bbf9b56cd5cdb4e1.(4, 17).Apex", 
        "650f5a9fc8d23e1f5feb8370e59dc04f.(0, 6).Apex", 
        "d460f81b43998cfb748cde2be9836aec.(2, 17).Apex"
    ], 
    "rental_point": [
        "9151bec746be1369933e0711724fabba.(41, 21).Apex"
    ], 
    "several_signal": [
        "f7c6a30b651882d1ae5523552ba03649.(8, 25).Apex", 
        "4e76cc39ae9044560ecd410fbbf8ce76.(9, 18).Apex"
    ], 
    "nicer_crappiness": [
        "9982cf025cf09cf43f1be57afa09155b.(24, 34).Apex"
    ], 
    "reliable_report": [
        "5af90fdafd59b525226aefa2ffc9fd00.(9, 4).Apex"
    ], 
    "other_apex": [
        "62cf1a8d3b2e903f5a6f46e8d99bb3c2.(16, 7).Apex", 
        "972c9a8ae7cdb01c2d55a7fe93e6ecd2.(12, 14).Apex", 
        "972c9a8ae7cdb01c2d55a7fe93e6ecd2.(1, 14).Apex", 
        "5af90fdafd59b525226aefa2ffc9fd00.(18, 33).Apex", 
        "5af90fdafd59b525226aefa2ffc9fd00.(18, 6).Apex"
    ], 
    "remote_button": [
        "1b4b8b00a1be6322acc0a3232c0e902d.(24, 11).Apex", 
        "1b4b8b00a1be6322acc0a3232c0e902d.(14, 11).Apex", 
        "1a75f65daeb3cf2d68dd0dd806a825e8.(6, 11).Apex", 
        "f01bd384c7ae77d1a2329c0a9d0cd49f.(1, 14).Apex", 
        "f01bd384c7ae77d1a2329c0a9d0cd49f.(11, 14).Apex", 
        "d79245d81b4060e7f727fdd27f624fad.(0, 1).Apex", 
        "d79245d81b4060e7f727fdd27f624fad.(0, 11).Apex"
    ], 
    "several_site": [
        "62e789092dd8cdbdc780fb92af24cb33.(3, 13).Apex"
    ], 
    "good_money": [
        "fe7e064c5f0fe9bf989fab990cc0ea99.(14, 22).Apex", 
        "fe7e064c5f0fe9bf989fab990cc0ea99.(18, 22).Apex", 
        "b5938c00042cd746390dea8b55ef54ef.(6, 2).Apex"
    ], 
    "low_player": [
        "559deec06532af818dc647a493e9e9dc.(6, 2).Apex", 
        "559deec06532af818dc647a493e9e9dc.(6, 24).Apex"
    ], 
    "other_thing": [
        "52dcfd70b988f7387128d0690c5725e0.(1, 2).Apex"
    ], 
    "cheap_scratch": [
        "168375c1396ae73de3fde98510ddc928.(7, 9).Apex"
    ], 
    "progressive_dvdrw": [
        "304f55c4c30167a6dd8bf365c2f321c6.(27, 14).Apex"
    ], 
    "crappy_gripe": [
        "972c9a8ae7cdb01c2d55a7fe93e6ecd2.(6, 2).Apex"
    ], 
    "small_feature": [
        "84b3210547b32bd5ab20ec53b3438380.(9, 5).Apex"
    ], 
    "different_player": [
        "fe7e064c5f0fe9bf989fab990cc0ea99.(27, 6).Apex"
    ], 
    "rental_feature": [
        "9151bec746be1369933e0711724fabba.(41, 38).Apex"
    ], 
    "loud_spin": [
        "c6d4707ef2fab9972637895ce8590367.(17, 19).Apex"
    ], 
    "remote_name": [
        "21b5b1779d52da82b0a477fbf05b65d0.(9, 26).Apex"
    ], 
    "good_feature": [
        "d4aea072a4d82c259b1c6322dc4b650a.(8, 18).Apex", 
        "b3d6250f8c0e2d723e032191144e6c20.(14, 12).Apex", 
        "b3d6250f8c0e2d723e032191144e6c20.(3, 12).Apex", 
        "b5938c00042cd746390dea8b55ef54ef.(6, 7).Apex"
    ], 
    "nicer_dvd": [
        "9982cf025cf09cf43f1be57afa09155b.(24, 25).Apex"
    ], 
    "decent_shipping": [
        "a8ace68534381de6693b2cd4a413efea.(18, 9).Apex"
    ], 
    "slim_look": [
        "80cb6fbb20332fa22c5eba0f351a1901.(2, 14).Apex"
    ], 
    "special_feature": [
        "9151bec746be1369933e0711724fabba.(37, 38).Apex"
    ], 
    "great_image": [
        "368c413655d2e3b779a34ef7a27efb85.(5, 18).Apex"
    ], 
    "good_button": [
        "d4aea072a4d82c259b1c6322dc4b650a.(8, 11).Apex"
    ], 
    "crappy_apex": [
        "972c9a8ae7cdb01c2d55a7fe93e6ecd2.(6, 14).Apex"
    ], 
    "more_mirror": [
        "fe19754870ba8de34ab8b68d4788bf6a.(4, 5).Apex"
    ], 
    "more_feature": [
        "d8105077a4434e718fee25bbe1966b63.(10, 16).Apex"
    ], 
    "only_air": [
        "5a3288ba1d03d602b3367a0c74ac0315.(1, 31).Apex"
    ], 
    "progressive_week": [
        "ef8c9c3238c0997f0a50179e0167afa6.(15, 5).Apex"
    ], 
    "other_product": [
        "5af90fdafd59b525226aefa2ffc9fd00.(18, 34).Apex"
    ], 
    "different_machine": [
        "f7c6a30b651882d1ae5523552ba03649.(9, 28).Apex"
    ], 
    "loud_noise": [
        "c6d4707ef2fab9972637895ce8590367.(17, 20).Apex"
    ], 
    "simplest_remote": [
        "1b4b8b00a1be6322acc0a3232c0e902d.(21, 14).Apex", 
        "1b4b8b00a1be6322acc0a3232c0e902d.(21, 24).Apex"
    ], 
    "progressive_aiff": [
        "304f55c4c30167a6dd8bf365c2f321c6.(27, 26).Apex"
    ], 
    "second_discs": [
        "4eadb02423a841209104f9bbc14fba06.(15, 16).Apex"
    ], 
    "low_price": [
        "559deec06532af818dc647a493e9e9dc.(6, 7).Apex"
    ], 
    "more_surprise": [
        "8fd7717f6f4b86db0002350fe4354721.(14, 29).Apex"
    ], 
    "only_unit": [
        "e4730539ff132950b9f794e6c42e8042.(21, 17).Apex"
    ], 
    "other_medium": [
        "8fd7717f6f4b86db0002350fe4354721.(22, 18).Apex", 
        "8fd7717f6f4b86db0002350fe4354721.(22, 35).Apex"
    ], 
    "progressive_movie": [
        "304f55c4c30167a6dd8bf365c2f321c6.(27, 20).Apex"
    ], 
    "other_jpeg": [
        "554c4ad0dd6259a9c61e4817388e8064.(22, 13).Apex"
    ], 
    "certain_apex": [
        "62cf1a8d3b2e903f5a6f46e8d99bb3c2.(13, 7).Apex"
    ], 
    "good_styling": [
        "b3d6250f8c0e2d723e032191144e6c20.(3, 15).Apex", 
        "b3d6250f8c0e2d723e032191144e6c20.(14, 15).Apex"
    ], 
    "great_combo": [
        "9982cf025cf09cf43f1be57afa09155b.(16, 27).Apex"
    ], 
    "steady_apex": [
        "75a1c2102d97efb4fbb45ac6e92cc92c.(6, 1).Apex"
    ], 
    "affordable_player": [
        "d460f81b43998cfb748cde2be9836aec.(15, 6).Apex", 
        "d460f81b43998cfb748cde2be9836aec.(15, 18).Apex"
    ], 
    "good_look": [
        "b1ebe13ded22c85b218f059ffd618f4a.(0, 1).Apex", 
        "89ec4ff01b352ade745a12c65404dee0.(6, 4).Apex", 
        "1884b63b7e64eae77c5a882b7904a99b.(8, 7).Apex"
    ], 
    "certain_problem": [
        "a3501130193708007cd28c5fd53b8965.(9, 13).Apex", 
        "9151bec746be1369933e0711724fabba.(36, 9).Apex"
    ], 
    "dont_buy": [
        "76d840b24bd2063c716af94af9053f6b.(13, 14).Apex"
    ], 
    "nicer_player": [
        "9982cf025cf09cf43f1be57afa09155b.(24, 28).Apex", 
        "9982cf025cf09cf43f1be57afa09155b.(24, 10).Apex"
    ], 
    "easy_form": [
        "1884b63b7e64eae77c5a882b7904a99b.(0, 4).Apex"
    ], 
    "only_thing": [
        "5a3288ba1d03d602b3367a0c74ac0315.(1, 2).Apex", 
        "e603c6f4fbf730e9d4e0fb6cdebbc90a.(10, 3).Apex"
    ], 
    "standard_feature": [
        "d8105077a4434e718fee25bbe1966b63.(13, 16).Apex"
    ], 
    "small_layout": [
        "84b3210547b32bd5ab20ec53b3438380.(9, 13).Apex"
    ], 
    "good_discs": [
        "63310a5e17e811681d048ee50bff3ac2.(27, 13).Apex"
    ], 
    "great_value": [
        "3f04a58bcda5a12c04c16b5a555e8d34.(11, 12).Apex"
    ], 
    "first_case": [
        "d460f81b43998cfb748cde2be9836aec.(2, 23).Apex"
    ], 
    "good_loading": [
        "eaf28814dbb3074b0659f527029d3186.(3, 20).Apex"
    ], 
    "certain_disney": [
        "62cf1a8d3b2e903f5a6f46e8d99bb3c2.(13, 14).Apex"
    ], 
    "more_experience": [
        "5af90fdafd59b525226aefa2ffc9fd00.(28, 14).Apex"
    ], 
    "certain_dvds": [
        "a3501130193708007cd28c5fd53b8965.(9, 2).Apex", 
        "726152eaeaf36e106f50419011dfab6a.(13, 14).Apex"
    ], 
    "cool_jpeg": [
        "d1f5cf6191b3c90d8622b5f87670e411.(1, 16).Apex"
    ], 
    "good_dd5.1": [
        "63310a5e17e811681d048ee50bff3ac2.(27, 25).Apex"
    ], 
    "remote_control": [
        "a475cd1c0454d10a130c0e05e28e193d.(11, 12).Apex", 
        "21b5b1779d52da82b0a477fbf05b65d0.(9, 10).Apex", 
        "1b4b8b00a1be6322acc0a3232c0e902d.(24, 15).Apex", 
        "1b4b8b00a1be6322acc0a3232c0e902d.(14, 25).Apex", 
        "1b4b8b00a1be6322acc0a3232c0e902d.(24, 25).Apex", 
        "1b4b8b00a1be6322acc0a3232c0e902d.(14, 15).Apex", 
        "b471b2d427e623361da6a9861a24aef8.(2, 3).Apex"
    ], 
    "first_menus": [
        "499db2ac0845c79245f70ba7c8bc100b.(0, 10).Apex"
    ], 
    "front_life": [
        "7b185dc9dc52f36cb42d1ebf9b7745f6.(1, 14).Apex"
    ], 
    "several_line": [
        "62e789092dd8cdbdc780fb92af24cb33.(3, 28).Apex", 
        "62e789092dd8cdbdc780fb92af24cb33.(3, 17).Apex"
    ], 
    "great_deal": [
        "9982cf025cf09cf43f1be57afa09155b.(16, 17).Apex"
    ], 
    "audio_cd": [
        "542d552b6a80169971106c0493d88457.(21, 10).Apex", 
        "83e9f5a06e9e14fe2fc55a1563f15ee0.(10, 11).Apex", 
        "c82e6d350f624f918e300fffbbcad423.(7, 6).Apex"
    ], 
    "remote_zoom": [
        "21b5b1779d52da82b0a477fbf05b65d0.(9, 32).Apex"
    ], 
    "great_money": [
        "3f04a58bcda5a12c04c16b5a555e8d34.(11, 15).Apex", 
        "9982cf025cf09cf43f1be57afa09155b.(16, 7).Apex"
    ], 
    "more_apex": [
        "5af90fdafd59b525226aefa2ffc9fd00.(28, 33).Apex", 
        "5af90fdafd59b525226aefa2ffc9fd00.(28, 6).Apex"
    ], 
    "attractive_remote": [
        "84b3210547b32bd5ab20ec53b3438380.(4, 16).Apex"
    ], 
    "rental_access": [
        "9151bec746be1369933e0711724fabba.(41, 35).Apex"
    ], 
    "lemon_player": [
        "9b11689d3b0c95dc2f00e7b8943b4934.(9, 12).Apex"
    ], 
    "good_layout": [
        "d4aea072a4d82c259b1c6322dc4b650a.(8, 12).Apex"
    ], 
    "best_dollar": [
        "31aa5c3f5d31378b6c3d2a52028a86f5.(10, 1).Apex", 
        "31aa5c3f5d31378b6c3d2a52028a86f5.(10, 3).Apex"
    ], 
    "cool_form-factor": [
        "80cb6fbb20332fa22c5eba0f351a1901.(15, 3).Apex"
    ], 
    "cheap_sony": [
        "168375c1396ae73de3fde98510ddc928.(7, 22).Apex"
    ], 
    "cool_panel": [
        "80cb6fbb20332fa22c5eba0f351a1901.(15, 9).Apex"
    ], 
    "best_item": [
        "d8105077a4434e718fee25bbe1966b63.(24, 19).Apex"
    ], 
    "third_product": [
        "cd704648bf583767f520f7800329f7ce.(3, 5).Apex"
    ], 
    "pricey_look": [
        "80cb6fbb20332fa22c5eba0f351a1901.(17, 14).Apex"
    ], 
    "different_multitude": [
        "f7c6a30b651882d1ae5523552ba03649.(9, 13).Apex"
    ], 
    "good_lot": [
        "b3d6250f8c0e2d723e032191144e6c20.(14, 10).Apex", 
        "b3d6250f8c0e2d723e032191144e6c20.(3, 10).Apex"
    ], 
    "cool_player": [
        "80cb6fbb20332fa22c5eba0f351a1901.(15, 13).Apex"
    ], 
    "non-american_dvd": [
        "d1f50b170c43b383723518bc9faf225b.(16, 18).Apex"
    ], 
    "several_movie": [
        "cb2481936526033884407b90cc7ee91a.(4, 9).Apex"
    ], 
    "affordable_dvd": [
        "d460f81b43998cfb748cde2be9836aec.(15, 17).Apex"
    ], 
    "fine_dvds": [
        "c6d4707ef2fab9972637895ce8590367.(5, 4).Apex"
    ], 
    "fine_disc": [
        "c6d4707ef2fab9972637895ce8590367.(5, 18).Apex"
    ], 
    "other_moment": [
        "0d0f8d64973f708c799e4e49d6909dfd.(23, 14).Apex", 
        "0d0f8d64973f708c799e4e49d6909dfd.(23, 24).Apex"
    ], 
    "low_profile": [
        "0a3d6bf18633218545bbb81dd93b8f68.(2, 3).Apex"
    ], 
    "good_dts": [
        "63310a5e17e811681d048ee50bff3ac2.(27, 23).Apex"
    ], 
    "regular_artist": [
        "9947e0d4813586c77a652fb805fbac2e.(40, 18).Apex"
    ], 
    "best_apex": [
        "291b89defbbe4a497ff51c7d8d63f47c.(3, 0).Apex", 
        "862e0d8256d5175b4c962e3c6454f2af.(5, 2).Apex"
    ], 
    "original_dvds": [
        "805fb64ce9cfd89eb965b553110a9c78.(2, 3).Apex"
    ], 
    "first_purchase": [
        "c43abed7f15effb4bbf9b56cd5cdb4e1.(4, 15).Apex"
    ], 
    "remote_none": [
        "1a0284a937d6f776c0dd445ba87180e1.(5, 15).Apex"
    ], 
    "new_player": [
        "9bda6f3b3d54d3179789e2d0c3aa99fa.(6, 17).Apex", 
        "882f8c2afb0b7af577d6c9ab03ee0778.(6, 8).Apex"
    ], 
    "second_brother": [
        "034391c92fae4d4613f259670a4dc0e4.(6, 11).Apex"
    ], 
    "good_unit": [
        "554c4ad0dd6259a9c61e4817388e8064.(26, 1).Apex", 
        "554c4ad0dd6259a9c61e4817388e8064.(31, 1).Apex"
    ], 
    "few_play": [
        "ded43ef4232c5c23698e001714547447.(8, 9).Apex", 
        "80a2e096524056f7ac5d85b13f7b69fe.(36, 25).Apex", 
        "01718f91df378fcdfc1e18e529d84f5e.(6, 13).Apex"
    ], 
    "cool_thing": [
        "d1f5cf6191b3c90d8622b5f87670e411.(1, 2).Apex"
    ], 
    "audio_vcd": [
        "83e9f5a06e9e14fe2fc55a1563f15ee0.(10, 8).Apex"
    ], 
    "multi-format_player": [
        "d460f81b43998cfb748cde2be9836aec.(16, 6).Apex", 
        "d460f81b43998cfb748cde2be9836aec.(16, 18).Apex"
    ], 
    "new_smell": [
        "03e1cd38959d29902a3f05c616118533.(8, 10).Apex"
    ], 
    "dont_week": [
        "76d840b24bd2063c716af94af9053f6b.(13, 12).Apex"
    ], 
    "good_deal": [
        "eaf28814dbb3074b0659f527029d3186.(3, 4).Apex"
    ], 
    "remote_layout": [
        "21b5b1779d52da82b0a477fbf05b65d0.(9, 6).Apex", 
        "84b3210547b32bd5ab20ec53b3438380.(16, 13).Apex"
    ], 
    "other_consumer": [
        "5af90fdafd59b525226aefa2ffc9fd00.(18, 3).Apex"
    ], 
    "remote_filename": [
        "21b5b1779d52da82b0a477fbf05b65d0.(9, 20).Apex"
    ], 
    "remote_model": [
        "a475cd1c0454d10a130c0e05e28e193d.(11, 3).Apex"
    ], 
    "expensive_price": [
        "4fb852ec14462e823ccc18ab597d17b6.(31, 15).Apex"
    ], 
    "more_consumer": [
        "5af90fdafd59b525226aefa2ffc9fd00.(28, 3).Apex"
    ], 
    "several_friend": [
        "6513c98716058aac2f83fc6564af3fd0.(6, 29).Apex", 
        "6513c98716058aac2f83fc6564af3fd0.(18, 29).Apex"
    ], 
    "attractive_size": [
        "84b3210547b32bd5ab20ec53b3438380.(4, 10).Apex"
    ], 
    "remote_operator": [
        "b471b2d427e623361da6a9861a24aef8.(2, 19).Apex"
    ], 
    "good_jpeg": [
        "554c4ad0dd6259a9c61e4817388e8064.(31, 13).Apex", 
        "554c4ad0dd6259a9c61e4817388e8064.(26, 13).Apex"
    ], 
    "more_silver": [
        "fe19754870ba8de34ab8b68d4788bf6a.(4, 7).Apex"
    ], 
    "full_jpgs": [
        "6eef518602a7cd948f9f4698d3515a9f.(3, 5).Apex"
    ], 
    "good_player": [
        "b3d6250f8c0e2d723e032191144e6c20.(3, 1).Apex", 
        "b3d6250f8c0e2d723e032191144e6c20.(14, 1).Apex", 
        "fe7e064c5f0fe9bf989fab990cc0ea99.(14, 6).Apex", 
        "fe7e064c5f0fe9bf989fab990cc0ea99.(18, 6).Apex", 
        "1bb0466c467ad147fa770ae552afdb45.(7, 9).Apex", 
        "29d2614f705ec8f146e4eddeb3c87bcf.(8, 17).Apex"
    ], 
    "cheap_player": [
        "291b89defbbe4a497ff51c7d8d63f47c.(4, 9).Apex"
    ], 
    "great_crappiness": [
        "9982cf025cf09cf43f1be57afa09155b.(16, 34).Apex"
    ], 
    "first_week": [
        "d460f81b43998cfb748cde2be9836aec.(2, 4).Apex"
    ], 
    "other_experience": [
        "5af90fdafd59b525226aefa2ffc9fd00.(18, 14).Apex"
    ], 
    "regular_disk": [
        "9947e0d4813586c77a652fb805fbac2e.(40, 43).Apex"
    ], 
    "great_job": [
        "368c413655d2e3b779a34ef7a27efb85.(5, 6).Apex"
    ], 
    "attractive_layout": [
        "84b3210547b32bd5ab20ec53b3438380.(4, 13).Apex"
    ], 
    "certain_message": [
        "62cf1a8d3b2e903f5a6f46e8d99bb3c2.(13, 21).Apex"
    ], 
    "other_tv": [
        "0d0f8d64973f708c799e4e49d6909dfd.(23, 5).Apex", 
        "0d0f8d64973f708c799e4e49d6909dfd.(23, 8).Apex"
    ], 
    "cheap_base": [
        "168375c1396ae73de3fde98510ddc928.(7, 12).Apex"
    ], 
    "new_play": [
        "ded43ef4232c5c23698e001714547447.(0, 9).Apex", 
        "6e5204af1151707aebba1f5f0526b68d.(15, 11).Apex"
    ], 
    "progressive_player": [
        "304f55c4c30167a6dd8bf365c2f321c6.(27, 2).Apex", 
        "ef8c9c3238c0997f0a50179e0167afa6.(15, 18).Apex", 
        "559deec06532af818dc647a493e9e9dc.(22, 2).Apex", 
        "559deec06532af818dc647a493e9e9dc.(22, 24).Apex", 
        "559deec06532af818dc647a493e9e9dc.(0, 24).Apex", 
        "559deec06532af818dc647a493e9e9dc.(0, 2).Apex"
    ], 
    "top_top": [], 
    "other_remote": [
        "972c9a8ae7cdb01c2d55a7fe93e6ecd2.(1, 7).Apex", 
        "972c9a8ae7cdb01c2d55a7fe93e6ecd2.(12, 7).Apex"
    ], 
    "nicer_combo": [
        "9982cf025cf09cf43f1be57afa09155b.(24, 27).Apex"
    ], 
    "annoying_life": [
        "7b185dc9dc52f36cb42d1ebf9b7745f6.(27, 14).Apex"
    ], 
    "more_report": [
        "5af90fdafd59b525226aefa2ffc9fd00.(28, 4).Apex"
    ], 
    "simplest_button": [
        "1b4b8b00a1be6322acc0a3232c0e902d.(21, 11).Apex"
    ], 
    "progressive_wma": [
        "304f55c4c30167a6dd8bf365c2f321c6.(27, 10).Apex"
    ], 
    "remote_option": [
        "1b4b8b00a1be6322acc0a3232c0e902d.(14, 3).Apex", 
        "1b4b8b00a1be6322acc0a3232c0e902d.(24, 3).Apex"
    ], 
    "first_disk": [
        "c43abed7f15effb4bbf9b56cd5cdb4e1.(4, 5).Apex"
    ], 
    "other_movie": [
        "62cf1a8d3b2e903f5a6f46e8d99bb3c2.(16, 18).Apex"
    ], 
    "reliable_review": [
        "5af90fdafd59b525226aefa2ffc9fd00.(9, 19).Apex"
    ], 
    "new_cd": [
        "ded43ef4232c5c23698e001714547447.(0, 1).Apex"
    ], 
    "first_hour": [
        "2025b4edf2d69fbd4b39760b1f763881.(10, 12).Apex"
    ], 
    "other_problem": [
        "521121be8f6569821c970c8fc219b7d7.(12, 10).Apex", 
        "8fd7717f6f4b86db0002350fe4354721.(22, 11).Apex"
    ], 
    "cd-r_formatting": [
        "9947e0d4813586c77a652fb805fbac2e.(41, 46).Apex"
    ], 
    "small_size": [
        "84b3210547b32bd5ab20ec53b3438380.(9, 10).Apex"
    ], 
    "remote_flimsy-feeling": [
        "48452b00f56fb6ca13348ad1d92debd5.(1, 3).Apex"
    ], 
    "progressive_remote": [
        "1b4b8b00a1be6322acc0a3232c0e902d.(1, 24).Apex", 
        "1b4b8b00a1be6322acc0a3232c0e902d.(1, 14).Apex"
    ], 
    "progressive_option": [
        "1b4b8b00a1be6322acc0a3232c0e902d.(1, 3).Apex"
    ], 
    "expensive_anything": [
        "8fd7717f6f4b86db0002350fe4354721.(15, 49).Apex"
    ], 
    "simplest_control": [
        "1b4b8b00a1be6322acc0a3232c0e902d.(21, 25).Apex", 
        "1b4b8b00a1be6322acc0a3232c0e902d.(21, 15).Apex"
    ], 
    "great_tv": [
        "3f04a58bcda5a12c04c16b5a555e8d34.(11, 6).Apex"
    ], 
    "certain_point": [
        "9151bec746be1369933e0711724fabba.(36, 21).Apex"
    ], 
    "favorite_player": [
        "44fa354def3a024a49de7a6b055cf68c.(12, 6).Apex"
    ], 
    "dont_product": [
        "76d840b24bd2063c716af94af9053f6b.(13, 16).Apex"
    ], 
    "great_set": [
        "d4aea072a4d82c259b1c6322dc4b650a.(17, 19).Apex", 
        "9f50c25f5f7fb84cc8995a85ac62697d.(7, 9).Apex"
    ], 
    "more_vcr": [
        "9982cf025cf09cf43f1be57afa09155b.(18, 26).Apex"
    ], 
    "white_noise": [
        "0d0f8d64973f708c799e4e49d6909dfd.(19, 20).Apex"
    ], 
    "several_instance": [
        "cb2481936526033884407b90cc7ee91a.(4, 1).Apex"
    ], 
    "second_didn": [
        "034391c92fae4d4613f259670a4dc0e4.(6, 15).Apex"
    ], 
    "best_feature": [
        "d8105077a4434e718fee25bbe1966b63.(24, 16).Apex"
    ], 
    "progressive_cdr": [
        "304f55c4c30167a6dd8bf365c2f321c6.(27, 11).Apex"
    ], 
    "great_layout": [
        "d4aea072a4d82c259b1c6322dc4b650a.(17, 12).Apex"
    ], 
    "more_set": [
        "d8105077a4434e718fee25bbe1966b63.(10, 14).Apex"
    ], 
    "more_brand": [
        "5af90fdafd59b525226aefa2ffc9fd00.(28, 10).Apex"
    ], 
    "rental_problem": [
        "9151bec746be1369933e0711724fabba.(41, 9).Apex"
    ], 
    "remote_respond": [
        "b471b2d427e623361da6a9861a24aef8.(2, 13).Apex"
    ], 
    "other_work": [
        "de26e922f5cfd35c976f25852b35be7d.(13, 4).Apex", 
        "8fd7717f6f4b86db0002350fe4354721.(22, 46).Apex", 
        "cc11c712dec9b78a5e6186104998785b.(5, 2).Apex"
    ], 
    "different_signal": [
        "f7c6a30b651882d1ae5523552ba03649.(9, 25).Apex"
    ], 
    "standard_item": [
        "d8105077a4434e718fee25bbe1966b63.(13, 19).Apex"
    ], 
    "great_quality": [
        "f79b17a89c5ad1b3a2e790a644f71628.(0, 1).Apex"
    ], 
    "second_work": [
        "034391c92fae4d4613f259670a4dc0e4.(6, 17).Apex"
    ], 
    "progressive_video": [
        "304f55c4c30167a6dd8bf365c2f321c6.(27, 8).Apex"
    ], 
    "regular_formatting": [
        "9947e0d4813586c77a652fb805fbac2e.(40, 46).Apex"
    ], 
    "other_burner": [
        "8fd7717f6f4b86db0002350fe4354721.(22, 53).Apex"
    ], 
    "few_week": [
        "d460f81b43998cfb748cde2be9836aec.(3, 4).Apex"
    ], 
    "fine_spin": [
        "c6d4707ef2fab9972637895ce8590367.(5, 19).Apex"
    ], 
    "more_review": [
        "5af90fdafd59b525226aefa2ffc9fd00.(28, 19).Apex"
    ], 
    "small_show": [
        "168375c1396ae73de3fde98510ddc928.(8, 3).Apex"
    ], 
    "new_course": [
        "6e5204af1151707aebba1f5f0526b68d.(15, 3).Apex"
    ], 
    "great_vcr": [
        "9982cf025cf09cf43f1be57afa09155b.(16, 26).Apex"
    ], 
    "expensive_disc": [
        "8fd7717f6f4b86db0002350fe4354721.(15, 60).Apex", 
        "8fd7717f6f4b86db0002350fe4354721.(15, 19).Apex"
    ], 
    "loud_player": [
        "c6d4707ef2fab9972637895ce8590367.(17, 13).Apex"
    ], 
    "several_connection": [
        "f7c6a30b651882d1ae5523552ba03649.(8, 15).Apex"
    ], 
    "certain_disc": [
        "62cf1a8d3b2e903f5a6f46e8d99bb3c2.(13, 20).Apex"
    ], 
    "more_crappiness": [
        "9982cf025cf09cf43f1be57afa09155b.(18, 34).Apex"
    ], 
    "top_door": [
        "625d471844b0c4831e1c2656db644042.(6, 2).Apex"
    ], 
    "audio_ability": [
        "83e9f5a06e9e14fe2fc55a1563f15ee0.(10, 0).Apex"
    ], 
    "occasional_year": [
        "cd5b349634b4fc9c4d56bec8bf4015ef.(20, 8).Apex"
    ], 
    "high-end_apex": [
        "4fb852ec14462e823ccc18ab597d17b6.(32, 10).Apex"
    ], 
    "numerous_support": [
        "e1fa274c45a3d786c5a8eef4ad84ec31.(6, 4).Apex"
    ], 
    "top_discs": [
        "63310a5e17e811681d048ee50bff3ac2.(20, 13).Apex"
    ], 
    "cheap_feel": [
        "168375c1396ae73de3fde98510ddc928.(7, 27).Apex"
    ], 
    "more_burner": [
        "8fd7717f6f4b86db0002350fe4354721.(14, 53).Apex"
    ], 
    "original_mp3s": [
        "805fb64ce9cfd89eb965b553110a9c78.(2, 8).Apex"
    ], 
    "expensive_apex": [
        "4fb852ec14462e823ccc18ab597d17b6.(31, 10).Apex"
    ], 
    "progressive_quality": [
        "ef8c9c3238c0997f0a50179e0167afa6.(15, 21).Apex"
    ], 
    "compact_machine": [
        "32ea776ee4efc0b2bbcd509ec2656593.(3, 5).Apex"
    ], 
    "loud_disc": [
        "c6d4707ef2fab9972637895ce8590367.(17, 18).Apex"
    ], 
    "other_report": [
        "5af90fdafd59b525226aefa2ffc9fd00.(18, 4).Apex"
    ], 
    "rental_medium": [
        "f1ea952ffd3cb666c023f31c40f6900f.(21, 4).Apex"
    ], 
    "other_condition": [
        "9b11689d3b0c95dc2f00e7b8943b4934.(4, 17).Apex"
    ], 
    "good_feel": [
        "63310a5e17e811681d048ee50bff3ac2.(27, 3).Apex"
    ], 
    "great_picture": [
        "f79b17a89c5ad1b3a2e790a644f71628.(0, 2).Apex", 
        "9f50c25f5f7fb84cc8995a85ac62697d.(7, 5).Apex"
    ], 
    "different_money": [
        "fe7e064c5f0fe9bf989fab990cc0ea99.(27, 22).Apex"
    ], 
    "few_feature": [
        "84b3210547b32bd5ab20ec53b3438380.(3, 5).Apex"
    ], 
    "real_dvds": [
        "3f3779a73e73c8430f134c2c7dca084f.(13, 14).Apex"
    ], 
    "great_player": [
        "2a1edb6a0f322e1800ffc50b6c0183ca.(7, 4).Apex", 
        "3cb598830d17cf87874a5a2af03a542e.(7, 2).Apex", 
        "9982cf025cf09cf43f1be57afa09155b.(16, 28).Apex", 
        "9982cf025cf09cf43f1be57afa09155b.(16, 10).Apex", 
        "c6a83ea9da57eb20f326e6abc581d1df.(4, 0).Apex"
    ], 
    "cheap_apex": [
        "291b89defbbe4a497ff51c7d8d63f47c.(4, 0).Apex"
    ], 
    "few_player": [
        "c6b55dc63ae357379b1ceebd32e4b39a.(9, 7).Apex", 
        "d460f81b43998cfb748cde2be9836aec.(3, 18).Apex", 
        "d460f81b43998cfb748cde2be9836aec.(3, 6).Apex", 
        "01718f91df378fcdfc1e18e529d84f5e.(6, 8).Apex"
    ], 
    "fine_player": [
        "c6b55dc63ae357379b1ceebd32e4b39a.(18, 7).Apex", 
        "01bd9627b997fb43d6e384241050849a.(12, 5).Apex", 
        "c6d4707ef2fab9972637895ce8590367.(5, 13).Apex", 
        "328564a122898c77ba7fd6bd1d5f8da8.(5, 1).Apex", 
        "74f5e24e9641d9668bffdc61cfcfa718.(4, 2).Apex"
    ], 
    "few_problem": [
        "80a2e096524056f7ac5d85b13f7b69fe.(36, 12).Apex"
    ], 
    "other_brand": [
        "5af90fdafd59b525226aefa2ffc9fd00.(18, 10).Apex"
    ], 
    "white_tv": [
        "0d0f8d64973f708c799e4e49d6909dfd.(19, 8).Apex", 
        "0d0f8d64973f708c799e4e49d6909dfd.(19, 5).Apex"
    ], 
    "slim_dvd": [
        "d460f81b43998cfb748cde2be9836aec.(22, 17).Apex"
    ], 
    "nicer_nicer": [], 
    "crappy_unit": [
        "972c9a8ae7cdb01c2d55a7fe93e6ecd2.(6, 15).Apex"
    ], 
    "mixed_guess": [
        "2359d422951fd48bbe8711993ef70ada.(0, 3).Apex"
    ], 
    "easiest_button": [
        "1b4b8b00a1be6322acc0a3232c0e902d.(23, 11).Apex"
    ], 
    "stylish_case": [
        "d460f81b43998cfb748cde2be9836aec.(21, 23).Apex"
    ], 
    "fine_noise": [
        "c6d4707ef2fab9972637895ce8590367.(5, 20).Apex"
    ], 
    "more_disc": [
        "8fd7717f6f4b86db0002350fe4354721.(14, 19).Apex", 
        "8fd7717f6f4b86db0002350fe4354721.(14, 60).Apex", 
        "315c1f1d70df18c343035b159b8fa102.(6, 17).Apex"
    ], 
    "remote_size": [
        "21b5b1779d52da82b0a477fbf05b65d0.(9, 44).Apex", 
        "84b3210547b32bd5ab20ec53b3438380.(16, 10).Apex"
    ], 
    "certain_access": [
        "9151bec746be1369933e0711724fabba.(36, 35).Apex"
    ], 
    "great_letterbox": [
        "368c413655d2e3b779a34ef7a27efb85.(5, 9).Apex"
    ], 
    "good_apex": [
        "fe7e064c5f0fe9bf989fab990cc0ea99.(14, 3).Apex", 
        "fe7e064c5f0fe9bf989fab990cc0ea99.(18, 3).Apex", 
        "b5938c00042cd746390dea8b55ef54ef.(6, 3).Apex"
    ], 
    "cool_cd": [
        "d1f5cf6191b3c90d8622b5f87670e411.(1, 20).Apex", 
        "d1f5cf6191b3c90d8622b5f87670e411.(1, 15).Apex"
    ], 
    "affordable_case": [
        "304678fb79adc7d18bc570816e65c16f.(9, 6).Apex", 
        "d460f81b43998cfb748cde2be9836aec.(15, 23).Apex"
    ], 
    "different_bunch": [
        "61b0cbdba9d3d1062735828f148c2ac5.(5, 3).Apex"
    ], 
    "several_telephone": [
        "62e789092dd8cdbdc780fb92af24cb33.(3, 16).Apex", 
        "62e789092dd8cdbdc780fb92af24cb33.(3, 27).Apex"
    ], 
    "special_movie": [
        "9151bec746be1369933e0711724fabba.(37, 24).Apex"
    ], 
    "top_disc": [
        "625d471844b0c4831e1c2656db644042.(6, 9).Apex"
    ], 
    "good_music": [
        "eaf28814dbb3074b0659f527029d3186.(3, 14).Apex"
    ], 
    "several_month": [
        "6513c98716058aac2f83fc6564af3fd0.(18, 7).Apex", 
        "6513c98716058aac2f83fc6564af3fd0.(6, 7).Apex"
    ], 
    "other_message": [
        "62cf1a8d3b2e903f5a6f46e8d99bb3c2.(16, 21).Apex"
    ], 
    "few_layout": [
        "84b3210547b32bd5ab20ec53b3438380.(3, 13).Apex"
    ], 
    "reliable_product": [
        "5af90fdafd59b525226aefa2ffc9fd00.(9, 34).Apex"
    ], 
    "easy_picture": [
        "eb49671e2b0f5b54b7dfefe2d8de0a1b.(3, 12).Apex"
    ], 
    "other_pic": [
        "554c4ad0dd6259a9c61e4817388e8064.(22, 15).Apex"
    ], 
    "only_picture": [
        "a66b194c44c2a5f041dfcb010cfe3532.(2, 8).Apex", 
        "542d552b6a80169971106c0493d88457.(18, 23).Apex", 
        "542d552b6a80169971106c0493d88457.(6, 23).Apex", 
        "e4730539ff132950b9f794e6c42e8042.(21, 10).Apex", 
        "0d0f8d64973f708c799e4e49d6909dfd.(17, 11).Apex"
    ], 
    "disapointed_player": [
        "882f8c2afb0b7af577d6c9ab03ee0778.(13, 8).Apex"
    ], 
    "best_player": [
        "291b89defbbe4a497ff51c7d8d63f47c.(3, 9).Apex", 
        "d8105077a4434e718fee25bbe1966b63.(24, 7).Apex", 
        "192d1feac80f1b657136f3ef38389d3c.(3, 5).Apex", 
        "862e0d8256d5175b4c962e3c6454f2af.(5, 7).Apex", 
        "31aa5c3f5d31378b6c3d2a52028a86f5.(10, 6).Apex"
    ], 
    "best_price": [
        "862e0d8256d5175b4c962e3c6454f2af.(5, 13).Apex"
    ], 
    "cd-r_artist": [
        "9947e0d4813586c77a652fb805fbac2e.(41, 18).Apex"
    ], 
    "more_category": [
        "d8105077a4434e718fee25bbe1966b63.(10, 27).Apex"
    ], 
    "remote_sorry": [
        "21b5b1779d52da82b0a477fbf05b65d0.(9, 45).Apex"
    ], 
    "sleek_work": [
        "01bd9627b997fb43d6e384241050849a.(8, 11).Apex"
    ], 
    "good_quality": [
        "63310a5e17e811681d048ee50bff3ac2.(27, 2).Apex", 
        "b2d71aa5c89ea5c46f9690a4448bb3e9.(0, 1).Apex"
    ], 
    "negative_unit": [
        "e4730539ff132950b9f794e6c42e8042.(15, 17).Apex"
    ], 
    "occasional_motor": [
        "cd5b349634b4fc9c4d56bec8bf4015ef.(20, 25).Apex"
    ], 
    "good_shipping": [
        "29d2614f705ec8f146e4eddeb3c87bcf.(8, 4).Apex"
    ], 
    "inexpensive_player": [
        "d8105077a4434e718fee25bbe1966b63.(5, 7).Apex", 
        "2025b4edf2d69fbd4b39760b1f763881.(6, 7).Apex"
    ], 
    "fine_design": [
        "01bd9627b997fb43d6e384241050849a.(12, 9).Apex"
    ], 
    "more_product": [
        "5af90fdafd59b525226aefa2ffc9fd00.(28, 34).Apex"
    ], 
    "few_remote": [
        "84b3210547b32bd5ab20ec53b3438380.(3, 16).Apex"
    ], 
    "several_multitude": [
        "f7c6a30b651882d1ae5523552ba03649.(8, 13).Apex"
    ], 
    "cool_mp3": [
        "d1f5cf6191b3c90d8622b5f87670e411.(1, 13).Apex"
    ], 
    "white_picture": [
        "0d0f8d64973f708c799e4e49d6909dfd.(19, 11).Apex"
    ], 
    "special_point": [
        "9151bec746be1369933e0711724fabba.(37, 21).Apex"
    ], 
    "mixed_price": [
        "2359d422951fd48bbe8711993ef70ada.(0, 6).Apex"
    ], 
    "sleek_player": [
        "01bd9627b997fb43d6e384241050849a.(8, 5).Apex"
    ], 
    "different_value": [
        "fe7e064c5f0fe9bf989fab990cc0ea99.(27, 19).Apex"
    ], 
    "different_picture": [
        "d1f5cf6191b3c90d8622b5f87670e411.(10, 19).Apex"
    ], 
    "progressive_scan": [
        "304f55c4c30167a6dd8bf365c2f321c6.(27, 28).Apex", 
        "1b4b8b00a1be6322acc0a3232c0e902d.(1, 2).Apex", 
        "559deec06532af818dc647a493e9e9dc.(0, 1).Apex", 
        "559deec06532af818dc647a493e9e9dc.(22, 1).Apex", 
        "559deec06532af818dc647a493e9e9dc.(0, 23).Apex", 
        "559deec06532af818dc647a493e9e9dc.(22, 23).Apex", 
        "ef8c9c3238c0997f0a50179e0167afa6.(15, 16).Apex"
    ], 
    "good_part": [
        "1bb0466c467ad147fa770ae552afdb45.(7, 3).Apex"
    ], 
    "decent_player": [
        "a8ace68534381de6693b2cd4a413efea.(18, 19).Apex"
    ], 
    "fine_work": [
        "01bd9627b997fb43d6e384241050849a.(12, 11).Apex", 
        "328564a122898c77ba7fd6bd1d5f8da8.(5, 4).Apex", 
        "cc11c712dec9b78a5e6186104998785b.(3, 2).Apex", 
        "98987f7c3d051f108c91a160e1342d6f.(15, 14).Apex"
    ], 
    "cd-r_vcd": [
        "9947e0d4813586c77a652fb805fbac2e.(41, 45).Apex"
    ], 
    "occasional_feature": [
        "9151bec746be1369933e0711724fabba.(8, 38).Apex"
    ], 
    "inexpensive_item": [
        "d8105077a4434e718fee25bbe1966b63.(5, 19).Apex"
    ], 
    "several_time": [
        "62e789092dd8cdbdc780fb92af24cb33.(3, 4).Apex", 
        "be4b7903a9d098dd895e2eb70527204a.(4, 24).Apex", 
        "4e76cc39ae9044560ecd410fbbf8ce76.(9, 10).Apex"
    ], 
    "remote_claiming": [
        "1a0284a937d6f776c0dd445ba87180e1.(5, 8).Apex"
    ], 
    "reviews-my_unit": [
        "e4730539ff132950b9f794e6c42e8042.(16, 17).Apex"
    ], 
    "more_player": [
        "d8105077a4434e718fee25bbe1966b63.(10, 7).Apex", 
        "8fd7717f6f4b86db0002350fe4354721.(14, 23).Apex", 
        "9982cf025cf09cf43f1be57afa09155b.(18, 10).Apex", 
        "9982cf025cf09cf43f1be57afa09155b.(18, 28).Apex"
    ], 
    "good_pic": [
        "554c4ad0dd6259a9c61e4817388e8064.(26, 15).Apex", 
        "554c4ad0dd6259a9c61e4817388e8064.(31, 15).Apex"
    ], 
    "lemon_condition": [
        "9b11689d3b0c95dc2f00e7b8943b4934.(9, 17).Apex"
    ], 
    "remote_setting": [
        "21b5b1779d52da82b0a477fbf05b65d0.(9, 33).Apex"
    ], 
    "regular_jpeg": [
        "9947e0d4813586c77a652fb805fbac2e.(40, 7).Apex"
    ], 
    "good_factor": [
        "1884b63b7e64eae77c5a882b7904a99b.(8, 5).Apex"
    ], 
    "good_tv": [
        "89ec4ff01b352ade745a12c65404dee0.(6, 10).Apex"
    ], 
    "other_friend": [
        "6513c98716058aac2f83fc6564af3fd0.(26, 29).Apex"
    ], 
    "inexpensive_set": [
        "d8105077a4434e718fee25bbe1966b63.(5, 14).Apex"
    ], 
    "remote_cycle": [
        "21b5b1779d52da82b0a477fbf05b65d0.(9, 29).Apex"
    ], 
    "several_number": [
        "4e76cc39ae9044560ecd410fbbf8ce76.(9, 5).Apex"
    ], 
    "new_pirate": [
        "9bda6f3b3d54d3179789e2d0c3aa99fa.(6, 7).Apex"
    ], 
    "expensive_player": [
        "8fd7717f6f4b86db0002350fe4354721.(15, 23).Apex", 
        "4fb852ec14462e823ccc18ab597d17b6.(31, 11).Apex", 
        "4fb852ec14462e823ccc18ab597d17b6.(31, 33).Apex"
    ], 
    "progressive_feature": [
        "304f55c4c30167a6dd8bf365c2f321c6.(27, 29).Apex"
    ], 
    "few_movie": [
        "c6b55dc63ae357379b1ceebd32e4b39a.(9, 13).Apex", 
        "80a2e096524056f7ac5d85b13f7b69fe.(36, 16).Apex"
    ], 
    "occasional_problem": [
        "9151bec746be1369933e0711724fabba.(8, 9).Apex"
    ], 
    "inexpensive_hour": [
        "2025b4edf2d69fbd4b39760b1f763881.(6, 12).Apex"
    ], 
    "best_category": [
        "d8105077a4434e718fee25bbe1966b63.(24, 27).Apex"
    ], 
    "annoying_unit": [
        "7b185dc9dc52f36cb42d1ebf9b7745f6.(27, 8).Apex"
    ], 
    "inexpensive_category": [
        "d8105077a4434e718fee25bbe1966b63.(5, 27).Apex"
    ], 
    "extra_feature": [
        "9bda6f3b3d54d3179789e2d0c3aa99fa.(11, 12).Apex"
    ], 
    "good_notch": [
        "63310a5e17e811681d048ee50bff3ac2.(27, 21).Apex"
    ], 
    "several_unit": [
        "f7c6a30b651882d1ae5523552ba03649.(8, 6).Apex"
    ], 
    "attractive_machine": [
        "32ea776ee4efc0b2bbcd509ec2656593.(4, 5).Apex"
    ], 
    "several_email": [
        "62e789092dd8cdbdc780fb92af24cb33.(3, 24).Apex"
    ], 
    "other_unit": [
        "972c9a8ae7cdb01c2d55a7fe93e6ecd2.(1, 15).Apex", 
        "972c9a8ae7cdb01c2d55a7fe93e6ecd2.(12, 15).Apex", 
        "e4730539ff132950b9f794e6c42e8042.(14, 17).Apex", 
        "554c4ad0dd6259a9c61e4817388e8064.(22, 1).Apex"
    ], 
    "great_connector": [
        "9f50c25f5f7fb84cc8995a85ac62697d.(7, 13).Apex"
    ], 
    "more_deal": [
        "9982cf025cf09cf43f1be57afa09155b.(18, 17).Apex"
    ], 
    "standard_category": [
        "d8105077a4434e718fee25bbe1966b63.(13, 27).Apex"
    ], 
    "first_froze": [
        "c43abed7f15effb4bbf9b56cd5cdb4e1.(4, 19).Apex"
    ], 
    "remote_work": [
        "1a0284a937d6f776c0dd445ba87180e1.(5, 10).Apex", 
        "bbe63f0328f52170d91cf129c76fd211.(2, 3).Apex", 
        "bbe63f0328f52170d91cf129c76fd211.(2, 9).Apex", 
        "a475cd1c0454d10a130c0e05e28e193d.(11, 7).Apex"
    ], 
    "easy_setup": [
        "eb49671e2b0f5b54b7dfefe2d8de0a1b.(3, 6).Apex"
    ], 
    "certain_episode": [
        "a3501130193708007cd28c5fd53b8965.(9, 10).Apex"
    ], 
    "cd-r_plus": [
        "9947e0d4813586c77a652fb805fbac2e.(41, 12).Apex"
    ], 
    "best_dvd": [
        "291b89defbbe4a497ff51c7d8d63f47c.(3, 8).Apex", 
        "d8105077a4434e718fee25bbe1966b63.(24, 6).Apex", 
        "192d1feac80f1b657136f3ef38389d3c.(3, 4).Apex", 
        "862e0d8256d5175b4c962e3c6454f2af.(5, 6).Apex", 
        "31aa5c3f5d31378b6c3d2a52028a86f5.(10, 5).Apex"
    ], 
    "top_dvd": [
        "625d471844b0c4831e1c2656db644042.(6, 1).Apex"
    ], 
    "progressive_control": [
        "1b4b8b00a1be6322acc0a3232c0e902d.(1, 25).Apex", 
        "1b4b8b00a1be6322acc0a3232c0e902d.(1, 15).Apex"
    ], 
    "reliable_brand": [
        "5af90fdafd59b525226aefa2ffc9fd00.(9, 10).Apex"
    ], 
    "cheap_show": [
        "168375c1396ae73de3fde98510ddc928.(7, 3).Apex"
    ], 
    "multi-format_dvd": [
        "d460f81b43998cfb748cde2be9836aec.(16, 17).Apex"
    ], 
    "remote_lot": [
        "1a75f65daeb3cf2d68dd0dd806a825e8.(6, 9).Apex"
    ], 
    "new_couple": [
        "6e5204af1151707aebba1f5f0526b68d.(15, 6).Apex"
    ], 
    "different_file": [
        "d1f5cf6191b3c90d8622b5f87670e411.(10, 11).Apex"
    ], 
    "extra_dvd": [
        "9bda6f3b3d54d3179789e2d0c3aa99fa.(11, 13).Apex", 
        "9bda6f3b3d54d3179789e2d0c3aa99fa.(11, 16).Apex"
    ], 
    "expensive_burner": [
        "8fd7717f6f4b86db0002350fe4354721.(15, 53).Apex"
    ], 
    "small_remote": [
        "84b3210547b32bd5ab20ec53b3438380.(9, 16).Apex", 
        "d79245d81b4060e7f727fdd27f624fad.(3, 0).Apex"
    ], 
    "several_machine": [
        "f7c6a30b651882d1ae5523552ba03649.(8, 28).Apex"
    ], 
    "great_work": [
        "d207950b5632304baf3d4d84342cf373.(2, 1).Apex", 
        "0bd186f76e74c82503b313c048781adb.(1, 0).Apex", 
        "c6a83ea9da57eb20f326e6abc581d1df.(4, 1).Apex"
    ], 
    "small_feel": [
        "168375c1396ae73de3fde98510ddc928.(8, 27).Apex"
    ], 
    "more_problem": [
        "8fd7717f6f4b86db0002350fe4354721.(14, 11).Apex"
    ], 
    "reliable_experience": [
        "5af90fdafd59b525226aefa2ffc9fd00.(9, 14).Apex"
    ], 
    "low_design": [
        "0a3d6bf18633218545bbb81dd93b8f68.(2, 6).Apex"
    ], 
    "great_panel": [
        "d4aea072a4d82c259b1c6322dc4b650a.(17, 10).Apex"
    ], 
    "good_machine": [
        "b5938c00042cd746390dea8b55ef54ef.(6, 4).Apex"
    ], 
    "good_format": [
        "554c4ad0dd6259a9c61e4817388e8064.(26, 6).Apex", 
        "554c4ad0dd6259a9c61e4817388e8064.(31, 6).Apex"
    ], 
    "easy_factor": [
        "1884b63b7e64eae77c5a882b7904a99b.(0, 5).Apex"
    ], 
    "first_player": [
        "c43abed7f15effb4bbf9b56cd5cdb4e1.(4, 18).Apex", 
        "d460f81b43998cfb748cde2be9836aec.(2, 6).Apex", 
        "d460f81b43998cfb748cde2be9836aec.(2, 18).Apex", 
        "bf481030e644dc8ef932d183242a13dd.(7, 9).Apex", 
        "499db2ac0845c79245f70ba7c8bc100b.(0, 2).Apex", 
        "2025b4edf2d69fbd4b39760b1f763881.(10, 7).Apex", 
        "37f15e561ae7ac9028bbedac55bbb567.(1, 17).Apex"
    ], 
    "top_feel": [
        "63310a5e17e811681d048ee50bff3ac2.(20, 3).Apex"
    ], 
    "numerous_time": [
        "e1fa274c45a3d786c5a8eef4ad84ec31.(6, 7).Apex"
    ], 
    "different_connection": [
        "f7c6a30b651882d1ae5523552ba03649.(9, 15).Apex"
    ], 
    "occasional_dvd": [
        "9151bec746be1369933e0711724fabba.(8, 42).Apex", 
        "9151bec746be1369933e0711724fabba.(8, 4).Apex", 
        "9151bec746be1369933e0711724fabba.(8, 16).Apex"
    ], 
    "regular_vcd": [
        "9947e0d4813586c77a652fb805fbac2e.(40, 45).Apex"
    ], 
    "good_disc": [
        "eaf28814dbb3074b0659f527029d3186.(3, 25).Apex"
    ], 
    "other_review": [
        "5af90fdafd59b525226aefa2ffc9fd00.(18, 19).Apex", 
        "554c4ad0dd6259a9c61e4817388e8064.(22, 23).Apex"
    ], 
    "more_homework": [
        "5af90fdafd59b525226aefa2ffc9fd00.(28, 29).Apex"
    ], 
    "several_tv": [
        "f7c6a30b651882d1ae5523552ba03649.(8, 10).Apex"
    ], 
    "good_dvd": [
        "fe7e064c5f0fe9bf989fab990cc0ea99.(14, 5).Apex", 
        "fe7e064c5f0fe9bf989fab990cc0ea99.(18, 5).Apex", 
        "1bb0466c467ad147fa770ae552afdb45.(7, 8).Apex"
    ], 
    "small_plate": [
        "168375c1396ae73de3fde98510ddc928.(8, 13).Apex"
    ], 
    "different_method": [
        "f7c6a30b651882d1ae5523552ba03649.(9, 16).Apex"
    ], 
    "good_value": [
        "fe7e064c5f0fe9bf989fab990cc0ea99.(14, 19).Apex", 
        "fe7e064c5f0fe9bf989fab990cc0ea99.(18, 19).Apex"
    ], 
    "several_dvds": [
        "cb2481936526033884407b90cc7ee91a.(4, 20).Apex"
    ], 
    "pricey_cool": [
        "80cb6fbb20332fa22c5eba0f351a1901.(17, 15).Apex"
    ], 
    "new_feature": [
        "9bda6f3b3d54d3179789e2d0c3aa99fa.(6, 12).Apex"
    ], 
    "small_sony": [
        "168375c1396ae73de3fde98510ddc928.(8, 22).Apex"
    ], 
    "low_pioneer": [
        "559deec06532af818dc647a493e9e9dc.(6, 15).Apex"
    ], 
    "great_button": [
        "d4aea072a4d82c259b1c6322dc4b650a.(17, 11).Apex"
    ], 
    "negative_picture": [
        "e4730539ff132950b9f794e6c42e8042.(15, 10).Apex"
    ], 
    "great_screen": [
        "368c413655d2e3b779a34ef7a27efb85.(5, 15).Apex"
    ], 
    "cool_picture": [
        "d1f5cf6191b3c90d8622b5f87670e411.(1, 19).Apex"
    ], 
    "small_quality": [
        "168375c1396ae73de3fde98510ddc928.(8, 2).Apex"
    ], 
    "other_month": [
        "6513c98716058aac2f83fc6564af3fd0.(26, 7).Apex"
    ], 
    "several_player": [
        "6513c98716058aac2f83fc6564af3fd0.(18, 4).Apex", 
        "6513c98716058aac2f83fc6564af3fd0.(6, 4).Apex", 
        "6513c98716058aac2f83fc6564af3fd0.(6, 27).Apex", 
        "6513c98716058aac2f83fc6564af3fd0.(18, 27).Apex"
    ], 
    "original_jpegs": [
        "805fb64ce9cfd89eb965b553110a9c78.(2, 10).Apex"
    ], 
    "regular_accident": [
        "9947e0d4813586c77a652fb805fbac2e.(40, 23).Apex"
    ], 
    "more_finish": [
        "fe19754870ba8de34ab8b68d4788bf6a.(4, 2).Apex"
    ], 
    "certain_feature": [
        "9151bec746be1369933e0711724fabba.(36, 38).Apex"
    ], 
    "easiest_control": [
        "1b4b8b00a1be6322acc0a3232c0e902d.(23, 15).Apex", 
        "1b4b8b00a1be6322acc0a3232c0e902d.(23, 25).Apex"
    ], 
    "slim_case": [
        "d460f81b43998cfb748cde2be9836aec.(22, 23).Apex"
    ], 
    "cool_dvd": [
        "d1f5cf6191b3c90d8622b5f87670e411.(1, 23).Apex", 
        "d1f5cf6191b3c90d8622b5f87670e411.(1, 21).Apex"
    ], 
    "more_money": [
        "9982cf025cf09cf43f1be57afa09155b.(18, 7).Apex"
    ], 
    "great_feature": [
        "f79b17a89c5ad1b3a2e790a644f71628.(0, 4).Apex", 
        "d4aea072a4d82c259b1c6322dc4b650a.(17, 18).Apex", 
        "861504db448efd462039eef3646bd387.(0, 1).Apex", 
        "368c413655d2e3b779a34ef7a27efb85.(5, 2).Apex", 
        "71b6cd812bbbbaa721bb8c2de2cd2520.(6, 7).Apex", 
        "5dbe0792295c9820d86841e5c5bb0571.(2, 7).Apex"
    ], 
    "great_gift": [
        "9982cf025cf09cf43f1be57afa09155b.(16, 39).Apex"
    ], 
    "white_moment": [
        "0d0f8d64973f708c799e4e49d6909dfd.(19, 24).Apex", 
        "0d0f8d64973f708c799e4e49d6909dfd.(19, 14).Apex"
    ], 
    "cheap_plate": [
        "168375c1396ae73de3fde98510ddc928.(7, 13).Apex"
    ], 
    "progressive_mpeg1": [
        "304f55c4c30167a6dd8bf365c2f321c6.(27, 7).Apex"
    ], 
    "progressive_mpeg2": [
        "304f55c4c30167a6dd8bf365c2f321c6.(27, 5).Apex"
    ], 
    "different_review": [
        "fe7e064c5f0fe9bf989fab990cc0ea99.(27, 15).Apex"
    ], 
    "good_soom": [
        "554c4ad0dd6259a9c61e4817388e8064.(31, 28).Apex", 
        "554c4ad0dd6259a9c61e4817388e8064.(26, 28).Apex"
    ], 
    "numerous_number": [
        "e1fa274c45a3d786c5a8eef4ad84ec31.(6, 5).Apex"
    ], 
    "inexpensive_feature": [
        "d8105077a4434e718fee25bbe1966b63.(5, 16).Apex"
    ], 
    "special_problem": [
        "9151bec746be1369933e0711724fabba.(37, 9).Apex"
    ], 
    "great_price": [
        "43bd3fca24e560e70ef752b201fe7025.(7, 8).Apex"
    ], 
    "progressive_cdrw": [
        "304f55c4c30167a6dd8bf365c2f321c6.(27, 12).Apex"
    ], 
    "different_variety": [
        "fe7e064c5f0fe9bf989fab990cc0ea99.(27, 25).Apex"
    ], 
    "sleek_design": [
        "01bd9627b997fb43d6e384241050849a.(8, 9).Apex"
    ], 
    "reliable_apex": [
        "5af90fdafd59b525226aefa2ffc9fd00.(9, 33).Apex", 
        "5af90fdafd59b525226aefa2ffc9fd00.(9, 6).Apex"
    ], 
    "first_access": [
        "499db2ac0845c79245f70ba7c8bc100b.(0, 8).Apex"
    ], 
    "pricey_player": [
        "80cb6fbb20332fa22c5eba0f351a1901.(17, 13).Apex"
    ], 
    "slim_panel": [
        "80cb6fbb20332fa22c5eba0f351a1901.(2, 9).Apex"
    ], 
    "second_catch": [
        "4eadb02423a841209104f9bbc14fba06.(15, 1).Apex"
    ], 
    "different_dvd": [
        "be4b7903a9d098dd895e2eb70527204a.(5, 6).Apex", 
        "fe7e064c5f0fe9bf989fab990cc0ea99.(27, 5).Apex", 
        "d1f5cf6191b3c90d8622b5f87670e411.(10, 23).Apex", 
        "d1f5cf6191b3c90d8622b5f87670e411.(10, 21).Apex"
    ], 
    "good_front": [
        "d4aea072a4d82c259b1c6322dc4b650a.(8, 9).Apex"
    ], 
    "cd-r_accident": [
        "9947e0d4813586c77a652fb805fbac2e.(41, 23).Apex"
    ], 
    "other_disc": [
        "62cf1a8d3b2e903f5a6f46e8d99bb3c2.(16, 20).Apex", 
        "8fd7717f6f4b86db0002350fe4354721.(22, 60).Apex", 
        "8fd7717f6f4b86db0002350fe4354721.(22, 19).Apex"
    ], 
    "extra_player": [
        "9bda6f3b3d54d3179789e2d0c3aa99fa.(11, 17).Apex"
    ], 
    "few_moment": [
        "80a2e096524056f7ac5d85b13f7b69fe.(36, 37).Apex"
    ], 
    "top_picture": [
        "63310a5e17e811681d048ee50bff3ac2.(20, 16).Apex"
    ], 
    "rental_vcd": [
        "f1ea952ffd3cb666c023f31c40f6900f.(21, 13).Apex"
    ], 
    "new_one": [
        "6e5204af1151707aebba1f5f0526b68d.(15, 16).Apex"
    ], 
    "different_unit": [
        "f7c6a30b651882d1ae5523552ba03649.(9, 6).Apex"
    ], 
    "nicer_deal": [
        "9982cf025cf09cf43f1be57afa09155b.(24, 17).Apex"
    ], 
    "good_dvds": [
        "eaf28814dbb3074b0659f527029d3186.(3, 12).Apex"
    ], 
    "second_player": [
        "034391c92fae4d4613f259670a4dc0e4.(6, 8).Apex"
    ], 
    "slim_design": [
        "e938caf51ea8e0d24b0f060a2fa90eac.(2, 3).Apex"
    ], 
    "easy_zoom": [
        "eb49671e2b0f5b54b7dfefe2d8de0a1b.(3, 13).Apex"
    ], 
    "other_machine": [
        "a981acb506188c8737a2ad731e15dfff.(14, 10).Apex"
    ], 
    "good_review": [
        "fe7e064c5f0fe9bf989fab990cc0ea99.(18, 15).Apex", 
        "fe7e064c5f0fe9bf989fab990cc0ea99.(14, 15).Apex", 
        "554c4ad0dd6259a9c61e4817388e8064.(26, 23).Apex", 
        "554c4ad0dd6259a9c61e4817388e8064.(31, 23).Apex"
    ], 
    "attractive_feature": [
        "84b3210547b32bd5ab20ec53b3438380.(4, 5).Apex"
    ], 
    "easiest_remote": [
        "1b4b8b00a1be6322acc0a3232c0e902d.(23, 14).Apex", 
        "1b4b8b00a1be6322acc0a3232c0e902d.(23, 24).Apex"
    ], 
    "other_surprise": [
        "8fd7717f6f4b86db0002350fe4354721.(22, 29).Apex"
    ], 
    "special_dvd": [
        "9151bec746be1369933e0711724fabba.(37, 4).Apex", 
        "9151bec746be1369933e0711724fabba.(37, 42).Apex", 
        "9151bec746be1369933e0711724fabba.(37, 16).Apex"
    ], 
    "other_anything": [
        "8fd7717f6f4b86db0002350fe4354721.(22, 49).Apex"
    ], 
    "several_season": [
        "6513c98716058aac2f83fc6564af3fd0.(6, 30).Apex", 
        "6513c98716058aac2f83fc6564af3fd0.(18, 30).Apex"
    ], 
    "several_back-ups": [
        "cb2481936526033884407b90cc7ee91a.(4, 5).Apex"
    ], 
    "different_jpeg": [
        "d1f5cf6191b3c90d8622b5f87670e411.(10, 16).Apex"
    ], 
    "good_feeling": [
        "554c4ad0dd6259a9c61e4817388e8064.(26, 34).Apex", 
        "554c4ad0dd6259a9c61e4817388e8064.(31, 34).Apex"
    ], 
    "first_dvds": [
        "499db2ac0845c79245f70ba7c8bc100b.(0, 12).Apex", 
        "37f15e561ae7ac9028bbedac55bbb567.(1, 23).Apex"
    ], 
    "remote_error": [
        "b471b2d427e623361da6a9861a24aef8.(2, 20).Apex"
    ], 
    "several_week": [
        "4e76cc39ae9044560ecd410fbbf8ce76.(9, 8).Apex"
    ], 
    "more_gift": [
        "9982cf025cf09cf43f1be57afa09155b.(18, 39).Apex"
    ], 
    "progressive_dvd": [
        "304f55c4c30167a6dd8bf365c2f321c6.(27, 19).Apex", 
        "304f55c4c30167a6dd8bf365c2f321c6.(27, 1).Apex", 
        "ef8c9c3238c0997f0a50179e0167afa6.(15, 17).Apex"
    ]
}