{
    "b9bfe35c56e22b2e41d54ff0d9f5e938": {
        "(19, 11)": {
            "WBF": [
                1558
            ], 
            "AM2L": [
                275
            ], 
            "BM1F": [
                1728
            ], 
            "M1": [
                1659
            ], 
            "M2": [
                103
            ], 
            "BM1L": [
                2866
            ], 
            "WBO": [
                1449, 
                3117, 
                153, 
                2909
            ], 
            "WBL": [
                2882
            ], 
            "AM2F": [
                1847
            ], 
            "M1_ADJ": [
                0
            ]
        }, 
        "location1": [
            19
        ], 
        "location2": [
            11
        ], 
        "sentence": "for a price that 's still less than even the lowest level ipod i was able to get this 40gb monster , and the best part is it work as great as it was advertised to and then some ."
    }
}