{
    "00678fc65cf74c7bbfb5bf91f2796a34": {
        "(26, 6)": {
            "WBF": [
                1562
            ], 
            "AM2L": [
                1562
            ], 
            "BM1F": [
                400
            ], 
            "M1": [
                1664
            ], 
            "M2": [
                103
            ], 
            "BM1L": [
                2866
            ], 
            "WBO": [
                1092, 
                2866, 
                1132, 
                2864, 
                2866, 
                400, 
                1562, 
                2400, 
                1562, 
                1092, 
                275, 
                1184, 
                2866, 
                2225, 
                53, 
                602
            ], 
            "WBL": [
                2866
            ], 
            "AM2F": [
                1558
            ], 
            "M1_ADJ": [
                0
            ]
        }, 
        "location1": [
            26
        ], 
        "location2": [
            6
        ], 
        "sentence": "the sound is excellent , the battery life is excellent , the fact that the battery is replacable is excellent , and finally the price , $ 200 cheaper than the 40gb ipod , is excellent ."
    }
}