{
    "fd02adeb0b3e3ad869f3f15173d5cd41": {
        "(7, 5)": {
            "AM2L": [
                1566
            ], 
            "WBFL": [
                3220
            ], 
            "BM1F": [
                1587
            ], 
            "M1": [
                3236
            ], 
            "M2": [
                103
            ], 
            "BM1L": [
                1922
            ], 
            "AM2F": [
                275
            ], 
            "M1_ADJ": [
                0
            ]
        }, 
        "location1": [
            7
        ], 
        "location2": [
            5
        ], 
        "sentence": "i purchased the nomad jukebox zen xtra 40gb and it is fantastic !"
    }, 
    "ff59c7cf73f04bfbe21c7256237ad99c": {
        "(4, 5)": {
            "AM2L": [
                3225
            ], 
            "BM1F": [
                1878
            ], 
            "M1": [
                103
            ], 
            "M2": [
                3236
            ], 
            "BM1L": [
                2334
            ], 
            "WBNULL": [
                1
            ], 
            "AM2F": [
                3220
            ], 
            "M1_ADJ": [
                1
            ]
        }, 
        "location1": [
            4
        ], 
        "location2": [
            5
        ], 
        "sentence": "i just received my 40gb zen xtra yesterday and i 'm extremely pleased with it ."
    }, 
    "4fb1cfe789fe3b6adac7a3197959eeff": {
        "location1": [
            6
        ], 
        "location2": [
            8
        ], 
        "(6, 8)": {
            "AM2L": [
                1261
            ], 
            "WBFL": [
                1922
            ], 
            "BM1F": [
                2866
            ], 
            "M1": [
                103
            ], 
            "M2": [
                3236
            ], 
            "BM1L": [
                618
            ], 
            "AM2F": [
                3220
            ], 
            "M1_ADJ": [
                1
            ]
        }, 
        "sentence": "after some consideration i chose the 40gb nomad zen xtra from creative , and i have not been disappointed ."
    }
}