{
    "867804e0f600290b55597fc61d92689b": {
        "location1": [
            2
        ], 
        "location2": [
            6
        ], 
        "(2, 6)": {
            "WBF": [
                3098
            ], 
            "AM2L": [
                2866
            ], 
            "BM1F": [
                3058
            ], 
            "M1": [
                103
            ], 
            "M2": [
                1558
            ], 
            "BM1L": [
                1333
            ], 
            "WBO": [
                17
            ], 
            "WBL": [
                1288
            ], 
            "AM2F": [
                1232
            ], 
            "M1_ADJ": [
                1
            ]
        }, 
        "sentence": "- great value 40gb vs 10 gb ipod for the price"
    }, 
    "b9bfe35c56e22b2e41d54ff0d9f5e938": {
        "(19, 12)": {
            "WBF": [
                1449
            ], 
            "AM2L": [
                275
            ], 
            "BM1F": [
                1659
            ], 
            "M1": [
                1558
            ], 
            "M2": [
                103
            ], 
            "BM1L": [
                1728
            ], 
            "WBO": [
                3117, 
                153, 
                2909
            ], 
            "WBL": [
                2882
            ], 
            "AM2F": [
                1847
            ], 
            "M1_ADJ": [
                0
            ]
        }, 
        "location1": [
            19
        ], 
        "location2": [
            12
        ], 
        "sentence": "for a price that 's still less than even the lowest level ipod i was able to get this 40gb monster , and the best part is it work as great as it was advertised to and then some ."
    }, 
    "00678fc65cf74c7bbfb5bf91f2796a34": {
        "location1": [
            26
        ], 
        "location2": [
            27
        ], 
        "(26, 27)": {
            "AM2L": [
                1092
            ], 
            "BM1F": [
                2866
            ], 
            "M1": [
                103
            ], 
            "M2": [
                1558
            ], 
            "BM1L": [
                2862
            ], 
            "WBNULL": [
                1
            ], 
            "AM2F": [
                1562
            ], 
            "M1_ADJ": [
                1
            ]
        }, 
        "sentence": "the sound is excellent , the battery life is excellent , the fact that the battery is replacable is excellent , and finally the price , $ 200 cheaper than the 40gb ipod , is excellent ."
    }
}