{
    "ad451383a8f52970863fb60b1cd69f44": {
        "(20, 27)": {
            "WBF": [
                1922
            ], 
            "BM1F": [
                150
            ], 
            "M1": [
                127
            ], 
            "M2": [
                680
            ], 
            "BM1L": [
                1297
            ], 
            "WBO": [
                2866, 
                1558, 
                2607
            ], 
            "WBL": [
                1490
            ], 
            "M1_ADJ": [
                1
            ]
        }, 
        "location1": [
            20
        ], 
        "location2": [
            27
        ], 
        "sentence": "for some this might be a problem , but for the price of a 30 gig ipod , you can get a 60gb nomad , the ipod simply pale in comparison ."
    }
}