{
    "ad451383a8f52970863fb60b1cd69f44": {
        "location1": [
            20
        ], 
        "location2": [
            21
        ], 
        "(20, 21)": {
            "AM2L": [
                1558
            ], 
            "BM1F": [
                150
            ], 
            "M1": [
                127
            ], 
            "M2": [
                1922
            ], 
            "BM1L": [
                1297
            ], 
            "WBNULL": [
                1
            ], 
            "AM2F": [
                2866
            ], 
            "M1_ADJ": [
                1
            ]
        }, 
        "sentence": "for some this might be a problem , but for the price of a 30 gig ipod , you can get a 60gb nomad , the ipod simply pale in comparison ."
    }
}