{
    "ca693a4c5df2c07f651e149646f822a6": {
        "(10, 22)": {
            "WBF": [
                1363
            ], 
            "AM2L": [
                3174
            ], 
            "BM1F": [
                273
            ], 
            "M1": [
                198
            ], 
            "M2": [
                1176
            ], 
            "BM1L": [
                325
            ], 
            "WBO": [
                915, 
                2650, 
                1566, 
                247, 
                3229, 
                2909, 
                2607, 
                957
            ], 
            "WBL": [
                966
            ], 
            "AM2F": [
                1261
            ], 
            "M1_ADJ": [
                1
            ]
        }, 
        "location1": [
            10
        ], 
        "location2": [
            22
        ], 
        "sentence": "transfer through window explorer - window recognizes the jukebox as an additional hard disk , so it allows you to simply drag and drop file from window explorer to a folder for the nomad ."
    }
}