{
    "ca693a4c5df2c07f651e149646f822a6": {
        "(10, 7)": {
            "WBF": [
                325
            ], 
            "AM2L": [
                915
            ], 
            "BM1F": [
                2866
            ], 
            "M1": [
                1587
            ], 
            "M2": [
                198
            ], 
            "BM1L": [
                2350
            ], 
            "WBO": [
                273
            ], 
            "WBL": [
                273
            ], 
            "AM2F": [
                1363
            ], 
            "M1_ADJ": [
                0
            ]
        }, 
        "location1": [
            10
        ], 
        "location2": [
            7
        ], 
        "sentence": "transfer through window explorer - window recognizes the jukebox as an additional hard disk , so it allows you to simply drag and drop file from window explorer to a folder for the nomad ."
    }
}