{
    "b9063ee5751791fa6c9c7c2cfb04d687": {
        "(13, 16)": {
            "WBF": [
                2179
            ], 
            "BM1F": [
                252
            ], 
            "M1": [
                281
            ], 
            "M2": [
                917
            ], 
            "BM1L": [
                273
            ], 
            "WBO": [
                1686
            ], 
            "WBL": [
                1686
            ], 
            "M1_ADJ": [
                1
            ]
        }, 
        "location1": [
            13
        ], 
        "location2": [
            16
        ], 
        "sentence": "b ) the screen is hard to read -- the cover hide it an already annoying poorly lit display"
    }
}