{
    "398cb319769bddd6c91cb1051d7c2e26": {
        "(11, 12)": {
            "BM1F": [
                1971
            ], 
            "M1": [
                347
            ], 
            "M2": [
                469
            ], 
            "BM1L": [
                2276
            ], 
            "WBNULL": [
                1
            ], 
            "M1_ADJ": [
                1
            ]
        }, 
        "location1": [
            11
        ], 
        "location2": [
            12
        ], 
        "sentence": "this makes no sense and sort of defeat the purpose of audio bookmark .. ."
    }
}