{
    "20ba4c4b32823c2ce57fa535aeed926f": {
        "(14, 18)": {
            "WBF": [
                330
            ], 
            "AM2L": [
                2483
            ], 
            "BM1F": [
                522
            ], 
            "M1": [
                347
            ], 
            "M2": [
                1922
            ], 
            "BM1L": [
                1673
            ], 
            "WBO": [
                1987
            ], 
            "WBL": [
                2866
            ], 
            "AM2F": [
                316
            ], 
            "M1_ADJ": [
                1
            ]
        }, 
        "location1": [
            14
        ], 
        "location2": [
            18
        ], 
        "sentence": "i have n't had time to really push this player to the limit , but audio aspect on the nomad are satisfactory , as should be expected from creative lab ."
    }
}