{
    "20ba4c4b32823c2ce57fa535aeed926f": {
        "(14, 27)": {
            "WBF": [
                330
            ], 
            "BM1F": [
                522
            ], 
            "M1": [
                347
            ], 
            "M2": [
                1615
            ], 
            "BM1L": [
                1673
            ], 
            "WBO": [
                1987, 
                2866, 
                1922, 
                316, 
                2483, 
                325, 
                2587, 
                402, 
                1103
            ], 
            "WBL": [
                784
            ], 
            "M1_ADJ": [
                1
            ]
        }, 
        "location1": [
            14
        ], 
        "location2": [
            27
        ], 
        "sentence": "i have n't had time to really push this player to the limit , but audio aspect on the nomad are satisfactory , as should be expected from creative lab ."
    }
}