{
    "ef25a24c12ae7b697445f8d181fbe847": {
        "(48, 43)": {
            "WBF": [
                1371
            ], 
            "AM2L": [
                520
            ], 
            "BM1F": [
                3222
            ], 
            "M1": [
                784
            ], 
            "M2": [
                347
            ], 
            "BM1L": [
                1971
            ], 
            "WBO": [
                413
            ], 
            "WBL": [
                2866
            ], 
            "AM2F": [
                2111
            ], 
            "M1_ADJ": [
                0
            ]
        }, 
        "location1": [
            48
        ], 
        "location2": [
            43
        ], 
        "sentence": "like it 's predecessor , the quickly revised nx , this player boast a decent size and weight , a relatively-intuitive navigational system that categorizes based on id3 tag , and excellent sound ( widely known to be better than ipod - not surprising considering the number of year creative has been in the audio peripheral business ) ."
    }, 
    "20ba4c4b32823c2ce57fa535aeed926f": {
        "(14, 26)": {
            "WBF": [
                330
            ], 
            "BM1F": [
                522
            ], 
            "M1": [
                347
            ], 
            "M2": [
                784
            ], 
            "BM1L": [
                1673
            ], 
            "WBO": [
                1987, 
                2866, 
                1922, 
                316, 
                2483, 
                325, 
                2587, 
                402
            ], 
            "WBL": [
                1261
            ], 
            "AM2F": [
                1615
            ], 
            "M1_ADJ": [
                1
            ]
        }, 
        "location1": [
            14
        ], 
        "location2": [
            26
        ], 
        "sentence": "i have n't had time to really push this player to the limit , but audio aspect on the nomad are satisfactory , as should be expected from creative lab ."
    }
}