{
    "ba92443cb9a6e3b3c3a9255183b1c671": {
        "location1": [
            10
        ], 
        "location2": [
            11
        ], 
        "(10, 11)": {
            "AM2L": [
                2882
            ], 
            "BM1F": [
                2884
            ], 
            "M1": [
                366
            ], 
            "M2": [
                998
            ], 
            "BM1L": [
                3143
            ], 
            "WBNULL": [
                1
            ], 
            "AM2F": [
                2864
            ], 
            "M1_ADJ": [
                1
            ]
        }, 
        "sentence": "also , the sound is wonderful ... my only gripe were those aweful earphone that this came with ."
    }
}