{
    "25da27d72af155af06e6c5874f503ef7": {
        "(5, 28)": {
            "WBF": [
                2866
            ], 
            "BM1F": [
                1562
            ], 
            "M1": [
                367
            ], 
            "M2": [
                1664
            ], 
            "BM1L": [
                2676
            ], 
            "WBO": [
                399, 
                1664, 
                1562, 
                1999, 
                123, 
                1442, 
                275, 
                2864, 
                1562, 
                407, 
                242, 
                1878, 
                1875, 
                1562, 
                83, 
                1595, 
                3152, 
                936, 
                215
            ], 
            "WBL": [
                400
            ], 
            "M1_ADJ": [
                1
            ]
        }, 
        "location1": [
            5
        ], 
        "location2": [
            8, 
            28
        ], 
        "(5, 8)": {
            "WBF": [
                2866
            ], 
            "AM2L": [
                1999
            ], 
            "BM1F": [
                1562
            ], 
            "M1": [
                367
            ], 
            "M2": [
                1664
            ], 
            "BM1L": [
                2676
            ], 
            "WBO": [
                399
            ], 
            "WBL": [
                399
            ], 
            "AM2F": [
                1562
            ], 
            "M1_ADJ": [
                1
            ]
        }, 
        "sentence": "once again , the sound is awesome , the batterly life is only 6-8 hour , and that is because all my music is 320 kbps which does affect the battery life ."
    }
}