{
    "df802df13330b60399ef8b6c4a7f1791": {
        "(4, 5)": {
            "AM2L": [
                1566
            ], 
            "BM1F": [
                273
            ], 
            "M1": [
                367
            ], 
            "M2": [
                2876
            ], 
            "BM1L": [
                1562
            ], 
            "WBNULL": [
                1
            ], 
            "AM2F": [
                407
            ], 
            "M1_ADJ": [
                1
            ]
        }, 
        "location1": [
            4
        ], 
        "location2": [
            5
        ], 
        "sentence": "battery recharge , is an awesome thing , because it recharges in only like 2-3 hour ."
    }
}