{
    "4609198e9495aeb97d0e1704b1f11136": {
        "(9, 30)": {
            "WBF": [
                2501
            ], 
            "AM2L": [
                2866
            ], 
            "BM1F": [
                457
            ], 
            "M1": [
                374
            ], 
            "M2": [
                1130
            ], 
            "BM1L": [
                406
            ], 
            "WBO": [
                1463, 
                3229, 
                6, 
                2317, 
                154, 
                2866, 
                2160, 
                2659, 
                1375, 
                685, 
                154, 
                2866, 
                1616, 
                1971, 
                150, 
                3086, 
                1427
            ], 
            "WBL": [
                2866
            ], 
            "AM2F": [
                3147
            ], 
            "M1_ADJ": [
                1
            ]
        }, 
        "location1": [
            9
        ], 
        "location2": [
            30, 
            42
        ], 
        "(9, 42)": {
            "WBF": [
                2501
            ], 
            "AM2L": [
                1881
            ], 
            "BM1F": [
                457
            ], 
            "M1": [
                374
            ], 
            "M2": [
                1130
            ], 
            "BM1L": [
                406
            ], 
            "WBO": [
                1463, 
                3229, 
                6, 
                2317, 
                154, 
                2866, 
                2160, 
                2659, 
                1375, 
                685, 
                154, 
                2866, 
                1616, 
                1971, 
                150, 
                3086, 
                1427, 
                1232, 
                2866, 
                1130, 
                3147, 
                2866, 
                562, 
                1562, 
                1987, 
                522, 
                2882, 
                1562, 
                1320
            ], 
            "WBL": [
                2866
            ], 
            "AM2F": [
                936
            ], 
            "M1_ADJ": [
                1
            ]
        }, 
        "sentence": "much cheaper than i-pod good looking player ( beautiful blue back-lit screen ) if you 've read about the player , some have complained about the lack of a viewing hole for the face when the case is on , but this is good because the face does n't get damaged / scratched fast transfer rate"
    }
}