{
    "43eb564042d7bba0c26ccffc54663aaf": {
        "(5, 6)": {
            "AM2L": [
                3138
            ], 
            "BM1F": [
                150
            ], 
            "M1": [
                376
            ], 
            "M2": [
                877
            ], 
            "BM1L": [
                325
            ], 
            "WBNULL": [
                1
            ], 
            "AM2F": [
                325
            ], 
            "M1_ADJ": [
                1
            ]
        }, 
        "location1": [
            5
        ], 
        "location2": [
            6
        ], 
        "sentence": "the zen serf as a back-up device as well as a player ."
    }
}