{
    "4609198e9495aeb97d0e1704b1f11136": {
        "location1": [
            9
        ], 
        "location2": [
            26
        ], 
        "(9, 26)": {
            "WBF": [
                2501
            ], 
            "AM2L": [
                1232
            ], 
            "BM1F": [
                457
            ], 
            "M1": [
                374
            ], 
            "M2": [
                3086
            ], 
            "BM1L": [
                406
            ], 
            "WBO": [
                1463, 
                3229, 
                6, 
                2317, 
                154, 
                2866, 
                2160, 
                2659, 
                1375, 
                685, 
                154, 
                2866, 
                1616
            ], 
            "WBL": [
                150
            ], 
            "AM2F": [
                1427
            ], 
            "M1_ADJ": [
                1
            ]
        }, 
        "sentence": "much cheaper than i-pod good looking player ( beautiful blue back-lit screen ) if you 've read about the player , some have complained about the lack of a viewing hole for the face when the case is on , but this is good because the face does n't get damaged / scratched fast transfer rate"
    }
}