{
    "97e094a508427d2e9e048c7e86aae737": {
        "(20, 16)": {
            "WBF": [
                1562
            ], 
            "BM1F": [
                2866
            ], 
            "M1": [
                2653
            ], 
            "M2": [
                434
            ], 
            "BM1L": [
                528
            ], 
            "WBO": [
                1781
            ], 
            "WBL": [
                337
            ], 
            "M1_ADJ": [
                0
            ]
        }, 
        "location1": [
            20
        ], 
        "location2": [
            16
        ], 
        "sentence": "-- > you 'll be changing track information a lot because the cd database information utilized by the software is mediocre at best ."
    }, 
    "fba2cf23926fa2aa67d2e28a09f712df": {
        "(24, 20)": {
            "WBF": [
                3117
            ], 
            "AM2L": [
                1397
            ], 
            "BM1F": [
                2866
            ], 
            "M1": [
                2653
            ], 
            "M2": [
                434
            ], 
            "BM1L": [
                2864
            ], 
            "WBO": [
                1881
            ], 
            "WBL": [
                2866
            ], 
            "AM2F": [
                275
            ], 
            "M1_ADJ": [
                0
            ]
        }, 
        "location1": [
            24
        ], 
        "location2": [
            20
        ], 
        "sentence": "i loved this product when i first got it - great sound , easy to use ( even though i agree that the software was n't the best ) and held enough song to suit any mood ."
    }, 
    "7967db31bc77438a94a846ddeb630669": {
        "location1": [
            99
        ], 
        "location2": [
            2
        ], 
        "(99, 2)": {
            "WBF": [
                3043
            ], 
            "BM1F": [
                2866
            ], 
            "M1": [
                2653
            ], 
            "M2": [
                434
            ], 
            "BM1L": [
                1184
            ], 
            "WBO": [
                2909, 
                2280, 
                242, 
                2866, 
                2666, 
                1551, 
                1566, 
                1562, 
                3064, 
                1512, 
                2909, 
                1571, 
                1987, 
                2975, 
                1659, 
                1199, 
                1566, 
                1562, 
                2179, 
                1537, 
                1551, 
                2866, 
                2046, 
                2160, 
                275, 
                648, 
                2909, 
                3041, 
                1071, 
                3181, 
                2833, 
                275, 
                2516, 
                2866, 
                3185, 
                347, 
                1239, 
                2783, 
                1210, 
                2037, 
                2783, 
                1490, 
                2856, 
                1971, 
                2676, 
                2281, 
                678, 
                3181, 
                2866, 
                3064, 
                2793, 
                151, 
                1239, 
                2866, 
                307, 
                1558, 
                3038, 
                275, 
                1566, 
                2732, 
                3229, 
                3181, 
                1994, 
                1971, 
                2866, 
                2772, 
                2078, 
                2069, 
                1875, 
                2549, 
                2782, 
                325, 
                1883, 
                1535, 
                1971, 
                246, 
                2909, 
                3041, 
                2866, 
                1571, 
                2748, 
                3152, 
                1463, 
                3229, 
                1079, 
                2151, 
                2909, 
                2092, 
                1232, 
                3230, 
                1875, 
                1562, 
                528
            ], 
            "WBL": [
                2866
            ], 
            "M1_ADJ": [
                0
            ]
        }, 
        "sentence": "finally the software used to put all the song into it is vastly inferior to itunes on two level , first it is poorly integrated into the overall player and clunky to use especially with tagging and second the wma audio format suck , flat out suck in term of sound quality compared with the vastly superior aac format the apple ipod us and it stick you with one of the sub par paid music service such as napster instead of allowing to use the itunes store , which , if you ever plan to pay for your music , is by far the best ."
    }, 
    "595586dcd393895e2ca8c8a038c133b3": {
        "(45, 18)": {
            "WBF": [
                2864
            ], 
            "BM1F": [
                2086
            ], 
            "M1": [
                2653
            ], 
            "M2": [
                434
            ], 
            "BM1L": [
                2880
            ], 
            "WBO": [
                781, 
                1228, 
                933, 
                275, 
                2247, 
                543, 
                5, 
                402, 
                1634, 
                1261, 
                2866, 
                3236, 
                2650, 
                1566, 
                1562, 
                1935, 
                150, 
                1363, 
                915, 
                1566, 
                4, 
                150, 
                2747
            ], 
            "WBL": [
                337
            ], 
            "M1_ADJ": [
                0
            ]
        }, 
        "location1": [
            45
        ], 
        "location2": [
            18
        ], 
        "sentence": "the zen does n't support folder so it is not really a storage device ; even with third party software that `` creates `` folder , document and program can 't be launched from the zen , so it is not a hard disk , it 's a storage device at best ."
    }
}