{
    "8121831049060e4e814eb90a284743c5": {
        "(18, 8)": {
            "WBF": [
                1320
            ], 
            "AM2L": [
                1878
            ], 
            "BM1F": [
                1558
            ], 
            "M1": [
                1084
            ], 
            "M2": [
                434
            ], 
            "BM1L": [
                852
            ], 
            "WBO": [
                2225, 
                275, 
                1333, 
                2676, 
                1745, 
                2882
            ], 
            "WBL": [
                2866
            ], 
            "AM2F": [
                1490
            ], 
            "M1_ADJ": [
                0
            ]
        }, 
        "location1": [
            18
        ], 
        "location2": [
            8
        ], 
        "sentence": "ive seen em all , the archos , dell , ipod , everything ... good price and great sound makes this one the best in my opinion ."
    }, 
    "b4710055bc1a10f777d1a193f72ef944": {
        "(12, 2)": {
            "WBF": [
                1022
            ], 
            "AM2L": [
                1232
            ], 
            "BM1F": [
                2909
            ], 
            "M1": [
                1084
            ], 
            "M2": [
                434
            ], 
            "BM1L": [
                678
            ], 
            "WBO": [
                1490, 
                2882, 
                569, 
                2882, 
                1562, 
                1854
            ], 
            "WBL": [
                2866
            ], 
            "AM2F": [
                386
            ], 
            "M1_ADJ": [
                0
            ]
        }, 
        "location1": [
            12
        ], 
        "location2": [
            2
        ], 
        "sentence": "compared to everything else in this category , this is most definately the best bang for the buck ."
    }
}