{
    "b9bfe35c56e22b2e41d54ff0d9f5e938": {
        "(23, 24)": {
            "AM2L": [
                1566
            ], 
            "BM1F": [
                2866
            ], 
            "M1": [
                434
            ], 
            "M2": [
                2082
            ], 
            "BM1L": [
                275
            ], 
            "WBNULL": [
                1
            ], 
            "AM2F": [
                1562
            ], 
            "M1_ADJ": [
                1
            ]
        }, 
        "location1": [
            23
        ], 
        "location2": [
            24
        ], 
        "sentence": "for a price that 's still less than even the lowest level ipod i was able to get this 40gb monster , and the best part is it work as great as it was advertised to and then some ."
    }
}