{
    "b9bfe35c56e22b2e41d54ff0d9f5e938": {
        "(23, 20)": {
            "WBF": [
                275
            ], 
            "AM2L": [
                1562
            ], 
            "BM1F": [
                103
            ], 
            "M1": [
                1847
            ], 
            "M2": [
                434
            ], 
            "BM1L": [
                2882
            ], 
            "WBO": [
                2866
            ], 
            "WBL": [
                2866
            ], 
            "AM2F": [
                2082
            ], 
            "M1_ADJ": [
                0
            ]
        }, 
        "location1": [
            23
        ], 
        "location2": [
            20
        ], 
        "sentence": "for a price that 's still less than even the lowest level ipod i was able to get this 40gb monster , and the best part is it work as great as it was advertised to and then some ."
    }
}