{
    "13ed9f0eb7cfb3f0871a1f60badfc088": {
        "location1": [
            14
        ], 
        "location2": [
            1
        ], 
        "(14, 1)": {
            "WBF": [
                1971
            ], 
            "AM2L": [
                2866
            ], 
            "BM1F": [
                2866
            ], 
            "M1": [
                659
            ], 
            "M2": [
                434
            ], 
            "WBO": [
                2866, 
                2225, 
                2747, 
                2617, 
                275, 
                2160, 
                1163, 
                1745, 
                2882
            ], 
            "WBL": [
                2866
            ], 
            "AM2F": [
                1987
            ], 
            "M1_ADJ": [
                0
            ]
        }, 
        "sentence": "the combination of the price , storage size , and player feature makes this player the best on the market ."
    }
}