{
    "bc8cb26f2e111e60b22ac940195a192f": {
        "location1": [
            11
        ], 
        "location2": [
            24
        ], 
        "(11, 24)": {
            "WBF": [
                524
            ], 
            "BM1F": [
                337
            ], 
            "M1": [
                434
            ], 
            "M2": [
                1887
            ], 
            "BM1L": [
                3114
            ], 
            "WBO": [
                1965, 
                1253, 
                3029, 
                1004, 
                1204, 
                528, 
                2183, 
                2037, 
                400
            ], 
            "WBL": [
                1216
            ], 
            "AM2F": [
                3146
            ], 
            "M1_ADJ": [
                1
            ]
        }, 
        "sentence": "short warranty ( 3 month , so i got the extended warranty at best buy ) , occasional freeze up ( easily fixed by popping out battery ) , somewhat flimsy navigation wheel ."
    }
}