{
    "df460eaf582c2debf712f5605d908023": {
        "(13, 18)": {
            "WBF": [
                150
            ], 
            "AM2L": [
                1994
            ], 
            "BM1F": [
                337
            ], 
            "M1": [
                434
            ], 
            "M2": [
                963
            ], 
            "BM1L": [
                402
            ], 
            "WBO": [
                103
            ], 
            "WBL": [
                1363
            ], 
            "AM2F": [
                236
            ], 
            "M1_ADJ": [
                1
            ]
        }, 
        "location1": [
            13
        ], 
        "location2": [
            18
        ], 
        "sentence": "my gut tell me the nomad will in the long run be , at best , a 40gb portable hard drive , albeit one on which i can 't create folder , or , at worst , a very expensive lesson in company never to buy product from again ( i have their audigy sound card and find it in many way equally frustrating ) ."
    }
}