{
    "b2d4e633a50cce494eea7a203213e6b5": {
        "location1": [
            39
        ], 
        "location2": [
            4
        ], 
        "(39, 4)": {
            "WBF": [
                3220
            ], 
            "AM2L": [
                2037
            ], 
            "BM1F": [
                2866
            ], 
            "M1": [
                3236
            ], 
            "M2": [
                434
            ], 
            "BM1L": [
                1232
            ], 
            "WBO": [
                2692, 
                1232, 
                619, 
                1449, 
                2416, 
                1758, 
                888, 
                1864, 
                2160, 
                522, 
                1184, 
                829, 
                1987, 
                2882, 
                1994, 
                275, 
                1946, 
                2864, 
                1449, 
                1375, 
                1566, 
                1449, 
                758, 
                1881, 
                402, 
                1360, 
                275, 
                1449, 
                2, 
                743, 
                1566
            ], 
            "WBL": [
                2866
            ], 
            "AM2F": [
                1994
            ], 
            "M1_ADJ": [
                0
            ]
        }, 
        "sentence": "before asking for the zen xtra specifically for christmas i researched many different mp3 player but finally decided on this one , and now that i have it i could n't be happier and i 'm convinced it 's the best one out there ."
    }, 
    "595586dcd393895e2ca8c8a038c133b3": {
        "(45, 1)": {
            "WBF": [
                936
            ], 
            "BM1F": [
                2866
            ], 
            "M1": [
                3236
            ], 
            "M2": [
                434
            ], 
            "WBO": [
                1881, 
                2797, 
                1228, 
                2650, 
                1566, 
                1562, 
                1935, 
                2325, 
                150, 
                2747, 
                877, 
                1075, 
                3181, 
                2880, 
                2086, 
                2653, 
                2864, 
                781, 
                1228, 
                933, 
                275, 
                2247, 
                543, 
                5, 
                402, 
                1634, 
                1261, 
                2866, 
                3236, 
                2650, 
                1566, 
                1562, 
                1935, 
                150, 
                1363, 
                915, 
                1566, 
                4, 
                150, 
                2747
            ], 
            "WBL": [
                337
            ], 
            "M1_ADJ": [
                0
            ]
        }, 
        "location1": [
            45
        ], 
        "location2": [
            1, 
            31
        ], 
        "(45, 31)": {
            "WBF": [
                2650
            ], 
            "BM1F": [
                2866
            ], 
            "M1": [
                3236
            ], 
            "M2": [
                434
            ], 
            "BM1L": [
                1261
            ], 
            "WBO": [
                1566, 
                1562, 
                1935, 
                150, 
                1363, 
                915, 
                1566, 
                4, 
                150, 
                2747
            ], 
            "WBL": [
                337
            ], 
            "M1_ADJ": [
                0
            ]
        }, 
        "sentence": "the zen does n't support folder so it is not really a storage device ; even with third party software that `` creates `` folder , document and program can 't be launched from the zen , so it is not a hard disk , it 's a storage device at best ."
    }
}