{
    "4571ab0de8e8a459a17e954063b78c9d": {
        "location1": [
            3
        ], 
        "location2": [
            9
        ], 
        "(3, 9)": {
            "WBF": [
                522
            ], 
            "AM2L": [
                3236
            ], 
            "BM1F": [
                402
            ], 
            "M1": [
                436
            ], 
            "M2": [
                289
            ], 
            "BM1L": [
                758
            ], 
            "WBO": [
                2873, 
                1562
            ], 
            "WBL": [
                2325
            ], 
            "AM2F": [
                2866
            ], 
            "M1_ADJ": [
                1
            ]
        }, 
        "sentence": "navigation could be better , but there is n't really anything the zen xtra can 't do once you 've gotten comfortable with it ."
    }, 
    "5d8a1adbeeaf90d9f03da0b3810f9ee5": {
        "(5, 19)": {
            "WBF": [
                275
            ], 
            "AM2L": [
                150
            ], 
            "BM1F": [
                402
            ], 
            "M1": [
                436
            ], 
            "M2": [
                289
            ], 
            "BM1L": [
                1881
            ], 
            "WBO": [
                2866, 
                1864, 
                2160, 
                3191, 
                1669, 
                150, 
                962, 
                1449, 
                758, 
                1881
            ], 
            "WBL": [
                2882
            ], 
            "AM2F": [
                522
            ], 
            "M1_ADJ": [
                1
            ]
        }, 
        "location1": [
            5
        ], 
        "location2": [
            19
        ], 
        "sentence": "the software could n't be better and the mp3 player work like a dream , i could n't give this anything but a 5 , i wish there was a 6 ."
    }
}