{
    "ef25a24c12ae7b697445f8d181fbe847": {
        "location1": [
            33
        ], 
        "location2": [
            25
        ], 
        "(33, 25)": {
            "WBF": [
                275
            ], 
            "AM2L": [
                1558
            ], 
            "BM1F": [
                1457
            ], 
            "M1": [
                2832
            ], 
            "M2": [
                436
            ], 
            "BM1L": [
                1987
            ], 
            "WBO": [
                1092, 
                2676, 
                3165, 
                1612
            ], 
            "WBL": [
                402
            ], 
            "AM2F": [
                2862
            ], 
            "M1_ADJ": [
                0
            ]
        }, 
        "sentence": "like it 's predecessor , the quickly revised nx , this player boast a decent size and weight , a relatively-intuitive navigational system that categorizes based on id3 tag , and excellent sound ( widely known to be better than ipod - not surprising considering the number of year creative has been in the audio peripheral business ) ."
    }
}