{
    "cc9343b9437cedbe76ed6e65ab813167": {
        "(10, 7)": {
            "WBF": [
                1478
            ], 
            "AM2L": [
                2866
            ], 
            "BM1F": [
                275
            ], 
            "M1": [
                864
            ], 
            "M2": [
                436
            ], 
            "BM1L": [
                2617
            ], 
            "WBO": [
                1712
            ], 
            "WBL": [
                1712
            ], 
            "AM2F": [
                2862
            ], 
            "M1_ADJ": [
                0
            ]
        }, 
        "location1": [
            10
        ], 
        "location2": [
            7
        ], 
        "sentence": "the system is terrific in size and design , imo looking better than the ipod ."
    }
}