{
    "78c51d9eb31454b8f9dba754a0353b4b": {
        "(35, 36)": {
            "AM2L": [
                1562
            ], 
            "BM1F": [
                1154
            ], 
            "M1": [
                436
            ], 
            "M2": [
                3058
            ], 
            "BM1L": [
                150
            ], 
            "WBNULL": [
                1
            ], 
            "AM2F": [
                275
            ], 
            "M1_ADJ": [
                1
            ]
        }, 
        "location1": [
            35
        ], 
        "location2": [
            36
        ], 
        "sentence": "try before you buy if at all possible : although i am a mac addict now for over a decade and everyone i know has previously bought an ipod , the nomad zen xtra was a far better value and is just as easy to use with regard to both hardware and software interface ."
    }
}