{
    "ec45f347a448e896c123cf2716a5bcba": {
        "location1": [
            7
        ], 
        "location2": [
            9
        ], 
        "(7, 9)": {
            "AM2L": [
                1002
            ], 
            "WBFL": [
                1179
            ], 
            "BM1F": [
                150
            ], 
            "M1": [
                436
            ], 
            "M2": [
                2824
            ], 
            "BM1L": [
                1371
            ], 
            "AM2F": [
                275
            ], 
            "M1_ADJ": [
                1
            ]
        }, 
        "sentence": "compared to musicmatch , the software has a better filing system and easier to use ."
    }, 
    "ef25a24c12ae7b697445f8d181fbe847": {
        "(33, 19)": {
            "WBF": [
                2864
            ], 
            "AM2L": [
                1558
            ], 
            "BM1F": [
                1888
            ], 
            "M1": [
                2824
            ], 
            "M2": [
                436
            ], 
            "BM1L": [
                2377
            ], 
            "WBO": [
                568, 
                393, 
                1987, 
                1457, 
                2832, 
                275, 
                1092, 
                2676, 
                3165, 
                1612
            ], 
            "WBL": [
                402
            ], 
            "AM2F": [
                2862
            ], 
            "M1_ADJ": [
                0
            ]
        }, 
        "location1": [
            33
        ], 
        "location2": [
            19
        ], 
        "sentence": "like it 's predecessor , the quickly revised nx , this player boast a decent size and weight , a relatively-intuitive navigational system that categorizes based on id3 tag , and excellent sound ( widely known to be better than ipod - not surprising considering the number of year creative has been in the audio peripheral business ) ."
    }, 
    "cc9343b9437cedbe76ed6e65ab813167": {
        "(10, 1)": {
            "WBF": [
                1562
            ], 
            "AM2L": [
                2866
            ], 
            "BM1F": [
                2866
            ], 
            "M1": [
                2824
            ], 
            "M2": [
                436
            ], 
            "WBO": [
                2859, 
                1490, 
                2617, 
                275, 
                864
            ], 
            "WBL": [
                1712
            ], 
            "AM2F": [
                2862
            ], 
            "M1_ADJ": [
                0
            ]
        }, 
        "location1": [
            10
        ], 
        "location2": [
            1
        ], 
        "sentence": "the system is terrific in size and design , imo looking better than the ipod ."
    }
}