{
    "78c51d9eb31454b8f9dba754a0353b4b": {
        "location1": [
            35
        ], 
        "location2": [
            48
        ], 
        "(35, 48)": {
            "WBF": [
                3058
            ], 
            "AM2L": [
                2653
            ], 
            "BM1F": [
                1154
            ], 
            "M1": [
                436
            ], 
            "M2": [
                1368
            ], 
            "BM1L": [
                150
            ], 
            "WBO": [
                275, 
                1562, 
                1591, 
                325, 
                1005, 
                2909, 
                3041, 
                3181, 
                2368
            ], 
            "WBL": [
                475
            ], 
            "AM2F": [
                275
            ], 
            "M1_ADJ": [
                1
            ]
        }, 
        "sentence": "try before you buy if at all possible : although i am a mac addict now for over a decade and everyone i know has previously bought an ipod , the nomad zen xtra was a far better value and is just as easy to use with regard to both hardware and software interface ."
    }
}