{
    "78c51d9eb31454b8f9dba754a0353b4b": {
        "(35, 20)": {
            "WBF": [
                1449
            ], 
            "AM2L": [
                275
            ], 
            "BM1F": [
                275
            ], 
            "M1": [
                1082
            ], 
            "M2": [
                436
            ], 
            "BM1L": [
                825
            ], 
            "WBO": [
                1610, 
                1371, 
                2224, 
                479, 
                273, 
                1558, 
                2866, 
                1922, 
                3236, 
                3220, 
                3117
            ], 
            "WBL": [
                1154
            ], 
            "AM2F": [
                3058
            ], 
            "M1_ADJ": [
                0
            ]
        }, 
        "location1": [
            35
        ], 
        "location2": [
            20
        ], 
        "sentence": "try before you buy if at all possible : although i am a mac addict now for over a decade and everyone i know has previously bought an ipod , the nomad zen xtra was a far better value and is just as easy to use with regard to both hardware and software interface ."
    }
}