{
    "ef25a24c12ae7b697445f8d181fbe847": {
        "location1": [
            33
        ], 
        "location2": [
            50
        ], 
        "(33, 50)": {
            "WBF": [
                2862
            ], 
            "BM1F": [
                402
            ], 
            "M1": [
                436
            ], 
            "M2": [
                520
            ], 
            "BM1L": [
                2909
            ], 
            "WBO": [
                1558, 
                1935, 
                2807, 
                717, 
                2866, 
                1949, 
                1971, 
                3222, 
                784, 
                1371, 
                413, 
                1490, 
                2866
            ], 
            "WBL": [
                2111
            ], 
            "M1_ADJ": [
                1
            ]
        }, 
        "sentence": "like it 's predecessor , the quickly revised nx , this player boast a decent size and weight , a relatively-intuitive navigational system that categorizes based on id3 tag , and excellent sound ( widely known to be better than ipod - not surprising considering the number of year creative has been in the audio peripheral business ) ."
    }
}