{
    "e17e18380718fc3b0a9d1deacbd92ff8": {
        "(10, 14)": {
            "WBF": [
                1211
            ], 
            "AM2L": [
                402
            ], 
            "BM1F": [
                1971
            ], 
            "M1": [
                440
            ], 
            "M2": [
                525
            ], 
            "BM1L": [
                764
            ], 
            "WBO": [
                2864
            ], 
            "WBL": [
                2200
            ], 
            "AM2F": [
                2587
            ], 
            "M1_ADJ": [
                1
            ]
        }, 
        "location1": [
            10
        ], 
        "location2": [
            14
        ], 
        "sentence": "this player is an overall disappointment with a couple of big flaw that potential buyer should be wary of ; and all reader need to know about a third party software company that resolve virtually all of the creative mediasource file transfer issue ."
    }
}