{
    "e1ad1a34c613db2ca633d3d78e5f2be1": {
        "(13, 10)": {
            "WBF": [
                1946
            ], 
            "BM1F": [
                150
            ], 
            "M1": [
                3174
            ], 
            "M2": [
                440
            ], 
            "BM1L": [
                1616
            ], 
            "WBO": [
                150
            ], 
            "WBL": [
                150
            ], 
            "AM2F": [
                824
            ], 
            "M1_ADJ": [
                0
            ]
        }, 
        "location1": [
            13
        ], 
        "location2": [
            10
        ], 
        "sentence": "the case is strong and stylish , but unfortunately lack a window ( now a big deal ) ."
    }, 
    "b6ad3734805d45028aacb33df91f1f38": {
        "(17, 10)": {
            "WBF": [
                522
            ], 
            "AM2L": [
                2909
            ], 
            "BM1F": [
                150
            ], 
            "M1": [
                3174
            ], 
            "M2": [
                440
            ], 
            "BM1L": [
                1377
            ], 
            "WBO": [
                2864, 
                4, 
                1935
            ], 
            "WBL": [
                150
            ], 
            "AM2F": [
                824
            ], 
            "M1_ADJ": [
                0
            ]
        }, 
        "location1": [
            17
        ], 
        "location2": [
            10
        ], 
        "sentence": "people also have complained about the case not having a window , but that 's not really a big deal to me either -- the case is sturdy and offer very good protection ."
    }
}