{
    "87d3bee71401883dd97af2ad9bf28ae5": {
        "(28, 12)": {
            "WBF": [
                1882
            ], 
            "BM1F": [
                975
            ], 
            "M1": [
                1176
            ], 
            "M2": [
                440
            ], 
            "BM1L": [
                2659
            ], 
            "WBO": [
                2909, 
                1297, 
                242, 
                1878, 
                1875, 
                1987, 
                1878, 
                3236, 
                3220, 
                522, 
                1566, 
                3117
            ], 
            "WBL": [
                150
            ], 
            "AM2F": [
                2236
            ], 
            "M1_ADJ": [
                0
            ]
        }, 
        "location1": [
            28
        ], 
        "location2": [
            12
        ], 
        "sentence": "i did have to put a little work into renaming some duplicate file name to get all my music on my zen xtra but it was n't a big problem ."
    }, 
    "851613aef4dc3542de9dbdae5f08f0c4": {
        "(6, 22)": {
            "WBF": [
                824
            ], 
            "AM2L": [
                1228
            ], 
            "BM1F": [
                150
            ], 
            "M1": [
                440
            ], 
            "M2": [
                1176
            ], 
            "BM1L": [
                2325
            ], 
            "WBO": [
                2909, 
                1773, 
                1094, 
                1994, 
                695, 
                2864, 
                936, 
                279, 
                1773, 
                1562, 
                2866, 
                3123
            ], 
            "WBL": [
                2748
            ], 
            "AM2F": [
                1917
            ], 
            "M1_ADJ": [
                1
            ]
        }, 
        "location1": [
            6
        ], 
        "location2": [
            22
        ], 
        "sentence": "the con are n't really a big deal to me ... except one con that does annoy me is the way it store file ... no folder structure ... and it 's based on the title of the song ... many of my song where seperated into folder ( on the pc ) ... and a few had same title ... so i had to change the title to make sure that i did n't have any that might be the same as another ."
    }, 
    "e17e18380718fc3b0a9d1deacbd92ff8": {
        "(10, 39)": {
            "WBF": [
                1211
            ], 
            "AM2L": [
                1565
            ], 
            "BM1F": [
                1971
            ], 
            "M1": [
                440
            ], 
            "M2": [
                1176
            ], 
            "BM1L": [
                764
            ], 
            "WBO": [
                2864, 
                2200, 
                525, 
                2587, 
                402, 
                3116, 
                1971, 
                275, 
                242, 
                2319, 
                1896, 
                2909, 
                1610, 
                154, 
                150, 
                2880, 
                2086, 
                2653, 
                675, 
                2864, 
                2421, 
                3087, 
                242, 
                1971, 
                2866
            ], 
            "WBL": [
                1779
            ], 
            "AM2F": [
                2939
            ], 
            "M1_ADJ": [
                1
            ]
        }, 
        "location1": [
            10
        ], 
        "location2": [
            39
        ], 
        "sentence": "this player is an overall disappointment with a couple of big flaw that potential buyer should be wary of ; and all reader need to know about a third party software company that resolve virtually all of the creative mediasource file transfer issue ."
    }
}