{
    "e17e18380718fc3b0a9d1deacbd92ff8": {
        "(10, 41)": {
            "WBF": [
                1211
            ], 
            "BM1F": [
                1971
            ], 
            "M1": [
                440
            ], 
            "M2": [
                1565
            ], 
            "BM1L": [
                764
            ], 
            "WBO": [
                2864, 
                2200, 
                525, 
                2587, 
                402, 
                3116, 
                1971, 
                275, 
                242, 
                2319, 
                1896, 
                2909, 
                1610, 
                154, 
                150, 
                2880, 
                2086, 
                2653, 
                675, 
                2864, 
                2421, 
                3087, 
                242, 
                1971, 
                2866, 
                784, 
                1779
            ], 
            "WBL": [
                2939
            ], 
            "M1_ADJ": [
                1
            ]
        }, 
        "location1": [
            10
        ], 
        "location2": [
            41
        ], 
        "sentence": "this player is an overall disappointment with a couple of big flaw that potential buyer should be wary of ; and all reader need to know about a third party software company that resolve virtually all of the creative mediasource file transfer issue ."
    }
}