{
    "5edd2e3912aadfe55b64bee98b5416f2": {
        "(18, 15)": {
            "WBF": [
                3117
            ], 
            "BM1F": [
                2866
            ], 
            "M1": [
                976
            ], 
            "M2": [
                440
            ], 
            "BM1L": [
                522
            ], 
            "WBO": [
                150
            ], 
            "WBL": [
                150
            ], 
            "AM2F": [
                3238
            ], 
            "M1_ADJ": [
                0
            ]
        }, 
        "location1": [
            18
        ], 
        "location2": [
            15
        ], 
        "sentence": "i was willing to live with the larger size ( inconvenient on the road ) but the durability was a big zero ."
    }
}