{
    "e17e18380718fc3b0a9d1deacbd92ff8": {
        "(10, 8)": {
            "AM2L": [
                2864
            ], 
            "WBFL": [
                1971
            ], 
            "BM1F": [
                150
            ], 
            "M1": [
                764
            ], 
            "M2": [
                440
            ], 
            "BM1L": [
                3181
            ], 
            "AM2F": [
                1211
            ], 
            "M1_ADJ": [
                0
            ]
        }, 
        "location1": [
            10
        ], 
        "location2": [
            8
        ], 
        "sentence": "this player is an overall disappointment with a couple of big flaw that potential buyer should be wary of ; and all reader need to know about a third party software company that resolve virtually all of the creative mediasource file transfer issue ."
    }
}