{
    "7c980ce6e3db331419916b5538ddd428": {
        "(19, 11)": {
            "WBF": [
                3204
            ], 
            "BM1F": [
                1907
            ], 
            "M1": [
                523
            ], 
            "M2": [
                440
            ], 
            "BM1L": [
                150
            ], 
            "WBO": [
                402, 
                1909, 
                522, 
                1013
            ], 
            "WBL": [
                150
            ], 
            "AM2F": [
                824
            ], 
            "M1_ADJ": [
                0
            ]
        }, 
        "location1": [
            19
        ], 
        "location2": [
            2, 
            11
        ], 
        "(19, 2)": {
            "WBF": [
                1562
            ], 
            "BM1F": [
                2506
            ], 
            "M1": [
                523
            ], 
            "M2": [
                440
            ], 
            "BM1L": [
                2866
            ], 
            "WBO": [
                2673, 
                1971, 
                281, 
                2909, 
                2278, 
                150, 
                1907, 
                523, 
                3204, 
                402, 
                1909, 
                522, 
                1013
            ], 
            "WBL": [
                150
            ], 
            "AM2F": [
                824
            ], 
            "M1_ADJ": [
                0
            ]
        }, 
        "sentence": "the scroll button is sort of annoying to push - a nice button would be nicer but eh , not a big deal ."
    }, 
    "21ebed2a97f528417ad5da338ef26ef7": {
        "location1": [
            16
        ], 
        "location2": [
            41
        ], 
        "(16, 41)": {
            "WBF": [
                275
            ], 
            "AM2L": [
                2676
            ], 
            "BM1F": [
                2325
            ], 
            "M1": [
                440
            ], 
            "M2": [
                523
            ], 
            "BM1L": [
                1562
            ], 
            "WBO": [
                2866, 
                457, 
                1665, 
                1490, 
                2866, 
                373, 
                1562, 
                2104, 
                1156, 
                325, 
                1398, 
                1490, 
                1875, 
                2939, 
                735, 
                316, 
                1005, 
                2909, 
                3041, 
                221, 
                1764
            ], 
            "WBL": [
                2506
            ], 
            "AM2F": [
                1333
            ], 
            "M1_ADJ": [
                1
            ]
        }, 
        "sentence": "now here the stuff you should know starting with the good thing : the screen is really big and the blue light in the back is perfect , fast as hell in music transfer , control are easy to use after mastering the scroll button , great sound and ive heard many mp3 player , a ton of different equilizer type deal on here ."
    }
}