{
    "60f14cbc1a1f1fba8df34fb32d3b3aa8": {
        "(12, 15)": {
            "WBF": [
                1845
            ], 
            "AM2L": [
                2313
            ], 
            "BM1F": [
                150
            ], 
            "M1": [
                440
            ], 
            "M2": [
                1558
            ], 
            "BM1L": [
                402
            ], 
            "WBO": [
                2609
            ], 
            "WBL": [
                2609
            ], 
            "AM2F": [
                1560
            ], 
            "M1_ADJ": [
                1
            ]
        }, 
        "location1": [
            12
        ], 
        "location2": [
            15
        ], 
        "sentence": "since battery do run out on everything , this will also be a big money-saver since ipod , irivers , rca , dell , all have built-in battery that need to be replaced by a technician ( apple charge 100 bone for the battery replacement ) ."
    }, 
    "027358c11edcbca4be06865adec2ddb1": {
        "(5, 9)": {
            "WBF": [
                1488
            ], 
            "BM1F": [
                150
            ], 
            "M1": [
                440
            ], 
            "M2": [
                1558
            ], 
            "BM1L": [
                1562
            ], 
            "WBO": [
                2045
            ], 
            "WBL": [
                2866
            ], 
            "AM2F": [
                2930
            ], 
            "M1_ADJ": [
                1
            ]
        }, 
        "location1": [
            5
        ], 
        "location2": [
            9
        ], 
        "sentence": "the scroll wheel is a big improvement over the ipod touchpad ."
    }
}