{
    "21ebed2a97f528417ad5da338ef26ef7": {
        "(16, 43)": {
            "WBF": [
                275
            ], 
            "AM2L": [
                1572
            ], 
            "BM1F": [
                2325
            ], 
            "M1": [
                440
            ], 
            "M2": [
                2676
            ], 
            "BM1L": [
                1562
            ], 
            "WBO": [
                2866, 
                457, 
                1665, 
                1490, 
                2866, 
                373, 
                1562, 
                2104, 
                1156, 
                325, 
                1398, 
                1490, 
                1875, 
                2939, 
                735, 
                316, 
                1005, 
                2909, 
                3041, 
                221, 
                1764, 
                2866, 
                2506
            ], 
            "WBL": [
                1333
            ], 
            "AM2F": [
                275
            ], 
            "M1_ADJ": [
                1
            ]
        }, 
        "location1": [
            16
        ], 
        "location2": [
            43
        ], 
        "sentence": "now here the stuff you should know starting with the good thing : the screen is really big and the blue light in the back is perfect , fast as hell in music transfer , control are easy to use after mastering the scroll button , great sound and ive heard many mp3 player , a ton of different equilizer type deal on here ."
    }
}