{
    "e1ad1a34c613db2ca633d3d78e5f2be1": {
        "(13, 1)": {
            "WBF": [
                1562
            ], 
            "BM1F": [
                2866
            ], 
            "M1": [
                562
            ], 
            "M2": [
                440
            ], 
            "WBO": [
                2759, 
                275, 
                2771, 
                522, 
                3006, 
                1616, 
                150, 
                3174
            ], 
            "WBL": [
                150
            ], 
            "AM2F": [
                824
            ], 
            "M1_ADJ": [
                0
            ]
        }, 
        "location1": [
            13
        ], 
        "location2": [
            1
        ], 
        "sentence": "the case is strong and stylish , but unfortunately lack a window ( now a big deal ) ."
    }, 
    "a92fef16203e6547baf7dd20d024590d": {
        "(6, 19)": {
            "WBF": [
                2170
            ], 
            "AM2L": [
                2909
            ], 
            "BM1F": [
                150
            ], 
            "M1": [
                440
            ], 
            "M2": [
                562
            ], 
            "BM1L": [
                1562
            ], 
            "WBO": [
                1566, 
                185, 
                2261, 
                2866, 
                3010, 
                3138, 
                2661, 
                150, 
                1719
            ], 
            "WBL": [
                561
            ], 
            "AM2F": [
                1138
            ], 
            "M1_ADJ": [
                1
            ]
        }, 
        "location1": [
            6
        ], 
        "location2": [
            19
        ], 
        "sentence": "the included leather pouch is a big plus : it actually protects the unit well , something a lot of ' carrying case ' fail to do with other audio device ."
    }, 
    "b6ad3734805d45028aacb33df91f1f38": {
        "(17, 6)": {
            "WBF": [
                1935
            ], 
            "AM2L": [
                2909
            ], 
            "BM1F": [
                2866
            ], 
            "M1": [
                562
            ], 
            "M2": [
                440
            ], 
            "BM1L": [
                154
            ], 
            "WBO": [
                1377, 
                150, 
                3174, 
                522, 
                2864, 
                4, 
                1935
            ], 
            "WBL": [
                150
            ], 
            "AM2F": [
                824
            ], 
            "M1_ADJ": [
                0
            ]
        }, 
        "location1": [
            17
        ], 
        "location2": [
            6, 
            23
        ], 
        "(17, 23)": {
            "WBF": [
                824
            ], 
            "AM2L": [
                2768
            ], 
            "BM1F": [
                150
            ], 
            "M1": [
                440
            ], 
            "M2": [
                562
            ], 
            "BM1L": [
                2325
            ], 
            "WBO": [
                2909, 
                1773
            ], 
            "WBL": [
                2866
            ], 
            "AM2F": [
                1562
            ], 
            "M1_ADJ": [
                1
            ]
        }, 
        "sentence": "people also have complained about the case not having a window , but that 's not really a big deal to me either -- the case is sturdy and offer very good protection ."
    }
}