{
    "8d1f6697eefabe40a2bed7c33818a32d": {
        "location1": [
            1
        ], 
        "location2": [
            12
        ], 
        "(1, 12)": {
            "WBF": [
                2747
            ], 
            "AM2L": [
                237
            ], 
            "BM1F": [
                23
            ], 
            "M1": [
                440
            ], 
            "M2": [
                2666
            ], 
            "WBO": [
                1878, 
                1056, 
                574, 
                654, 
                1490, 
                1994, 
                2637
            ], 
            "WBL": [
                119
            ], 
            "AM2F": [
                107
            ], 
            "M1_ADJ": [
                1
            ]
        }, 
        "sentence": "12 ) big storage - my entire cd collection in one small device ( 5717 song , 491 album and counting ) !"
    }, 
    "851613aef4dc3542de9dbdae5f08f0c4": {
        "(6, 35)": {
            "WBF": [
                824
            ], 
            "AM2L": [
                1971
            ], 
            "BM1F": [
                150
            ], 
            "M1": [
                440
            ], 
            "M2": [
                2666
            ], 
            "BM1L": [
                2325
            ], 
            "WBO": [
                2909, 
                1773, 
                1094, 
                1994, 
                695, 
                2864, 
                936, 
                279, 
                1773, 
                1562, 
                2866, 
                3123, 
                1566, 
                2748, 
                1176, 
                1917, 
                1228, 
                2760, 
                275, 
                1566, 
                4, 
                393, 
                1987, 
                2866, 
                2908
            ], 
            "WBL": [
                2866
            ], 
            "AM2F": [
                1758
            ], 
            "M1_ADJ": [
                1
            ]
        }, 
        "(6, 39)": {
            "WBF": [
                824
            ], 
            "AM2L": [
                2542
            ], 
            "BM1F": [
                150
            ], 
            "M1": [
                440
            ], 
            "M2": [
                2666
            ], 
            "BM1L": [
                2325
            ], 
            "WBO": [
                2909, 
                1773, 
                1094, 
                1994, 
                695, 
                2864, 
                936, 
                279, 
                1773, 
                1562, 
                2866, 
                3123, 
                1566, 
                2748, 
                1176, 
                1917, 
                1228, 
                2760, 
                275, 
                1566, 
                4, 
                393, 
                1987, 
                2866, 
                2908, 
                1971, 
                2866, 
                2666, 
                1758
            ], 
            "WBL": [
                1878
            ], 
            "AM2F": [
                3149
            ], 
            "M1_ADJ": [
                1
            ]
        }, 
        "location1": [
            6
        ], 
        "location2": [
            35, 
            39
        ], 
        "sentence": "the con are n't really a big deal to me ... except one con that does annoy me is the way it store file ... no folder structure ... and it 's based on the title of the song ... many of my song where seperated into folder ( on the pc ) ... and a few had same title ... so i had to change the title to make sure that i did n't have any that might be the same as another ."
    }
}