{
    "0e5f67b050553dd76a766dd94211c505": {
        "(5, 3)": {
            "AM2L": [
                2866
            ], 
            "WBFL": [
                2664
            ], 
            "BM1F": [
                2618
            ], 
            "M1": [
                3010
            ], 
            "M2": [
                441
            ], 
            "BM1L": [
                2074
            ], 
            "AM2F": [
                2872
            ], 
            "M1_ADJ": [
                0
            ]
        }, 
        "location1": [
            5
        ], 
        "location2": [
            3
        ], 
        "sentence": "nice palm sized unit , somewhat bigger then the ipod but not an issue if you 're not going to try & jog with it or something ."
    }
}