{
    "fe401e4c7ad5871abaee9660a3bbdd76": {
        "(2, 17)": {
            "WBF": [
                211
            ], 
            "AM2L": [
                2401
            ], 
            "BM1F": [
                2866
            ], 
            "M1": [
                442
            ], 
            "M2": [
                3046
            ], 
            "BM1L": [
                2195
            ], 
            "WBO": [
                2882, 
                2160, 
                1371, 
                1463, 
                2225, 
                3117, 
                1881, 
                1050, 
                1562, 
                2866, 
                1132
            ], 
            "WBL": [
                2866
            ], 
            "AM2F": [
                543
            ], 
            "M1_ADJ": [
                1
            ]
        }, 
        "location1": [
            2
        ], 
        "location2": [
            17
        ], 
        "sentence": "possibly the biggest advantage this player has ( if price was n't enough ) is the fact that the user can replace the battery him / herself by opening the lid and popping in the new battery ."
    }
}