{
    "a54036bc903c3a1cd6a4d867969199de": {
        "location1": [
            8
        ], 
        "location2": [
            7
        ], 
        "(8, 7)": {
            "AM2L": [
                273
            ], 
            "BM1F": [
                1690
            ], 
            "M1": [
                444
            ], 
            "M2": [
                441
            ], 
            "BM1L": [
                150
            ], 
            "WBNULL": [
                1
            ], 
            "AM2F": [
                2862
            ], 
            "M1_ADJ": [
                0
            ]
        }, 
        "sentence": "the size is small ( just a little bit bigger than an i-pod . )"
    }, 
    "6a8f21acd626d0800eee6c1da079d11a": {
        "location1": [
            6
        ], 
        "location2": [
            5
        ], 
        "(6, 5)": {
            "AM2L": [
                1566
            ], 
            "BM1F": [
                1690
            ], 
            "M1": [
                444
            ], 
            "M2": [
                441
            ], 
            "BM1L": [
                150
            ], 
            "WBNULL": [
                1
            ], 
            "AM2F": [
                522
            ], 
            "M1_ADJ": [
                0
            ]
        }, 
        "sentence": "it could be a little bit bigger , but it 's easy to get used to ."
    }, 
    "f041070426ec31a080e77c74f9f5ee0c": {
        "(7, 16)": {
            "WBF": [
                2862
            ], 
            "BM1F": [
                444
            ], 
            "M1": [
                441
            ], 
            "M2": [
                444
            ], 
            "BM1L": [
                1690
            ], 
            "WBO": [
                2866, 
                1558, 
                275, 
                1566, 
                3134
            ], 
            "WBL": [
                1690
            ], 
            "AM2F": [
                1851
            ], 
            "M1_ADJ": [
                1
            ]
        }, 
        "(7, 6)": {
            "AM2L": [
                2866
            ], 
            "BM1F": [
                1690
            ], 
            "M1": [
                444
            ], 
            "M2": [
                441
            ], 
            "BM1L": [
                150
            ], 
            "WBNULL": [
                1
            ], 
            "AM2F": [
                2862
            ], 
            "M1_ADJ": [
                0
            ]
        }, 
        "location1": [
            7
        ], 
        "location2": [
            6, 
            16
        ], 
        "sentence": "1 . the size is a little bit bigger than the ipod , and it weighs a little bit more ."
    }
}