{
    "21ebed2a97f528417ad5da338ef26ef7": {
        "location1": [
            19
        ], 
        "location2": [
            3
        ], 
        "(19, 3)": {
            "WBF": [
                3229
            ], 
            "AM2L": [
                1490
            ], 
            "BM1F": [
                2866
            ], 
            "M1": [
                2764
            ], 
            "M2": [
                457
            ], 
            "BM1L": [
                1401
            ], 
            "WBO": [
                2587, 
                1610, 
                2722, 
                3181, 
                2866, 
                1320, 
                2876, 
                2866, 
                2501, 
                1562, 
                2325, 
                440
            ], 
            "WBL": [
                2866
            ], 
            "AM2F": [
                1665
            ], 
            "M1_ADJ": [
                0
            ]
        }, 
        "sentence": "now here the stuff you should know starting with the good thing : the screen is really big and the blue light in the back is perfect , fast as hell in music transfer , control are easy to use after mastering the scroll button , great sound and ive heard many mp3 player , a ton of different equilizer type deal on here ."
    }
}