{
    "3a7359c228b14d5af1256761b5c276f0": {
        "(1, 2)": {
            "AM2L": [
                2866
            ], 
            "BM1F": [
                2866
            ], 
            "M1": [
                458
            ], 
            "M2": [
                917
            ], 
            "AM2F": [
                1490
            ], 
            "WBNULL": [
                1
            ], 
            "M1_ADJ": [
                1
            ]
        }, 
        "location1": [
            1
        ], 
        "location2": [
            2
        ], 
        "sentence": "the blue-screen display in the zennx xtra model is an improvement , but the toggle switch is still tricky ."
    }
}