{
    "4609198e9495aeb97d0e1704b1f11136": {
        "(8, 50)": {
            "WBF": [
                374
            ], 
            "BM1F": [
                406
            ], 
            "M1": [
                457
            ], 
            "M2": [
                2306
            ], 
            "BM1L": [
                2160
            ], 
            "WBO": [
                2501, 
                1463, 
                3229, 
                6, 
                2317, 
                154, 
                2866, 
                2160, 
                2659, 
                1375, 
                685, 
                154, 
                2866, 
                1616, 
                1971, 
                150, 
                3086, 
                1427, 
                1232, 
                2866, 
                1130, 
                3147, 
                2866, 
                562, 
                1562, 
                1987, 
                522, 
                2882, 
                1562, 
                1320, 
                407, 
                2866, 
                1130, 
                936, 
                1881, 
                1297, 
                812, 
                2500
            ], 
            "WBL": [
                2939
            ], 
            "M1_ADJ": [
                1
            ]
        }, 
        "location1": [
            8
        ], 
        "location2": [
            50
        ], 
        "sentence": "much cheaper than i-pod good looking player ( beautiful blue back-lit screen ) if you 've read about the player , some have complained about the lack of a viewing hole for the face when the case is on , but this is good because the face does n't get damaged / scratched fast transfer rate"
    }
}