{
    "97de56d8b2c770f71d198ee46e6dacfb": {
        "(19, 1)": {
            "WBF": [
                1769
            ], 
            "BM1F": [
                2866
            ], 
            "M1": [
                2501
            ], 
            "M2": [
                457
            ], 
            "WBO": [
                402, 
                150, 
                1690, 
                2638, 
                522, 
                1566, 
                1562, 
                3075, 
                2318, 
                275, 
                936, 
                1881, 
                663, 
                1490
            ], 
            "WBL": [
                2055
            ], 
            "M1_ADJ": [
                0
            ]
        }, 
        "location1": [
            19
        ], 
        "location2": [
            1
        ], 
        "sentence": "the screen may be a little smaller , but it is very readable and does n't come in the overused blue ."
    }, 
    "4669d00c8621e9a0281e783c77782dd4": {
        "(14, 19)": {
            "WBF": [
                379
            ], 
            "AM2L": [
                2780
            ], 
            "BM1F": [
                490
            ], 
            "M1": [
                457
            ], 
            "M2": [
                2501
            ], 
            "BM1L": [
                150
            ], 
            "WBO": [
                3152
            ], 
            "WBL": [
                2866
            ], 
            "AM2F": [
                1851
            ], 
            "M1_ADJ": [
                1
            ]
        }, 
        "location1": [
            14
        ], 
        "location2": [
            19
        ], 
        "sentence": "the lcd is larger than the previous model , the nx , and has a bright blue backlight which illuminates the screen more successfully than the nx 's green backlight did ."
    }, 
    "22b951ffa2f0d17cc9b029bd85dcdf41": {
        "(4, 14)": {
            "WBF": [
                1665
            ], 
            "BM1F": [
                634
            ], 
            "M1": [
                457
            ], 
            "M2": [
                2501
            ], 
            "BM1L": [
                150
            ], 
            "WBO": [
                2864, 
                247, 
                3229, 
                2909, 
                2518, 
                1084
            ], 
            "WBL": [
                2866
            ], 
            "AM2F": [
                1004
            ], 
            "M1_ADJ": [
                1
            ]
        }, 
        "location1": [
            4
        ], 
        "location2": [
            14
        ], 
        "sentence": "it has a clear blue light that allows you to see everything on the screen easily ."
    }, 
    "4609198e9495aeb97d0e1704b1f11136": {
        "(8, 10)": {
            "AM2L": [
                3229
            ], 
            "WBFL": [
                374
            ], 
            "BM1F": [
                406
            ], 
            "M1": [
                457
            ], 
            "M2": [
                2501
            ], 
            "BM1L": [
                2160
            ], 
            "AM2F": [
                1463
            ], 
            "M1_ADJ": [
                1
            ]
        }, 
        "location1": [
            8
        ], 
        "location2": [
            10
        ], 
        "sentence": "much cheaper than i-pod good looking player ( beautiful blue back-lit screen ) if you 've read about the player , some have complained about the lack of a viewing hole for the face when the case is on , but this is good because the face does n't get damaged / scratched fast transfer rate"
    }, 
    "c8a04e62ab057c0a7bce58982ce6cae8": {
        "location1": [
            9
        ], 
        "location2": [
            1
        ], 
        "(9, 1)": {
            "WBF": [
                1562
            ], 
            "AM2L": [
                1562
            ], 
            "BM1F": [
                2866
            ], 
            "M1": [
                2501
            ], 
            "M2": [
                457
            ], 
            "WBO": [
                3075, 
                1005, 
                2909, 
                2317
            ], 
            "WBL": [
                2866
            ], 
            "AM2F": [
                1665
            ], 
            "M1_ADJ": [
                0
            ]
        }, 
        "sentence": "the screen is very easy to read and the blue light is bright enough to read at night , but dim enough so it does n't blind you when you stare too long ."
    }, 
    "21ebed2a97f528417ad5da338ef26ef7": {
        "(19, 13)": {
            "WBF": [
                1562
            ], 
            "AM2L": [
                1490
            ], 
            "BM1F": [
                2866
            ], 
            "M1": [
                2501
            ], 
            "M2": [
                457
            ], 
            "BM1L": [
                2876
            ], 
            "WBO": [
                2325, 
                440
            ], 
            "WBL": [
                2866
            ], 
            "AM2F": [
                1665
            ], 
            "M1_ADJ": [
                0
            ]
        }, 
        "location1": [
            19
        ], 
        "location2": [
            13
        ], 
        "sentence": "now here the stuff you should know starting with the good thing : the screen is really big and the blue light in the back is perfect , fast as hell in music transfer , control are easy to use after mastering the scroll button , great sound and ive heard many mp3 player , a ton of different equilizer type deal on here ."
    }
}