{
    "4669d00c8621e9a0281e783c77782dd4": {
        "(13, 14)": {
            "AM2L": [
                3152
            ], 
            "BM1F": [
                150
            ], 
            "M1": [
                490
            ], 
            "M2": [
                457
            ], 
            "BM1L": [
                1371
            ], 
            "WBNULL": [
                1
            ], 
            "AM2F": [
                379
            ], 
            "M1_ADJ": [
                1
            ]
        }, 
        "location1": [
            13
        ], 
        "location2": [
            14
        ], 
        "sentence": "the lcd is larger than the previous model , the nx , and has a bright blue backlight which illuminates the screen more successfully than the nx 's green backlight did ."
    }, 
    "c8a04e62ab057c0a7bce58982ce6cae8": {
        "(12, 9)": {
            "WBF": [
                1665
            ], 
            "AM2L": [
                2909
            ], 
            "BM1F": [
                2866
            ], 
            "M1": [
                457
            ], 
            "M2": [
                490
            ], 
            "BM1L": [
                275
            ], 
            "WBO": [
                1562
            ], 
            "WBL": [
                1562
            ], 
            "AM2F": [
                1050
            ], 
            "M1_ADJ": [
                0
            ]
        }, 
        "location1": [
            12
        ], 
        "location2": [
            9
        ], 
        "sentence": "the screen is very easy to read and the blue light is bright enough to read at night , but dim enough so it does n't blind you when you stare too long ."
    }
}