{
    "4669d00c8621e9a0281e783c77782dd4": {
        "location1": [
            13
        ], 
        "location2": [
            7
        ], 
        "(13, 7)": {
            "WBF": [
                2866
            ], 
            "AM2L": [
                379
            ], 
            "BM1F": [
                2223
            ], 
            "M1": [
                1837
            ], 
            "M2": [
                490
            ], 
            "BM1L": [
                2866
            ], 
            "WBO": [
                1951, 
                275
            ], 
            "WBL": [
                150
            ], 
            "AM2F": [
                457
            ], 
            "M1_ADJ": [
                0
            ]
        }, 
        "sentence": "the lcd is larger than the previous model , the nx , and has a bright blue backlight which illuminates the screen more successfully than the nx 's green backlight did ."
    }
}