{
    "074a0ef9795ec5883cc9095904d96eb4": {
        "location1": [
            5
        ], 
        "location2": [
            17
        ], 
        "(5, 17)": {
            "WBF": [
                1935
            ], 
            "BM1F": [
                2831
            ], 
            "M1": [
                511
            ], 
            "M2": [
                1228
            ], 
            "BM1L": [
                150
            ], 
            "WBO": [
                2866, 
                1854, 
                334, 
                1712, 
                2160, 
                275, 
                936, 
                1881
            ], 
            "WBL": [
                150
            ], 
            "AM2F": [
                2763
            ], 
            "M1_ADJ": [
                1
            ]
        }, 
        "sentence": "first , the con ... a tad bulky ... not the most asthetic looking player ... and does n't support a folder stucture ."
    }
}