{
    "074a0ef9795ec5883cc9095904d96eb4": {
        "location1": [
            5
        ], 
        "location2": [
            11
        ], 
        "(5, 11)": {
            "WBF": [
                1935
            ], 
            "AM2L": [
                936
            ], 
            "BM1F": [
                2831
            ], 
            "M1": [
                511
            ], 
            "M2": [
                2160
            ], 
            "BM1L": [
                150
            ], 
            "WBO": [
                2866, 
                1854
            ], 
            "WBL": [
                1712
            ], 
            "AM2F": [
                275
            ], 
            "M1_ADJ": [
                1
            ]
        }, 
        "sentence": "first , the con ... a tad bulky ... not the most asthetic looking player ... and does n't support a folder stucture ."
    }
}