{
    "66a0c26d06a2de11f1e77c0df92b5a63": {
        "(2, 3)": {
            "AM2L": [
                1661
            ], 
            "BM1F": [
                275
            ], 
            "M1": [
                601
            ], 
            "M2": [
                400
            ], 
            "BM1L": [
                2389
            ], 
            "WBNULL": [
                1
            ], 
            "AM2F": [
                150
            ], 
            "M1_ADJ": [
                1
            ]
        }, 
        "location1": [
            2
        ], 
        "location2": [
            3, 
            6
        ], 
        "(2, 6)": {
            "WBF": [
                400
            ], 
            "AM2L": [
                3191
            ], 
            "BM1F": [
                275
            ], 
            "M1": [
                601
            ], 
            "M2": [
                400
            ], 
            "BM1L": [
                2389
            ], 
            "WBO": [
                150
            ], 
            "WBL": [
                1661
            ], 
            "AM2F": [
                3051
            ], 
            "M1_ADJ": [
                1
            ]
        }, 
        "sentence": "removable and cheap battery - a li battery usually work properly for 1-3 year ."
    }, 
    "4147498480996841498df2bb40d27af6": {
        "(2, 16)": {
            "WBF": [
                3048
            ], 
            "AM2L": [
                756
            ], 
            "BM1F": [
                2866
            ], 
            "M1": [
                601
            ], 
            "M2": [
                400
            ], 
            "BM1L": [
                112
            ], 
            "WBO": [
                400, 
                113, 
                1261, 
                784, 
                1562, 
                150, 
                1333, 
                211, 
                2045, 
                2866
            ], 
            "WBL": [
                4
            ], 
            "AM2F": [
                3152
            ], 
            "M1_ADJ": [
                1
            ]
        }, 
        "location1": [
            2
        ], 
        "location2": [
            4, 
            16
        ], 
        "(2, 4)": {
            "AM2L": [
                1261
            ], 
            "WBFL": [
                3048
            ], 
            "BM1F": [
                2866
            ], 
            "M1": [
                601
            ], 
            "M2": [
                400
            ], 
            "BM1L": [
                112
            ], 
            "AM2F": [
                113
            ], 
            "M1_ADJ": [
                1
            ]
        }, 
        "sentence": "5 ) the cheap , user-replaceable battery ( $ 50 from creative ) is a great advantage over the ipod 's battery which cost $ 100 to replace ."
    }
}