{
    "dfeaf50d5e3cca7bf889853664f868cd": {
        "(0, 11)": {
            "WBF": [
                723
            ], 
            "AM2L": [
                2280
            ], 
            "M1": [
                601
            ], 
            "M2": [
                2153
            ], 
            "WBO": [
                2875, 
                2587, 
                1375, 
                1739, 
                2866, 
                2160, 
                2037
            ], 
            "WBL": [
                1363
            ], 
            "AM2F": [
                275
            ], 
            "M1_ADJ": [
                1
            ]
        }, 
        "location1": [
            0
        ], 
        "location2": [
            11
        ], 
        "sentence": "cheap construction - they should have made the player out of hard plastic and put some rubber on the corner ."
    }, 
    "24d93015399c37ff908bdb60c3adf6b2": {
        "location1": [
            2
        ], 
        "location2": [
            4
        ], 
        "(2, 4)": {
            "AM2L": [
                1167
            ], 
            "WBFL": [
                2866
            ], 
            "BM1F": [
                1167
            ], 
            "M1": [
                601
            ], 
            "M2": [
                2153
            ], 
            "BM1L": [
                150
            ], 
            "AM2F": [
                1562
            ], 
            "M1_ADJ": [
                1
            ]
        }, 
        "sentence": "a ) feel cheap -- the plastic is feel like it would break very easily , and it definately wouldnt survive a drop"
    }
}