{
    "2372fb6a2b84de05a3b0daa7c5597402": {
        "location1": [
            1
        ], 
        "location2": [
            12
        ], 
        "(1, 12)": {
            "WBF": [
                1710
            ], 
            "AM2L": [
                150
            ], 
            "BM1F": [
                130
            ], 
            "M1": [
                611
            ], 
            "M2": [
                1237
            ], 
            "WBO": [
                275, 
                1320, 
                506, 
                2866, 
                2160, 
                664, 
                1490
            ], 
            "WBL": [
                673
            ], 
            "AM2F": [
                3181
            ], 
            "M1_ADJ": [
                1
            ]
        }, 
        "sentence": "7 ) chic look and good build - the player comes in a compact form with a metal face plate ."
    }
}