{
    "22b951ffa2f0d17cc9b029bd85dcdf41": {
        "(3, 5)": {
            "AM2L": [
                247
            ], 
            "WBFL": [
                457
            ], 
            "BM1F": [
                150
            ], 
            "M1": [
                634
            ], 
            "M2": [
                1665
            ], 
            "BM1L": [
                1371
            ], 
            "AM2F": [
                2864
            ], 
            "M1_ADJ": [
                1
            ]
        }, 
        "location1": [
            3
        ], 
        "location2": [
            5
        ], 
        "sentence": "it has a clear blue light that allows you to see everything on the screen easily ."
    }
}