{
    "ea590102fe54b3305e3c92c7f680c4d9": {
        "(18, 8)": {
            "WBF": [
                2797
            ], 
            "AM2L": [
                154
            ], 
            "BM1F": [
                2178
            ], 
            "M1": [
                2242
            ], 
            "M2": [
                718
            ], 
            "BM1L": [
                2281
            ], 
            "WBO": [
                891, 
                1971, 
                3049, 
                2866, 
                2506, 
                3146
            ], 
            "WBL": [
                2328
            ], 
            "AM2F": [
                1166
            ], 
            "M1_ADJ": [
                0
            ]
        }, 
        "location1": [
            18
        ], 
        "location2": [
            8
        ], 
        "sentence": "creative zen feedback suffers from construction quality , poor product support , difficulty of using the scroll wheel and reasonably consistent feedback about problem with the headphone jack ."
    }
}