{
    "55a1e032f3ca37204ac18478c6c689ef": {
        "(28, 8)": {
            "WBF": [
                2909
            ], 
            "AM2L": [
                616
            ], 
            "BM1F": [
                159
            ], 
            "M1": [
                192
            ], 
            "M2": [
                738
            ], 
            "BM1L": [
                2866
            ], 
            "WBO": [
                2342, 
                1566, 
                936, 
                1935, 
                595, 
                528, 
                3040, 
                530, 
                2882, 
                1562, 
                1935, 
                2937, 
                522, 
                3040, 
                2347, 
                3204
            ], 
            "WBL": [
                150
            ], 
            "AM2F": [
                198
            ], 
            "M1_ADJ": [
                0
            ]
        }, 
        "location1": [
            28
        ], 
        "location2": [
            8
        ], 
        "sentence": "6 . the zen nx battery requires the ac adapter to recharge ; it does not charge by usb cable ; this is not tragic , but usb recharging would be a convenient ( additional ) choice ."
    }
}