{
    "26afbb728550c0df1149e771bc94d54b": {
        "location1": [
            15
        ], 
        "location2": [
            11
        ], 
        "(15, 11)": {
            "WBF": [
                2866
            ], 
            "AM2L": [
                1562
            ], 
            "BM1F": [
                2864
            ], 
            "M1": [
                2764
            ], 
            "M2": [
                744
            ], 
            "BM1L": [
                3181
            ], 
            "WBO": [
                3010
            ], 
            "WBL": [
                1710
            ], 
            "AM2F": [
                2501
            ], 
            "M1_ADJ": [
                0
            ]
        }, 
        "sentence": "the sound quality is excellent ( and i 'm fussy with that stuff ) , the unit look cool , screen is bright and easy to read , and the replaceable battery mean a major advantage over the ipod ( besides the price , but everyone know that ) ."
    }
}