{
    "67bd9ef657ec9fe0e24675e255e6ee0d": {
        "(7, 1)": {
            "WBF": [
                1449
            ], 
            "AM2L": [
                2609
            ], 
            "BM1F": [
                1386
            ], 
            "M1": [
                2783
            ], 
            "M2": [
                744
            ], 
            "WBO": [
                3204, 
                1555
            ], 
            "WBL": [
                2659
            ], 
            "AM2F": [
                1994
            ], 
            "M1_ADJ": [
                0
            ]
        }, 
        "location1": [
            7
        ], 
        "location2": [
            1
        ], 
        "sentence": "headphone suck , i would invest in some cool one since it has the eax feature ."
    }
}