{
    "26afbb728550c0df1149e771bc94d54b": {
        "location1": [
            15
        ], 
        "location2": [
            13
        ], 
        "(15, 13)": {
            "AM2L": [
                1562
            ], 
            "WBFL": [
                1710
            ], 
            "BM1F": [
                2866
            ], 
            "M1": [
                3010
            ], 
            "M2": [
                744
            ], 
            "BM1L": [
                2764
            ], 
            "AM2F": [
                2501
            ], 
            "M1_ADJ": [
                0
            ]
        }, 
        "sentence": "the sound quality is excellent ( and i 'm fussy with that stuff ) , the unit look cool , screen is bright and easy to read , and the replaceable battery mean a major advantage over the ipod ( besides the price , but everyone know that ) ."
    }, 
    "fcc6060d8953928ffecfa28e3e7a7871": {
        "(15, 12)": {
            "WBF": [
                1562
            ], 
            "BM1F": [
                2602
            ], 
            "M1": [
                3010
            ], 
            "M2": [
                744
            ], 
            "BM1L": [
                2866
            ], 
            "WBO": [
                1884
            ], 
            "WBL": [
                1884
            ], 
            "M1_ADJ": [
                0
            ]
        }, 
        "location1": [
            15
        ], 
        "location2": [
            12
        ], 
        "sentence": "the screen is large , defined , and easy to read , and the silver unit is naturally cool ."
    }
}