{
    "2462352e4d26f43439fa478ab33dff17": {
        "(34, 31)": {
            "WBF": [
                1074
            ], 
            "AM2L": [
                1998
            ], 
            "BM1F": [
                2384
            ], 
            "M1": [
                964
            ], 
            "M2": [
                784
            ], 
            "BM1L": [
                877
            ], 
            "WBO": [
                1074
            ], 
            "WBL": [
                1074
            ], 
            "AM2F": [
                4
            ], 
            "M1_ADJ": [
                0
            ]
        }, 
        "location1": [
            34
        ], 
        "location2": [
            31
        ], 
        "sentence": "after i had it a couple week , it got into a state where it could never find the device , no matter how often i rebooted my pc , reset the device , reloaded driver , etc , etc . creative 's online support was no help at all ."
    }
}