{
    "14d20e2bcf29b6bcafa9483b929a2de6": {
        "(1, 20)": {
            "WBF": [
                1779
            ], 
            "AM2L": [
                2453
            ], 
            "BM1F": [
                8
            ], 
            "M1": [
                784
            ], 
            "M2": [
                1876
            ], 
            "WBO": [
                2653, 
                1562, 
                1982, 
                2909, 
                2453, 
                566, 
                515, 
                1875, 
                1463, 
                3229, 
                316, 
                2722, 
                1261, 
                2499, 
                522
            ], 
            "WBL": [
                3043
            ], 
            "AM2F": [
                2909
            ], 
            "M1_ADJ": [
                1
            ]
        }, 
        "location1": [
            1
        ], 
        "location2": [
            20
        ], 
        "sentence": "1. creative mediasource software is ok to rip , catalog & burn music if you are starting from scratch ; but i used musicmatch to rip my cd before i bought the zen ( 278 cd ; 3,400 track ; 12.5 gb of music all ripped at 128bps ) and guess what ?"
    }, 
    "f17720aeafd313670cd2350bf2e39041": {
        "(38, 9)": {
            "WBF": [
                275
            ], 
            "AM2L": [
                286
            ], 
            "BM1F": [
                1669
            ], 
            "M1": [
                1876
            ], 
            "M2": [
                784
            ], 
            "BM1L": [
                2160
            ], 
            "WBO": [
                3172, 
                522, 
                1935, 
                784, 
                3183, 
                1944, 
                3229, 
                1896, 
                2909, 
                1753, 
                2359, 
                3230, 
                2162, 
                1566, 
                936, 
                1881, 
                555, 
                3144, 
                2653, 
                3229, 
                3041, 
                2909, 
                2453, 
                2019, 
                566
            ], 
            "WBL": [
                1875
            ], 
            "AM2F": [
                2019
            ], 
            "M1_ADJ": [
                0
            ]
        }, 
        "location1": [
            14, 
            38
        ], 
        "location2": [
            9
        ], 
        "(14, 9)": {
            "WBF": [
                275
            ], 
            "AM2L": [
                1944
            ], 
            "BM1F": [
                1669
            ], 
            "M1": [
                1876
            ], 
            "M2": [
                784
            ], 
            "BM1L": [
                2160
            ], 
            "WBO": [
                3172
            ], 
            "WBL": [
                1935
            ], 
            "AM2F": [
                3183
            ], 
            "M1_ADJ": [
                0
            ]
        }, 
        "sentence": "m3u file are used by most mp3 player like musicmatch and winamp , but not creative - without notmad you need to manually recreate your playlist ) ; it does n't care what software you use to rip or catalog your music - creative or any other company - all my 12.5 gb of music were transferred to the zen with correct tag - hooray !"
    }
}