{
    "1815e3af4f811c08b874fb48013a9edc": {
        "(9, 20)": {
            "WBF": [
                1371
            ], 
            "AM2L": [
                2866
            ], 
            "BM1F": [
                325
            ], 
            "M1": [
                784
            ], 
            "M2": [
                682
            ], 
            "BM1L": [
                3138
            ], 
            "WBO": [
                1496, 
                150, 
                1949, 
                1971, 
                1061, 
                206, 
                2864
            ], 
            "WBL": [
                1088
            ], 
            "AM2F": [
                1232
            ], 
            "M1_ADJ": [
                1
            ]
        }, 
        "location1": [
            9
        ], 
        "location2": [
            20
        ], 
        "sentence": "the eax feature are pretty cool , as well , as creative has included a number of eq adjustment that , for example , compensate for the extraneous noise encountered in a car or on a train ."
    }
}