{
    "6bcac49498fd30b88131b83404d6bfaf": {
        "(4, 10)": {
            "WBF": [
                1287
            ], 
            "AM2L": [
                1163
            ], 
            "BM1F": [
                337
            ], 
            "M1": [
                784
            ], 
            "M2": [
                2281
            ], 
            "BM1L": [
                1258
            ], 
            "WBO": [
                2882, 
                2876
            ], 
            "WBL": [
                2676
            ], 
            "AM2F": [
                1333
            ], 
            "M1_ADJ": [
                1
            ]
        }, 
        "location1": [
            4
        ], 
        "location2": [
            10
        ], 
        "sentence": "our special friend at creative gave this thing good sound quality , great feature , long battery life , and an unbeatable price ."
    }, 
    "faecff2a9f98008034e071e9ea118f8f": {
        "location1": [
            21
        ], 
        "location2": [
            27
        ], 
        "(21, 27)": {
            "WBF": [
                1371
            ], 
            "AM2L": [
                2236
            ], 
            "BM1F": [
                2864
            ], 
            "M1": [
                784
            ], 
            "M2": [
                2281
            ], 
            "BM1L": [
                424
            ], 
            "WBO": [
                2659, 
                1492
            ], 
            "WBL": [
                2019
            ], 
            "AM2F": [
                735
            ], 
            "M1_ADJ": [
                1
            ]
        }, 
        "sentence": "enough people have reported that their headphone jack does n't work after a month of using the device to believe that creative has some inbuilt manufacturing or quality control problem ."
    }, 
    "16dccec07487bfb9e777d9b8fc08c377": {
        "location1": [
            2
        ], 
        "location2": [
            6
        ], 
        "(2, 6)": {
            "WBF": [
                2242
            ], 
            "AM2L": [
                2989
            ], 
            "BM1F": [
                150
            ], 
            "M1": [
                784
            ], 
            "M2": [
                2281
            ], 
            "BM1L": [
                423
            ], 
            "WBO": [
                2866
            ], 
            "WBL": [
                2158
            ], 
            "AM2F": [
                1562
            ], 
            "M1_ADJ": [
                1
            ]
        }, 
        "sentence": "being a creative product the playback quality is unbeatable ."
    }, 
    "ea590102fe54b3305e3c92c7f680c4d9": {
        "(0, 6)": {
            "WBF": [
                3236
            ], 
            "AM2L": [
                2242
            ], 
            "M1": [
                784
            ], 
            "M2": [
                2281
            ], 
            "WBO": [
                1166, 
                2784
            ], 
            "WBL": [
                723
            ], 
            "AM2F": [
                2178
            ], 
            "M1_ADJ": [
                1
            ]
        }, 
        "location1": [
            0
        ], 
        "location2": [
            6
        ], 
        "sentence": "creative zen feedback suffers from construction quality , poor product support , difficulty of using the scroll wheel and reasonably consistent feedback about problem with the headphone jack ."
    }, 
    "a44b72ed937e77df7cb07d76f90f6978": {
        "location1": [
            9
        ], 
        "location2": [
            1
        ], 
        "(9, 1)": {
            "WBF": [
                1987
            ], 
            "BM1F": [
                2676
            ], 
            "M1": [
                2281
            ], 
            "M2": [
                784
            ], 
            "WBO": [
                2882, 
                1562, 
                266, 
                325
            ], 
            "WBL": [
                242
            ], 
            "AM2F": [
                2242
            ], 
            "M1_ADJ": [
                0
            ]
        }, 
        "sentence": "sound quality on this is amazing , as with all creative product ."
    }, 
    "bdc192fe7f1f8ae65e2026ddd253541b": {
        "location1": [
            7
        ], 
        "location2": [
            18
        ], 
        "(7, 18)": {
            "WBF": [
                1864
            ], 
            "AM2L": [
                286
            ], 
            "BM1F": [
                2034
            ], 
            "M1": [
                784
            ], 
            "M2": [
                2281
            ], 
            "BM1L": [
                407
            ], 
            "WBO": [
                2160, 
                316, 
                3075, 
                1320, 
                275, 
                1375, 
                2866
            ], 
            "WBL": [
                2676
            ], 
            "AM2F": [
                1971
            ], 
            "M1_ADJ": [
                1
            ]
        }, 
        "sentence": "it 's really a shame , because otherwise , creative mp3 player are very good , and have the best sound quality of any player on the market ."
    }, 
    "8812abd94f2f4829367b5c99303eebd1": {
        "(10, 17)": {
            "WBF": [
                1864
            ], 
            "AM2L": [
                2874
            ], 
            "BM1F": [
                2866
            ], 
            "M1": [
                784
            ], 
            "M2": [
                2281
            ], 
            "BM1L": [
                2864
            ], 
            "WBO": [
                1587, 
                1375, 
                2866
            ], 
            "WBL": [
                2676
            ], 
            "AM2F": [
                1971
            ], 
            "M1_ADJ": [
                1
            ]
        }, 
        "location1": [
            10
        ], 
        "location2": [
            17
        ], 
        "sentence": "all review i 've seen seem to indicate that the creative mp3 jukebox have the best sound quality of these 2nd generation jukeboxed ( ipod , archos , dell , samsung ) ."
    }
}