{
    "5665cc636f7aeff4e22e1cacfc8c571f": {
        "(1, 10)": {
            "WBF": [
                2653
            ], 
            "AM2L": [
                1881
            ], 
            "BM1F": [
                2866
            ], 
            "M1": [
                784
            ], 
            "M2": [
                2150
            ], 
            "WBO": [
                1562, 
                369, 
                890, 
                2909, 
                3041
            ], 
            "WBL": [
                1591
            ], 
            "AM2F": [
                936
            ], 
            "M1_ADJ": [
                1
            ]
        }, 
        "location1": [
            1
        ], 
        "location2": [
            10
        ], 
        "sentence": "the creative software is awkward / difficult to use and just plain does n't load on some computer ."
    }
}