{
    "e17e18380718fc3b0a9d1deacbd92ff8": {
        "location1": [
            37
        ], 
        "location2": [
            28
        ], 
        "(37, 28)": {
            "WBF": [
                2653
            ], 
            "AM2L": [
                1176
            ], 
            "BM1F": [
                2880
            ], 
            "M1": [
                2086
            ], 
            "M2": [
                784
            ], 
            "BM1L": [
                150
            ], 
            "WBO": [
                675, 
                2864, 
                2421, 
                3087, 
                242
            ], 
            "WBL": [
                2866
            ], 
            "AM2F": [
                1779
            ], 
            "M1_ADJ": [
                0
            ]
        }, 
        "sentence": "this player is an overall disappointment with a couple of big flaw that potential buyer should be wary of ; and all reader need to know about a third party software company that resolve virtually all of the creative mediasource file transfer issue ."
    }
}