{
    "faecff2a9f98008034e071e9ea118f8f": {
        "(21, 13)": {
            "WBF": [
                1971
            ], 
            "AM2L": [
                2659
            ], 
            "BM1F": [
                150
            ], 
            "M1": [
                1849
            ], 
            "M2": [
                784
            ], 
            "BM1L": [
                221
            ], 
            "WBO": [
                3049, 
                2866, 
                877, 
                2909
            ], 
            "WBL": [
                2864
            ], 
            "AM2F": [
                1371
            ], 
            "M1_ADJ": [
                0
            ]
        }, 
        "location1": [
            21
        ], 
        "location2": [
            13
        ], 
        "sentence": "enough people have reported that their headphone jack does n't work after a month of using the device to believe that creative has some inbuilt manufacturing or quality control problem ."
    }
}