{
    "77d109e2cb75e81b27de5ba3fb01ee7b": {
        "(7, 17)": {
            "WBF": [
                534
            ], 
            "AM2L": [
                2834
            ], 
            "BM1F": [
                425
            ], 
            "M1": [
                784
            ], 
            "M2": [
                1796
            ], 
            "BM1L": [
                1449
            ], 
            "WBO": [
                1566, 
                1167, 
                3075, 
                369, 
                337, 
                2901
            ], 
            "WBL": [
                2659
            ], 
            "AM2F": [
                2607
            ], 
            "M1_ADJ": [
                1
            ]
        }, 
        "location1": [
            7
        ], 
        "location2": [
            17
        ], 
        "sentence": "the dynamic playlist ( `` now playing `` , i belive creative call it ) feel very awkward at time and some menus simply take to long to get to and operate .. ."
    }
}