{
    "8812abd94f2f4829367b5c99303eebd1": {
        "location1": [
            10
        ], 
        "location2": [
            21
        ], 
        "(10, 21)": {
            "WBF": [
                1864
            ], 
            "AM2L": [
                1558
            ], 
            "BM1F": [
                2866
            ], 
            "M1": [
                784
            ], 
            "M2": [
                1295
            ], 
            "BM1L": [
                2864
            ], 
            "WBO": [
                1587, 
                1375, 
                2866, 
                434, 
                2676, 
                2281, 
                1971
            ], 
            "WBL": [
                72
            ], 
            "AM2F": [
                1588
            ], 
            "M1_ADJ": [
                1
            ]
        }, 
        "sentence": "all review i 've seen seem to indicate that the creative mp3 jukebox have the best sound quality of these 2nd generation jukeboxed ( ipod , archos , dell , samsung ) ."
    }
}