{
    "f047713fd7ebf2002c5bc05f4ab2df80": {
        "location1": [
            7, 
            13
        ], 
        "location2": [
            19
        ], 
        "(7, 19)": {
            "WBF": [
                2653
            ], 
            "AM2L": [
                1571
            ], 
            "BM1F": [
                2866
            ], 
            "M1": [
                784
            ], 
            "M2": [
                2756
            ], 
            "BM1L": [
                154
            ], 
            "WBO": [
                522, 
                1449, 
                185, 
                1185, 
                784, 
                1779, 
                2027, 
                2909
            ], 
            "WBL": [
                2659
            ], 
            "AM2F": [
                2045
            ], 
            "M1_ADJ": [
                1
            ]
        }, 
        "(13, 19)": {
            "WBF": [
                1779
            ], 
            "AM2L": [
                1571
            ], 
            "BM1F": [
                1185
            ], 
            "M1": [
                784
            ], 
            "M2": [
                2756
            ], 
            "BM1L": [
                185
            ], 
            "WBO": [
                2027, 
                2909
            ], 
            "WBL": [
                2659
            ], 
            "AM2F": [
                2045
            ], 
            "M1_ADJ": [
                1
            ]
        }, 
        "sentence": "a lot of people complain about the creative software , but i actually find creative mediasource organizer to have some strength over itunes ."
    }
}