{
    "8812abd94f2f4829367b5c99303eebd1": {
        "location1": [
            10
        ], 
        "location2": [
            23
        ], 
        "(10, 23)": {
            "WBF": [
                1864
            ], 
            "AM2L": [
                852
            ], 
            "BM1F": [
                2866
            ], 
            "M1": [
                784
            ], 
            "M2": [
                1558
            ], 
            "BM1L": [
                2864
            ], 
            "WBO": [
                1587, 
                1375, 
                2866, 
                434, 
                2676, 
                2281, 
                1971, 
                2874, 
                72
            ], 
            "WBL": [
                1588
            ], 
            "AM2F": [
                315
            ], 
            "M1_ADJ": [
                1
            ]
        }, 
        "sentence": "all review i 've seen seem to indicate that the creative mp3 jukebox have the best sound quality of these 2nd generation jukeboxed ( ipod , archos , dell , samsung ) ."
    }, 
    "ef25a24c12ae7b697445f8d181fbe847": {
        "(43, 35)": {
            "WBF": [
                1935
            ], 
            "AM2L": [
                413
            ], 
            "BM1F": [
                2862
            ], 
            "M1": [
                1558
            ], 
            "M2": [
                784
            ], 
            "BM1L": [
                436
            ], 
            "WBO": [
                2807, 
                717, 
                2866, 
                1949
            ], 
            "WBL": [
                3222
            ], 
            "AM2F": [
                1371
            ], 
            "M1_ADJ": [
                0
            ]
        }, 
        "location1": [
            43
        ], 
        "location2": [
            35
        ], 
        "sentence": "like it 's predecessor , the quickly revised nx , this player boast a decent size and weight , a relatively-intuitive navigational system that categorizes based on id3 tag , and excellent sound ( widely known to be better than ipod - not surprising considering the number of year creative has been in the audio peripheral business ) ."
    }, 
    "f53180de30a7308dfce4f7c6df47edae": {
        "(9, 18)": {
            "WBF": [
                1540
            ], 
            "BM1F": [
                407
            ], 
            "M1": [
                784
            ], 
            "M2": [
                1558
            ], 
            "BM1L": [
                3046
            ], 
            "WBO": [
                1566, 
                2909, 
                402, 
                3015, 
                307
            ], 
            "WBL": [
                2866
            ], 
            "M1_ADJ": [
                1
            ]
        }, 
        "location1": [
            9
        ], 
        "location2": [
            18
        ], 
        "sentence": "first , the battery is replacable by the user , because creative intended it to be - unlike apple with the ipod ."
    }, 
    "4147498480996841498df2bb40d27af6": {
        "(7, 14)": {
            "WBF": [
                1562
            ], 
            "AM2L": [
                400
            ], 
            "BM1F": [
                1261
            ], 
            "M1": [
                784
            ], 
            "M2": [
                1558
            ], 
            "BM1L": [
                113
            ], 
            "WBO": [
                150, 
                1333, 
                211
            ], 
            "WBL": [
                2866
            ], 
            "AM2F": [
                4
            ], 
            "M1_ADJ": [
                1
            ]
        }, 
        "location1": [
            7
        ], 
        "location2": [
            14
        ], 
        "sentence": "5 ) the cheap , user-replaceable battery ( $ 50 from creative ) is a great advantage over the ipod 's battery which cost $ 100 to replace ."
    }
}