{
    "ea590102fe54b3305e3c92c7f680c4d9": {
        "(0, 15)": {
            "WBF": [
                3236
            ], 
            "AM2L": [
                2328
            ], 
            "M1": [
                784
            ], 
            "M2": [
                3146
            ], 
            "WBO": [
                1166, 
                2784, 
                1261, 
                723, 
                2281, 
                2178, 
                2242, 
                2797, 
                891, 
                1971, 
                3049
            ], 
            "WBL": [
                2506
            ], 
            "AM2F": [
                275
            ], 
            "M1_ADJ": [
                1
            ]
        }, 
        "location1": [
            0
        ], 
        "location2": [
            15
        ], 
        "sentence": "creative zen feedback suffers from construction quality , poor product support , difficulty of using the scroll wheel and reasonably consistent feedback about problem with the headphone jack ."
    }
}