{
    "f8e21ab1b8a57bce5633ca8027b19bb4": {
        "(22, 18)": {
            "WBF": [
                1094
            ], 
            "AM2L": [
                3049
            ], 
            "BM1F": [
                2866
            ], 
            "M1": [
                1558
            ], 
            "M2": [
                793
            ], 
            "BM1L": [
                1987
            ], 
            "WBO": [
                1232
            ], 
            "WBL": [
                150
            ], 
            "AM2F": [
                3192
            ], 
            "M1_ADJ": [
                0
            ]
        }, 
        "(22, 26)": {
            "WBF": [
                3192
            ], 
            "AM2L": [
                150
            ], 
            "BM1F": [
                150
            ], 
            "M1": [
                793
            ], 
            "M2": [
                1558
            ], 
            "BM1L": [
                1232
            ], 
            "WBO": [
                3049
            ], 
            "WBL": [
                2866
            ], 
            "AM2F": [
                325
            ], 
            "M1_ADJ": [
                1
            ]
        }, 
        "location1": [
            22
        ], 
        "location2": [
            18, 
            26
        ], 
        "sentence": "the zen is an outstanding way to shuttle music between source , you can 't do this on the ipod ( except for a cumbersome work-around using the ipod as a hard drive instead of a player ) ."
    }
}