{
    "046321e6f46dfb8659079eb3d885696d": {
        "location1": [
            9
        ], 
        "location2": [
            4
        ], 
        "(9, 4)": {
            "WBF": [
                1971
            ], 
            "AM2L": [
                2734
            ], 
            "BM1F": [
                400
            ], 
            "M1": [
                1694
            ], 
            "M2": [
                827
            ], 
            "BM1L": [
                590
            ], 
            "WBO": [
                2215
            ], 
            "WBL": [
                1057
            ], 
            "AM2F": [
                723
            ], 
            "M1_ADJ": [
                0
            ]
        }, 
        "sentence": "other plus : changable battery , load of presets for environment , decent construction , still quite small and light despite being slightly bigger than an ipod ."
    }
}