{
    "21ebed2a97f528417ad5da338ef26ef7": {
        "(53, 31)": {
            "WBF": [
                735
            ], 
            "AM2L": [
                2977
            ], 
            "BM1F": [
                1875
            ], 
            "M1": [
                2939
            ], 
            "M2": [
                888
            ], 
            "BM1L": [
                1490
            ], 
            "WBO": [
                316, 
                1005, 
                2909, 
                3041, 
                221, 
                1764, 
                2866, 
                2506, 
                523, 
                1333, 
                2676, 
                275, 
                1572, 
                1389, 
                1758, 
                1864, 
                2160, 
                150
            ], 
            "WBL": [
                1971
            ], 
            "AM2F": [
                1064
            ], 
            "M1_ADJ": [
                0
            ]
        }, 
        "location1": [
            53
        ], 
        "location2": [
            31
        ], 
        "sentence": "now here the stuff you should know starting with the good thing : the screen is really big and the blue light in the back is perfect , fast as hell in music transfer , control are easy to use after mastering the scroll button , great sound and ive heard many mp3 player , a ton of different equilizer type deal on here ."
    }
}