{
    "f2411c8e4e34052a33a2a92ad250283e": {
        "location1": [
            31
        ], 
        "location2": [
            5
        ], 
        "(31, 5)": {
            "WBF": [
                407
            ], 
            "BM1F": [
                112
            ], 
            "M1": [
                2718
            ], 
            "M2": [
                888
            ], 
            "BM1L": [
                3236
            ], 
            "WBO": [
                1566, 
                4, 
                1092, 
                1232, 
                2866, 
                629, 
                2864, 
                1566, 
                1562, 
                1490, 
                275, 
                1566, 
                4, 
                1935, 
                2325, 
                311, 
                2909, 
                2306, 
                1566, 
                393, 
                1987, 
                2160
            ], 
            "WBL": [
                150
            ], 
            "AM2F": [
                629
            ], 
            "M1_ADJ": [
                0
            ]
        }, 
        "sentence": "i gave the zen 5 star because it 's excellent for the class that it is in and it 's not really appropriate to rate it based on player in a different class ."
    }
}