{
    "21ebed2a97f528417ad5da338ef26ef7": {
        "location1": [
            53
        ], 
        "location2": [
            3
        ], 
        "(53, 3)": {
            "WBF": [
                3229
            ], 
            "AM2L": [
                2977
            ], 
            "BM1F": [
                2866
            ], 
            "M1": [
                2764
            ], 
            "M2": [
                888
            ], 
            "BM1L": [
                1401
            ], 
            "WBO": [
                2587, 
                1610, 
                2722, 
                3181, 
                2866, 
                1320, 
                2876, 
                2866, 
                2501, 
                1562, 
                2325, 
                440, 
                275, 
                2866, 
                457, 
                1665, 
                1490, 
                2866, 
                373, 
                1562, 
                2104, 
                1156, 
                325, 
                1398, 
                1490, 
                1875, 
                2939, 
                735, 
                316, 
                1005, 
                2909, 
                3041, 
                221, 
                1764, 
                2866, 
                2506, 
                523, 
                1333, 
                2676, 
                275, 
                1572, 
                1389, 
                1758, 
                1864, 
                2160, 
                150
            ], 
            "WBL": [
                1971
            ], 
            "AM2F": [
                1064
            ], 
            "M1_ADJ": [
                0
            ]
        }, 
        "sentence": "now here the stuff you should know starting with the good thing : the screen is really big and the blue light in the back is perfect , fast as hell in music transfer , control are easy to use after mastering the scroll button , great sound and ive heard many mp3 player , a ton of different equilizer type deal on here ."
    }
}