{
    "b2d4e633a50cce494eea7a203213e6b5": {
        "(12, 4)": {
            "WBF": [
                3220
            ], 
            "AM2L": [
                2160
            ], 
            "BM1F": [
                2866
            ], 
            "M1": [
                3236
            ], 
            "M2": [
                888
            ], 
            "BM1L": [
                1232
            ], 
            "WBO": [
                2692, 
                1232, 
                619, 
                1449
            ], 
            "WBL": [
                1758
            ], 
            "AM2F": [
                1864
            ], 
            "M1_ADJ": [
                0
            ]
        }, 
        "location1": [
            12
        ], 
        "location2": [
            4
        ], 
        "sentence": "before asking for the zen xtra specifically for christmas i researched many different mp3 player but finally decided on this one , and now that i have it i could n't be happier and i 'm convinced it 's the best one out there ."
    }, 
    "f2411c8e4e34052a33a2a92ad250283e": {
        "location1": [
            31
        ], 
        "location2": [
            3
        ], 
        "(31, 3)": {
            "WBF": [
                112
            ], 
            "BM1F": [
                2866
            ], 
            "M1": [
                3236
            ], 
            "M2": [
                888
            ], 
            "BM1L": [
                1287
            ], 
            "WBO": [
                2718, 
                407, 
                1566, 
                4, 
                1092, 
                1232, 
                2866, 
                629, 
                2864, 
                1566, 
                1562, 
                1490, 
                275, 
                1566, 
                4, 
                1935, 
                2325, 
                311, 
                2909, 
                2306, 
                1566, 
                393, 
                1987, 
                2160
            ], 
            "WBL": [
                150
            ], 
            "AM2F": [
                629
            ], 
            "M1_ADJ": [
                0
            ]
        }, 
        "sentence": "i gave the zen 5 star because it 's excellent for the class that it is in and it 's not really appropriate to rate it based on player in a different class ."
    }
}