{
    "b2d4e633a50cce494eea7a203213e6b5": {
        "(12, 14)": {
            "AM2L": [
                1184
            ], 
            "WBFL": [
                1864
            ], 
            "BM1F": [
                1758
            ], 
            "M1": [
                888
            ], 
            "M2": [
                2160
            ], 
            "BM1L": [
                2416
            ], 
            "AM2F": [
                522
            ], 
            "M1_ADJ": [
                1
            ]
        }, 
        "location1": [
            12
        ], 
        "location2": [
            14
        ], 
        "sentence": "before asking for the zen xtra specifically for christmas i researched many different mp3 player but finally decided on this one , and now that i have it i could n't be happier and i 'm convinced it 's the best one out there ."
    }, 
    "f2411c8e4e34052a33a2a92ad250283e": {
        "location1": [
            31
        ], 
        "location2": [
            28
        ], 
        "(31, 28)": {
            "WBF": [
                1490
            ], 
            "BM1F": [
                1987
            ], 
            "M1": [
                2160
            ], 
            "M2": [
                888
            ], 
            "BM1L": [
                393
            ], 
            "WBO": [
                150
            ], 
            "WBL": [
                150
            ], 
            "AM2F": [
                629
            ], 
            "M1_ADJ": [
                0
            ]
        }, 
        "sentence": "i gave the zen 5 star because it 's excellent for the class that it is in and it 's not really appropriate to rate it based on player in a different class ."
    }, 
    "21ebed2a97f528417ad5da338ef26ef7": {
        "location1": [
            53
        ], 
        "location2": [
            49
        ], 
        "(53, 49)": {
            "WBF": [
                150
            ], 
            "AM2L": [
                2977
            ], 
            "BM1F": [
                1864
            ], 
            "M1": [
                2160
            ], 
            "M2": [
                888
            ], 
            "BM1L": [
                1758
            ], 
            "WBO": [
                2916
            ], 
            "WBL": [
                1971
            ], 
            "AM2F": [
                1064
            ], 
            "M1_ADJ": [
                0
            ]
        }, 
        "sentence": "now here the stuff you should know starting with the good thing : the screen is really big and the blue light in the back is perfect , fast as hell in music transfer , control are easy to use after mastering the scroll button , great sound and ive heard many mp3 player , a ton of different equilizer type deal on here ."
    }
}