{
    "21ebed2a97f528417ad5da338ef26ef7": {
        "(53, 56)": {
            "WBF": [
                1064
            ], 
            "AM2L": [
                1401
            ], 
            "BM1F": [
                1971
            ], 
            "M1": [
                888
            ], 
            "M2": [
                824
            ], 
            "BM1L": [
                2916
            ], 
            "WBO": [
                2977
            ], 
            "WBL": [
                2977
            ], 
            "AM2F": [
                1987
            ], 
            "M1_ADJ": [
                1
            ]
        }, 
        "location1": [
            53
        ], 
        "location2": [
            56
        ], 
        "sentence": "now here the stuff you should know starting with the good thing : the screen is really big and the blue light in the back is perfect , fast as hell in music transfer , control are easy to use after mastering the scroll button , great sound and ive heard many mp3 player , a ton of different equilizer type deal on here ."
    }
}