{
    "76e1f9c946b4e5b0f0c7e5da55e53d60": {
        "(11, 16)": {
            "WBF": [
                2977
            ], 
            "AM2L": [
                2830
            ], 
            "BM1F": [
                1744
            ], 
            "M1": [
                888
            ], 
            "M2": [
                1681
            ], 
            "BM1L": [
                379
            ], 
            "WBO": [
                1971
            ], 
            "WBL": [
                1014
            ], 
            "AM2F": [
                2019
            ], 
            "M1_ADJ": [
                1
            ]
        }, 
        "location1": [
            11
        ], 
        "location2": [
            16
        ], 
        "sentence": "you can manage your profile , change the contrast of backlight , make different type of display , either list or tabbed ."
    }
}