{
    "ca72c2fb4eef254b80c4d2051a89c457": {
        "(3, 7)": {
            "WBF": [
                2281
            ], 
            "BM1F": [
                160
            ], 
            "M1": [
                896
            ], 
            "M2": [
                1176
            ], 
            "BM1L": [
                1062
            ], 
            "WBO": [
                1971
            ], 
            "WBL": [
                1864
            ], 
            "M1_ADJ": [
                1
            ]
        }, 
        "location1": [
            3
        ], 
        "location2": [
            7
        ], 
        "sentence": "* eax equalizer accentuates dimished quality of mp3 file ."
    }
}