{
    "2155dae2420356df58f64bd1e973732d": {
        "(16, 17)": {
            "AM2L": [
                1866
            ], 
            "BM1F": [
                3029
            ], 
            "M1": [
                937
            ], 
            "M2": [
                3191
            ], 
            "BM1L": [
                1662
            ], 
            "WBNULL": [
                1
            ], 
            "AM2F": [
                3181
            ], 
            "M1_ADJ": [
                1
            ]
        }, 
        "location1": [
            16
        ], 
        "location2": [
            17
        ], 
        "sentence": "d ) software is another great misfortune -- hard to operate , crash frequently , screwed my music library up , doesnt work with mp4s , the list goes on and on"
    }
}