{
    "c990b6b1103f5a85ae4afcfa4dd6d607": {
        "(2, 12)": {
            "WBF": [
                640
            ], 
            "AM2L": [
                1333
            ], 
            "BM1F": [
                562
            ], 
            "M1": [
                937
            ], 
            "M2": [
                1563
            ], 
            "BM1L": [
                1878
            ], 
            "WBO": [
                1770, 
                1815, 
                3117, 
                1591, 
                1160, 
                522
            ], 
            "WBL": [
                562
            ], 
            "AM2F": [
                2864
            ], 
            "M1_ADJ": [
                1
            ]
        }, 
        "location1": [
            2
        ], 
        "location2": [
            12
        ], 
        "sentence": "my case doesnt close ... maybe mine was just faulty , but the case isnt that great ."
    }
}