{
    "2155dae2420356df58f64bd1e973732d": {
        "(16, 1)": {
            "WBF": [
                1562
            ], 
            "AM2L": [
                3181
            ], 
            "BM1F": [
                809
            ], 
            "M1": [
                2653
            ], 
            "M2": [
                937
            ], 
            "WBO": [
                282, 
                1333, 
                1825, 
                1363, 
                2909, 
                2006, 
                776, 
                1256, 
                2505, 
                1878, 
                1875
            ], 
            "WBL": [
                3029
            ], 
            "AM2F": [
                3191
            ], 
            "M1_ADJ": [
                0
            ]
        }, 
        "location1": [
            16
        ], 
        "location2": [
            1
        ], 
        "sentence": "d ) software is another great misfortune -- hard to operate , crash frequently , screwed my music library up , doesnt work with mp4s , the list goes on and on"
    }
}