{
    "53a91a3802fc40bbba3c21c7e9355215": {
        "location1": [
            2
        ], 
        "location2": [
            20
        ], 
        "(2, 20)": {
            "WBF": [
                1710
            ], 
            "BM1F": [
                1566
            ], 
            "M1": [
                937
            ], 
            "M2": [
                765
            ], 
            "BM1L": [
                1126
            ], 
            "WBO": [
                2220, 
                2699, 
                2882, 
                1604, 
                1971, 
                563, 
                3229, 
                3108, 
                2661, 
                2864, 
                1371, 
                2866, 
                335, 
                444
            ], 
            "WBL": [
                1971
            ], 
            "M1_ADJ": [
                1
            ]
        }, 
        "sentence": "f ) it doesnt look pretty -- spending this kind of cash , you want something that has the asthetics bit down , of course"
    }
}