{
    "241e92f11d46769e40d74aa4b77795f6": {
        "location1": [
            14
        ], 
        "location2": [
            2
        ], 
        "(14, 2)": {
            "WBF": [
                2653
            ], 
            "AM2L": [
                3041
            ], 
            "BM1F": [
                1903
            ], 
            "M1": [
                2027
            ], 
            "M2": [
                1002
            ], 
            "BM1L": [
                2866
            ], 
            "WBO": [
                2864, 
                2573, 
                3181, 
                2866, 
                1922, 
                3236, 
                3220, 
                758
            ], 
            "WBL": [
                402
            ], 
            "AM2F": [
                2909
            ], 
            "M1_ADJ": [
                0
            ]
        }, 
        "sentence": "the new organizer software that ship with the nomad zen xtra could n't be easier to use ."
    }
}