{
    "26afbb728550c0df1149e771bc94d54b": {
        "(20, 16)": {
            "WBF": [
                1562
            ], 
            "AM2L": [
                2317
            ], 
            "BM1F": [
                744
            ], 
            "M1": [
                2501
            ], 
            "M2": [
                1005
            ], 
            "BM1L": [
                1710
            ], 
            "WBO": [
                490
            ], 
            "WBL": [
                275
            ], 
            "AM2F": [
                2909
            ], 
            "M1_ADJ": [
                0
            ]
        }, 
        "location1": [
            20
        ], 
        "location2": [
            16
        ], 
        "sentence": "the sound quality is excellent ( and i 'm fussy with that stuff ) , the unit look cool , screen is bright and easy to read , and the replaceable battery mean a major advantage over the ipod ( besides the price , but everyone know that ) ."
    }, 
    "814a355a03cfe25a41d31293be549801": {
        "(5, 3)": {
            "AM2L": [
                2317
            ], 
            "WBFL": [
                1562
            ], 
            "BM1F": [
                2420
            ], 
            "M1": [
                2501
            ], 
            "M2": [
                1005
            ], 
            "BM1L": [
                1407
            ], 
            "AM2F": [
                2909
            ], 
            "M1_ADJ": [
                0
            ]
        }, 
        "location1": [
            5
        ], 
        "location2": [
            3
        ], 
        "sentence": "the high resolution screen is easy to read and has a backlight ."
    }, 
    "86231998768f09496e0db50c3fc87fcb": {
        "(3, 0)": {
            "WBF": [
                3117
            ], 
            "AM2L": [
                2317
            ], 
            "M1": [
                2501
            ], 
            "M2": [
                1005
            ], 
            "WBO": [
                1320
            ], 
            "WBL": [
                1320
            ], 
            "AM2F": [
                2909
            ], 
            "M1_ADJ": [
                0
            ]
        }, 
        "location1": [
            3
        ], 
        "location2": [
            0
        ], 
        "sentence": "+ screen was good , easy to read"
    }, 
    "c8a04e62ab057c0a7bce58982ce6cae8": {
        "(4, 1)": {
            "WBF": [
                1562
            ], 
            "AM2L": [
                2317
            ], 
            "BM1F": [
                2866
            ], 
            "M1": [
                2501
            ], 
            "M2": [
                1005
            ], 
            "WBO": [
                3075
            ], 
            "WBL": [
                3075
            ], 
            "AM2F": [
                2909
            ], 
            "M1_ADJ": [
                0
            ]
        }, 
        "location1": [
            4
        ], 
        "location2": [
            1
        ], 
        "sentence": "the screen is very easy to read and the blue light is bright enough to read at night , but dim enough so it does n't blind you when you stare too long ."
    }, 
    "7491b52ccd6cdf7fb6cb7dd33913b3c3": {
        "(1, 3)": {
            "WBFL": [
                2318
            ], 
            "BM1F": [
                1623
            ], 
            "M1": [
                1005
            ], 
            "M1_ADJ": [
                1
            ], 
            "M2": [
                2501
            ]
        }, 
        "location1": [
            1
        ], 
        "location2": [
            3
        ], 
        "sentence": "- large easy readable screen"
    }, 
    "21ebed2a97f528417ad5da338ef26ef7": {
        "location1": [
            34
        ], 
        "location2": [
            13
        ], 
        "(34, 13)": {
            "WBF": [
                1562
            ], 
            "AM2L": [
                3041
            ], 
            "BM1F": [
                2866
            ], 
            "M1": [
                2501
            ], 
            "M2": [
                1005
            ], 
            "BM1L": [
                2876
            ], 
            "WBO": [
                2325, 
                440, 
                275, 
                2866, 
                457, 
                1665, 
                1490, 
                2866, 
                373, 
                1562, 
                2104, 
                1156, 
                325, 
                1398, 
                1490, 
                1875, 
                2939
            ], 
            "WBL": [
                316
            ], 
            "AM2F": [
                2909
            ], 
            "M1_ADJ": [
                0
            ]
        }, 
        "sentence": "now here the stuff you should know starting with the good thing : the screen is really big and the blue light in the back is perfect , fast as hell in music transfer , control are easy to use after mastering the scroll button , great sound and ive heard many mp3 player , a ton of different equilizer type deal on here ."
    }, 
    "fcc6060d8953928ffecfa28e3e7a7871": {
        "(6, 1)": {
            "WBF": [
                1562
            ], 
            "AM2L": [
                2317
            ], 
            "BM1F": [
                2866
            ], 
            "M1": [
                2501
            ], 
            "M2": [
                1005
            ], 
            "WBO": [
                1623
            ], 
            "WBL": [
                275
            ], 
            "AM2F": [
                2909
            ], 
            "M1_ADJ": [
                0
            ]
        }, 
        "location1": [
            6
        ], 
        "location2": [
            1
        ], 
        "sentence": "the screen is large , defined , and easy to read , and the silver unit is naturally cool ."
    }
}