{
    "8df2f7ba58c455f15ea3d272c2556f50": {
        "(19, 16)": {
            "WBF": [
                3071
            ], 
            "BM1F": [
                275
            ], 
            "M1": [
                3079
            ], 
            "M2": [
                1005
            ], 
            "BM1L": [
                694
            ], 
            "WBO": [
                3117
            ], 
            "WBL": [
                3117
            ], 
            "AM2F": [
                2919
            ], 
            "M1_ADJ": [
                0
            ]
        }, 
        "(2, 16)": {
            "WBF": [
                275
            ], 
            "AM2L": [
                3117
            ], 
            "BM1F": [
                1562
            ], 
            "M1": [
                1005
            ], 
            "M2": [
                3079
            ], 
            "BM1L": [
                1887
            ], 
            "WBO": [
                1449, 
                1245, 
                2864, 
                2822, 
                1176, 
                1261, 
                2866, 
                2160, 
                2909, 
                2866
            ], 
            "WBL": [
                275
            ], 
            "AM2F": [
                3071
            ], 
            "M1_ADJ": [
                1
            ]
        }, 
        "location1": [
            2, 
            19
        ], 
        "location2": [
            16
        ], 
        "sentence": "navigation is easy and i found that syncing file from the player to the computer ( and vice versa ) was easy too ."
    }
}