{
    "da922c938e7f865a42ddedacb2b59143": {
        "(11, 5)": {
            "WBF": [
                1987
            ], 
            "AM2L": [
                3041
            ], 
            "BM1F": [
                2866
            ], 
            "M1": [
                1544
            ], 
            "M2": [
                1005
            ], 
            "BM1L": [
                2864
            ], 
            "WBO": [
                2866, 
                1922
            ], 
            "WBL": [
                3075
            ], 
            "AM2F": [
                2909
            ], 
            "M1_ADJ": [
                0
            ]
        }, 
        "location1": [
            11
        ], 
        "location2": [
            5
        ], 
        "sentence": "i have found that the interface on the nomad is very easy to use if you have a basic knowledge of a computer ."
    }, 
    "eb88968921d7cb163079768a48fd733a": {
        "(6, 2)": {
            "WBF": [
                2794
            ], 
            "AM2L": [
                3041
            ], 
            "BM1F": [
                2653
            ], 
            "M1": [
                1544
            ], 
            "M2": [
                1005
            ], 
            "BM1L": [
                2866
            ], 
            "WBO": [
                3117
            ], 
            "WBL": [
                3075
            ], 
            "AM2F": [
                2909
            ], 
            "M1_ADJ": [
                0
            ]
        }, 
        "location1": [
            6
        ], 
        "location2": [
            2
        ], 
        "sentence": "the software interface supplied was very easy to use but i went ahead and got red chair 's `` notmad `` software because of some advanced feature i wanted ."
    }, 
    "4d8ad44b1b14c1b2e414992de2d17bbd": {
        "(4, 11)": {
            "WBF": [
                2909
            ], 
            "AM2L": [
                2866
            ], 
            "BM1F": [
                2220
            ], 
            "M1": [
                1005
            ], 
            "M2": [
                1544
            ], 
            "BM1L": [
                1566
            ], 
            "WBO": [
                3041, 
                275, 
                3015
            ], 
            "WBL": [
                2387
            ], 
            "AM2F": [
                1232
            ], 
            "M1_ADJ": [
                1
            ]
        }, 
        "location1": [
            4
        ], 
        "location2": [
            11
        ], 
        "sentence": "i find it pretty easy to use ... and unlike the remote interface for the audigy 2 nx ( on the pc ) .. ."
    }, 
    "dd00a38d580f6f271c19d5bf9766fffb": {
        "(12, 4)": {
            "WBF": [
                2982
            ], 
            "AM2L": [
                1971
            ], 
            "BM1F": [
                3046
            ], 
            "M1": [
                1544
            ], 
            "M2": [
                1005
            ], 
            "BM1L": [
                2160
            ], 
            "WBO": [
                1562, 
                1554, 
                2909, 
                3041
            ], 
            "WBL": [
                247
            ], 
            "AM2F": [
                1887
            ], 
            "M1_ADJ": [
                0
            ]
        }, 
        "location1": [
            12
        ], 
        "location2": [
            4
        ], 
        "sentence": "2 ) the player user interface ( ui ) is intuitive to use , and allows easy navigation of a large or small collection ."
    }, 
    "41fb201e96b0a4471c1d5968f0e2bbed": {
        "(8, 3)": {
            "WBF": [
                1570
            ], 
            "AM2L": [
                3041
            ], 
            "BM1F": [
                4
            ], 
            "M1": [
                1544
            ], 
            "M2": [
                1005
            ], 
            "BM1L": [
                2160
            ], 
            "WBO": [
                1562
            ], 
            "WBL": [
                3075
            ], 
            "AM2F": [
                2909
            ], 
            "M1_ADJ": [
                0
            ]
        }, 
        "location1": [
            8
        ], 
        "location2": [
            3
        ], 
        "sentence": "they player 's interface itself is also very easy to use ."
    }, 
    "78c51d9eb31454b8f9dba754a0353b4b": {
        "(41, 51)": {
            "WBF": [
                2909
            ], 
            "BM1F": [
                325
            ], 
            "M1": [
                1005
            ], 
            "M2": [
                1544
            ], 
            "BM1L": [
                1591
            ], 
            "WBO": [
                3041, 
                3181, 
                2368, 
                2909, 
                475, 
                1368
            ], 
            "WBL": [
                2653
            ], 
            "M1_ADJ": [
                1
            ]
        }, 
        "location1": [
            41
        ], 
        "location2": [
            51
        ], 
        "sentence": "try before you buy if at all possible : although i am a mac addict now for over a decade and everyone i know has previously bought an ipod , the nomad zen xtra was a far better value and is just as easy to use with regard to both hardware and software interface ."
    }, 
    "a5f896d9ee945727e18197eca9a18380": {
        "(6, 3)": {
            "WBF": [
                316
            ], 
            "AM2L": [
                3041
            ], 
            "BM1F": [
                275
            ], 
            "M1": [
                1544
            ], 
            "M2": [
                1005
            ], 
            "BM1L": [
                523
            ], 
            "WBO": [
                3075
            ], 
            "WBL": [
                3075
            ], 
            "AM2F": [
                2909
            ], 
            "M1_ADJ": [
                0
            ]
        }, 
        "location1": [
            6
        ], 
        "location2": [
            3
        ], 
        "sentence": "the button and interface are very easy to use ."
    }
}