{
    "26afbb728550c0df1149e771bc94d54b": {
        "location1": [
            20
        ], 
        "location2": [
            33
        ], 
        "(20, 33)": {
            "WBF": [
                2909
            ], 
            "AM2L": [
                2866
            ], 
            "BM1F": [
                275
            ], 
            "M1": [
                1005
            ], 
            "M2": [
                1558
            ], 
            "BM1L": [
                490
            ], 
            "WBO": [
                2317, 
                275, 
                2866, 
                2402, 
                400, 
                1774, 
                150, 
                1743, 
                211
            ], 
            "WBL": [
                2866
            ], 
            "AM2F": [
                433
            ], 
            "M1_ADJ": [
                1
            ]
        }, 
        "sentence": "the sound quality is excellent ( and i 'm fussy with that stuff ) , the unit look cool , screen is bright and easy to read , and the replaceable battery mean a major advantage over the ipod ( besides the price , but everyone know that ) ."
    }, 
    "78c51d9eb31454b8f9dba754a0353b4b": {
        "location1": [
            41
        ], 
        "location2": [
            27
        ], 
        "(41, 27)": {
            "WBF": [
                2866
            ], 
            "AM2L": [
                3041
            ], 
            "BM1F": [
                273
            ], 
            "M1": [
                1558
            ], 
            "M2": [
                1005
            ], 
            "BM1L": [
                479
            ], 
            "WBO": [
                1922, 
                3236, 
                3220, 
                3117, 
                150, 
                1154, 
                436, 
                3058, 
                275, 
                1562
            ], 
            "WBL": [
                325
            ], 
            "AM2F": [
                2909
            ], 
            "M1_ADJ": [
                0
            ]
        }, 
        "sentence": "try before you buy if at all possible : although i am a mac addict now for over a decade and everyone i know has previously bought an ipod , the nomad zen xtra was a far better value and is just as easy to use with regard to both hardware and software interface ."
    }, 
    "c12383bb97c5145343b5078c02d465f5": {
        "(17, 20)": {
            "WBF": [
                325
            ], 
            "AM2L": [
                2019
            ], 
            "BM1F": [
                325
            ], 
            "M1": [
                1005
            ], 
            "M2": [
                1558
            ], 
            "BM1L": [
                1881
            ], 
            "WBO": [
                2866
            ], 
            "WBL": [
                2866
            ], 
            "AM2F": [
                4
            ], 
            "M1_ADJ": [
                1
            ]
        }, 
        "location1": [
            17
        ], 
        "location2": [
            20
        ], 
        "sentence": "the only thing i would complain about the zen xtra is that the control are n't as easy as the ipod 's , or as `` sexy `` looking ."
    }, 
    "00b26e308a4b8730247f6846646d008a": {
        "(10, 40)": {
            "WBF": [
                2909
            ], 
            "AM2L": [
                1020
            ], 
            "BM1F": [
                1917
            ], 
            "M1": [
                1005
            ], 
            "M2": [
                1558
            ], 
            "BM1L": [
                1371
            ], 
            "WBO": [
                3041, 
                1987, 
                2866, 
                1219, 
                2162, 
                783, 
                2782, 
                325, 
                2866, 
                1903, 
                1558, 
                1935, 
                2909, 
                1793, 
                1566, 
                936, 
                1881, 
                2608, 
                3181, 
                725, 
                1681, 
                2118, 
                1949, 
                200, 
                468, 
                1009
            ], 
            "WBL": [
                2866
            ], 
            "AM2F": [
                3152
            ], 
            "M1_ADJ": [
                1
            ]
        }, 
        "(10, 22)": {
            "WBF": [
                2909
            ], 
            "AM2L": [
                2909
            ], 
            "BM1F": [
                1917
            ], 
            "M1": [
                1005
            ], 
            "M2": [
                1558
            ], 
            "BM1L": [
                1371
            ], 
            "WBO": [
                3041, 
                1987, 
                2866, 
                1219, 
                2162, 
                783, 
                2782, 
                325
            ], 
            "WBL": [
                1903
            ], 
            "AM2F": [
                1935
            ], 
            "M1_ADJ": [
                1
            ]
        }, 
        "location1": [
            10
        ], 
        "location2": [
            22, 
            40
        ], 
        "sentence": "its far more difficult to select song and has no easy to use on the fly playlist creation such as the new ipod not to mention it does n't sinc with contact list , phone number , address book , ect . like the ipod ( which eliminated my need for any kind of palm device ) ."
    }
}