{
    "c7593f31f905682ecd393eb33a006c37": {
        "(13, 1)": {
            "WBF": [
                3049
            ], 
            "AM2L": [
                1449
            ], 
            "BM1F": [
                782
            ], 
            "M1": [
                2162
            ], 
            "M2": [
                1005
            ], 
            "WBO": [
                2866, 
                1496, 
                2653, 
                2909, 
                1817, 
                1565, 
                74, 
                3117
            ], 
            "WBL": [
                325
            ], 
            "AM2F": [
                325
            ], 
            "M1_ADJ": [
                0
            ]
        }, 
        "location1": [
            13
        ], 
        "location2": [
            1
        ], 
        "sentence": "creating playlist using the included software to minimize issue 3 was n't as easy as i would have liked ."
    }, 
    "05b005a587509a9b418bc7b414f03e1b": {
        "(7, 13)": {
            "WBF": [
                2909
            ], 
            "AM2L": [
                2866
            ], 
            "BM1F": [
                2225
            ], 
            "M1": [
                1005
            ], 
            "M2": [
                2162
            ], 
            "BM1L": [
                2866
            ], 
            "WBO": [
                1885, 
                543
            ], 
            "WBL": [
                1099
            ], 
            "AM2F": [
                1987
            ], 
            "M1_ADJ": [
                1
            ]
        }, 
        "location1": [
            7
        ], 
        "location2": [
            13
        ], 
        "sentence": "pro : huge storage capacity for the price , easy to navigate , can modify existing playlist on the fly , has a removable battery"
    }, 
    "00b26e308a4b8730247f6846646d008a": {
        "location1": [
            10
        ], 
        "location2": [
            16
        ], 
        "(10, 16)": {
            "WBF": [
                2909
            ], 
            "AM2L": [
                2782
            ], 
            "BM1F": [
                1917
            ], 
            "M1": [
                1005
            ], 
            "M2": [
                2162
            ], 
            "BM1L": [
                1371
            ], 
            "WBO": [
                3041, 
                1987
            ], 
            "WBL": [
                1219
            ], 
            "AM2F": [
                783
            ], 
            "M1_ADJ": [
                1
            ]
        }, 
        "sentence": "its far more difficult to select song and has no easy to use on the fly playlist creation such as the new ipod not to mention it does n't sinc with contact list , phone number , address book , ect . like the ipod ( which eliminated my need for any kind of palm device ) ."
    }
}