{
    "26afbb728550c0df1149e771bc94d54b": {
        "location1": [
            20
        ], 
        "location2": [
            26
        ], 
        "(20, 26)": {
            "WBF": [
                2909
            ], 
            "AM2L": [
                150
            ], 
            "BM1F": [
                275
            ], 
            "M1": [
                1005
            ], 
            "M2": [
                400
            ], 
            "BM1L": [
                490
            ], 
            "WBO": [
                2317, 
                275
            ], 
            "WBL": [
                2402
            ], 
            "AM2F": [
                1774
            ], 
            "M1_ADJ": [
                1
            ]
        }, 
        "sentence": "the sound quality is excellent ( and i 'm fussy with that stuff ) , the unit look cool , screen is bright and easy to read , and the replaceable battery mean a major advantage over the ipod ( besides the price , but everyone know that ) ."
    }, 
    "05b005a587509a9b418bc7b414f03e1b": {
        "location1": [
            7
        ], 
        "location2": [
            20
        ], 
        "(7, 20)": {
            "WBF": [
                2909
            ], 
            "BM1F": [
                2225
            ], 
            "M1": [
                1005
            ], 
            "M2": [
                400
            ], 
            "BM1L": [
                2866
            ], 
            "WBO": [
                1885, 
                543, 
                1840, 
                1099, 
                2162, 
                1987, 
                2866, 
                1219, 
                1371
            ], 
            "WBL": [
                2389
            ], 
            "M1_ADJ": [
                1
            ]
        }, 
        "sentence": "pro : huge storage capacity for the price , easy to navigate , can modify existing playlist on the fly , has a removable battery"
    }, 
    "700f48300fa8def127637b87e04b7e68": {
        "(2, 16)": {
            "WBF": [
                1050
            ], 
            "AM2L": [
                402
            ], 
            "BM1F": [
                3117
            ], 
            "M1": [
                1005
            ], 
            "M2": [
                400
            ], 
            "BM1L": [
                1566
            ], 
            "WBO": [
                2909, 
                2390, 
                2866, 
                1262, 
                2156, 
                275, 
                2873, 
                3117, 
                1999, 
                1994
            ], 
            "WBL": [
                2866
            ], 
            "AM2F": [
                758
            ], 
            "M1_ADJ": [
                1
            ]
        }, 
        "location1": [
            2
        ], 
        "location2": [
            16
        ], 
        "sentence": "it was easy enough to remove the front plate , and there was only one way the battery could be inserted ."
    }, 
    "23437ff0a6808a5975343315b39f966d": {
        "location1": [
            3
        ], 
        "location2": [
            6
        ], 
        "(3, 6)": {
            "WBF": [
                2909
            ], 
            "AM2L": [
                2866
            ], 
            "BM1F": [
                2866
            ], 
            "M1": [
                1005
            ], 
            "M2": [
                400
            ], 
            "BM1L": [
                316
            ], 
            "WBO": [
                2390
            ], 
            "WBL": [
                2390
            ], 
            "AM2F": [
                275
            ], 
            "M1_ADJ": [
                1
            ]
        }, 
        "sentence": "plus are the easy to remove battery and the terrific sound produced by the nomad ."
    }
}