{
    "8bfc9a0d448d241bdb06f31c4c4b1541": {
        "(3, 1)": {
            "AM2L": [
                3041
            ], 
            "WBFL": [
                1562
            ], 
            "BM1F": [
                2866
            ], 
            "M1": [
                3010
            ], 
            "M2": [
                1005
            ], 
            "AM2F": [
                2909
            ], 
            "M1_ADJ": [
                0
            ]
        }, 
        "location1": [
            3
        ], 
        "location2": [
            1
        ], 
        "sentence": "- the unit is easy to use and intuitive ."
    }, 
    "fcc6060d8953928ffecfa28e3e7a7871": {
        "location1": [
            6
        ], 
        "location2": [
            12
        ], 
        "(6, 12)": {
            "WBF": [
                2909
            ], 
            "AM2L": [
                1884
            ], 
            "BM1F": [
                275
            ], 
            "M1": [
                1005
            ], 
            "M2": [
                3010
            ], 
            "BM1L": [
                841
            ], 
            "WBO": [
                2317, 
                275
            ], 
            "WBL": [
                2602
            ], 
            "AM2F": [
                1562
            ], 
            "M1_ADJ": [
                1
            ]
        }, 
        "sentence": "the screen is large , defined , and easy to read , and the silver unit is naturally cool ."
    }, 
    "26afbb728550c0df1149e771bc94d54b": {
        "(20, 13)": {
            "WBF": [
                1710
            ], 
            "AM2L": [
                2317
            ], 
            "BM1F": [
                2866
            ], 
            "M1": [
                3010
            ], 
            "M2": [
                1005
            ], 
            "BM1L": [
                2764
            ], 
            "WBO": [
                744, 
                2501, 
                1562
            ], 
            "WBL": [
                275
            ], 
            "AM2F": [
                2909
            ], 
            "M1_ADJ": [
                0
            ]
        }, 
        "location1": [
            20
        ], 
        "location2": [
            13
        ], 
        "sentence": "the sound quality is excellent ( and i 'm fussy with that stuff ) , the unit look cool , screen is bright and easy to read , and the replaceable battery mean a major advantage over the ipod ( besides the price , but everyone know that ) ."
    }
}