{
    "21ebed2a97f528417ad5da338ef26ef7": {
        "(34, 32)": {
            "AM2L": [
                3041
            ], 
            "WBFL": [
                316
            ], 
            "BM1F": [
                2939
            ], 
            "M1": [
                735
            ], 
            "M2": [
                1005
            ], 
            "BM1L": [
                1875
            ], 
            "AM2F": [
                2909
            ], 
            "M1_ADJ": [
                0
            ]
        }, 
        "location1": [
            34
        ], 
        "location2": [
            32
        ], 
        "sentence": "now here the stuff you should know starting with the good thing : the screen is really big and the blue light in the back is perfect , fast as hell in music transfer , control are easy to use after mastering the scroll button , great sound and ive heard many mp3 player , a ton of different equilizer type deal on here ."
    }, 
    "2bf6cfc96b5bc5542cd4ad34261974e3": {
        "(6, 2)": {
            "WBF": [
                316
            ], 
            "AM2L": [
                3041
            ], 
            "BM1F": [
                2032
            ], 
            "M1": [
                735
            ], 
            "M2": [
                1005
            ], 
            "BM1L": [
                2866
            ], 
            "WBO": [
                242
            ], 
            "WBL": [
                3075
            ], 
            "AM2F": [
                2909
            ], 
            "M1_ADJ": [
                0
            ]
        }, 
        "location1": [
            6
        ], 
        "location2": [
            2
        ], 
        "sentence": "the other control are all very easy to use ."
    }, 
    "c12383bb97c5145343b5078c02d465f5": {
        "(17, 13)": {
            "WBF": [
                316
            ], 
            "AM2L": [
                2866
            ], 
            "BM1F": [
                2866
            ], 
            "M1": [
                735
            ], 
            "M2": [
                1005
            ], 
            "BM1L": [
                2864
            ], 
            "WBO": [
                1881
            ], 
            "WBL": [
                325
            ], 
            "AM2F": [
                325
            ], 
            "M1_ADJ": [
                0
            ]
        }, 
        "location1": [
            17
        ], 
        "location2": [
            13
        ], 
        "sentence": "the only thing i would complain about the zen xtra is that the control are n't as easy as the ipod 's , or as `` sexy `` looking ."
    }
}