{
    "26afbb728550c0df1149e771bc94d54b": {
        "(20, 2)": {
            "WBF": [
                1562
            ], 
            "AM2L": [
                2317
            ], 
            "BM1F": [
                2676
            ], 
            "M1": [
                2281
            ], 
            "M2": [
                1005
            ], 
            "BM1L": [
                2866
            ], 
            "WBO": [
                1092, 
                275, 
                1449, 
                2, 
                1277, 
                3181, 
                2864, 
                2764, 
                2866, 
                3010, 
                1710, 
                744, 
                2501, 
                1562
            ], 
            "WBL": [
                275
            ], 
            "AM2F": [
                2909
            ], 
            "M1_ADJ": [
                0
            ]
        }, 
        "location1": [
            20
        ], 
        "location2": [
            2
        ], 
        "sentence": "the sound quality is excellent ( and i 'm fussy with that stuff ) , the unit look cool , screen is bright and easy to read , and the replaceable battery mean a major advantage over the ipod ( besides the price , but everyone know that ) ."
    }
}