{
    "8df2f7ba58c455f15ea3d272c2556f50": {
        "(19, 0)": {
            "WBF": [
                1562
            ], 
            "M1": [
                1887
            ], 
            "M2": [
                1005
            ], 
            "WBO": [
                1005, 
                275, 
                1449, 
                1245, 
                2864, 
                2822, 
                1176, 
                1261, 
                2866, 
                2160, 
                2909, 
                2866, 
                694, 
                275, 
                3079
            ], 
            "WBL": [
                3117
            ], 
            "AM2F": [
                2919
            ], 
            "M1_ADJ": [
                0
            ]
        }, 
        "(2, 0)": {
            "AM2L": [
                1449
            ], 
            "WBFL": [
                1562
            ], 
            "M1": [
                1887
            ], 
            "M2": [
                1005
            ], 
            "AM2F": [
                275
            ], 
            "M1_ADJ": [
                0
            ]
        }, 
        "location1": [
            2, 
            19
        ], 
        "location2": [
            0
        ], 
        "sentence": "navigation is easy and i found that syncing file from the player to the computer ( and vice versa ) was easy too ."
    }, 
    "dd00a38d580f6f271c19d5bf9766fffb": {
        "(12, 13)": {
            "AM2L": [
                150
            ], 
            "BM1F": [
                247
            ], 
            "M1": [
                1005
            ], 
            "M2": [
                1887
            ], 
            "BM1L": [
                275
            ], 
            "WBNULL": [
                1
            ], 
            "AM2F": [
                1971
            ], 
            "M1_ADJ": [
                1
            ]
        }, 
        "location1": [
            12
        ], 
        "location2": [
            13
        ], 
        "sentence": "2 ) the player user interface ( ui ) is intuitive to use , and allows easy navigation of a large or small collection ."
    }
}