{
    "21ebed2a97f528417ad5da338ef26ef7": {
        "(34, 55)": {
            "WBF": [
                2909
            ], 
            "AM2L": [
                1987
            ], 
            "BM1F": [
                316
            ], 
            "M1": [
                1005
            ], 
            "M2": [
                2977
            ], 
            "BM1L": [
                735
            ], 
            "WBO": [
                3041, 
                221, 
                1764, 
                2866, 
                2506, 
                523, 
                1333, 
                2676, 
                275, 
                1572, 
                1389, 
                1758, 
                1864, 
                2160, 
                150, 
                2916, 
                1971
            ], 
            "WBL": [
                1064
            ], 
            "AM2F": [
                824
            ], 
            "M1_ADJ": [
                1
            ]
        }, 
        "location1": [
            34
        ], 
        "location2": [
            55
        ], 
        "sentence": "now here the stuff you should know starting with the good thing : the screen is really big and the blue light in the back is perfect , fast as hell in music transfer , control are easy to use after mastering the scroll button , great sound and ive heard many mp3 player , a ton of different equilizer type deal on here ."
    }
}