{
    "8d1f6697eefabe40a2bed7c33818a32d": {
        "(4, 10)": {
            "WBF": [
                574
            ], 
            "AM2L": [
                2666
            ], 
            "BM1F": [
                1878
            ], 
            "M1": [
                1056
            ], 
            "M2": [
                877
            ], 
            "BM1L": [
                2747
            ], 
            "WBO": [
                654, 
                1490
            ], 
            "WBL": [
                2637
            ], 
            "AM2F": [
                119
            ], 
            "M1_ADJ": [
                1
            ]
        }, 
        "location1": [
            4
        ], 
        "location2": [
            10
        ], 
        "sentence": "12 ) big storage - my entire cd collection in one small device ( 5717 song , 491 album and counting ) !"
    }, 
    "3e72e9cc6e251da6798a2e9e66feb5b3": {
        "(7, 14)": {
            "WBF": [
                574
            ], 
            "AM2L": [
                1719
            ], 
            "BM1F": [
                1878
            ], 
            "M1": [
                1056
            ], 
            "M2": [
                877
            ], 
            "BM1L": [
                1953
            ], 
            "WBO": [
                654, 
                1562, 
                1987
            ], 
            "WBL": [
                2187
            ], 
            "AM2F": [
                3181
            ], 
            "M1_ADJ": [
                1
            ]
        }, 
        "location1": [
            7
        ], 
        "location2": [
            14
        ], 
        "sentence": "1 . i achieved my basic objective ; my entire cd collection is on a portable device with lot of room to store more ."
    }
}