{
    "f2411c8e4e34052a33a2a92ad250283e": {
        "(9, 5)": {
            "WBF": [
                407
            ], 
            "AM2L": [
                2866
            ], 
            "BM1F": [
                112
            ], 
            "M1": [
                2718
            ], 
            "M2": [
                1092
            ], 
            "BM1L": [
                3236
            ], 
            "WBO": [
                1566
            ], 
            "WBL": [
                4
            ], 
            "AM2F": [
                1232
            ], 
            "M1_ADJ": [
                0
            ]
        }, 
        "location1": [
            9
        ], 
        "location2": [
            5
        ], 
        "sentence": "i gave the zen 5 star because it 's excellent for the class that it is in and it 's not really appropriate to rate it based on player in a different class ."
    }
}