{
    "ef25a24c12ae7b697445f8d181fbe847": {
        "(27, 42)": {
            "WBF": [
                2676
            ], 
            "AM2L": [
                1371
            ], 
            "BM1F": [
                275
            ], 
            "M1": [
                1092
            ], 
            "M2": [
                3222
            ], 
            "BM1L": [
                2832
            ], 
            "WBO": [
                3165, 
                1612, 
                2909, 
                402, 
                436, 
                2862, 
                1558, 
                1935, 
                2807, 
                717, 
                2866
            ], 
            "WBL": [
                1971
            ], 
            "AM2F": [
                784
            ], 
            "M1_ADJ": [
                1
            ]
        }, 
        "location1": [
            27
        ], 
        "location2": [
            42
        ], 
        "sentence": "like it 's predecessor , the quickly revised nx , this player boast a decent size and weight , a relatively-intuitive navigational system that categorizes based on id3 tag , and excellent sound ( widely known to be better than ipod - not surprising considering the number of year creative has been in the audio peripheral business ) ."
    }
}