{
    "00678fc65cf74c7bbfb5bf91f2796a34": {
        "(17, 29)": {
            "WBF": [
                275
            ], 
            "BM1F": [
                1562
            ], 
            "M1": [
                1092
            ], 
            "M2": [
                1092
            ], 
            "BM1L": [
                2400
            ], 
            "WBO": [
                1184, 
                2866, 
                2225, 
                53, 
                602, 
                2862, 
                2866, 
                103
            ], 
            "WBL": [
                1562
            ], 
            "M1_ADJ": [
                1
            ]
        }, 
        "(29, 8)": {
            "WBF": [
                2866
            ], 
            "BM1F": [
                1562
            ], 
            "M1": [
                1092
            ], 
            "M2": [
                1092
            ], 
            "BM1L": [
                1664
            ], 
            "WBO": [
                1132, 
                2864, 
                2866, 
                400, 
                1562, 
                2400, 
                1562, 
                1092, 
                275, 
                1184, 
                2866, 
                2225, 
                53, 
                602, 
                2862, 
                2866, 
                103
            ], 
            "WBL": [
                1562
            ], 
            "M1_ADJ": [
                0
            ]
        }, 
        "sentence": "the sound is excellent , the battery life is excellent , the fact that the battery is replacable is excellent , and finally the price , $ 200 cheaper than the 40gb ipod , is excellent .", 
        "(3, 8)": {
            "WBF": [
                2866
            ], 
            "AM2L": [
                1132
            ], 
            "BM1F": [
                1562
            ], 
            "M1": [
                1092
            ], 
            "M2": [
                1092
            ], 
            "BM1L": [
                2676
            ], 
            "WBO": [
                400
            ], 
            "WBL": [
                1562
            ], 
            "AM2F": [
                2866
            ], 
            "M1_ADJ": [
                1
            ]
        }, 
        "(3, 29)": {
            "WBF": [
                2866
            ], 
            "BM1F": [
                1562
            ], 
            "M1": [
                1092
            ], 
            "M2": [
                1092
            ], 
            "BM1L": [
                2676
            ], 
            "WBO": [
                400, 
                1664, 
                1562, 
                1092, 
                2866, 
                1132, 
                2864, 
                2866, 
                400, 
                1562, 
                2400, 
                1562, 
                1092, 
                275, 
                1184, 
                2866, 
                2225, 
                53, 
                602, 
                2862, 
                2866, 
                103
            ], 
            "WBL": [
                1562
            ], 
            "M1_ADJ": [
                1
            ]
        }, 
        "(8, 29)": {
            "WBF": [
                2866
            ], 
            "BM1F": [
                1562
            ], 
            "M1": [
                1092
            ], 
            "M2": [
                1092
            ], 
            "BM1L": [
                1664
            ], 
            "WBO": [
                1132, 
                2864, 
                2866, 
                400, 
                1562, 
                2400, 
                1562, 
                1092, 
                275, 
                1184, 
                2866, 
                2225, 
                53, 
                602, 
                2862, 
                2866, 
                103
            ], 
            "WBL": [
                1562
            ], 
            "M1_ADJ": [
                1
            ]
        }, 
        "location2": [
            3, 
            8, 
            17, 
            29
        ], 
        "(8, 17)": {
            "WBF": [
                2866
            ], 
            "AM2L": [
                1184
            ], 
            "BM1F": [
                1562
            ], 
            "M1": [
                1092
            ], 
            "M2": [
                1092
            ], 
            "BM1L": [
                1664
            ], 
            "WBO": [
                1132, 
                2864, 
                2866, 
                400, 
                1562
            ], 
            "WBL": [
                1562
            ], 
            "AM2F": [
                275
            ], 
            "M1_ADJ": [
                1
            ]
        }, 
        "location1": [
            3, 
            8, 
            17, 
            29
        ], 
        "(8, 3)": {
            "WBF": [
                2866
            ], 
            "AM2L": [
                1132
            ], 
            "BM1F": [
                1562
            ], 
            "M1": [
                1092
            ], 
            "M2": [
                1092
            ], 
            "BM1L": [
                2676
            ], 
            "WBO": [
                400
            ], 
            "WBL": [
                1562
            ], 
            "AM2F": [
                2866
            ], 
            "M1_ADJ": [
                0
            ]
        }, 
        "(29, 17)": {
            "WBF": [
                275
            ], 
            "BM1F": [
                1562
            ], 
            "M1": [
                1092
            ], 
            "M2": [
                1092
            ], 
            "BM1L": [
                2400
            ], 
            "WBO": [
                1184, 
                2866, 
                2225, 
                53, 
                602, 
                2862, 
                2866, 
                103
            ], 
            "WBL": [
                1562
            ], 
            "M1_ADJ": [
                0
            ]
        }, 
        "(29, 3)": {
            "WBF": [
                2866
            ], 
            "BM1F": [
                1562
            ], 
            "M1": [
                1092
            ], 
            "M2": [
                1092
            ], 
            "BM1L": [
                2676
            ], 
            "WBO": [
                400, 
                1664, 
                1562, 
                1092, 
                2866, 
                1132, 
                2864, 
                2866, 
                400, 
                1562, 
                2400, 
                1562, 
                1092, 
                275, 
                1184, 
                2866, 
                2225, 
                53, 
                602, 
                2862, 
                2866, 
                103
            ], 
            "WBL": [
                1562
            ], 
            "M1_ADJ": [
                0
            ]
        }, 
        "(17, 3)": {
            "WBF": [
                2866
            ], 
            "AM2L": [
                1184
            ], 
            "BM1F": [
                1562
            ], 
            "M1": [
                1092
            ], 
            "M2": [
                1092
            ], 
            "BM1L": [
                2676
            ], 
            "WBO": [
                400, 
                1664, 
                1562, 
                1092, 
                2866, 
                1132, 
                2864, 
                2866, 
                400, 
                1562
            ], 
            "WBL": [
                1562
            ], 
            "AM2F": [
                275
            ], 
            "M1_ADJ": [
                0
            ]
        }, 
        "(17, 8)": {
            "WBF": [
                2866
            ], 
            "AM2L": [
                1184
            ], 
            "BM1F": [
                1562
            ], 
            "M1": [
                1092
            ], 
            "M2": [
                1092
            ], 
            "BM1L": [
                1664
            ], 
            "WBO": [
                1132, 
                2864, 
                2866, 
                400, 
                1562
            ], 
            "WBL": [
                1562
            ], 
            "AM2F": [
                275
            ], 
            "M1_ADJ": [
                0
            ]
        }, 
        "(3, 17)": {
            "WBF": [
                2866
            ], 
            "AM2L": [
                1184
            ], 
            "BM1F": [
                1562
            ], 
            "M1": [
                1092
            ], 
            "M2": [
                1092
            ], 
            "BM1L": [
                2676
            ], 
            "WBO": [
                400, 
                1664, 
                1562, 
                1092, 
                2866, 
                1132, 
                2864, 
                2866, 
                400, 
                1562
            ], 
            "WBL": [
                1562
            ], 
            "AM2F": [
                275
            ], 
            "M1_ADJ": [
                1
            ]
        }
    }
}