{
    "2f8f641471bc4a57cee5c14765184d56": {
        "location1": [
            4
        ], 
        "location2": [
            8
        ], 
        "(4, 8)": {
            "WBF": [
                275
            ], 
            "AM2L": [
                1935
            ], 
            "BM1F": [
                1502
            ], 
            "M1": [
                1092
            ], 
            "M2": [
                1134
            ], 
            "BM1L": [
                1562
            ], 
            "WBO": [
                2866
            ], 
            "WBL": [
                1237
            ], 
            "AM2F": [
                1562
            ], 
            "M1_ADJ": [
                1
            ]
        }, 
        "sentence": "the sound is indeed excellent and the form factore is not bad ( but still rather larger than i had expected ) .. ."
    }
}