{
    "ef25a24c12ae7b697445f8d181fbe847": {
        "(27, 19)": {
            "WBF": [
                2864
            ], 
            "AM2L": [
                3165
            ], 
            "BM1F": [
                1888
            ], 
            "M1": [
                2824
            ], 
            "M2": [
                1092
            ], 
            "BM1L": [
                2377
            ], 
            "WBO": [
                568, 
                393, 
                1987, 
                1457
            ], 
            "WBL": [
                275
            ], 
            "AM2F": [
                2676
            ], 
            "M1_ADJ": [
                0
            ]
        }, 
        "location1": [
            27
        ], 
        "location2": [
            19
        ], 
        "sentence": "like it 's predecessor , the quickly revised nx , this player boast a decent size and weight , a relatively-intuitive navigational system that categorizes based on id3 tag , and excellent sound ( widely known to be better than ipod - not surprising considering the number of year creative has been in the audio peripheral business ) ."
    }
}