{
    "26afbb728550c0df1149e771bc94d54b": {
        "location1": [
            4
        ], 
        "location2": [
            38
        ], 
        "(4, 38)": {
            "WBF": [
                275
            ], 
            "AM2L": [
                2864
            ], 
            "BM1F": [
                1562
            ], 
            "M1": [
                1092
            ], 
            "M2": [
                1082
            ], 
            "BM1L": [
                2281
            ], 
            "WBO": [
                1449, 
                2, 
                1277, 
                3181, 
                2864, 
                2764, 
                2866, 
                3010, 
                1710, 
                744, 
                2501, 
                1562, 
                490, 
                275, 
                1005, 
                2909, 
                2317, 
                275, 
                2866, 
                2402, 
                400, 
                1774, 
                150, 
                1743, 
                211, 
                2045, 
                2866, 
                1558, 
                433, 
                2866
            ], 
            "WBL": [
                522
            ], 
            "AM2F": [
                1610
            ], 
            "M1_ADJ": [
                1
            ]
        }, 
        "sentence": "the sound quality is excellent ( and i 'm fussy with that stuff ) , the unit look cool , screen is bright and easy to read , and the replaceable battery mean a major advantage over the ipod ( besides the price , but everyone know that ) ."
    }
}