{
    "3bf21a4b29d090cbd158c4195701fcd2": {
        "(26, 14)": {
            "WBF": [
                244
            ], 
            "BM1F": [
                2203
            ], 
            "M1": [
                2042
            ], 
            "M2": [
                1119
            ], 
            "BM1L": [
                1320
            ], 
            "WBO": [
                2866, 
                3236, 
                3220, 
                2909, 
                963, 
                1623, 
                1384, 
                325
            ], 
            "WBL": [
                325
            ], 
            "AM2F": [
                2687
            ], 
            "M1_ADJ": [
                0
            ]
        }, 
        "location1": [
            26
        ], 
        "location2": [
            14
        ], 
        "sentence": "1 ) great sound ( > 98db signal-to-noise ratio beat ipod 's `` unspecified `` ratio ) and good power output allow the zen xtra to drive large head-phones as well as external speaker ."
    }
}