{
    "e781c09e3c443732c8f53703efb0b736": {
        "(11, 9)": {
            "AM2L": [
                553
            ], 
            "WBFL": [
                2019
            ], 
            "BM1F": [
                1625
            ], 
            "M1": [
                1386
            ], 
            "M2": [
                1119
            ], 
            "BM1L": [
                2909
            ], 
            "AM2F": [
                2335
            ], 
            "M1_ADJ": [
                0
            ]
        }, 
        "location1": [
            11
        ], 
        "location2": [
            9
        ], 
        "sentence": "* does not provide enough volume when connected to larger headphone , or external receiver ( car radio ) ."
    }
}