{
    "fc1353a755e02d2292608b3ddaa8e8fa": {
        "location1": [
            10
        ], 
        "location2": [
            4
        ], 
        "(10, 4)": {
            "WBF": [
                522
            ], 
            "AM2L": [
                1987
            ], 
            "BM1F": [
                523
            ], 
            "M1": [
                3191
            ], 
            "M2": [
                1120
            ], 
            "BM1L": [
                1244
            ], 
            "WBO": [
                1566, 
                2836
            ], 
            "WBL": [
                1690
            ], 
            "AM2F": [
                2219
            ], 
            "M1_ADJ": [
                0
            ]
        }, 
        "sentence": "my `` fast forward `` button work , but it takes a little extra pressure on it to make it go ."
    }
}