{
    "c2d8dd4f0d593e4f1ccb35743b4a76bd": {
        "location1": [
            1
        ], 
        "location2": [
            9
        ], 
        "(1, 9)": {
            "WBF": [
                2876
            ], 
            "BM1F": [
                1878
            ], 
            "M1": [
                1161
            ], 
            "M2": [
                1163
            ], 
            "WBO": [
                154, 
                2866, 
                1922, 
                1562
            ], 
            "WBL": [
                1008
            ], 
            "M1_ADJ": [
                1
            ]
        }, 
        "sentence": "my favorite thing about the nomad is the eax feature ."
    }
}