{
    "b1ea002e94262c6b402e3f320e945036": {
        "(21, 19)": {
            "WBFL": [
                221
            ], 
            "BM1F": [
                1881
            ], 
            "M1": [
                1941
            ], 
            "M2": [
                1199
            ], 
            "BM1L": [
                882
            ], 
            "AM2F": [
                820
            ], 
            "M1_ADJ": [
                0
            ]
        }, 
        "location1": [
            21
        ], 
        "location2": [
            19
        ], 
        "sentence": "the front cover can pop off easily but i always have mine in the case so i did n't notice after first day ."
    }
}