{
    "b1ea002e94262c6b402e3f320e945036": {
        "(21, 2)": {
            "WBF": [
                543
            ], 
            "BM1F": [
                1262
            ], 
            "M1": [
                766
            ], 
            "M2": [
                1199
            ], 
            "BM1L": [
                2866
            ], 
            "WBO": [
                2180, 
                1972, 
                1004, 
                522, 
                1449, 
                259, 
                1375, 
                1815, 
                1490, 
                2866, 
                562, 
                2650, 
                1449, 
                882, 
                1881
            ], 
            "WBL": [
                221
            ], 
            "AM2F": [
                820
            ], 
            "M1_ADJ": [
                0
            ]
        }, 
        "location1": [
            21
        ], 
        "location2": [
            2
        ], 
        "sentence": "the front cover can pop off easily but i always have mine in the case so i did n't notice after first day ."
    }
}