{
    "bc8cb26f2e111e60b22ac940195a192f": {
        "(23, 21)": {
            "AM2L": [
                3146
            ], 
            "WBFL": [
                2664
            ], 
            "BM1F": [
                2037
            ], 
            "M1": [
                400
            ], 
            "M2": [
                1216
            ], 
            "BM1L": [
                2183
            ], 
            "AM2F": [
                1887
            ], 
            "M1_ADJ": [
                0
            ]
        }, 
        "location1": [
            23
        ], 
        "location2": [
            21
        ], 
        "sentence": "short warranty ( 3 month , so i got the extended warranty at best buy ) , occasional freeze up ( easily fixed by popping out battery ) , somewhat flimsy navigation wheel ."
    }, 
    "16ac12ea22acb0865fbe839e4b386158": {
        "(12, 10)": {
            "AM2L": [
                3147
            ], 
            "WBFL": [
                1167
            ], 
            "BM1F": [
                2866
            ], 
            "M1": [
                400
            ], 
            "M2": [
                1216
            ], 
            "BM1L": [
                2037
            ], 
            "AM2F": [
                522
            ], 
            "M1_ADJ": [
                0
            ]
        }, 
        "location1": [
            12
        ], 
        "location2": [
            10
        ], 
        "sentence": "the front cover ( which you remove to take out the battery ) feel flimsy but when snapped on , the device still feel pretty solid ."
    }
}