{
    "4d48c9058303e08948d73947903087dd": {
        "location1": [
            8
        ], 
        "location2": [
            2
        ], 
        "(8, 2)": {
            "WBF": [
                2149
            ], 
            "BM1F": [
                1291
            ], 
            "M1": [
                523
            ], 
            "M2": [
                1259
            ], 
            "BM1L": [
                2866
            ], 
            "WBO": [
                1562, 
                1935
            ], 
            "WBL": [
                3046
            ], 
            "M1_ADJ": [
                0
            ]
        }, 
        "sentence": "the general button placement is not very user friendly ."
    }
}