{
    "a8ca5ff27bcb6526b194c97f24e7c6f2": {
        "(17, 10)": {
            "WBF": [
                522
            ], 
            "AM2L": [
                1478
            ], 
            "BM1F": [
                2866
            ], 
            "M1": [
                1887
            ], 
            "M2": [
                1259
            ], 
            "BM1L": [
                2909
            ], 
            "WBO": [
                1566, 
                4, 
                150
            ], 
            "WBL": [
                3046
            ], 
            "AM2F": [
                2160
            ], 
            "M1_ADJ": [
                0
            ]
        }, 
        "location1": [
            17
        ], 
        "location2": [
            10
        ], 
        "sentence": "took me a few try to get use to the navigation , but it 's a very user friendly player imo ."
    }
}