{
    "700f48300fa8def127637b87e04b7e68": {
        "(7, 8)": {
            "AM2L": [
                2873
            ], 
            "BM1F": [
                2866
            ], 
            "M1": [
                1262
            ], 
            "M2": [
                2156
            ], 
            "BM1L": [
                2390
            ], 
            "WBNULL": [
                1
            ], 
            "AM2F": [
                275
            ], 
            "M1_ADJ": [
                1
            ]
        }, 
        "location1": [
            7
        ], 
        "location2": [
            8
        ], 
        "sentence": "it was easy enough to remove the front plate , and there was only one way the battery could be inserted ."
    }
}