{
    "16ac12ea22acb0865fbe839e4b386158": {
        "(1, 20)": {
            "WBF": [
                766
            ], 
            "AM2L": [
                2656
            ], 
            "BM1F": [
                2866
            ], 
            "M1": [
                1262
            ], 
            "M2": [
                1167
            ], 
            "WBO": [
                3152, 
                3229, 
                2390, 
                2909, 
                2834, 
                2037, 
                2866, 
                400, 
                1167, 
                1216, 
                522, 
                3147, 
                2644, 
                1987, 
                2866
            ], 
            "WBL": [
                2734
            ], 
            "AM2F": [
                2220
            ], 
            "M1_ADJ": [
                1
            ]
        }, 
        "location1": [
            1
        ], 
        "location2": [
            11, 
            20
        ], 
        "(1, 11)": {
            "WBF": [
                766
            ], 
            "AM2L": [
                522
            ], 
            "BM1F": [
                2866
            ], 
            "M1": [
                1262
            ], 
            "M2": [
                1167
            ], 
            "WBO": [
                3152, 
                3229, 
                2390, 
                2909, 
                2834, 
                2037
            ], 
            "WBL": [
                400
            ], 
            "AM2F": [
                1216
            ], 
            "M1_ADJ": [
                1
            ]
        }, 
        "sentence": "the front cover ( which you remove to take out the battery ) feel flimsy but when snapped on , the device still feel pretty solid ."
    }
}