{
    "366990c55e8589617438949b2756f2f4": {
        "location1": [
            3
        ], 
        "location2": [
            9
        ], 
        "(3, 9)": {
            "WBF": [
                824
            ], 
            "BM1F": [
                150
            ], 
            "M1": [
                1320
            ], 
            "M2": [
                2747
            ], 
            "BM1L": [
                1562
            ], 
            "WBO": [
                1232, 
                1875
            ], 
            "WBL": [
                817
            ], 
            "M1_ADJ": [
                1
            ]
        }, 
        "sentence": "this is a good deal for music and data storage ."
    }
}