{
    "8121831049060e4e814eb90a284743c5": {
        "(9, 7)": {
            "AM2L": [
                275
            ], 
            "WBFL": [
                1084
            ], 
            "BM1F": [
                852
            ], 
            "M1": [
                1558
            ], 
            "M2": [
                1320
            ], 
            "BM1L": [
                315
            ], 
            "AM2F": [
                2225
            ], 
            "M1_ADJ": [
                0
            ]
        }, 
        "location1": [
            9
        ], 
        "location2": [
            7
        ], 
        "sentence": "ive seen em all , the archos , dell , ipod , everything ... good price and great sound makes this one the best in my opinion ."
    }, 
    "3bf21a4b29d090cbd158c4195701fcd2": {
        "location1": [
            12
        ], 
        "location2": [
            7
        ], 
        "(12, 7)": {
            "WBF": [
                4
            ], 
            "AM2L": [
                2042
            ], 
            "BM1F": [
                404
            ], 
            "M1": [
                1558
            ], 
            "M2": [
                1320
            ], 
            "BM1L": [
                2310
            ], 
            "WBO": [
                3025
            ], 
            "WBL": [
                275
            ], 
            "AM2F": [
                2203
            ], 
            "M1_ADJ": [
                0
            ]
        }, 
        "sentence": "1 ) great sound ( > 98db signal-to-noise ratio beat ipod 's `` unspecified `` ratio ) and good power output allow the zen xtra to drive large head-phones as well as external speaker ."
    }
}