{
    "3bf21a4b29d090cbd158c4195701fcd2": {
        "(12, 13)": {
            "AM2L": [
                244
            ], 
            "BM1F": [
                275
            ], 
            "M1": [
                1320
            ], 
            "M2": [
                2203
            ], 
            "BM1L": [
                2310
            ], 
            "WBNULL": [
                1
            ], 
            "AM2F": [
                2042
            ], 
            "M1_ADJ": [
                1
            ]
        }, 
        "location1": [
            12
        ], 
        "location2": [
            13
        ], 
        "sentence": "1 ) great sound ( > 98db signal-to-noise ratio beat ipod 's `` unspecified `` ratio ) and good power output allow the zen xtra to drive large head-phones as well as external speaker ."
    }
}