{
    "53300d7a7dd55e15a9b1ca34d833f210": {
        "(5, 7)": {
            "AM2L": [
                1368
            ], 
            "WBFL": [
                337
            ], 
            "BM1F": [
                1562
            ], 
            "M1": [
                1320
            ], 
            "M2": [
                2617
            ], 
            "BM1L": [
                2160
            ], 
            "AM2F": [
                3058
            ], 
            "M1_ADJ": [
                1
            ]
        }, 
        "location1": [
            5
        ], 
        "location2": [
            7
        ], 
        "sentence": "in short , this player is good at size , value , hardware design but really bad at its software"
    }, 
    "5a9e2c56b3e4e5359842e5b8ef87d675": {
        "location1": [
            14
        ], 
        "location2": [
            8
        ], 
        "(14, 8)": {
            "WBF": [
                275
            ], 
            "BM1F": [
                1380
            ], 
            "M1": [
                2617
            ], 
            "M2": [
                1320
            ], 
            "BM1L": [
                2281
            ], 
            "WBO": [
                2225, 
                1744
            ], 
            "WBL": [
                150
            ], 
            "AM2F": [
                524
            ], 
            "M1_ADJ": [
                0
            ]
        }, 
        "sentence": "lot of flaw , but exceptional sound quality , hd size , and price make it a good buy ."
    }
}