{
    "042d659e2571a54ac6dd267df5c94471": {
        "(22, 4)": {
            "WBF": [
                2862
            ], 
            "AM2L": [
                2032
            ], 
            "BM1F": [
                889
            ], 
            "M1": [
                2213
            ], 
            "M2": [
                1320
            ], 
            "BM1L": [
                1375
            ], 
            "WBO": [
                2033, 
                1401, 
                325, 
                1449, 
                2212, 
                2866, 
                2794, 
                995, 
                2909, 
                2866, 
                2667, 
                4, 
                2864, 
                1449
            ], 
            "WBL": [
                2678
            ], 
            "AM2F": [
                1987
            ], 
            "M1_ADJ": [
                0
            ]
        }, 
        "location1": [
            22
        ], 
        "location2": [
            4
        ], 
        "sentence": "i must have differing preference than others here , as i prefer the supplied earbuds to the sony 's that i thought sounded good on other player ."
    }
}