{
    "6bc32f701b31d3e1398b32992b827143": {
        "(22, 2)": {
            "WBF": [
                258
            ], 
            "AM2L": [
                2549
            ], 
            "BM1F": [
                784
            ], 
            "M1": [
                1779
            ], 
            "M2": [
                1320
            ], 
            "BM1L": [
                134
            ], 
            "WBO": [
                1935, 
                325, 
                2622, 
                1712, 
                325, 
                3174, 
                1778, 
                1562, 
                1012, 
                1490, 
                2028, 
                3230, 
                654, 
                275, 
                1562, 
                1678
            ], 
            "WBL": [
                150
            ], 
            "AM2F": [
                577
            ], 
            "M1_ADJ": [
                0
            ]
        }, 
        "location1": [
            22
        ], 
        "location2": [
            2
        ], 
        "sentence": "8 ) creative mediasource , although not as sleek looking as window mediaplayer , is effective in organizing your collection and is linked to a good cddb service ( gracenotes ) ."
    }
}