{
    "20f7e57ebd6596546f8333a55a35a444": {
        "location1": [
            1
        ], 
        "location2": [
            9
        ], 
        "(1, 9)": {
            "WBF": [
                2876
            ], 
            "AM2L": [
                1566
            ], 
            "BM1F": [
                1994
            ], 
            "M1": [
                1320
            ], 
            "M2": [
                2682
            ], 
            "WBO": [
                1566, 
                1562, 
                101, 
                1288
            ], 
            "WBL": [
                915
            ], 
            "AM2F": [
                3138
            ], 
            "M1_ADJ": [
                1
            ]
        }, 
        "sentence": "one good thing , it is 40 gb of disk space ( well , it is 38 gb in reality ) ."
    }
}