{
    "ee31d7df41f71e9ae037cdf06e1512c9": {
        "(11, 18)": {
            "WBF": [
                325
            ], 
            "AM2L": [
                2676
            ], 
            "BM1F": [
                325
            ], 
            "M1": [
                1320
            ], 
            "M2": [
                3236
            ], 
            "BM1L": [
                1591
            ], 
            "WBO": [
                2866, 
                2680, 
                574
            ], 
            "WBL": [
                2866
            ], 
            "AM2F": [
                3220
            ], 
            "M1_ADJ": [
                1
            ]
        }, 
        "location1": [
            11, 
            23
        ], 
        "location2": [
            18
        ], 
        "(23, 18)": {
            "WBF": [
                3220
            ], 
            "AM2L": [
                150
            ], 
            "BM1F": [
                2866
            ], 
            "M1": [
                3236
            ], 
            "M2": [
                1320
            ], 
            "BM1L": [
                275
            ], 
            "WBO": [
                2676
            ], 
            "WBL": [
                325
            ], 
            "AM2F": [
                325
            ], 
            "M1_ADJ": [
                0
            ]
        }, 
        "sentence": "to my ear , a 160 kbps wma file sound just as good as the source cd , and the zen xtra sound just as good as a portable cd player ."
    }, 
    "2f0c579001ddf9a71892e54a7ae11a15": {
        "(6, 1)": {
            "WBF": [
                3220
            ], 
            "AM2L": [
                275
            ], 
            "BM1F": [
                2866
            ], 
            "M1": [
                3236
            ], 
            "M2": [
                1320
            ], 
            "WBO": [
                2676
            ], 
            "WBL": [
                3181
            ], 
            "AM2F": [
                1386
            ], 
            "M1_ADJ": [
                0
            ]
        }, 
        "location1": [
            6
        ], 
        "location2": [
            1
        ], 
        "sentence": "the zen xtra sound great with good headphone and well recored mp3s ."
    }, 
    "937380945b7a721b7403148d0d455e73": {
        "(8, 3)": {
            "WBF": [
                3220
            ], 
            "AM2L": [
                2160
            ], 
            "BM1F": [
                1587
            ], 
            "M1": [
                3236
            ], 
            "M2": [
                1320
            ], 
            "BM1L": [
                1922
            ], 
            "WBO": [
                1562
            ], 
            "WBL": [
                3075
            ], 
            "AM2F": [
                1864
            ], 
            "M1_ADJ": [
                0
            ]
        }, 
        "location1": [
            8
        ], 
        "location2": [
            3
        ], 
        "sentence": "the nomad jukebox zen xtra is a very good mp3 player but the software is it gets hurt ."
    }, 
    "3bf21a4b29d090cbd158c4195701fcd2": {
        "location1": [
            12
        ], 
        "location2": [
            17
        ], 
        "(12, 17)": {
            "WBF": [
                2203
            ], 
            "AM2L": [
                2909
            ], 
            "BM1F": [
                275
            ], 
            "M1": [
                1320
            ], 
            "M2": [
                3236
            ], 
            "BM1L": [
                2310
            ], 
            "WBO": [
                2042
            ], 
            "WBL": [
                2866
            ], 
            "AM2F": [
                3220
            ], 
            "M1_ADJ": [
                1
            ]
        }, 
        "sentence": "1 ) great sound ( > 98db signal-to-noise ratio beat ipod 's `` unspecified `` ratio ) and good power output allow the zen xtra to drive large head-phones as well as external speaker ."
    }
}