{
    "2372fb6a2b84de05a3b0daa7c5597402": {
        "(4, 5)": {
            "AM2L": [
                2160
            ], 
            "BM1F": [
                275
            ], 
            "M1": [
                1320
            ], 
            "M2": [
                506
            ], 
            "BM1L": [
                1710
            ], 
            "WBNULL": [
                1
            ], 
            "AM2F": [
                2866
            ], 
            "M1_ADJ": [
                1
            ]
        }, 
        "location1": [
            4
        ], 
        "location2": [
            5
        ], 
        "sentence": "7 ) chic look and good build - the player comes in a compact form with a metal face plate ."
    }
}