{
    "891f63e1c470263e3ffad09e6a6969b0": {
        "(11, 8)": {
            "WBF": [
                1562
            ], 
            "AM2L": [
                3229
            ], 
            "BM1F": [
                2866
            ], 
            "M1": [
                2160
            ], 
            "M2": [
                1320
            ], 
            "BM1L": [
                1971
            ], 
            "WBO": [
                2220
            ], 
            "WBL": [
                2220
            ], 
            "AM2F": [
                1992
            ], 
            "M1_ADJ": [
                0
            ]
        }, 
        "location1": [
            11
        ], 
        "location2": [
            8
        ], 
        "sentence": "on the positive side , the sound of the player is pretty good , once you have everything configured ."
    }, 
    "d2a9bfb1e9ed4d4734bd522814d495e6": {
        "(20, 15)": {
            "WBF": [
                2909
            ], 
            "BM1F": [
                74
            ], 
            "M1": [
                2160
            ], 
            "M2": [
                1320
            ], 
            "BM1L": [
                2188
            ], 
            "WBO": [
                2429
            ], 
            "WBL": [
                150
            ], 
            "AM2F": [
                2242
            ], 
            "M1_ADJ": [
                0
            ]
        }, 
        "sentence": "although the sound-quality is good , it takes more than good sound on a portable-mp 3 player to result in a good product .", 
        "(9, 15)": {
            "WBF": [
                2676
            ], 
            "AM2L": [
                2429
            ], 
            "BM1F": [
                2862
            ], 
            "M1": [
                1320
            ], 
            "M2": [
                2160
            ], 
            "BM1L": [
                1851
            ], 
            "WBO": [
                1987, 
                150
            ], 
            "WBL": [
                74
            ], 
            "AM2F": [
                2909
            ], 
            "M1_ADJ": [
                1
            ]
        }, 
        "location2": [
            15
        ], 
        "location1": [
            4, 
            9, 
            20
        ], 
        "(4, 15)": {
            "WBF": [
                1566
            ], 
            "AM2L": [
                2429
            ], 
            "BM1F": [
                1562
            ], 
            "M1": [
                1320
            ], 
            "M2": [
                2160
            ], 
            "BM1L": [
                2677
            ], 
            "WBO": [
                2836, 
                1851, 
                2862, 
                1320, 
                2676, 
                1987, 
                150
            ], 
            "WBL": [
                74
            ], 
            "AM2F": [
                2909
            ], 
            "M1_ADJ": [
                1
            ]
        }
    }, 
    "3fd077cfdb53680671d6b273e8b56c20": {
        "(1, 2)": {
            "AM2L": [
                150
            ], 
            "BM1F": [
                150
            ], 
            "M1": [
                1320
            ], 
            "M2": [
                2160
            ], 
            "AM2F": [
                337
            ], 
            "WBNULL": [
                1
            ], 
            "M1_ADJ": [
                1
            ]
        }, 
        "location1": [
            1
        ], 
        "location2": [
            2
        ], 
        "sentence": "a good player at a great price with terrible software that makes ripping and transferring way more difficult than it should be ."
    }, 
    "e74da56b82a743addc4bc80ccd353906": {
        "(5, 6)": {
            "BM1F": [
                150
            ], 
            "M1": [
                1320
            ], 
            "M2": [
                2160
            ], 
            "BM1L": [
                1562
            ], 
            "WBNULL": [
                1
            ], 
            "AM2F": [
                2885
            ], 
            "M1_ADJ": [
                1
            ]
        }, 
        "location1": [
            5
        ], 
        "location2": [
            6
        ], 
        "sentence": "this thing seriously is a good player though ."
    }, 
    "2372fb6a2b84de05a3b0daa7c5597402": {
        "(4, 7)": {
            "WBF": [
                506
            ], 
            "AM2L": [
                1490
            ], 
            "BM1F": [
                275
            ], 
            "M1": [
                1320
            ], 
            "M2": [
                2160
            ], 
            "BM1L": [
                1710
            ], 
            "WBO": [
                2866
            ], 
            "WBL": [
                2866
            ], 
            "AM2F": [
                664
            ], 
            "M1_ADJ": [
                1
            ]
        }, 
        "location1": [
            4
        ], 
        "location2": [
            7
        ], 
        "sentence": "7 ) chic look and good build - the player comes in a compact form with a metal face plate ."
    }, 
    "53300d7a7dd55e15a9b1ca34d833f210": {
        "(5, 3)": {
            "AM2L": [
                2617
            ], 
            "WBFL": [
                1562
            ], 
            "BM1F": [
                2882
            ], 
            "M1": [
                2160
            ], 
            "M2": [
                1320
            ], 
            "BM1L": [
                2582
            ], 
            "AM2F": [
                337
            ], 
            "M1_ADJ": [
                0
            ]
        }, 
        "location1": [
            5
        ], 
        "location2": [
            3
        ], 
        "sentence": "in short , this player is good at size , value , hardware design but really bad at its software"
    }, 
    "aa755efa485b6b2983cdb9916e3def2b": {
        "(8, 5)": {
            "WBF": [
                1562
            ], 
            "AM2L": [
                242
            ], 
            "BM1F": [
                3181
            ], 
            "M1": [
                2160
            ], 
            "M2": [
                1320
            ], 
            "BM1L": [
                664
            ], 
            "WBO": [
                1935
            ], 
            "WBL": [
                1935
            ], 
            "AM2F": [
                337
            ], 
            "M1_ADJ": [
                0
            ]
        }, 
        "location1": [
            8
        ], 
        "location2": [
            5
        ], 
        "sentence": "the software , which comes with player is not good at all ."
    }, 
    "937380945b7a721b7403148d0d455e73": {
        "(8, 10)": {
            "AM2L": [
                2866
            ], 
            "WBFL": [
                1864
            ], 
            "BM1F": [
                3075
            ], 
            "M1": [
                1320
            ], 
            "M2": [
                2160
            ], 
            "BM1L": [
                150
            ], 
            "AM2F": [
                522
            ], 
            "M1_ADJ": [
                1
            ]
        }, 
        "location1": [
            8
        ], 
        "location2": [
            10
        ], 
        "sentence": "the nomad jukebox zen xtra is a very good mp3 player but the software is it gets hurt ."
    }, 
    "dcec7d045bb56bb23bf6af62e977a87c": {
        "(13, 9)": {
            "WBF": [
                1368
            ], 
            "BM1F": [
                2882
            ], 
            "M1": [
                2160
            ], 
            "M2": [
                1320
            ], 
            "BM1L": [
                2864
            ], 
            "WBO": [
                1562
            ], 
            "WBL": [
                2220
            ], 
            "M1_ADJ": [
                0
            ]
        }, 
        "location1": [
            13
        ], 
        "location2": [
            9
        ], 
        "sentence": "first i 'll start off by saying that this player hardware is pretty good .. ."
    }, 
    "2e3f4a9da60918bdc961149cf8e14d7f": {
        "location1": [
            11
        ], 
        "location2": [
            17
        ], 
        "(11, 17)": {
            "WBF": [
                179
            ], 
            "BM1F": [
                877
            ], 
            "M1": [
                1320
            ], 
            "M2": [
                2160
            ], 
            "BM1L": [
                2032
            ], 
            "WBO": [
                1232, 
                150
            ], 
            "WBL": [
                393
            ], 
            "M1_ADJ": [
                1
            ]
        }, 
        "sentence": "11 ) minimal pause between song - less than that on other device - good achievement for a hard-drive based player"
    }, 
    "ee31d7df41f71e9ae037cdf06e1512c9": {
        "(23, 28)": {
            "WBF": [
                325
            ], 
            "BM1F": [
                325
            ], 
            "M1": [
                1320
            ], 
            "M2": [
                2160
            ], 
            "BM1L": [
                1591
            ], 
            "WBO": [
                150
            ], 
            "WBL": [
                574
            ], 
            "M1_ADJ": [
                1
            ]
        }, 
        "(11, 28)": {
            "WBF": [
                325
            ], 
            "BM1F": [
                325
            ], 
            "M1": [
                1320
            ], 
            "M2": [
                2160
            ], 
            "BM1L": [
                1591
            ], 
            "WBO": [
                2866, 
                2680, 
                574, 
                275, 
                2866, 
                3236, 
                3220, 
                2676, 
                1591, 
                325, 
                1320, 
                325, 
                150
            ], 
            "WBL": [
                574
            ], 
            "M1_ADJ": [
                1
            ]
        }, 
        "location1": [
            11, 
            23
        ], 
        "location2": [
            28
        ], 
        "sentence": "to my ear , a 160 kbps wma file sound just as good as the source cd , and the zen xtra sound just as good as a portable cd player ."
    }, 
    "042d659e2571a54ac6dd267df5c94471": {
        "(22, 25)": {
            "WBF": [
                1987
            ], 
            "BM1F": [
                2678
            ], 
            "M1": [
                1320
            ], 
            "M2": [
                2160
            ], 
            "BM1L": [
                2886
            ], 
            "WBO": [
                2032
            ], 
            "WBL": [
                2032
            ], 
            "M1_ADJ": [
                1
            ]
        }, 
        "location1": [
            22
        ], 
        "location2": [
            25
        ], 
        "sentence": "i must have differing preference than others here , as i prefer the supplied earbuds to the sony 's that i thought sounded good on other player ."
    }, 
    "cbfc89f77439980882d812d4eb68bc5b": {
        "(11, 1)": {
            "WBF": [
                4
            ], 
            "BM1F": [
                2866
            ], 
            "M1": [
                2160
            ], 
            "M2": [
                1320
            ], 
            "WBO": [
                2653, 
                1562, 
                3075, 
                1005, 
                2909, 
                3041
            ], 
            "WBL": [
                3075
            ], 
            "M1_ADJ": [
                0
            ]
        }, 
        "location1": [
            11
        ], 
        "location2": [
            1
        ], 
        "sentence": "the player 's software is very easy to use and very good ."
    }, 
    "bdc192fe7f1f8ae65e2026ddd253541b": {
        "(12, 9)": {
            "WBF": [
                316
            ], 
            "AM2L": [
                1375
            ], 
            "BM1F": [
                1864
            ], 
            "M1": [
                2160
            ], 
            "M2": [
                1320
            ], 
            "BM1L": [
                784
            ], 
            "WBO": [
                3075
            ], 
            "WBL": [
                3075
            ], 
            "AM2F": [
                275
            ], 
            "M1_ADJ": [
                0
            ]
        }, 
        "(12, 21)": {
            "WBF": [
                275
            ], 
            "AM2L": [
                2866
            ], 
            "BM1F": [
                3075
            ], 
            "M1": [
                1320
            ], 
            "M2": [
                2160
            ], 
            "BM1L": [
                316
            ], 
            "WBO": [
                1375, 
                2866, 
                434, 
                2676, 
                2281
            ], 
            "WBL": [
                286
            ], 
            "AM2F": [
                1987
            ], 
            "M1_ADJ": [
                1
            ]
        }, 
        "location1": [
            12
        ], 
        "location2": [
            9, 
            21
        ], 
        "sentence": "it 's really a shame , because otherwise , creative mp3 player are very good , and have the best sound quality of any player on the market ."
    }, 
    "4609198e9495aeb97d0e1704b1f11136": {
        "sentence": "much cheaper than i-pod good looking player ( beautiful blue back-lit screen ) if you 've read about the player , some have complained about the lack of a viewing hole for the face when the case is on , but this is good because the face does n't get damaged / scratched fast transfer rate", 
        "location2": [
            6, 
            17
        ], 
        "location1": [
            4, 
            39
        ], 
        "(4, 6)": {
            "AM2L": [
                457
            ], 
            "WBFL": [
                1712
            ], 
            "BM1F": [
                1451
            ], 
            "M1": [
                1320
            ], 
            "M2": [
                2160
            ], 
            "BM1L": [
                2862
            ], 
            "AM2F": [
                406
            ], 
            "M1_ADJ": [
                1
            ]
        }, 
        "(39, 6)": {
            "WBF": [
                406
            ], 
            "AM2L": [
                2866
            ], 
            "BM1F": [
                1712
            ], 
            "M1": [
                2160
            ], 
            "M2": [
                1320
            ], 
            "BM1L": [
                1320
            ], 
            "WBO": [
                457, 
                374, 
                2501, 
                1463, 
                3229, 
                6, 
                2317, 
                154, 
                2866, 
                2160, 
                2659, 
                1375, 
                685, 
                154, 
                2866, 
                1616, 
                1971, 
                150, 
                3086, 
                1427, 
                1232, 
                2866, 
                1130, 
                3147, 
                2866, 
                562, 
                1562, 
                1987, 
                522
            ], 
            "WBL": [
                1562
            ], 
            "AM2F": [
                407
            ], 
            "M1_ADJ": [
                0
            ]
        }, 
        "(39, 17)": {
            "WBF": [
                2659
            ], 
            "AM2L": [
                2866
            ], 
            "BM1F": [
                2866
            ], 
            "M1": [
                2160
            ], 
            "M2": [
                1320
            ], 
            "BM1L": [
                154
            ], 
            "WBO": [
                1375, 
                685, 
                154, 
                2866, 
                1616, 
                1971, 
                150, 
                3086, 
                1427, 
                1232, 
                2866, 
                1130, 
                3147, 
                2866, 
                562, 
                1562, 
                1987, 
                522
            ], 
            "WBL": [
                1562
            ], 
            "AM2F": [
                407
            ], 
            "M1_ADJ": [
                0
            ]
        }, 
        "(4, 17)": {
            "WBF": [
                1712
            ], 
            "AM2L": [
                1375
            ], 
            "BM1F": [
                1451
            ], 
            "M1": [
                1320
            ], 
            "M2": [
                2160
            ], 
            "BM1L": [
                2862
            ], 
            "WBO": [
                2160, 
                406, 
                457, 
                374, 
                2501, 
                1463, 
                3229, 
                6, 
                2317
            ], 
            "WBL": [
                2866
            ], 
            "AM2F": [
                2659
            ], 
            "M1_ADJ": [
                1
            ]
        }
    }, 
    "98403a16cdeed60e2113243a13b306bf": {
        "(15, 16)": {
            "BM1F": [
                3075
            ], 
            "M1": [
                1320
            ], 
            "M2": [
                2160
            ], 
            "BM1L": [
                150
            ], 
            "WBNULL": [
                1
            ], 
            "M1_ADJ": [
                1
            ]
        }, 
        "location1": [
            15
        ], 
        "location2": [
            6, 
            16
        ], 
        "(15, 6)": {
            "WBF": [
                1570
            ], 
            "BM1F": [
                2866
            ], 
            "M1": [
                2160
            ], 
            "M2": [
                1320
            ], 
            "BM1L": [
                3049
            ], 
            "WBO": [
                275, 
                1449, 
                1167, 
                1566, 
                1562
            ], 
            "WBL": [
                3075
            ], 
            "AM2F": [
                2160
            ], 
            "M1_ADJ": [
                0
            ]
        }, 
        "sentence": "i have no problem using the player itself and i feel it is a very good player ."
    }, 
    "21ebed2a97f528417ad5da338ef26ef7": {
        "(10, 49)": {
            "WBF": [
                2876
            ], 
            "AM2L": [
                2916
            ], 
            "BM1F": [
                2866
            ], 
            "M1": [
                1320
            ], 
            "M2": [
                2160
            ], 
            "BM1L": [
                3181
            ], 
            "WBO": [
                2866, 
                2501, 
                1562, 
                2325, 
                440, 
                275, 
                2866, 
                457, 
                1665, 
                1490, 
                2866, 
                373, 
                1562, 
                2104, 
                1156, 
                325, 
                1398, 
                1490, 
                1875, 
                2939, 
                735, 
                316, 
                1005, 
                2909, 
                3041, 
                221, 
                1764, 
                2866, 
                2506, 
                523, 
                1333, 
                2676, 
                275, 
                1572, 
                1389
            ], 
            "WBL": [
                1864
            ], 
            "AM2F": [
                150
            ], 
            "M1_ADJ": [
                1
            ]
        }, 
        "location1": [
            10
        ], 
        "location2": [
            49
        ], 
        "sentence": "now here the stuff you should know starting with the good thing : the screen is really big and the blue light in the back is perfect , fast as hell in music transfer , control are easy to use after mastering the scroll button , great sound and ive heard many mp3 player , a ton of different equilizer type deal on here ."
    }
}