{
    "20f7e57ebd6596546f8333a55a35a444": {
        "(1, 16)": {
            "WBF": [
                2876
            ], 
            "BM1F": [
                1994
            ], 
            "M1": [
                1320
            ], 
            "M2": [
                2324
            ], 
            "WBO": [
                1566, 
                1562, 
                101, 
                1288, 
                1971, 
                915, 
                2682, 
                3138, 
                1566, 
                1562, 
                89
            ], 
            "WBL": [
                1490
            ], 
            "M1_ADJ": [
                1
            ]
        }, 
        "location1": [
            1
        ], 
        "location2": [
            16
        ], 
        "sentence": "one good thing , it is 40 gb of disk space ( well , it is 38 gb in reality ) ."
    }
}