{
    "8448fda5701874e7c112eea37250d87a": {
        "(3, 12)": {
            "WBF": [
                170
            ], 
            "AM2L": [
                1760
            ], 
            "BM1F": [
                1971
            ], 
            "M1": [
                1320
            ], 
            "M2": [
                784
            ], 
            "BM1L": [
                1616
            ], 
            "WBO": [
                2882, 
                1562, 
                1851, 
                1971, 
                273
            ], 
            "WBL": [
                1971
            ], 
            "AM2F": [
                4
            ], 
            "M1_ADJ": [
                1
            ]
        }, 
        "location1": [
            3
        ], 
        "location2": [
            12
        ], 
        "sentence": "5 ) lack of good accessory - this is more of an oversight of creative 's marketing ."
    }, 
    "6bc32f701b31d3e1398b32992b827143": {
        "location1": [
            22
        ], 
        "location2": [
            1
        ], 
        "(22, 1)": {
            "WBF": [
                1779
            ], 
            "AM2L": [
                2549
            ], 
            "BM1F": [
                134
            ], 
            "M1": [
                784
            ], 
            "M2": [
                1320
            ], 
            "WBO": [
                258, 
                1935, 
                325, 
                2622, 
                1712, 
                325, 
                3174, 
                1778, 
                1562, 
                1012, 
                1490, 
                2028, 
                3230, 
                654, 
                275, 
                1562, 
                1678
            ], 
            "WBL": [
                150
            ], 
            "AM2F": [
                577
            ], 
            "M1_ADJ": [
                0
            ]
        }, 
        "sentence": "8 ) creative mediasource , although not as sleek looking as window mediaplayer , is effective in organizing your collection and is linked to a good cddb service ( gracenotes ) ."
    }, 
    "bdc192fe7f1f8ae65e2026ddd253541b": {
        "location1": [
            12
        ], 
        "location2": [
            7
        ], 
        "(12, 7)": {
            "WBF": [
                1864
            ], 
            "AM2L": [
                1375
            ], 
            "BM1F": [
                2034
            ], 
            "M1": [
                784
            ], 
            "M2": [
                1320
            ], 
            "BM1L": [
                407
            ], 
            "WBO": [
                2160
            ], 
            "WBL": [
                3075
            ], 
            "AM2F": [
                275
            ], 
            "M1_ADJ": [
                0
            ]
        }, 
        "sentence": "it 's really a shame , because otherwise , creative mp3 player are very good , and have the best sound quality of any player on the market ."
    }, 
    "6bcac49498fd30b88131b83404d6bfaf": {
        "(8, 4)": {
            "WBF": [
                1287
            ], 
            "AM2L": [
                2281
            ], 
            "BM1F": [
                337
            ], 
            "M1": [
                784
            ], 
            "M2": [
                1320
            ], 
            "BM1L": [
                1258
            ], 
            "WBO": [
                2882
            ], 
            "WBL": [
                2876
            ], 
            "AM2F": [
                2676
            ], 
            "M1_ADJ": [
                0
            ]
        }, 
        "location1": [
            8
        ], 
        "location2": [
            4
        ], 
        "sentence": "our special friend at creative gave this thing good sound quality , great feature , long battery life , and an unbeatable price ."
    }
}