{
    "891f63e1c470263e3ffad09e6a6969b0": {
        "location1": [
            11
        ], 
        "location2": [
            3
        ], 
        "(11, 3)": {
            "WBF": [
                2866
            ], 
            "AM2L": [
                3229
            ], 
            "BM1F": [
                2192
            ], 
            "M1": [
                2595
            ], 
            "M2": [
                1320
            ], 
            "BM1L": [
                2866
            ], 
            "WBO": [
                2676, 
                1971, 
                2866, 
                2160
            ], 
            "WBL": [
                2220
            ], 
            "AM2F": [
                1992
            ], 
            "M1_ADJ": [
                0
            ]
        }, 
        "sentence": "on the positive side , the sound of the player is pretty good , once you have everything configured ."
    }
}