{
    "5a9e2c56b3e4e5359842e5b8ef87d675": {
        "location1": [
            14
        ], 
        "location2": [
            2
        ], 
        "(14, 2)": {
            "WBF": [
                522
            ], 
            "BM1F": [
                1971
            ], 
            "M1": [
                1211
            ], 
            "M2": [
                1320
            ], 
            "BM1L": [
                1719
            ], 
            "WBO": [
                1096, 
                2676, 
                2281, 
                1380, 
                2617, 
                275, 
                2225, 
                1744
            ], 
            "WBL": [
                150
            ], 
            "AM2F": [
                524
            ], 
            "M1_ADJ": [
                0
            ]
        }, 
        "sentence": "lot of flaw , but exceptional sound quality , hd size , and price make it a good buy ."
    }
}