{
    "21ebed2a97f528417ad5da338ef26ef7": {
        "location1": [
            10
        ], 
        "location2": [
            28
        ], 
        "(10, 28)": {
            "WBF": [
                2876
            ], 
            "AM2L": [
                1875
            ], 
            "BM1F": [
                2866
            ], 
            "M1": [
                1320
            ], 
            "M2": [
                1398
            ], 
            "BM1L": [
                3181
            ], 
            "WBO": [
                2866, 
                2501, 
                1562, 
                2325, 
                440, 
                275, 
                2866, 
                457, 
                1665, 
                1490, 
                2866, 
                373, 
                1562, 
                2104
            ], 
            "WBL": [
                325
            ], 
            "AM2F": [
                1490
            ], 
            "M1_ADJ": [
                1
            ]
        }, 
        "sentence": "now here the stuff you should know starting with the good thing : the screen is really big and the blue light in the back is perfect , fast as hell in music transfer , control are easy to use after mastering the scroll button , great sound and ive heard many mp3 player , a ton of different equilizer type deal on here ."
    }
}