{
    "8448fda5701874e7c112eea37250d87a": {
        "(3, 4)": {
            "AM2L": [
                1562
            ], 
            "BM1F": [
                1971
            ], 
            "M1": [
                1320
            ], 
            "M2": [
                170
            ], 
            "BM1L": [
                1616
            ], 
            "WBNULL": [
                1
            ], 
            "AM2F": [
                2882
            ], 
            "M1_ADJ": [
                1
            ]
        }, 
        "location1": [
            3
        ], 
        "location2": [
            4
        ], 
        "sentence": "5 ) lack of good accessory - this is more of an oversight of creative 's marketing ."
    }, 
    "8a31ba51febce8f3d665f6e34835eb2d": {
        "(24, 20)": {
            "WBF": [
                3229
            ], 
            "BM1F": [
                1999
            ], 
            "M1": [
                170
            ], 
            "M2": [
                1320
            ], 
            "BM1L": [
                2866
            ], 
            "WBO": [
                1896
            ], 
            "WBL": [
                1094
            ], 
            "AM2F": [
                1386
            ], 
            "M1_ADJ": [
                0
            ]
        }, 
        "location1": [
            24
        ], 
        "location2": [
            20
        ], 
        "sentence": "the free ( i didnt know they still did that ) carrying case is really protective , and to me its the only accessory you need ( except good headphone ) ."
    }
}