{
    "53300d7a7dd55e15a9b1ca34d833f210": {
        "location1": [
            5
        ], 
        "location2": [
            8
        ], 
        "(5, 8)": {
            "WBF": [
                337
            ], 
            "AM2L": [
                864
            ], 
            "BM1F": [
                1562
            ], 
            "M1": [
                1320
            ], 
            "M2": [
                3058
            ], 
            "BM1L": [
                2160
            ], 
            "WBO": [
                2617
            ], 
            "WBL": [
                2617
            ], 
            "AM2F": [
                1368
            ], 
            "M1_ADJ": [
                1
            ]
        }, 
        "sentence": "in short , this player is good at size , value , hardware design but really bad at its software"
    }
}