{
    "2e3f4a9da60918bdc961149cf8e14d7f": {
        "(11, 10)": {
            "AM2L": [
                1232
            ], 
            "BM1F": [
                2032
            ], 
            "M1": [
                877
            ], 
            "M2": [
                1320
            ], 
            "BM1L": [
                1987
            ], 
            "WBNULL": [
                1
            ], 
            "AM2F": [
                179
            ], 
            "M1_ADJ": [
                0
            ]
        }, 
        "location1": [
            11
        ], 
        "location2": [
            10
        ], 
        "sentence": "11 ) minimal pause between song - less than that on other device - good achievement for a hard-drive based player"
    }
}