{
    "68a8302a084952a7e1cf8fe9f3f14b4e": {
        "(5, 2)": {
            "WBF": [
                1375
            ], 
            "AM2L": [
                2017
            ], 
            "BM1F": [
                1971
            ], 
            "M1": [
                765
            ], 
            "M2": [
                1320
            ], 
            "BM1L": [
                3229
            ], 
            "WBO": [
                2659
            ], 
            "WBL": [
                2659
            ], 
            "AM2F": [
                803
            ], 
            "M1_ADJ": [
                0
            ]
        }, 
        "location1": [
            5
        ], 
        "location2": [
            2
        ], 
        "sentence": "you of course have some good customization option with the unit as well ( sound presets , navigating option , playlist , etc ) ."
    }
}