{
    "ee31d7df41f71e9ae037cdf06e1512c9": {
        "location1": [
            11, 
            23
        ], 
        "location2": [
            2
        ], 
        "(23, 2)": {
            "WBF": [
                150
            ], 
            "AM2L": [
                150
            ], 
            "BM1F": [
                1878
            ], 
            "M1": [
                992
            ], 
            "M2": [
                1320
            ], 
            "BM1L": [
                2909
            ], 
            "WBO": [
                37, 
                1595, 
                3185, 
                1176, 
                2676, 
                1591, 
                325, 
                1320, 
                325, 
                2866, 
                2680, 
                574, 
                275, 
                2866, 
                3236, 
                3220, 
                2676
            ], 
            "WBL": [
                325
            ], 
            "AM2F": [
                325
            ], 
            "M1_ADJ": [
                0
            ]
        }, 
        "(11, 2)": {
            "WBF": [
                150
            ], 
            "AM2L": [
                2866
            ], 
            "BM1F": [
                1878
            ], 
            "M1": [
                992
            ], 
            "M2": [
                1320
            ], 
            "BM1L": [
                2909
            ], 
            "WBO": [
                37, 
                1595, 
                3185, 
                1176, 
                2676
            ], 
            "WBL": [
                325
            ], 
            "AM2F": [
                325
            ], 
            "M1_ADJ": [
                0
            ]
        }, 
        "sentence": "to my ear , a 160 kbps wma file sound just as good as the source cd , and the zen xtra sound just as good as a portable cd player ."
    }
}