{
    "937380945b7a721b7403148d0d455e73": {
        "location1": [
            8
        ], 
        "location2": [
            2
        ], 
        "(8, 2)": {
            "WBF": [
                3236
            ], 
            "AM2L": [
                2160
            ], 
            "BM1F": [
                1922
            ], 
            "M1": [
                1587
            ], 
            "M2": [
                1320
            ], 
            "BM1L": [
                2866
            ], 
            "WBO": [
                3220, 
                1562
            ], 
            "WBL": [
                3075
            ], 
            "AM2F": [
                1864
            ], 
            "M1_ADJ": [
                0
            ]
        }, 
        "sentence": "the nomad jukebox zen xtra is a very good mp3 player but the software is it gets hurt ."
    }
}