{
    "3bf21a4b29d090cbd158c4195701fcd2": {
        "location1": [
            1
        ], 
        "location2": [
            13
        ], 
        "(1, 13)": {
            "WBF": [
                2676
            ], 
            "AM2L": [
                244
            ], 
            "BM1F": [
                8
            ], 
            "M1": [
                1333
            ], 
            "M2": [
                2203
            ], 
            "WBO": [
                148, 
                2599, 
                2310, 
                404, 
                1558, 
                4, 
                3025, 
                2310
            ], 
            "WBL": [
                1320
            ], 
            "AM2F": [
                2042
            ], 
            "M1_ADJ": [
                1
            ]
        }, 
        "sentence": "1 ) great sound ( > 98db signal-to-noise ratio beat ipod 's `` unspecified `` ratio ) and good power output allow the zen xtra to drive large head-phones as well as external speaker ."
    }
}