{
    "d81555f22735886788ea73f1132e3c36": {
        "(3, 11)": {
            "WBF": [
                325
            ], 
            "AM2L": [
                3174
            ], 
            "BM1F": [
                3117
            ], 
            "M1": [
                1333
            ], 
            "M2": [
                3046
            ], 
            "BM1L": [
                2653
            ], 
            "WBO": [
                1706, 
                325, 
                3229, 
                1375
            ], 
            "WBL": [
                207
            ], 
            "AM2F": [
                175
            ], 
            "M1_ADJ": [
                1
            ]
        }, 
        "location1": [
            3
        ], 
        "location2": [
            11
        ], 
        "sentence": "the software was great , as long as you have an adminstrative user account ( window xp ) ."
    }
}