{
    "8eb5d2fca4a827e8e326a4df00c9b809": {
        "location1": [
            20
        ], 
        "location2": [
            26
        ], 
        "(20, 26)": {
            "WBF": [
                1690
            ], 
            "BM1F": [
                2882
            ], 
            "M1": [
                1333
            ], 
            "M2": [
                1271
            ], 
            "BM1L": [
                1987
            ], 
            "WBO": [
                2906, 
                2136
            ], 
            "WBL": [
                894
            ], 
            "M1_ADJ": [
                1
            ]
        }, 
        "sentence": "the memory will hold an amazing amount of song , my entire collection of cd 's will all fit on this great little tiny piece of digital fun ."
    }
}