{
    "8eb5d2fca4a827e8e326a4df00c9b809": {
        "location1": [
            20
        ], 
        "location2": [
            1
        ], 
        "(20, 1)": {
            "WBF": [
                3168
            ], 
            "AM2L": [
                2906
            ], 
            "BM1F": [
                2866
            ], 
            "M1": [
                1792
            ], 
            "M2": [
                1333
            ], 
            "WBO": [
                1424, 
                273, 
                266, 
                271, 
                1971, 
                2666, 
                1878, 
                1056, 
                654, 
                1971, 
                574, 
                4, 
                3168, 
                242, 
                1201
            ], 
            "WBL": [
                2882
            ], 
            "AM2F": [
                1690
            ], 
            "M1_ADJ": [
                0
            ]
        }, 
        "sentence": "the memory will hold an amazing amount of song , my entire collection of cd 's will all fit on this great little tiny piece of digital fun ."
    }
}