{
    "2155dae2420356df58f64bd1e973732d": {
        "(4, 19)": {
            "WBF": [
                1825
            ], 
            "AM2L": [
                1681
            ], 
            "BM1F": [
                282
            ], 
            "M1": [
                1333
            ], 
            "M2": [
                1866
            ], 
            "BM1L": [
                1562
            ], 
            "WBO": [
                1363, 
                2909, 
                2006, 
                776, 
                1256, 
                2505, 
                1878, 
                1875, 
                1662, 
                3029, 
                937
            ], 
            "WBL": [
                3181
            ], 
            "AM2F": [
                2866
            ], 
            "M1_ADJ": [
                1
            ]
        }, 
        "location1": [
            4
        ], 
        "location2": [
            19
        ], 
        "sentence": "d ) software is another great misfortune -- hard to operate , crash frequently , screwed my music library up , doesnt work with mp4s , the list goes on and on"
    }
}