{
    "21ebed2a97f528417ad5da338ef26ef7": {
        "location1": [
            42
        ], 
        "location2": [
            28
        ], 
        "(42, 28)": {
            "WBF": [
                1490
            ], 
            "AM2L": [
                275
            ], 
            "BM1F": [
                325
            ], 
            "M1": [
                1398
            ], 
            "M2": [
                1333
            ], 
            "BM1L": [
                1156
            ], 
            "WBO": [
                1875, 
                2939, 
                735, 
                316, 
                1005, 
                2909, 
                3041, 
                221, 
                1764, 
                2866
            ], 
            "WBL": [
                523
            ], 
            "AM2F": [
                2676
            ], 
            "M1_ADJ": [
                0
            ]
        }, 
        "sentence": "now here the stuff you should know starting with the good thing : the screen is really big and the blue light in the back is perfect , fast as hell in music transfer , control are easy to use after mastering the scroll button , great sound and ive heard many mp3 player , a ton of different equilizer type deal on here ."
    }
}