{
    "0908662baf8f85d175cd9e342db17d3e": {
        "(3, 18)": {
            "WBF": [
                1075
            ], 
            "BM1F": [
                1562
            ], 
            "M1": [
                1333
            ], 
            "M2": [
                1386
            ], 
            "BM1L": [
                2676
            ], 
            "WBO": [
                3181, 
                2866, 
                2794, 
                995, 
                522, 
                1449, 
                1185, 
                995, 
                2991, 
                2650, 
                1449
            ], 
            "WBL": [
                888
            ], 
            "M1_ADJ": [
                1
            ]
        }, 
        "location1": [
            3
        ], 
        "location2": [
            18
        ], 
        "sentence": "the sound is great even with the supplied earbuds -- but i find earbuds uncomfortable so i use different headphone ."
    }, 
    "2f0c579001ddf9a71892e54a7ae11a15": {
        "(4, 7)": {
            "WBF": [
                3181
            ], 
            "AM2L": [
                3138
            ], 
            "BM1F": [
                2676
            ], 
            "M1": [
                1333
            ], 
            "M2": [
                1386
            ], 
            "BM1L": [
                3220
            ], 
            "WBO": [
                1320
            ], 
            "WBL": [
                1320
            ], 
            "AM2F": [
                275
            ], 
            "M1_ADJ": [
                1
            ]
        }, 
        "location1": [
            4
        ], 
        "location2": [
            7
        ], 
        "sentence": "the zen xtra sound great with good headphone and well recored mp3s ."
    }
}