{
    "3fd077cfdb53680671d6b273e8b56c20": {
        "(5, 12)": {
            "WBF": [
                2225
            ], 
            "AM2L": [
                2942
            ], 
            "BM1F": [
                150
            ], 
            "M1": [
                1333
            ], 
            "M2": [
                2456
            ], 
            "BM1L": [
                337
            ], 
            "WBO": [
                3181, 
                2857, 
                2653
            ], 
            "WBL": [
                1745
            ], 
            "AM2F": [
                275
            ], 
            "M1_ADJ": [
                1
            ]
        }, 
        "location1": [
            5
        ], 
        "location2": [
            12
        ], 
        "sentence": "a good player at a great price with terrible software that makes ripping and transferring way more difficult than it should be ."
    }
}