{
    "33f231b9745e1d5d1ef2a29379d0825d": {
        "(14, 7)": {
            "WBF": [
                1463
            ], 
            "AM2L": [
                237
            ], 
            "BM1F": [
                1460
            ], 
            "M1": [
                2908
            ], 
            "M2": [
                1335
            ], 
            "BM1L": [
                3181
            ], 
            "WBO": [
                3229, 
                1375, 
                1691
            ], 
            "WBL": [
                2019
            ], 
            "AM2F": [
                1421
            ], 
            "M1_ADJ": [
                0
            ]
        }, 
        "location1": [
            14
        ], 
        "location2": [
            7
        ], 
        "sentence": "-- > will not automatically transfer song with identical title ( if you have live album or greatest hit album , this will cause you inordinate frustration ) ."
    }
}