{
    "c17dc1715e1475263f7052f45d238a95": {
        "(3, 8)": {
            "WBF": [
                275
            ], 
            "AM2L": [
                2053
            ], 
            "BM1F": [
                2676
            ], 
            "M1": [
                1333
            ], 
            "M2": [
                307
            ], 
            "BM1L": [
                2637
            ], 
            "WBO": [
                1655
            ], 
            "WBL": [
                2862
            ], 
            "AM2F": [
                4
            ], 
            "M1_ADJ": [
                1
            ]
        }, 
        "location1": [
            3
        ], 
        "location2": [
            8
        ], 
        "sentence": "overall : small , sound great , and less expensive than apple 's overpriced ipod !"
    }
}