{
    "c17dc1715e1475263f7052f45d238a95": {
        "(3, 11)": {
            "WBF": [
                275
            ], 
            "BM1F": [
                2676
            ], 
            "M1": [
                1333
            ], 
            "M2": [
                1558
            ], 
            "BM1L": [
                2637
            ], 
            "WBO": [
                1655, 
                1105, 
                2862, 
                307
            ], 
            "WBL": [
                2053
            ], 
            "M1_ADJ": [
                1
            ]
        }, 
        "location1": [
            3
        ], 
        "location2": [
            11
        ], 
        "sentence": "overall : small , sound great , and less expensive than apple 's overpriced ipod !"
    }, 
    "b9bfe35c56e22b2e41d54ff0d9f5e938": {
        "location1": [
            29
        ], 
        "location2": [
            12
        ], 
        "(29, 12)": {
            "WBF": [
                1449
            ], 
            "AM2L": [
                1566
            ], 
            "BM1F": [
                1659
            ], 
            "M1": [
                1558
            ], 
            "M2": [
                1333
            ], 
            "BM1L": [
                1728
            ], 
            "WBO": [
                3117, 
                153, 
                2909, 
                1297, 
                2882, 
                103, 
                1847, 
                275, 
                2866, 
                434, 
                2082, 
                1562, 
                1566
            ], 
            "WBL": [
                325
            ], 
            "AM2F": [
                325
            ], 
            "M1_ADJ": [
                0
            ]
        }, 
        "sentence": "for a price that 's still less than even the lowest level ipod i was able to get this 40gb monster , and the best part is it work as great as it was advertised to and then some ."
    }, 
    "867804e0f600290b55597fc61d92689b": {
        "(0, 6)": {
            "WBF": [
                3058
            ], 
            "AM2L": [
                2866
            ], 
            "M1": [
                1333
            ], 
            "M2": [
                1558
            ], 
            "WBO": [
                103, 
                3098
            ], 
            "WBL": [
                1288
            ], 
            "AM2F": [
                1232
            ], 
            "M1_ADJ": [
                1
            ]
        }, 
        "location1": [
            0
        ], 
        "location2": [
            6
        ], 
        "sentence": "- great value 40gb vs 10 gb ipod for the price"
    }, 
    "8121831049060e4e814eb90a284743c5": {
        "location1": [
            12
        ], 
        "location2": [
            7
        ], 
        "(12, 7)": {
            "WBF": [
                1084
            ], 
            "AM2L": [
                1745
            ], 
            "BM1F": [
                852
            ], 
            "M1": [
                1558
            ], 
            "M2": [
                1333
            ], 
            "BM1L": [
                315
            ], 
            "WBO": [
                1320
            ], 
            "WBL": [
                275
            ], 
            "AM2F": [
                2676
            ], 
            "M1_ADJ": [
                0
            ]
        }, 
        "sentence": "ive seen em all , the archos , dell , ipod , everything ... good price and great sound makes this one the best in my opinion ."
    }, 
    "5e3b041ac6b9ad8129dd2adbb704bd4e": {
        "(7, 5)": {
            "WBFL": [
                1562
            ], 
            "BM1F": [
                2866
            ], 
            "M1": [
                1558
            ], 
            "M2": [
                1333
            ], 
            "BM1L": [
                2909
            ], 
            "M1_ADJ": [
                0
            ]
        }, 
        "location1": [
            7
        ], 
        "location2": [
            5
        ], 
        "sentence": "the price compared to the ipod is great ."
    }, 
    "4147498480996841498df2bb40d27af6": {
        "(10, 14)": {
            "WBF": [
                211
            ], 
            "AM2L": [
                400
            ], 
            "BM1F": [
                150
            ], 
            "M1": [
                1333
            ], 
            "M2": [
                1558
            ], 
            "BM1L": [
                1562
            ], 
            "WBO": [
                2045
            ], 
            "WBL": [
                2866
            ], 
            "AM2F": [
                4
            ], 
            "M1_ADJ": [
                1
            ]
        }, 
        "location1": [
            10
        ], 
        "location2": [
            14
        ], 
        "sentence": "5 ) the cheap , user-replaceable battery ( $ 50 from creative ) is a great advantage over the ipod 's battery which cost $ 100 to replace ."
    }, 
    "3bf21a4b29d090cbd158c4195701fcd2": {
        "location1": [
            1
        ], 
        "location2": [
            7
        ], 
        "(1, 7)": {
            "WBF": [
                2676
            ], 
            "AM2L": [
                3025
            ], 
            "BM1F": [
                8
            ], 
            "M1": [
                1333
            ], 
            "M2": [
                1558
            ], 
            "WBO": [
                148, 
                2599
            ], 
            "WBL": [
                404
            ], 
            "AM2F": [
                4
            ], 
            "M1_ADJ": [
                1
            ]
        }, 
        "sentence": "1 ) great sound ( > 98db signal-to-noise ratio beat ipod 's `` unspecified `` ratio ) and good power output allow the zen xtra to drive large head-phones as well as external speaker ."
    }
}