{
    "3bf21a4b29d090cbd158c4195701fcd2": {
        "(1, 17)": {
            "WBF": [
                2676
            ], 
            "AM2L": [
                2909
            ], 
            "BM1F": [
                8
            ], 
            "M1": [
                1333
            ], 
            "M2": [
                3236
            ], 
            "WBO": [
                148, 
                2599, 
                2310, 
                404, 
                1558, 
                4, 
                3025, 
                2310, 
                275, 
                1320, 
                2203, 
                2042
            ], 
            "WBL": [
                2866
            ], 
            "AM2F": [
                3220
            ], 
            "M1_ADJ": [
                1
            ]
        }, 
        "location1": [
            1
        ], 
        "location2": [
            17
        ], 
        "sentence": "1 ) great sound ( > 98db signal-to-noise ratio beat ipod 's `` unspecified `` ratio ) and good power output allow the zen xtra to drive large head-phones as well as external speaker ."
    }, 
    "2f0c579001ddf9a71892e54a7ae11a15": {
        "(4, 1)": {
            "WBF": [
                3220
            ], 
            "AM2L": [
                1320
            ], 
            "BM1F": [
                2866
            ], 
            "M1": [
                3236
            ], 
            "M2": [
                1333
            ], 
            "WBO": [
                2676
            ], 
            "WBL": [
                2676
            ], 
            "AM2F": [
                3181
            ], 
            "M1_ADJ": [
                0
            ]
        }, 
        "location1": [
            4
        ], 
        "location2": [
            1
        ], 
        "sentence": "the zen xtra sound great with good headphone and well recored mp3s ."
    }, 
    "93b83dad8de467af70db727ec3d5cebc": {
        "(27, 3)": {
            "WBF": [
                3220
            ], 
            "BM1F": [
                1615
            ], 
            "M1": [
                3236
            ], 
            "M2": [
                1333
            ], 
            "BM1L": [
                784
            ], 
            "WBO": [
                1371, 
                242, 
                2866, 
                1163, 
                2866, 
                1451, 
                1371, 
                275, 
                1463, 
                3229, 
                1297, 
                1463, 
                1261, 
                267, 
                3230, 
                1999, 
                1318, 
                2909, 
                2092, 
                79
            ], 
            "WBL": [
                2882
            ], 
            "AM2F": [
                2160
            ], 
            "M1_ADJ": [
                0
            ]
        }, 
        "location1": [
            27
        ], 
        "location2": [
            3
        ], 
        "sentence": "the creative lab zen xtra has all the feature the i-pod has and if you get if from amazon your only going to pay $ 300 for this great player ."
    }
}