{
    "6bcac49498fd30b88131b83404d6bfaf": {
        "(11, 12)": {
            "AM2L": [
                400
            ], 
            "BM1F": [
                2281
            ], 
            "M1": [
                1333
            ], 
            "M2": [
                1163
            ], 
            "BM1L": [
                2676
            ], 
            "WBNULL": [
                1
            ], 
            "AM2F": [
                1706
            ], 
            "M1_ADJ": [
                1
            ]
        }, 
        "location1": [
            11
        ], 
        "location2": [
            12
        ], 
        "sentence": "our special friend at creative gave this thing good sound quality , great feature , long battery life , and an unbeatable price ."
    }, 
    "93b83dad8de467af70db727ec3d5cebc": {
        "location1": [
            27
        ], 
        "location2": [
            8
        ], 
        "(27, 8)": {
            "WBF": [
                2866
            ], 
            "BM1F": [
                2866
            ], 
            "M1": [
                1163
            ], 
            "M2": [
                1333
            ], 
            "BM1L": [
                242
            ], 
            "WBO": [
                1451, 
                1371, 
                275, 
                1463, 
                3229, 
                1297, 
                1463, 
                1261, 
                267, 
                3230, 
                1999, 
                1318, 
                2909, 
                2092, 
                79
            ], 
            "WBL": [
                2882
            ], 
            "AM2F": [
                2160
            ], 
            "M1_ADJ": [
                0
            ]
        }, 
        "sentence": "the creative lab zen xtra has all the feature the i-pod has and if you get if from amazon your only going to pay $ 300 for this great player ."
    }, 
    "68a9b8ffda36ad44922fd9094de3d7c5": {
        "(5, 18)": {
            "WBF": [
                2160
            ], 
            "AM2L": [
                2864
            ], 
            "BM1F": [
                150
            ], 
            "M1": [
                1333
            ], 
            "M2": [
                1163
            ], 
            "BM1L": [
                2882
            ], 
            "WBO": [
                2864, 
                454, 
                2866, 
                1451, 
                364, 
                3181, 
                1005, 
                2909, 
                3041
            ], 
            "WBL": [
                2999
            ], 
            "AM2F": [
                2653
            ], 
            "M1_ADJ": [
                1
            ]
        }, 
        "location1": [
            5, 
            29
        ], 
        "location2": [
            18
        ], 
        "(29, 18)": {
            "WBF": [
                2653
            ], 
            "AM2L": [
                3152
            ], 
            "BM1F": [
                2999
            ], 
            "M1": [
                1163
            ], 
            "M2": [
                1333
            ], 
            "BM1L": [
                275
            ], 
            "WBO": [
                2864, 
                1562, 
                2605, 
                2909, 
                2999, 
                275, 
                3041
            ], 
            "WBL": [
                150
            ], 
            "AM2F": [
                2676
            ], 
            "M1_ADJ": [
                0
            ]
        }, 
        "sentence": "all in all this a great player that blow the i-pod away , with easy to use and understand feature , software that is simple to understand and use , and a great sound ( which is all that matter in a mp3 player ) ."
    }
}