{
    "4669d00c8621e9a0281e783c77782dd4": {
        "location1": [
            26
        ], 
        "location2": [
            19
        ], 
        "(26, 19)": {
            "WBF": [
                1851
            ], 
            "AM2L": [
                882
            ], 
            "BM1F": [
                2866
            ], 
            "M1": [
                2501
            ], 
            "M2": [
                1336
            ], 
            "BM1L": [
                1468
            ], 
            "WBO": [
                2780, 
                2862, 
                2866
            ], 
            "WBL": [
                4
            ], 
            "AM2F": [
                379
            ], 
            "M1_ADJ": [
                0
            ]
        }, 
        "sentence": "the lcd is larger than the previous model , the nx , and has a bright blue backlight which illuminates the screen more successfully than the nx 's green backlight did ."
    }
}