{
    "aa3b4b93145f716321721fa859b6e463": {
        "(30, 4)": {
            "WBF": [
                1562
            ], 
            "BM1F": [
                2909
            ], 
            "M1": [
                1864
            ], 
            "M2": [
                1363
            ], 
            "BM1L": [
                2456
            ], 
            "WBO": [
                2650, 
                1005, 
                275, 
                3229, 
                543, 
                1075, 
                2453, 
                2866, 
                574, 
                900, 
                2909, 
                2866, 
                1864, 
                2160, 
                2650, 
                1566, 
                3186, 
                1881, 
                2834, 
                3029, 
                2682, 
                1987
            ], 
            "WBL": [
                2094
            ], 
            "AM2F": [
                963
            ], 
            "M1_ADJ": [
                0
            ]
        }, 
        "location1": [
            30
        ], 
        "location2": [
            4, 
            18
        ], 
        "(30, 18)": {
            "WBF": [
                2160
            ], 
            "BM1F": [
                2866
            ], 
            "M1": [
                1864
            ], 
            "M2": [
                1363
            ], 
            "BM1L": [
                2909
            ], 
            "WBO": [
                2650, 
                1566, 
                3186, 
                1881, 
                2834, 
                3029, 
                2682, 
                1987
            ], 
            "WBL": [
                2094
            ], 
            "AM2F": [
                963
            ], 
            "M1_ADJ": [
                0
            ]
        }, 
        "sentence": "the cd ripping to mp3 is so easy , and you can even rip the cd directly to the mp3 player , so it wo n't take up space on your pc hard drive ."
    }
}