{
    "2264f719eb82749d362e807f6f91259d": {
        "(35, 28)": {
            "WBF": [
                2875
            ], 
            "AM2L": [
                2909
            ], 
            "BM1F": [
                1569
            ], 
            "M1": [
                915
            ], 
            "M2": [
                1363
            ], 
            "BM1L": [
                1261
            ], 
            "WBO": [
                1877, 
                402, 
                747
            ], 
            "WBL": [
                282
            ], 
            "AM2F": [
                963
            ], 
            "M1_ADJ": [
                0
            ]
        }, 
        "location1": [
            35
        ], 
        "location2": [
            28
        ], 
        "sentence": "4 .the zen * store * data file , but does not allow a folder structure nor does it allow document to be opened or program to be launched from its disk ( they must be copied to another hard drive to be launched ) ."
    }, 
    "ca693a4c5df2c07f651e149646f822a6": {
        "(11, 12)": {
            "AM2L": [
                1566
            ], 
            "BM1F": [
                198
            ], 
            "M1": [
                1363
            ], 
            "M2": [
                915
            ], 
            "BM1L": [
                273
            ], 
            "WBNULL": [
                1
            ], 
            "AM2F": [
                2650
            ], 
            "M1_ADJ": [
                1
            ]
        }, 
        "location1": [
            11
        ], 
        "location2": [
            12
        ], 
        "sentence": "transfer through window explorer - window recognizes the jukebox as an additional hard disk , so it allows you to simply drag and drop file from window explorer to a folder for the nomad ."
    }, 
    "595586dcd393895e2ca8c8a038c133b3": {
        "(37, 38)": {
            "AM2L": [
                4
            ], 
            "BM1F": [
                150
            ], 
            "M1": [
                1363
            ], 
            "M2": [
                915
            ], 
            "BM1L": [
                1935
            ], 
            "WBNULL": [
                1
            ], 
            "AM2F": [
                1566
            ], 
            "M1_ADJ": [
                1
            ]
        }, 
        "location1": [
            37
        ], 
        "location2": [
            38
        ], 
        "sentence": "the zen does n't support folder so it is not really a storage device ; even with third party software that `` creates `` folder , document and program can 't be launched from the zen , so it is not a hard disk , it 's a storage device at best ."
    }
}