{
    "2e3f4a9da60918bdc961149cf8e14d7f": {
        "(15, 12)": {
            "WBF": [
                1232
            ], 
            "AM2L": [
                2160
            ], 
            "BM1F": [
                1320
            ], 
            "M1": [
                179
            ], 
            "M2": [
                1364
            ], 
            "BM1L": [
                877
            ], 
            "WBO": [
                150
            ], 
            "WBL": [
                150
            ], 
            "AM2F": [
                393
            ], 
            "M1_ADJ": [
                0
            ]
        }, 
        "location1": [
            15
        ], 
        "location2": [
            12
        ], 
        "sentence": "11 ) minimal pause between song - less than that on other device - good achievement for a hard-drive based player"
    }
}