{
    "df460eaf582c2debf712f5605d908023": {
        "location1": [
            17
        ], 
        "location2": [
            1
        ], 
        "(17, 1)": {
            "WBF": [
                2853
            ], 
            "AM2L": [
                236
            ], 
            "BM1F": [
                1878
            ], 
            "M1": [
                1345
            ], 
            "M2": [
                1363
            ], 
            "WBO": [
                1773, 
                2866, 
                1922, 
                3168, 
                1490, 
                2866, 
                1706, 
                2469, 
                402, 
                337, 
                434, 
                150
            ], 
            "WBL": [
                2187
            ], 
            "AM2F": [
                963
            ], 
            "M1_ADJ": [
                0
            ]
        }, 
        "sentence": "my gut tell me the nomad will in the long run be , at best , a 40gb portable hard drive , albeit one on which i can 't create folder , or , at worst , a very expensive lesson in company never to buy product from again ( i have their audigy sound card and find it in many way equally frustrating ) ."
    }
}