{
    "2264f719eb82749d362e807f6f91259d": {
        "(35, 3)": {
            "WBF": [
                817
            ], 
            "AM2L": [
                2909
            ], 
            "BM1F": [
                3236
            ], 
            "M1": [
                2748
            ], 
            "M2": [
                1363
            ], 
            "BM1L": [
                2866
            ], 
            "WBO": [
                1176, 
                522, 
                936, 
                1935, 
                244, 
                150, 
                1228, 
                2760, 
                1931, 
                936, 
                1566, 
                244, 
                933, 
                2909, 
                402, 
                2004, 
                2019, 
                2247, 
                2909, 
                402, 
                1634, 
                1261, 
                1569, 
                915, 
                2875, 
                1877, 
                402, 
                747
            ], 
            "WBL": [
                282
            ], 
            "AM2F": [
                963
            ], 
            "M1_ADJ": [
                0
            ]
        }, 
        "location1": [
            35
        ], 
        "location2": [
            3
        ], 
        "sentence": "4 .the zen * store * data file , but does not allow a folder structure nor does it allow document to be opened or program to be launched from its disk ( they must be copied to another hard drive to be launched ) ."
    }
}