{
    "595586dcd393895e2ca8c8a038c133b3": {
        "(37, 12)": {
            "WBF": [
                877
            ], 
            "AM2L": [
                1566
            ], 
            "BM1F": [
                150
            ], 
            "M1": [
                2747
            ], 
            "M2": [
                1363
            ], 
            "BM1L": [
                2325
            ], 
            "WBO": [
                1075, 
                3181, 
                2880, 
                2086, 
                2653, 
                2864, 
                781, 
                1228, 
                933, 
                275, 
                2247, 
                543, 
                5, 
                402, 
                1634, 
                1261, 
                2866, 
                3236, 
                2650, 
                1566, 
                1562
            ], 
            "WBL": [
                150
            ], 
            "AM2F": [
                915
            ], 
            "M1_ADJ": [
                0
            ]
        }, 
        "location1": [
            37
        ], 
        "location2": [
            12, 
            42
        ], 
        "(37, 42)": {
            "WBF": [
                915
            ], 
            "AM2L": [
                337
            ], 
            "BM1F": [
                150
            ], 
            "M1": [
                1363
            ], 
            "M2": [
                2747
            ], 
            "BM1L": [
                1935
            ], 
            "WBO": [
                1566
            ], 
            "WBL": [
                150
            ], 
            "AM2F": [
                877
            ], 
            "M1_ADJ": [
                1
            ]
        }, 
        "sentence": "the zen does n't support folder so it is not really a storage device ; even with third party software that `` creates `` folder , document and program can 't be launched from the zen , so it is not a hard disk , it 's a storage device at best ."
    }
}