{
    "0c4de298f25d33f98c423488a7bd4745": {
        "(13, 8)": {
            "WBF": [
                522
            ], 
            "AM2L": [
                1591
            ], 
            "BM1F": [
                528
            ], 
            "M1": [
                489
            ], 
            "M2": [
                1363
            ], 
            "BM1L": [
                1490
            ], 
            "WBO": [
                1994
            ], 
            "WBL": [
                2866
            ], 
            "AM2F": [
                963
            ], 
            "M1_ADJ": [
                0
            ]
        }, 
        "location1": [
            13
        ], 
        "location2": [
            8
        ], 
        "sentence": "always carried it in a case in by briefcase but one day the hard drive just zapped ."
    }
}