{
    "df460eaf582c2debf712f5605d908023": {
        "(17, 27)": {
            "WBF": [
                963
            ], 
            "AM2L": [
                337
            ], 
            "BM1F": [
                2187
            ], 
            "M1": [
                1363
            ], 
            "M2": [
                1228
            ], 
            "BM1L": [
                103
            ], 
            "WBO": [
                236, 
                1994, 
                1987, 
                3152, 
                1449, 
                543
            ], 
            "WBL": [
                779
            ], 
            "AM2F": [
                2019
            ], 
            "M1_ADJ": [
                1
            ]
        }, 
        "location1": [
            17
        ], 
        "location2": [
            27
        ], 
        "sentence": "my gut tell me the nomad will in the long run be , at best , a 40gb portable hard drive , albeit one on which i can 't create folder , or , at worst , a very expensive lesson in company never to buy product from again ( i have their audigy sound card and find it in many way equally frustrating ) ."
    }, 
    "ca693a4c5df2c07f651e149646f822a6": {
        "(11, 28)": {
            "WBF": [
                915
            ], 
            "AM2L": [
                2866
            ], 
            "BM1F": [
                198
            ], 
            "M1": [
                1363
            ], 
            "M2": [
                1228
            ], 
            "BM1L": [
                273
            ], 
            "WBO": [
                2650, 
                1566, 
                247, 
                3229, 
                2909, 
                2607, 
                957, 
                275, 
                966, 
                1176, 
                1261, 
                3174, 
                1113
            ], 
            "WBL": [
                150
            ], 
            "AM2F": [
                1232
            ], 
            "M1_ADJ": [
                1
            ]
        }, 
        "location1": [
            11
        ], 
        "location2": [
            28
        ], 
        "sentence": "transfer through window explorer - window recognizes the jukebox as an additional hard disk , so it allows you to simply drag and drop file from window explorer to a folder for the nomad ."
    }, 
    "2264f719eb82749d362e807f6f91259d": {
        "location1": [
            35
        ], 
        "location2": [
            11
        ], 
        "(35, 11)": {
            "WBF": [
                2760
            ], 
            "AM2L": [
                2909
            ], 
            "BM1F": [
                150
            ], 
            "M1": [
                1228
            ], 
            "M2": [
                1363
            ], 
            "BM1L": [
                244
            ], 
            "WBO": [
                1931, 
                936, 
                1566, 
                244, 
                933, 
                2909, 
                402, 
                2004, 
                2019, 
                2247, 
                2909, 
                402, 
                1634, 
                1261, 
                1569, 
                915, 
                2875, 
                1877, 
                402, 
                747
            ], 
            "WBL": [
                282
            ], 
            "AM2F": [
                963
            ], 
            "M1_ADJ": [
                0
            ]
        }, 
        "sentence": "4 .the zen * store * data file , but does not allow a folder structure nor does it allow document to be opened or program to be launched from its disk ( they must be copied to another hard drive to be launched ) ."
    }, 
    "595586dcd393895e2ca8c8a038c133b3": {
        "location1": [
            37
        ], 
        "location2": [
            5, 
            21
        ], 
        "(37, 21)": {
            "WBF": [
                933
            ], 
            "AM2L": [
                1566
            ], 
            "BM1F": [
                781
            ], 
            "M1": [
                1228
            ], 
            "M2": [
                1363
            ], 
            "BM1L": [
                2864
            ], 
            "WBO": [
                275, 
                2247, 
                543, 
                5, 
                402, 
                1634, 
                1261, 
                2866, 
                3236, 
                2650, 
                1566, 
                1562
            ], 
            "WBL": [
                150
            ], 
            "AM2F": [
                915
            ], 
            "M1_ADJ": [
                0
            ]
        }, 
        "(37, 5)": {
            "WBF": [
                2650
            ], 
            "AM2L": [
                1566
            ], 
            "BM1F": [
                2797
            ], 
            "M1": [
                1228
            ], 
            "M2": [
                1363
            ], 
            "BM1L": [
                1881
            ], 
            "WBO": [
                1566, 
                1562, 
                1935, 
                2325, 
                150, 
                2747, 
                877, 
                1075, 
                3181, 
                2880, 
                2086, 
                2653, 
                2864, 
                781, 
                1228, 
                933, 
                275, 
                2247, 
                543, 
                5, 
                402, 
                1634, 
                1261, 
                2866, 
                3236, 
                2650, 
                1566, 
                1562
            ], 
            "WBL": [
                150
            ], 
            "AM2F": [
                915
            ], 
            "M1_ADJ": [
                0
            ]
        }, 
        "sentence": "the zen does n't support folder so it is not really a storage device ; even with third party software that `` creates `` folder , document and program can 't be launched from the zen , so it is not a hard disk , it 's a storage device at best ."
    }
}