{
    "df460eaf582c2debf712f5605d908023": {
        "(17, 54)": {
            "WBF": [
                963
            ], 
            "AM2L": [
                1265
            ], 
            "BM1F": [
                2187
            ], 
            "M1": [
                1363
            ], 
            "M2": [
                3123
            ], 
            "BM1L": [
                103
            ], 
            "WBO": [
                236, 
                1994, 
                1987, 
                3152, 
                1449, 
                543, 
                5, 
                779, 
                1228, 
                2019, 
                337, 
                3200, 
                150, 
                3075, 
                1105, 
                1656, 
                1490, 
                675, 
                1902, 
                2909, 
                524, 
                2242, 
                1261, 
                222, 
                1449, 
                1375, 
                2868, 
                346, 
                2676, 
                554, 
                275, 
                1185, 
                1566
            ], 
            "WBL": [
                1758
            ], 
            "AM2F": [
                1063
            ], 
            "M1_ADJ": [
                1
            ]
        }, 
        "location1": [
            17
        ], 
        "location2": [
            54
        ], 
        "sentence": "my gut tell me the nomad will in the long run be , at best , a 40gb portable hard drive , albeit one on which i can 't create folder , or , at worst , a very expensive lesson in company never to buy product from again ( i have their audigy sound card and find it in many way equally frustrating ) ."
    }, 
    "f8e21ab1b8a57bce5633ca8027b19bb4": {
        "(29, 5)": {
            "WBF": [
                2909
            ], 
            "AM2L": [
                1535
            ], 
            "BM1F": [
                2043
            ], 
            "M1": [
                3123
            ], 
            "M2": [
                1363
            ], 
            "BM1L": [
                273
            ], 
            "WBO": [
                2594, 
                1875, 
                437, 
                2680, 
                3229, 
                543, 
                5, 
                931, 
                2882, 
                1987, 
                2866, 
                1558, 
                1094, 
                1232, 
                150, 
                793, 
                3192, 
                3049, 
                2866, 
                1558
            ], 
            "WBL": [
                150
            ], 
            "AM2F": [
                963
            ], 
            "M1_ADJ": [
                0
            ]
        }, 
        "location1": [
            29
        ], 
        "location2": [
            5
        ], 
        "sentence": "the zen is an outstanding way to shuttle music between source , you can 't do this on the ipod ( except for a cumbersome work-around using the ipod as a hard drive instead of a player ) ."
    }
}