{
    "c2ead43cc4af6f210ad3be6a5066613c": {
        "location1": [
            4
        ], 
        "location2": [
            12
        ], 
        "(4, 12)": {
            "WBF": [
                963
            ], 
            "BM1F": [
                2866
            ], 
            "M1": [
                1363
            ], 
            "M2": [
                629
            ], 
            "BM1L": [
                1837
            ], 
            "WBO": [
                1591, 
                886, 
                1994, 
                1852
            ], 
            "WBL": [
                1878
            ], 
            "M1_ADJ": [
                1
            ]
        }, 
        "sentence": "in that model the hard drive just died one morning before my class ."
    }
}