{
    "814a355a03cfe25a41d31293be549801": {
        "(1, 3)": {
            "AM2L": [
                1005
            ], 
            "WBFL": [
                2420
            ], 
            "BM1F": [
                2866
            ], 
            "M1": [
                1407
            ], 
            "M2": [
                2501
            ], 
            "AM2F": [
                1562
            ], 
            "M1_ADJ": [
                1
            ]
        }, 
        "location1": [
            1
        ], 
        "location2": [
            3
        ], 
        "sentence": "the high resolution screen is easy to read and has a backlight ."
    }
}