{
    "05b005a587509a9b418bc7b414f03e1b": {
        "(1, 20)": {
            "WBF": [
                2747
            ], 
            "BM1F": [
                2234
            ], 
            "M1": [
                1446
            ], 
            "M2": [
                400
            ], 
            "WBO": [
                551, 
                1232, 
                2866, 
                2225, 
                1005, 
                2909, 
                1885, 
                543, 
                1840, 
                1099, 
                2162, 
                1987, 
                2866, 
                1219, 
                1371
            ], 
            "WBL": [
                2389
            ], 
            "M1_ADJ": [
                1
            ]
        }, 
        "location1": [
            1
        ], 
        "location2": [
            20
        ], 
        "sentence": "pro : huge storage capacity for the price , easy to navigate , can modify existing playlist on the fly , has a removable battery"
    }
}