{
    "0d9ef93f4b9430a1a5d9813011b8bc79": {
        "(4, 11)": {
            "WBF": [
                1163
            ], 
            "BM1F": [
                1971
            ], 
            "M1": [
                1543
            ], 
            "M2": [
                803
            ], 
            "BM1L": [
                1719
            ], 
            "WBO": [
                1496, 
                2782, 
                325
            ], 
            "WBL": [
                275
            ], 
            "M1_ADJ": [
                1
            ]
        }, 
        "location1": [
            4
        ], 
        "location2": [
            11
        ], 
        "sentence": "there are lot of interesting feature included such as eax , and customization ."
    }
}