{
    "8121831049060e4e814eb90a284743c5": {
        "(0, 13)": {
            "WBF": [
                2523
            ], 
            "AM2L": [
                2882
            ], 
            "M1": [
                1572
            ], 
            "M2": [
                2676
            ], 
            "WBO": [
                1024, 
                242, 
                2866, 
                315, 
                852, 
                1558, 
                1084, 
                1320, 
                2225
            ], 
            "WBL": [
                1333
            ], 
            "AM2F": [
                1745
            ], 
            "M1_ADJ": [
                1
            ]
        }, 
        "location1": [
            0
        ], 
        "location2": [
            13
        ], 
        "sentence": "ive seen em all , the archos , dell , ipod , everything ... good price and great sound makes this one the best in my opinion ."
    }, 
    "21ebed2a97f528417ad5da338ef26ef7": {
        "(45, 43)": {
            "AM2L": [
                1758
            ], 
            "WBFL": [
                275
            ], 
            "BM1F": [
                1333
            ], 
            "M1": [
                2676
            ], 
            "M2": [
                1572
            ], 
            "BM1L": [
                523
            ], 
            "AM2F": [
                1389
            ], 
            "M1_ADJ": [
                0
            ]
        }, 
        "location1": [
            45
        ], 
        "location2": [
            43
        ], 
        "sentence": "now here the stuff you should know starting with the good thing : the screen is really big and the blue light in the back is perfect , fast as hell in music transfer , control are easy to use after mastering the scroll button , great sound and ive heard many mp3 player , a ton of different equilizer type deal on here ."
    }
}