{
    "009a83596167fefb74ee4f99f3da73be": {
        "(9, 5)": {
            "WBF": [
                1951
            ], 
            "AM2L": [
                380
            ], 
            "BM1F": [
                2866
            ], 
            "M1": [
                3236
            ], 
            "M2": [
                1625
            ], 
            "BM1L": [
                3037
            ], 
            "WBO": [
                3181
            ], 
            "WBL": [
                150
            ], 
            "AM2F": [
                1947
            ], 
            "M1_ADJ": [
                0
            ]
        }, 
        "location1": [
            9
        ], 
        "location2": [
            5
        ], 
        "sentence": "the xtra improves upon the zen nx with a larger , now-blue backlit screen , which is infinitely better ."
    }
}