{
    "e781c09e3c443732c8f53703efb0b736": {
        "(8, 4)": {
            "WBF": [
                3147
            ], 
            "AM2L": [
                2019
            ], 
            "BM1F": [
                1050
            ], 
            "M1": [
                3097
            ], 
            "M2": [
                1625
            ], 
            "BM1L": [
                2265
            ], 
            "WBO": [
                710
            ], 
            "WBL": [
                2909
            ], 
            "AM2F": [
                1386
            ], 
            "M1_ADJ": [
                0
            ]
        }, 
        "location1": [
            8
        ], 
        "location2": [
            4
        ], 
        "sentence": "* does not provide enough volume when connected to larger headphone , or external receiver ( car radio ) ."
    }
}