{
    "d8737e5e75f38be5112109d102d4da02": {
        "(11, 35)": {
            "WBF": [
                2160
            ], 
            "AM2L": [
                1163
            ], 
            "BM1F": [
                150
            ], 
            "M1": [
                1624
            ], 
            "M2": [
                551
            ], 
            "BM1L": [
                3117
            ], 
            "WBO": [
                3152, 
                247, 
                1773, 
                2909, 
                1004, 
                2157, 
                286, 
                237, 
                1261, 
                1878, 
                654, 
                3150, 
                1449, 
                1315, 
                275, 
                2866, 
                3236, 
                3220, 
                4, 
                659
            ], 
            "WBL": [
                2225
            ], 
            "AM2F": [
                275
            ], 
            "M1_ADJ": [
                1
            ]
        }, 
        "location1": [
            11
        ], 
        "location2": [
            35
        ], 
        "sentence": "at the end of the day , what i wanted was a large-capacity player which allows me to easily play any album from my collection wherever i go , and the zen xtra 's combination of price , capacity and feature easily meet those criterion ."
    }
}