{
    "dd00a38d580f6f271c19d5bf9766fffb": {
        "(16, 19)": {
            "WBF": [
                2019
            ], 
            "BM1F": [
                150
            ], 
            "M1": [
                1623
            ], 
            "M2": [
                654
            ], 
            "BM1L": [
                1971
            ], 
            "WBO": [
                2637
            ], 
            "WBL": [
                2637
            ], 
            "M1_ADJ": [
                1
            ]
        }, 
        "location1": [
            16
        ], 
        "location2": [
            19
        ], 
        "sentence": "2 ) the player user interface ( ui ) is intuitive to use , and allows easy navigation of a large or small collection ."
    }
}