{
    "f44741557e15a6d5aa4732d78cf51b01": {
        "(10, 13)": {
            "WBF": [
                325
            ], 
            "BM1F": [
                325
            ], 
            "M1": [
                1665
            ], 
            "M2": [
                1558
            ], 
            "BM1L": [
                1935
            ], 
            "WBO": [
                2866
            ], 
            "WBL": [
                2866
            ], 
            "M1_ADJ": [
                1
            ]
        }, 
        "(6, 13)": {
            "WBF": [
                522
            ], 
            "BM1F": [
                2220
            ], 
            "M1": [
                1665
            ], 
            "M2": [
                1558
            ], 
            "BM1L": [
                1562
            ], 
            "WBO": [
                1935, 
                325, 
                1665
            ], 
            "WBL": [
                2866
            ], 
            "M1_ADJ": [
                1
            ]
        }, 
        "location1": [
            6, 
            10
        ], 
        "location2": [
            13
        ], 
        "sentence": "at 8 ounce it is pretty light but not as light as the ipod ."
    }, 
    "046321e6f46dfb8659079eb3d885696d": {
        "location1": [
            15
        ], 
        "location2": [
            22
        ], 
        "(15, 22)": {
            "WBF": [
                867
            ], 
            "BM1F": [
                275
            ], 
            "M1": [
                1665
            ], 
            "M2": [
                1558
            ], 
            "BM1L": [
                2637
            ], 
            "WBO": [
                423, 
                2628, 
                441
            ], 
            "WBL": [
                273
            ], 
            "M1_ADJ": [
                1
            ]
        }, 
        "sentence": "other plus : changable battery , load of presets for environment , decent construction , still quite small and light despite being slightly bigger than an ipod ."
    }
}