{
    "7c34e517718ef2880221cd7408e54f54": {
        "(6, 19)": {
            "WBF": [
                2767
            ], 
            "BM1F": [
                150
            ], 
            "M1": [
                1690
            ], 
            "M2": [
                562
            ], 
            "BM1L": [
                3041
            ], 
            "WBO": [
                723, 
                1669, 
                2866, 
                315, 
                1587, 
                2019, 
                2659, 
                1604, 
                1971
            ], 
            "WBL": [
                2419
            ], 
            "M1_ADJ": [
                1
            ]
        }, 
        "location1": [
            6
        ], 
        "location2": [
            19
        ], 
        "sentence": "the nomad zen could use a little sturdier construction like the archos jukebox or some kind of shock resistant case ."
    }
}