{
    "7c34e517718ef2880221cd7408e54f54": {
        "location1": [
            6
        ], 
        "location2": [
            8
        ], 
        "(6, 8)": {
            "AM2L": [
                2866
            ], 
            "WBFL": [
                2767
            ], 
            "BM1F": [
                150
            ], 
            "M1": [
                1690
            ], 
            "M2": [
                723
            ], 
            "BM1L": [
                3041
            ], 
            "AM2F": [
                1669
            ], 
            "M1_ADJ": [
                1
            ]
        }, 
        "sentence": "the nomad zen could use a little sturdier construction like the archos jukebox or some kind of shock resistant case ."
    }
}