{
    "33f231b9745e1d5d1ef2a29379d0825d": {
        "location1": [
            11
        ], 
        "location2": [
            15
        ], 
        "(11, 15)": {
            "WBF": [
                237
            ], 
            "AM2L": [
                2882
            ], 
            "BM1F": [
                1375
            ], 
            "M1": [
                1691
            ], 
            "M2": [
                1421
            ], 
            "BM1L": [
                3229
            ], 
            "WBO": [
                2019
            ], 
            "WBL": [
                1335
            ], 
            "AM2F": [
                237
            ], 
            "M1_ADJ": [
                1
            ]
        }, 
        "sentence": "-- > will not automatically transfer song with identical title ( if you have live album or greatest hit album , this will cause you inordinate frustration ) ."
    }
}