{
    "c797f7ccd54badc9e0db79b7ce27861a": {
        "location1": [
            27
        ], 
        "location2": [
            10
        ], 
        "(27, 10)": {
            "WBF": [
                150
            ], 
            "AM2L": [
                1987
            ], 
            "BM1F": [
                307
            ], 
            "M1": [
                595
            ], 
            "M2": [
                1742
            ], 
            "BM1L": [
                2999
            ], 
            "WBO": [
                2637, 
                1243, 
                2909, 
                2401, 
                325, 
                3138, 
                325, 
                2866, 
                1373, 
                1971, 
                2436, 
                1566, 
                3143
            ], 
            "WBL": [
                2975
            ], 
            "AM2F": [
                1133
            ], 
            "M1_ADJ": [
                0
            ]
        }, 
        "sentence": "price , along with the replaceable battery ( which i understand apple charge a small fortune to replace - as well as the hassle of returning it ) were the two main factor on why i picked the nomad ."
    }
}