{
    "27f13efb1c6d5d29bb29db0c4901feed": {
        "(1, 2)": {
            "AM2L": [
                2866
            ], 
            "BM1F": [
                2866
            ], 
            "M1": [
                1742
            ], 
            "M2": [
                2236
            ], 
            "AM2F": [
                3181
            ], 
            "WBNULL": [
                1
            ], 
            "M1_ADJ": [
                1
            ]
        }, 
        "location1": [
            1
        ], 
        "location2": [
            2
        ], 
        "sentence": "the main problem with the nomad jukebox zen xtra 30 gb is the software ."
    }
}