{
    "a361394cdc6999e5a0fe06836b4e3951": {
        "(2, 5)": {
            "WBF": [
                694
            ], 
            "AM2L": [
                1935
            ], 
            "BM1F": [
                1878
            ], 
            "M1": [
                1742
            ], 
            "M2": [
                2653
            ], 
            "BM1L": [
                1987
            ], 
            "WBO": [
                2866
            ], 
            "WBL": [
                2866
            ], 
            "AM2F": [
                882
            ], 
            "M1_ADJ": [
                1
            ]
        }, 
        "location1": [
            2
        ], 
        "location2": [
            5
        ], 
        "sentence": "on my main computer the software did not work right ."
    }, 
    "27f13efb1c6d5d29bb29db0c4901feed": {
        "location1": [
            1
        ], 
        "location2": [
            13
        ], 
        "(1, 13)": {
            "WBF": [
                2236
            ], 
            "BM1F": [
                2866
            ], 
            "M1": [
                1742
            ], 
            "M2": [
                2653
            ], 
            "WBO": [
                3181, 
                2866, 
                1922, 
                1587, 
                3236, 
                3220, 
                78, 
                1288
            ], 
            "WBL": [
                2866
            ], 
            "M1_ADJ": [
                1
            ]
        }, 
        "sentence": "the main problem with the nomad jukebox zen xtra 30 gb is the software ."
    }
}