{
    "b2d4e633a50cce494eea7a203213e6b5": {
        "(11, 4)": {
            "WBF": [
                3220
            ], 
            "AM2L": [
                1864
            ], 
            "BM1F": [
                2866
            ], 
            "M1": [
                3236
            ], 
            "M2": [
                1758
            ], 
            "BM1L": [
                1232
            ], 
            "WBO": [
                2692, 
                1232, 
                619
            ], 
            "WBL": [
                2416
            ], 
            "AM2F": [
                888
            ], 
            "M1_ADJ": [
                0
            ]
        }, 
        "location1": [
            11
        ], 
        "location2": [
            4
        ], 
        "sentence": "before asking for the zen xtra specifically for christmas i researched many different mp3 player but finally decided on this one , and now that i have it i could n't be happier and i 'm convinced it 's the best one out there ."
    }
}