{
    "21ebed2a97f528417ad5da338ef26ef7": {
        "location1": [
            47
        ], 
        "location2": [
            36
        ], 
        "(47, 36)": {
            "WBF": [
                221
            ], 
            "AM2L": [
                2160
            ], 
            "BM1F": [
                2909
            ], 
            "M1": [
                3041
            ], 
            "M2": [
                1758
            ], 
            "BM1L": [
                1005
            ], 
            "WBO": [
                1764, 
                2866, 
                2506, 
                523, 
                1333, 
                2676, 
                275
            ], 
            "WBL": [
                1389
            ], 
            "AM2F": [
                1864
            ], 
            "M1_ADJ": [
                0
            ]
        }, 
        "sentence": "now here the stuff you should know starting with the good thing : the screen is really big and the blue light in the back is perfect , fast as hell in music transfer , control are easy to use after mastering the scroll button , great sound and ive heard many mp3 player , a ton of different equilizer type deal on here ."
    }, 
    "a7a2a63d634d00419baf9b30a158cbe5": {
        "(13, 6)": {
            "WBF": [
                275
            ], 
            "AM2L": [
                685
            ], 
            "BM1F": [
                2909
            ], 
            "M1": [
                3041
            ], 
            "M2": [
                1758
            ], 
            "BM1L": [
                1005
            ], 
            "WBO": [
                3191, 
                1333, 
                1232
            ], 
            "WBL": [
                1445
            ], 
            "AM2F": [
                1375
            ], 
            "M1_ADJ": [
                0
            ]
        }, 
        "location1": [
            13
        ], 
        "location2": [
            6
        ], 
        "sentence": "the scroll wheel is easy to use and work great for me , however many have complained that the wheel is cumbersome and difficult to operate ."
    }, 
    "baf85a0b553ca7fd741513aae4904839": {
        "location1": [
            10
        ], 
        "location2": [
            36
        ], 
        "(10, 36)": {
            "WBF": [
                2032
            ], 
            "BM1F": [
                1971
            ], 
            "M1": [
                1758
            ], 
            "M2": [
                3041
            ], 
            "BM1L": [
                2864
            ], 
            "WBO": [
                2100, 
                3158, 
                1375, 
                2199, 
                1401, 
                3158, 
                1375, 
                1348, 
                2866, 
                2479, 
                1106, 
                2864, 
                2866, 
                2242, 
                1562, 
                837, 
                865, 
                275, 
                3168, 
                1935, 
                1424, 
                3029
            ], 
            "WBL": [
                1932
            ], 
            "M1_ADJ": [
                1
            ]
        }, 
        "sentence": "i 'm convinced by my own experience and that of many other people who have posted here who have had the same experience that the product is defectively designed , and will not hold up to normal use ."
    }, 
    "602351ae5883dd3c1b0573f9071110ed": {
        "(0, 15)": {
            "WBF": [
                1375
            ], 
            "AM2L": [
                1012
            ], 
            "M1": [
                1758
            ], 
            "M2": [
                3041
            ], 
            "WBO": [
                685, 
                154, 
                2866, 
                2653, 
                1496, 
                522, 
                1490, 
                1878, 
                2011, 
                1566, 
                4
            ], 
            "WBL": [
                2909
            ], 
            "AM2F": [
                275
            ], 
            "M1_ADJ": [
                1
            ]
        }, 
        "location1": [
            0
        ], 
        "location2": [
            15
        ], 
        "sentence": "many have complained about the software included but in my opinion it 's easy to use and effective ."
    }
}