{
    "df460eaf582c2debf712f5605d908023": {
        "(53, 10)": {
            "WBF": [
                402
            ], 
            "AM2L": [
                1063
            ], 
            "BM1F": [
                1706
            ], 
            "M1": [
                2469
            ], 
            "M2": [
                1758
            ], 
            "BM1L": [
                2866
            ], 
            "WBO": [
                337, 
                434, 
                150, 
                103, 
                2187, 
                1363, 
                963, 
                236, 
                1994, 
                1987, 
                3152, 
                1449, 
                543, 
                5, 
                779, 
                1228, 
                2019, 
                337, 
                3200, 
                150, 
                3075, 
                1105, 
                1656, 
                1490, 
                675, 
                1902, 
                2909, 
                524, 
                2242, 
                1261, 
                222, 
                1449, 
                1375, 
                2868, 
                346, 
                2676, 
                554, 
                275, 
                1185
            ], 
            "WBL": [
                1490
            ], 
            "AM2F": [
                3123
            ], 
            "M1_ADJ": [
                0
            ]
        }, 
        "location1": [
            53
        ], 
        "location2": [
            10
        ], 
        "sentence": "my gut tell me the nomad will in the long run be , at best , a 40gb portable hard drive , albeit one on which i can 't create folder , or , at worst , a very expensive lesson in company never to buy product from again ( i have their audigy sound card and find it in many way equally frustrating ) ."
    }
}