{
    "a0fdee29f22fcfa33ef66cdb8b74405c": {
        "(11, 16)": {
            "WBF": [
                2862
            ], 
            "AM2L": [
                1854
            ], 
            "BM1F": [
                1917
            ], 
            "M1": [
                1851
            ], 
            "M2": [
                1442
            ], 
            "BM1L": [
                2836
            ], 
            "WBO": [
                46
            ], 
            "WBL": [
                74
            ], 
            "AM2F": [
                337
            ], 
            "M1_ADJ": [
                1
            ]
        }, 
        "location1": [
            11
        ], 
        "location2": [
            16
        ], 
        "sentence": "the battery stay charged for a long time , and takes no more than 2 or 3 hour at most to fully recharge via the included ac adapter ."
    }
}