{
    "9b424d6365bac0f4f17ad2c4236e8f08": {
        "location1": [
            10
        ], 
        "location2": [
            2
        ], 
        "(10, 2)": {
            "WBF": [
                2236
            ], 
            "BM1F": [
                2506
            ], 
            "M1": [
                388
            ], 
            "M2": [
                1851
            ], 
            "BM1L": [
                2866
            ], 
            "WBO": [
                1744, 
                2866, 
                2844, 
                1971
            ], 
            "WBL": [
                2162
            ], 
            "AM2F": [
                1265
            ], 
            "M1_ADJ": [
                0
            ]
        }, 
        "sentence": "the scroll bar problem make the task of creating playlist more frustrating ."
    }
}