{
    "a0fdee29f22fcfa33ef66cdb8b74405c": {
        "(11, 7)": {
            "WBF": [
                275
            ], 
            "AM2L": [
                46
            ], 
            "BM1F": [
                1706
            ], 
            "M1": [
                2901
            ], 
            "M2": [
                1851
            ], 
            "BM1L": [
                150
            ], 
            "WBO": [
                2836
            ], 
            "WBL": [
                1917
            ], 
            "AM2F": [
                2862
            ], 
            "M1_ADJ": [
                0
            ]
        }, 
        "location1": [
            11
        ], 
        "location2": [
            7
        ], 
        "sentence": "the battery stay charged for a long time , and takes no more than 2 or 3 hour at most to fully recharge via the included ac adapter ."
    }, 
    "e823dccf754c11a8ec5a19b3ffb4f338": {
        "(8, 9)": {
            "AM2L": [
                1935
            ], 
            "BM1F": [
                1358
            ], 
            "M1": [
                1851
            ], 
            "M2": [
                2901
            ], 
            "BM1L": [
                2909
            ], 
            "WBNULL": [
                1
            ], 
            "AM2F": [
                2862
            ], 
            "M1_ADJ": [
                1
            ]
        }, 
        "location1": [
            8
        ], 
        "location2": [
            9
        ], 
        "sentence": "in fact , it caused my system to hang more time than not , so i uninstalled it and stuck with mediasource 100 % ."
    }
}