{
    "b9c3cfb01eca2d647b08e3a4c809cc68": {
        "(7, 41)": {
            "WBF": [
                1971
            ], 
            "BM1F": [
                3191
            ], 
            "M1": [
                1854
            ], 
            "M2": [
                877
            ], 
            "BM1L": [
                1566
            ], 
            "WBO": [
                2866, 
                2901, 
                522, 
                2873, 
                1562, 
                150, 
                1640, 
                797, 
                1232, 
                2218, 
                1566, 
                1591, 
                2447, 
                1903, 
                3046, 
                2491, 
                2875, 
                1375, 
                113, 
                133, 
                2779, 
                2306, 
                2659, 
                1185, 
                1566, 
                2650, 
                1265, 
                2864, 
                2875, 
                1591
            ], 
            "WBL": [
                2866
            ], 
            "M1_ADJ": [
                1
            ]
        }, 
        "location1": [
            7
        ], 
        "location2": [
            41
        ], 
        "sentence": "the scroll wheel is finicky ; it work most of the time but there is a learning curve for pressing it just right ; new user say they have 50 % - 75 % success rate ; some find it so frustrating that they just return the device ."
    }
}