{
    "d1f779c0a4484ba66d43fb877ca475d8": {
        "(2, 14)": {
            "WBF": [
                2160
            ], 
            "BM1F": [
                2882
            ], 
            "M1": [
                1864
            ], 
            "M2": [
                1558
            ], 
            "BM1L": [
                3181
            ], 
            "WBO": [
                3229, 
                1297, 
                1870, 
                1851, 
                1792, 
                1232, 
                1870, 
                1655
            ], 
            "WBL": [
                273
            ], 
            "M1_ADJ": [
                1
            ]
        }, 
        "location1": [
            2
        ], 
        "location2": [
            14
        ], 
        "sentence": "with this mp3 player you get much more memory for much less than an ipod ."
    }, 
    "8812abd94f2f4829367b5c99303eebd1": {
        "(11, 23)": {
            "WBF": [
                1587
            ], 
            "AM2L": [
                852
            ], 
            "BM1F": [
                784
            ], 
            "M1": [
                1864
            ], 
            "M2": [
                1558
            ], 
            "BM1L": [
                2866
            ], 
            "WBO": [
                1375, 
                2866, 
                434, 
                2676, 
                2281, 
                1971, 
                2874, 
                72
            ], 
            "WBL": [
                1588
            ], 
            "AM2F": [
                315
            ], 
            "M1_ADJ": [
                1
            ]
        }, 
        "location1": [
            11
        ], 
        "location2": [
            23
        ], 
        "sentence": "all review i 've seen seem to indicate that the creative mp3 jukebox have the best sound quality of these 2nd generation jukeboxed ( ipod , archos , dell , samsung ) ."
    }
}