{
    "6907bb010dae76e44e07aab7d20e448a": {
        "(24, 32)": {
            "WBF": [
                2160
            ], 
            "BM1F": [
                393
            ], 
            "M1": [
                1864
            ], 
            "M2": [
                1940
            ], 
            "BM1L": [
                1365
            ], 
            "WBO": [
                275, 
                3111, 
                2909, 
                2092
            ], 
            "WBL": [
                2909
            ], 
            "M1_ADJ": [
                1
            ]
        }, 
        "location1": [
            24
        ], 
        "location2": [
            32
        ], 
        "sentence": "so far i have no complaint and i recommend this to anyone who wants quality over appearance , also anyone who wants a harddrive based mp3 player and wants to pay next to nothing ."
    }
}