{
    "3e406d6f8231c62cced3fc27d645b1b8": {
        "location1": [
            6
        ], 
        "location2": [
            12
        ], 
        "(6, 12)": {
            "WBF": [
                2160
            ], 
            "BM1F": [
                1781
            ], 
            "M1": [
                1864
            ], 
            "M2": [
                2653
            ], 
            "BM1L": [
                150
            ], 
            "WBO": [
                1232, 
                1773
            ], 
            "WBL": [
                2866
            ], 
            "M1_ADJ": [
                1
            ]
        }, 
        "sentence": "what really made this a mediocre mp3 player for me was the software ."
    }, 
    "25e9ac3314edbb22f429a90632829517": {
        "(9, 3)": {
            "WBF": [
                3195
            ], 
            "AM2L": [
                1562
            ], 
            "BM1F": [
                2866
            ], 
            "M1": [
                2653
            ], 
            "M2": [
                1864
            ], 
            "BM1L": [
                1375
            ], 
            "WBO": [
                1188, 
                1946
            ], 
            "WBL": [
                2866
            ], 
            "AM2F": [
                2160
            ], 
            "M1_ADJ": [
                0
            ]
        }, 
        "location1": [
            9
        ], 
        "location2": [
            3
        ], 
        "sentence": "i have the software working fine now and the mp3 player is fantastic ."
    }, 
    "937380945b7a721b7403148d0d455e73": {
        "location1": [
            9
        ], 
        "location2": [
            13
        ], 
        "(9, 13)": {
            "WBF": [
                2160
            ], 
            "AM2L": [
                1566
            ], 
            "BM1F": [
                1320
            ], 
            "M1": [
                1864
            ], 
            "M2": [
                2653
            ], 
            "BM1L": [
                3075
            ], 
            "WBO": [
                522
            ], 
            "WBL": [
                2866
            ], 
            "AM2F": [
                1562
            ], 
            "M1_ADJ": [
                1
            ]
        }, 
        "sentence": "the nomad jukebox zen xtra is a very good mp3 player but the software is it gets hurt ."
    }, 
    "68a9b8ffda36ad44922fd9094de3d7c5": {
        "(38, 19)": {
            "WBF": [
                2864
            ], 
            "BM1F": [
                1163
            ], 
            "M1": [
                2653
            ], 
            "M2": [
                1864
            ], 
            "BM1L": [
                2999
            ], 
            "WBO": [
                1562, 
                2605, 
                2909, 
                2999, 
                275, 
                3041, 
                275, 
                150, 
                1333, 
                2676, 
                3152, 
                1562, 
                242, 
                2864, 
                1767
            ], 
            "WBL": [
                150
            ], 
            "AM2F": [
                2160
            ], 
            "M1_ADJ": [
                0
            ]
        }, 
        "location1": [
            38
        ], 
        "location2": [
            19
        ], 
        "sentence": "all in all this a great player that blow the i-pod away , with easy to use and understand feature , software that is simple to understand and use , and a great sound ( which is all that matter in a mp3 player ) ."
    }, 
    "9182663809b6095073a7d5f7266c9609": {
        "(11, 9)": {
            "AM2L": [
                1562
            ], 
            "WBFL": [
                2882
            ], 
            "BM1F": [
                2866
            ], 
            "M1": [
                2653
            ], 
            "M2": [
                1864
            ], 
            "BM1L": [
                3181
            ], 
            "AM2F": [
                2160
            ], 
            "M1_ADJ": [
                0
            ]
        }, 
        "location1": [
            11
        ], 
        "location2": [
            9
        ], 
        "sentence": "so once i worked out the problem with the software this mp3 player is worth the money it cost ."
    }, 
    "f36365781e2d87d761d5f6c5b23a90ab": {
        "(6, 9)": {
            "WBF": [
                2160
            ], 
            "AM2L": [
                1490
            ], 
            "BM1F": [
                784
            ], 
            "M1": [
                1864
            ], 
            "M2": [
                2653
            ], 
            "BM1L": [
                1878
            ], 
            "WBO": [
                1348
            ], 
            "WBL": [
                1348
            ], 
            "AM2F": [
                2236
            ], 
            "M1_ADJ": [
                1
            ]
        }, 
        "location1": [
            6
        ], 
        "location2": [
            9
        ], 
        "sentence": "in fact , each of my creative mp3 player had software problem in the first place ."
    }, 
    "5d8a1adbeeaf90d9f03da0b3810f9ee5": {
        "(8, 1)": {
            "WBF": [
                758
            ], 
            "AM2L": [
                3191
            ], 
            "BM1F": [
                2866
            ], 
            "M1": [
                2653
            ], 
            "M2": [
                1864
            ], 
            "WBO": [
                1881, 
                402, 
                436
            ], 
            "WBL": [
                2866
            ], 
            "AM2F": [
                2160
            ], 
            "M1_ADJ": [
                0
            ]
        }, 
        "location1": [
            8
        ], 
        "location2": [
            1
        ], 
        "sentence": "the software could n't be better and the mp3 player work like a dream , i could n't give this anything but a 5 , i wish there was a 6 ."
    }, 
    "f17720aeafd313670cd2350bf2e39041": {
        "(6, 29)": {
            "WBF": [
                2160
            ], 
            "AM2L": [
                3041
            ], 
            "BM1F": [
                1854
            ], 
            "M1": [
                1864
            ], 
            "M2": [
                2653
            ], 
            "BM1L": [
                528
            ], 
            "WBO": [
                1669, 
                1876, 
                275, 
                3172, 
                522, 
                1935, 
                784, 
                3183, 
                1944, 
                3229, 
                1896, 
                2909, 
                1753, 
                2359, 
                3230, 
                2162, 
                1566, 
                936, 
                1881
            ], 
            "WBL": [
                3144
            ], 
            "AM2F": [
                3229
            ], 
            "M1_ADJ": [
                1
            ]
        }, 
        "location1": [
            6
        ], 
        "location2": [
            29
        ], 
        "sentence": "m3u file are used by most mp3 player like musicmatch and winamp , but not creative - without notmad you need to manually recreate your playlist ) ; it does n't care what software you use to rip or catalog your music - creative or any other company - all my 12.5 gb of music were transferred to the zen with correct tag - hooray !"
    }
}