{
    "c8196ec4c983af49734af374c87665fd": {
        "(11, 35)": {
            "WBF": [
                2160
            ], 
            "AM2L": [
                3029
            ], 
            "BM1F": [
                1932
            ], 
            "M1": [
                1864
            ], 
            "M2": [
                2281
            ], 
            "BM1L": [
                150
            ], 
            "WBO": [
                3147, 
                3229, 
                3041, 
                2866, 
                1386, 
                2875, 
                1305, 
                3229, 
                1490, 
                2866, 
                481, 
                522, 
                1555, 
                78, 
                939, 
                1490, 
                150, 
                1907, 
                2072, 
                275
            ], 
            "WBL": [
                2676
            ], 
            "AM2F": [
                1317
            ], 
            "M1_ADJ": [
                1
            ]
        }, 
        "location1": [
            11
        ], 
        "location2": [
            35
        ], 
        "sentence": "on the subject of headphone , this thing seems like a normal mp3 player when you use the headphone they give you in the box , but invest 30 dollar in a nice pair and the sound quality goes up through the roof !"
    }, 
    "6907bb010dae76e44e07aab7d20e448a": {
        "location1": [
            24
        ], 
        "location2": [
            14
        ], 
        "(24, 14)": {
            "WBF": [
                2045
            ], 
            "AM2L": [
                275
            ], 
            "BM1F": [
                3111
            ], 
            "M1": [
                2281
            ], 
            "M2": [
                1864
            ], 
            "BM1L": [
                3158
            ], 
            "WBO": [
                304, 
                254, 
                288, 
                3158, 
                3111, 
                150
            ], 
            "WBL": [
                393
            ], 
            "AM2F": [
                2160
            ], 
            "M1_ADJ": [
                0
            ]
        }, 
        "sentence": "so far i have no complaint and i recommend this to anyone who wants quality over appearance , also anyone who wants a harddrive based mp3 player and wants to pay next to nothing ."
    }, 
    "ca72c2fb4eef254b80c4d2051a89c457": {
        "(6, 4)": {
            "WBFL": [
                1971
            ], 
            "BM1F": [
                896
            ], 
            "M1": [
                2281
            ], 
            "M2": [
                1864
            ], 
            "BM1L": [
                160
            ], 
            "AM2F": [
                1176
            ], 
            "M1_ADJ": [
                0
            ]
        }, 
        "location1": [
            6
        ], 
        "location2": [
            4
        ], 
        "sentence": "* eax equalizer accentuates dimished quality of mp3 file ."
    }, 
    "bdc192fe7f1f8ae65e2026ddd253541b": {
        "(8, 18)": {
            "WBF": [
                2160
            ], 
            "AM2L": [
                286
            ], 
            "BM1F": [
                784
            ], 
            "M1": [
                1864
            ], 
            "M2": [
                2281
            ], 
            "BM1L": [
                2034
            ], 
            "WBO": [
                316, 
                3075, 
                1320, 
                275, 
                1375, 
                2866
            ], 
            "WBL": [
                2676
            ], 
            "AM2F": [
                1971
            ], 
            "M1_ADJ": [
                1
            ]
        }, 
        "location1": [
            8
        ], 
        "location2": [
            18
        ], 
        "sentence": "it 's really a shame , because otherwise , creative mp3 player are very good , and have the best sound quality of any player on the market ."
    }, 
    "8812abd94f2f4829367b5c99303eebd1": {
        "location1": [
            11
        ], 
        "location2": [
            17
        ], 
        "(11, 17)": {
            "WBF": [
                1587
            ], 
            "AM2L": [
                2874
            ], 
            "BM1F": [
                784
            ], 
            "M1": [
                1864
            ], 
            "M2": [
                2281
            ], 
            "BM1L": [
                2866
            ], 
            "WBO": [
                1375, 
                2866
            ], 
            "WBL": [
                2676
            ], 
            "AM2F": [
                1971
            ], 
            "M1_ADJ": [
                1
            ]
        }, 
        "sentence": "all review i 've seen seem to indicate that the creative mp3 jukebox have the best sound quality of these 2nd generation jukeboxed ( ipod , archos , dell , samsung ) ."
    }
}