{
    "21ebed2a97f528417ad5da338ef26ef7": {
        "(48, 13)": {
            "WBF": [
                1562
            ], 
            "AM2L": [
                150
            ], 
            "BM1F": [
                2866
            ], 
            "M1": [
                2501
            ], 
            "M2": [
                1864
            ], 
            "BM1L": [
                2876
            ], 
            "WBO": [
                2325, 
                440, 
                275, 
                2866, 
                457, 
                1665, 
                1490, 
                2866, 
                373, 
                1562, 
                2104, 
                1156, 
                325, 
                1398, 
                1490, 
                1875, 
                2939, 
                735, 
                316, 
                1005, 
                2909, 
                3041, 
                221, 
                1764, 
                2866, 
                2506, 
                523, 
                1333, 
                2676, 
                275, 
                1572
            ], 
            "WBL": [
                1758
            ], 
            "AM2F": [
                2160
            ], 
            "M1_ADJ": [
                0
            ]
        }, 
        "location1": [
            48
        ], 
        "location2": [
            13
        ], 
        "sentence": "now here the stuff you should know starting with the good thing : the screen is really big and the blue light in the back is perfect , fast as hell in music transfer , control are easy to use after mastering the scroll button , great sound and ive heard many mp3 player , a ton of different equilizer type deal on here ."
    }
}