{
    "aa3b4b93145f716321721fa859b6e463": {
        "(18, 14)": {
            "WBF": [
                900
            ], 
            "AM2L": [
                2650
            ], 
            "BM1F": [
                2866
            ], 
            "M1": [
                574
            ], 
            "M2": [
                1864
            ], 
            "BM1L": [
                2453
            ], 
            "WBO": [
                2909
            ], 
            "WBL": [
                2866
            ], 
            "AM2F": [
                2160
            ], 
            "M1_ADJ": [
                0
            ]
        }, 
        "(4, 1)": {
            "WBF": [
                2456
            ], 
            "AM2L": [
                2650
            ], 
            "BM1F": [
                2866
            ], 
            "M1": [
                574
            ], 
            "M2": [
                1864
            ], 
            "WBO": [
                2909
            ], 
            "WBL": [
                2909
            ], 
            "AM2F": [
                1562
            ], 
            "M1_ADJ": [
                0
            ]
        }, 
        "sentence": "the cd ripping to mp3 is so easy , and you can even rip the cd directly to the mp3 player , so it wo n't take up space on your pc hard drive .", 
        "location2": [
            1, 
            14
        ], 
        "location1": [
            4, 
            18
        ], 
        "(4, 14)": {
            "WBF": [
                1562
            ], 
            "AM2L": [
                2909
            ], 
            "BM1F": [
                2909
            ], 
            "M1": [
                1864
            ], 
            "M2": [
                574
            ], 
            "BM1L": [
                2456
            ], 
            "WBO": [
                2650, 
                1005, 
                275, 
                3229, 
                543, 
                1075
            ], 
            "WBL": [
                2866
            ], 
            "AM2F": [
                900
            ], 
            "M1_ADJ": [
                1
            ]
        }, 
        "(18, 1)": {
            "WBF": [
                2456
            ], 
            "AM2L": [
                2650
            ], 
            "BM1F": [
                2866
            ], 
            "M1": [
                574
            ], 
            "M2": [
                1864
            ], 
            "WBO": [
                2909, 
                1864, 
                1562, 
                2650, 
                1005, 
                275, 
                3229, 
                543, 
                1075, 
                2453, 
                2866, 
                574, 
                900
            ], 
            "WBL": [
                2866
            ], 
            "AM2F": [
                2160
            ], 
            "M1_ADJ": [
                0
            ]
        }
    }
}