{
    "f685a3a0947843463825e1bb031ce248": {
        "location1": [
            5
        ], 
        "location2": [
            8
        ], 
        "(5, 8)": {
            "WBF": [
                2160
            ], 
            "AM2L": [
                1288
            ], 
            "BM1F": [
                1381
            ], 
            "M1": [
                1864
            ], 
            "M2": [
                3058
            ], 
            "BM1L": [
                1637
            ], 
            "WBO": [
                2866
            ], 
            "WBL": [
                2866
            ], 
            "AM2F": [
                2101
            ], 
            "M1_ADJ": [
                1
            ]
        }, 
        "sentence": "compared to other leading hdd mp3 player , the value per gb is the top ."
    }
}