{
    "f17720aeafd313670cd2350bf2e39041": {
        "(6, 42)": {
            "WBF": [
                2160
            ], 
            "AM2L": [
                1878
            ], 
            "BM1F": [
                1854
            ], 
            "M1": [
                1864
            ], 
            "M2": [
                675
            ], 
            "BM1L": [
                528
            ], 
            "WBO": [
                1669, 
                1876, 
                275, 
                3172, 
                522, 
                1935, 
                784, 
                3183, 
                1944, 
                3229, 
                1896, 
                2909, 
                1753, 
                2359, 
                3230, 
                2162, 
                1566, 
                936, 
                1881, 
                555, 
                3144, 
                2653, 
                3229, 
                3041, 
                2909, 
                2453, 
                2019, 
                566, 
                3230, 
                1875, 
                784, 
                2019
            ], 
            "WBL": [
                2032
            ], 
            "AM2F": [
                242
            ], 
            "M1_ADJ": [
                1
            ]
        }, 
        "location1": [
            6
        ], 
        "location2": [
            42
        ], 
        "sentence": "m3u file are used by most mp3 player like musicmatch and winamp , but not creative - without notmad you need to manually recreate your playlist ) ; it does n't care what software you use to rip or catalog your music - creative or any other company - all my 12.5 gb of music were transferred to the zen with correct tag - hooray !"
    }
}