{
    "4eb5f2954876bf5f8cf65bf5ee5d832b": {
        "(17, 4)": {
            "WBF": [
                2882
            ], 
            "BM1F": [
                275
            ], 
            "M1": [
                2694
            ], 
            "M2": [
                1864
            ], 
            "BM1L": [
                2225
            ], 
            "WBO": [
                1810, 
                402, 
                2866, 
                434, 
                524, 
                2037, 
                2873, 
                1232, 
                150
            ], 
            "WBL": [
                1792
            ], 
            "AM2F": [
                2160
            ], 
            "M1_ADJ": [
                0
            ]
        }, 
        "location1": [
            17
        ], 
        "location2": [
            4
        ], 
        "sentence": "considering the price and specs , this might be the best buy out there for a large memory mp3 player ."
    }
}