{
    "b2d4e633a50cce494eea7a203213e6b5": {
        "(13, 8)": {
            "WBF": [
                1449
            ], 
            "AM2L": [
                522
            ], 
            "BM1F": [
                1232
            ], 
            "M1": [
                619
            ], 
            "M2": [
                1864
            ], 
            "BM1L": [
                2692
            ], 
            "WBO": [
                2416
            ], 
            "WBL": [
                888
            ], 
            "AM2F": [
                2160
            ], 
            "M1_ADJ": [
                0
            ]
        }, 
        "location1": [
            13
        ], 
        "location2": [
            8
        ], 
        "sentence": "before asking for the zen xtra specifically for christmas i researched many different mp3 player but finally decided on this one , and now that i have it i could n't be happier and i 'm convinced it 's the best one out there ."
    }
}