{
    "f17720aeafd313670cd2350bf2e39041": {
        "(6, 9)": {
            "WBF": [
                2160
            ], 
            "AM2L": [
                3172
            ], 
            "BM1F": [
                1854
            ], 
            "M1": [
                1864
            ], 
            "M2": [
                1876
            ], 
            "BM1L": [
                528
            ], 
            "WBO": [
                1669
            ], 
            "WBL": [
                1669
            ], 
            "AM2F": [
                275
            ], 
            "M1_ADJ": [
                1
            ]
        }, 
        "location1": [
            6
        ], 
        "location2": [
            9
        ], 
        "sentence": "m3u file are used by most mp3 player like musicmatch and winamp , but not creative - without notmad you need to manually recreate your playlist ) ; it does n't care what software you use to rip or catalog your music - creative or any other company - all my 12.5 gb of music were transferred to the zen with correct tag - hooray !"
    }
}