{
    "c8196ec4c983af49734af374c87665fd": {
        "(11, 4)": {
            "WBF": [
                2882
            ], 
            "AM2L": [
                3147
            ], 
            "BM1F": [
                1971
            ], 
            "M1": [
                1386
            ], 
            "M2": [
                1864
            ], 
            "BM1L": [
                2774
            ], 
            "WBO": [
                2876, 
                2522, 
                1669
            ], 
            "WBL": [
                1932
            ], 
            "AM2F": [
                2160
            ], 
            "M1_ADJ": [
                0
            ]
        }, 
        "location1": [
            11
        ], 
        "location2": [
            4, 
            17
        ], 
        "(11, 17)": {
            "WBF": [
                2160
            ], 
            "AM2L": [
                1305
            ], 
            "BM1F": [
                1932
            ], 
            "M1": [
                1864
            ], 
            "M2": [
                1386
            ], 
            "BM1L": [
                150
            ], 
            "WBO": [
                3147, 
                3229
            ], 
            "WBL": [
                2866
            ], 
            "AM2F": [
                2875
            ], 
            "M1_ADJ": [
                1
            ]
        }, 
        "sentence": "on the subject of headphone , this thing seems like a normal mp3 player when you use the headphone they give you in the box , but invest 30 dollar in a nice pair and the sound quality goes up through the roof !"
    }
}