{
    "d7971a11f5508d7b68fd3dc153dd2301": {
        "(16, 23)": {
            "WBF": [
                2160
            ], 
            "BM1F": [
                2032
            ], 
            "M1": [
                1864
            ], 
            "M2": [
                2225
            ], 
            "BM1L": [
                286
            ], 
            "WBO": [
                337, 
                2864, 
                2617
            ], 
            "WBL": [
                2866
            ], 
            "M1_ADJ": [
                1
            ]
        }, 
        "location1": [
            16
        ], 
        "location2": [
            23
        ], 
        "sentence": "well surely this is a product that i recommend someone in getting rather than any other mp3 player ( at that size and the price ) ."
    }, 
    "4eb5f2954876bf5f8cf65bf5ee5d832b": {
        "(17, 2)": {
            "WBF": [
                275
            ], 
            "BM1F": [
                2866
            ], 
            "M1": [
                2225
            ], 
            "M2": [
                1864
            ], 
            "BM1L": [
                717
            ], 
            "WBO": [
                2694, 
                2882, 
                1810, 
                402, 
                2866, 
                434, 
                524, 
                2037, 
                2873, 
                1232, 
                150
            ], 
            "WBL": [
                1792
            ], 
            "AM2F": [
                2160
            ], 
            "M1_ADJ": [
                0
            ]
        }, 
        "location1": [
            17
        ], 
        "location2": [
            2
        ], 
        "sentence": "considering the price and specs , this might be the best buy out there for a large memory mp3 player ."
    }
}