{
    "4eb5f2954876bf5f8cf65bf5ee5d832b": {
        "(17, 10)": {
            "WBF": [
                2037
            ], 
            "BM1F": [
                434
            ], 
            "M1": [
                524
            ], 
            "M2": [
                1864
            ], 
            "BM1L": [
                2866
            ], 
            "WBO": [
                2873, 
                1232, 
                150
            ], 
            "WBL": [
                1792
            ], 
            "AM2F": [
                2160
            ], 
            "M1_ADJ": [
                0
            ]
        }, 
        "location1": [
            17
        ], 
        "location2": [
            10
        ], 
        "sentence": "considering the price and specs , this might be the best buy out there for a large memory mp3 player ."
    }
}