{
    "ca88fee0f48f7e3af6abbce6bb924179": {
        "(3, 16)": {
            "WBF": [
                2793
            ], 
            "BM1F": [
                2882
            ], 
            "M1": [
                1870
            ], 
            "M2": [
                1558
            ], 
            "BM1L": [
                713
            ], 
            "WBO": [
                2136, 
                1971, 
                1065, 
                415, 
                2166, 
                946, 
                1349, 
                150, 
                1328
            ], 
            "WBL": [
                273
            ], 
            "M1_ADJ": [
                1
            ]
        }, 
        "location1": [
            3
        ], 
        "location2": [
            16
        ], 
        "sentence": "please consider this much superior piece of equipment before plopping down half a grand for an ipod ."
    }, 
    "9cad5736da827e5d496c2741b7aabcef": {
        "(12, 8)": {
            "WBF": [
                522
            ], 
            "BM1F": [
                2866
            ], 
            "M1": [
                1558
            ], 
            "M2": [
                1870
            ], 
            "BM1L": [
                2862
            ], 
            "WBO": [
                1935
            ], 
            "WBL": [
                528
            ], 
            "M1_ADJ": [
                0
            ]
        }, 
        "location1": [
            12
        ], 
        "location2": [
            8
        ], 
        "sentence": "sure , it 's a little bigger than the ipod , but not by much ."
    }, 
    "a38439d7c15e4548fd748f4b11dd2e65": {
        "(3, 8)": {
            "WBF": [
                1512
            ], 
            "BM1F": [
                316
            ], 
            "M1": [
                1870
            ], 
            "M2": [
                1558
            ], 
            "BM1L": [
                735
            ], 
            "WBO": [
                2909
            ], 
            "WBL": [
                2605
            ], 
            "AM2F": [
                1994
            ], 
            "M1_ADJ": [
                1
            ]
        }, 
        "location1": [
            3
        ], 
        "location2": [
            8
        ], 
        "sentence": "- the control are much inferior to the simple ipod one ."
    }, 
    "d1f779c0a4484ba66d43fb877ca475d8": {
        "(10, 14)": {
            "WBF": [
                1655
            ], 
            "BM1F": [
                1232
            ], 
            "M1": [
                1870
            ], 
            "M2": [
                1558
            ], 
            "BM1L": [
                1792
            ], 
            "WBO": [
                2862
            ], 
            "WBL": [
                273
            ], 
            "M1_ADJ": [
                1
            ]
        }, 
        "location1": [
            6, 
            10
        ], 
        "location2": [
            14
        ], 
        "(6, 14)": {
            "WBF": [
                1851
            ], 
            "BM1F": [
                1297
            ], 
            "M1": [
                1870
            ], 
            "M2": [
                1558
            ], 
            "BM1L": [
                3229
            ], 
            "WBO": [
                1792, 
                1232, 
                1870, 
                1655
            ], 
            "WBL": [
                273
            ], 
            "M1_ADJ": [
                1
            ]
        }, 
        "sentence": "with this mp3 player you get much more memory for much less than an ipod ."
    }, 
    "d67db5a6180bd82bcfa586ef5b5d069d": {
        "(34, 20)": {
            "WBF": [
                1591
            ], 
            "AM2L": [
                524
            ], 
            "BM1F": [
                273
            ], 
            "M1": [
                1558
            ], 
            "M2": [
                1870
            ], 
            "BM1L": [
                524
            ], 
            "WBO": [
                2909, 
                2491, 
                3229, 
                1375, 
                273, 
                1558, 
                931, 
                1881, 
                476, 
                2882
            ], 
            "WBL": [
                150
            ], 
            "AM2F": [
                436
            ], 
            "M1_ADJ": [
                0
            ]
        }, 
        "location1": [
            34
        ], 
        "location2": [
            20, 
            27
        ], 
        "(34, 27)": {
            "WBF": [
                931
            ], 
            "AM2L": [
                524
            ], 
            "BM1F": [
                273
            ], 
            "M1": [
                1558
            ], 
            "M2": [
                1870
            ], 
            "BM1L": [
                1375
            ], 
            "WBO": [
                1881, 
                476, 
                2882
            ], 
            "WBL": [
                150
            ], 
            "AM2F": [
                436
            ], 
            "M1_ADJ": [
                0
            ]
        }, 
        "sentence": "also , you can store data on it , which is a plus . for all you people who want to buy an ipod just to say you have an ipod , do n't bother , this is a much better buy ."
    }
}