{
    "d65b4f9868df8c7ec371d1551ba95d22": {
        "(13, 14)": {
            "AM2L": [
                2866
            ], 
            "BM1F": [
                2919
            ], 
            "M1": [
                1870
            ], 
            "M2": [
                1766
            ], 
            "BM1L": [
                1562
            ], 
            "WBNULL": [
                1
            ], 
            "AM2F": [
                1490
            ], 
            "M1_ADJ": [
                1
            ]
        }, 
        "location1": [
            13
        ], 
        "location2": [
            14
        ], 
        "sentence": "the cut-outs for the control is not thought out as there is too much material in the way to adequately access the control , especially the scroll wheel ."
    }
}