{
    "d65b4f9868df8c7ec371d1551ba95d22": {
        "(13, 25)": {
            "WBF": [
                1766
            ], 
            "BM1F": [
                2919
            ], 
            "M1": [
                1870
            ], 
            "M2": [
                2506
            ], 
            "BM1L": [
                1562
            ], 
            "WBO": [
                1490, 
                2866, 
                3123, 
                2909, 
                203, 
                166, 
                2866, 
                735
            ], 
            "WBL": [
                2866
            ], 
            "AM2F": [
                3146
            ], 
            "M1_ADJ": [
                1
            ]
        }, 
        "location1": [
            13
        ], 
        "location2": [
            25
        ], 
        "sentence": "the cut-outs for the control is not thought out as there is too much material in the way to adequately access the control , especially the scroll wheel ."
    }
}