{
    "6bff76f5401264648b027c7bc10b42de": {
        "(3, 12)": {
            "WBF": [
                1672
            ], 
            "AM2L": [
                1562
            ], 
            "BM1F": [
                523
            ], 
            "M1": [
                1892
            ], 
            "M2": [
                2160
            ], 
            "BM1L": [
                2866
            ], 
            "WBO": [
                1281, 
                316, 
                1987, 
                2866, 
                2595
            ], 
            "WBL": [
                2866
            ], 
            "AM2F": [
                3152
            ], 
            "M1_ADJ": [
                1
            ]
        }, 
        "location1": [
            3
        ], 
        "location2": [
            12
        ], 
        "sentence": "all the button & neccessary lil ' gadget are on the side of the player which is nice for when you are holding it in the palm of your hand ."
    }
}