{
    "b9c3cfb01eca2d647b08e3a4c809cc68": {
        "location1": [
            22
        ], 
        "location2": [
            23
        ], 
        "(22, 23)": {
            "AM2L": [
                2875
            ], 
            "BM1F": [
                2447
            ], 
            "M1": [
                1903
            ], 
            "M2": [
                3046
            ], 
            "BM1L": [
                1591
            ], 
            "WBNULL": [
                1
            ], 
            "AM2F": [
                2491
            ], 
            "M1_ADJ": [
                1
            ]
        }, 
        "sentence": "the scroll wheel is finicky ; it work most of the time but there is a learning curve for pressing it just right ; new user say they have 50 % - 75 % success rate ; some find it so frustrating that they just return the device ."
    }, 
    "fe401e4c7ad5871abaee9660a3bbdd76": {
        "(32, 17)": {
            "WBF": [
                543
            ], 
            "BM1F": [
                2866
            ], 
            "M1": [
                3046
            ], 
            "M2": [
                1903
            ], 
            "BM1L": [
                2864
            ], 
            "WBO": [
                2401, 
                2866, 
                400, 
                1417, 
                1402, 
                528, 
                2005, 
                2866, 
                1663, 
                275, 
                2183
            ], 
            "WBL": [
                2866
            ], 
            "AM2F": [
                400
            ], 
            "M1_ADJ": [
                0
            ]
        }, 
        "location1": [
            32
        ], 
        "location2": [
            17
        ], 
        "sentence": "possibly the biggest advantage this player has ( if price was n't enough ) is the fact that the user can replace the battery him / herself by opening the lid and popping in the new battery ."
    }
}