{
    "241e92f11d46769e40d74aa4b77795f6": {
        "(1, 8)": {
            "WBF": [
                2027
            ], 
            "AM2L": [
                3220
            ], 
            "BM1F": [
                2866
            ], 
            "M1": [
                1903
            ], 
            "M2": [
                1922
            ], 
            "WBO": [
                2653, 
                2864, 
                2573
            ], 
            "WBL": [
                2866
            ], 
            "AM2F": [
                3236
            ], 
            "M1_ADJ": [
                1
            ]
        }, 
        "location1": [
            1
        ], 
        "location2": [
            8
        ], 
        "sentence": "the new organizer software that ship with the nomad zen xtra could n't be easier to use ."
    }, 
    "66ce466af1383f7ed6c6c49cbf3bf433": {
        "(3, 4)": {
            "AM2L": [
                1333
            ], 
            "BM1F": [
                1878
            ], 
            "M1": [
                1903
            ], 
            "M2": [
                1922
            ], 
            "BM1L": [
                1722
            ], 
            "WBNULL": [
                1
            ], 
            "AM2F": [
                1569
            ], 
            "M1_ADJ": [
                1
            ]
        }, 
        "location1": [
            3
        ], 
        "location2": [
            4
        ], 
        "sentence": "i love my new nomad , its great !"
    }
}