{
    "cef7009c693118f1f13f7521c361b2de": {
        "(17, 19)": {
            "AM2L": [
                325
            ], 
            "WBFL": [
                121
            ], 
            "BM1F": [
                2866
            ], 
            "M1": [
                1906
            ], 
            "M2": [
                1849
            ], 
            "BM1L": [
                1490
            ], 
            "AM2F": [
                407
            ], 
            "M1_ADJ": [
                1
            ]
        }, 
        "location1": [
            17
        ], 
        "location2": [
            19
        ], 
        "sentence": "i fully expect it to go bad again in the same or some other way in the next 6 month because , as other reviewer have pointed out , the construction is pretty flimsy ."
    }
}