{
    "0a00b74b0ff92b29a1f105bc7d87ff27": {
        "(16, 17)": {
            "AM2L": [
                528
            ], 
            "BM1F": [
                2325
            ], 
            "M1": [
                1907
            ], 
            "M2": [
                467
            ], 
            "BM1L": [
                150
            ], 
            "WBNULL": [
                1
            ], 
            "AM2F": [
                2019
            ], 
            "M1_ADJ": [
                1
            ]
        }, 
        "location1": [
            16
        ], 
        "location2": [
            17
        ], 
        "sentence": "playlist can be generated on the fly ( which is a bit clunky but still a really nice bonus ) or by using the software , and there are a bevy of eq option ."
    }
}