{
    "0a6d08e7c3843ce6c1cd49c684cfb9e0": {
        "(7, 22)": {
            "WBF": [
                1458
            ], 
            "BM1F": [
                150
            ], 
            "M1": [
                1907
            ], 
            "M2": [
                2507
            ], 
            "BM1L": [
                3117
            ], 
            "WBO": [
                2909, 
                1597, 
                1655, 
                649, 
                522, 
                2866, 
                523, 
                3204, 
                2663, 
                1297, 
                2762
            ], 
            "WBL": [
                1597
            ], 
            "M1_ADJ": [
                1
            ]
        }, 
        "location1": [
            7
        ], 
        "location2": [
            22
        ], 
        "sentence": "scroll button - the scroll wheel was a nice idea to keep less clutter , but the button would sometimes get stuck or keep scrolling ."
    }, 
    "e3acb2699c9fc9220bd3f2c7f00ad5c9": {
        "location1": [
            3
        ], 
        "location2": [
            6
        ], 
        "(3, 6)": {
            "WBF": [
                1050
            ], 
            "AM2L": [
                2512
            ], 
            "BM1F": [
                1562
            ], 
            "M1": [
                1907
            ], 
            "M2": [
                2507
            ], 
            "BM1L": [
                1887
            ], 
            "WBO": [
                522
            ], 
            "WBL": [
                522
            ], 
            "AM2F": [
                275
            ], 
            "M1_ADJ": [
                1
            ]
        }, 
        "sentence": "the navigation is nice enough , but scrolling and searching through thousand of track , hundred of album or artist , or even dozen of genre is not conducive to save driving ."
    }
}