{
    "c8196ec4c983af49734af374c87665fd": {
        "(30, 27)": {
            "WBF": [
                1490
            ], 
            "AM2L": [
                275
            ], 
            "BM1F": [
                78
            ], 
            "M1": [
                939
            ], 
            "M2": [
                1907
            ], 
            "BM1L": [
                1555
            ], 
            "WBO": [
                150
            ], 
            "WBL": [
                150
            ], 
            "AM2F": [
                2072
            ], 
            "M1_ADJ": [
                0
            ]
        }, 
        "location1": [
            30
        ], 
        "location2": [
            27
        ], 
        "sentence": "on the subject of headphone , this thing seems like a normal mp3 player when you use the headphone they give you in the box , but invest 30 dollar in a nice pair and the sound quality goes up through the roof !"
    }
}