{
    "dda5363374c02d2557ecec9085e01651": {
        "(3, 1)": {
            "WBFL": [
                1562
            ], 
            "BM1F": [
                2866
            ], 
            "M1": [
                400
            ], 
            "M1_ADJ": [
                0
            ], 
            "M2": [
                1907
            ]
        }, 
        "location1": [
            3
        ], 
        "location2": [
            1
        ], 
        "sentence": "the battery is nice ."
    }, 
    "92198989402e17a45ecbf5ef78c65e91": {
        "(21, 4)": {
            "WBF": [
                1664
            ], 
            "AM2L": [
                1198
            ], 
            "BM1F": [
                1706
            ], 
            "M1": [
                400
            ], 
            "M2": [
                1907
            ], 
            "BM1L": [
                3075
            ], 
            "WBO": [
                1449, 
                2466, 
                2157, 
                1566, 
                1232, 
                23, 
                1442, 
                3075, 
                1156, 
                2346, 
                2306, 
                2389, 
                400
            ], 
            "WBL": [
                2617
            ], 
            "AM2F": [
                2501
            ], 
            "M1_ADJ": [
                0
            ]
        }, 
        "(21, 18)": {
            "WBF": [
                2747
            ], 
            "AM2L": [
                1198
            ], 
            "BM1F": [
                2389
            ], 
            "M1": [
                400
            ], 
            "M2": [
                1907
            ], 
            "BM1L": [
                2306
            ], 
            "WBO": [
                2617
            ], 
            "WBL": [
                2617
            ], 
            "AM2F": [
                2501
            ], 
            "M1_ADJ": [
                0
            ]
        }, 
        "location1": [
            21
        ], 
        "location2": [
            4, 
            18
        ], 
        "sentence": "great sound , very long battery life ( i routinely play it for 12 + hour ) , very fast recharges rate , removable battery , storage size , nice screen , firmware update , and great price ."
    }
}