{
    "0e5f67b050553dd76a766dd94211c505": {
        "(0, 12)": {
            "WBF": [
                2074
            ], 
            "AM2L": [
                3229
            ], 
            "M1": [
                1907
            ], 
            "M2": [
                1565
            ], 
            "WBO": [
                2618, 
                3010, 
                2664, 
                441, 
                2872, 
                2866, 
                1558, 
                522
            ], 
            "WBL": [
                273
            ], 
            "AM2F": [
                1463
            ], 
            "M1_ADJ": [
                1
            ]
        }, 
        "location1": [
            0
        ], 
        "location2": [
            12
        ], 
        "sentence": "nice palm sized unit , somewhat bigger then the ipod but not an issue if you 're not going to try & jog with it or something ."
    }
}