{
    "7c980ce6e3db331419916b5538ddd428": {
        "location1": [
            10
        ], 
        "location2": [
            4
        ], 
        "(10, 4)": {
            "WBF": [
                1971
            ], 
            "AM2L": [
                3204
            ], 
            "BM1F": [
                1562
            ], 
            "M1": [
                2673
            ], 
            "M2": [
                1907
            ], 
            "BM1L": [
                523
            ], 
            "WBO": [
                281, 
                2909
            ], 
            "WBL": [
                150
            ], 
            "AM2F": [
                523
            ], 
            "M1_ADJ": [
                0
            ]
        }, 
        "sentence": "the scroll button is sort of annoying to push - a nice button would be nicer but eh , not a big deal ."
    }
}