{
    "6bff76f5401264648b027c7bc10b42de": {
        "(15, 5)": {
            "WBF": [
                316
            ], 
            "AM2L": [
                3147
            ], 
            "BM1F": [
                1672
            ], 
            "M1": [
                1281
            ], 
            "M2": [
                1907
            ], 
            "BM1L": [
                1892
            ], 
            "WBO": [
                1987, 
                2866, 
                2595, 
                1971, 
                2866, 
                2160
            ], 
            "WBL": [
                1562
            ], 
            "AM2F": [
                1232
            ], 
            "M1_ADJ": [
                0
            ]
        }, 
        "location1": [
            15
        ], 
        "location2": [
            5
        ], 
        "sentence": "all the button & neccessary lil ' gadget are on the side of the player which is nice for when you are holding it in the palm of your hand ."
    }
}