{
    "702438ed98f2b97a5f63641e00164027": {
        "(22, 28)": {
            "WBF": [
                1285
            ], 
            "AM2L": [
                2866
            ], 
            "BM1F": [
                150
            ], 
            "M1": [
                1942
            ], 
            "M2": [
                392
            ], 
            "BM1L": [
                1644
            ], 
            "WBO": [
                437, 
                2866
            ], 
            "WBL": [
                275
            ], 
            "AM2F": [
                1971
            ], 
            "M1_ADJ": [
                1
            ]
        }, 
        "location1": [
            22
        ], 
        "location2": [
            28
        ], 
        "sentence": "the construction of the player is the cheesiest i have ever seen -- the front panel refused to clip in correctly , leaving a noticeable gap between the panel and base of the player ."
    }
}