{
    "702438ed98f2b97a5f63641e00164027": {
        "location1": [
            22
        ], 
        "location2": [
            23
        ], 
        "(22, 23)": {
            "AM2L": [
                2866
            ], 
            "BM1F": [
                150
            ], 
            "M1": [
                1942
            ], 
            "M2": [
                1285
            ], 
            "BM1L": [
                1644
            ], 
            "WBNULL": [
                1
            ], 
            "AM2F": [
                437
            ], 
            "M1_ADJ": [
                1
            ]
        }, 
        "sentence": "the construction of the player is the cheesiest i have ever seen -- the front panel refused to clip in correctly , leaving a noticeable gap between the panel and base of the player ."
    }
}