{
    "f17720aeafd313670cd2350bf2e39041": {
        "(16, 1)": {
            "WBF": [
                316
            ], 
            "AM2L": [
                1896
            ], 
            "BM1F": [
                1734
            ], 
            "M1": [
                1176
            ], 
            "M2": [
                1944
            ], 
            "WBO": [
                3043, 
                528, 
                1854, 
                1864, 
                2160, 
                1669, 
                1876, 
                275, 
                3172, 
                522, 
                1935
            ], 
            "WBL": [
                3183
            ], 
            "AM2F": [
                3229
            ], 
            "M1_ADJ": [
                0
            ]
        }, 
        "location1": [
            16
        ], 
        "location2": [
            1
        ], 
        "sentence": "m3u file are used by most mp3 player like musicmatch and winamp , but not creative - without notmad you need to manually recreate your playlist ) ; it does n't care what software you use to rip or catalog your music - creative or any other company - all my 12.5 gb of music were transferred to the zen with correct tag - hooray !"
    }
}