{
    "2b1f02e9b598b4335a04065124706081": {
        "(4, 14)": {
            "WBF": [
                2653
            ], 
            "BM1F": [
                2866
            ], 
            "M1": [
                1944
            ], 
            "M2": [
                1488
            ], 
            "BM1L": [
                524
            ], 
            "WBO": [
                150, 
                3133, 
                226, 
                275, 
                1245, 
                2864
            ], 
            "WBL": [
                3063
            ], 
            "M1_ADJ": [
                1
            ]
        }, 
        "location1": [
            4
        ], 
        "location2": [
            14
        ], 
        "sentence": "i did buy the notmad software a week ago and found that a vast improvement ."
    }
}