{
    "2b1f02e9b598b4335a04065124706081": {
        "(4, 7)": {
            "WBF": [
                2653
            ], 
            "AM2L": [
                275
            ], 
            "BM1F": [
                2866
            ], 
            "M1": [
                1944
            ], 
            "M2": [
                3133
            ], 
            "BM1L": [
                524
            ], 
            "WBO": [
                150
            ], 
            "WBL": [
                150
            ], 
            "AM2F": [
                226
            ], 
            "M1_ADJ": [
                1
            ]
        }, 
        "location1": [
            4
        ], 
        "location2": [
            7
        ], 
        "sentence": "i did buy the notmad software a week ago and found that a vast improvement ."
    }
}