{
    "eb88968921d7cb163079768a48fd733a": {
        "(18, 16)": {
            "AM2L": [
                407
            ], 
            "WBFL": [
                4
            ], 
            "BM1F": [
                2361
            ], 
            "M1": [
                586
            ], 
            "M2": [
                1944
            ], 
            "BM1L": [
                1322
            ], 
            "AM2F": [
                2653
            ], 
            "M1_ADJ": [
                0
            ]
        }, 
        "location1": [
            18
        ], 
        "location2": [
            16
        ], 
        "sentence": "the software interface supplied was very easy to use but i went ahead and got red chair 's `` notmad `` software because of some advanced feature i wanted ."
    }
}