{
    "57a74e8be8d489d3048ecdc5e9e62e81": {
        "(0, 8)": {
            "WBF": [
                2876
            ], 
            "M1": [
                1999
            ], 
            "M2": [
                517
            ], 
            "WBO": [
                1828, 
                1261, 
                784, 
                1562
            ], 
            "WBL": [
                574
            ], 
            "M1_ADJ": [
                1
            ]
        }, 
        "location1": [
            0
        ], 
        "location2": [
            8
        ], 
        "sentence": "only thing missing from creative is a cd burner ."
    }
}