{
    "25da27d72af155af06e6c5874f503ef7": {
        "(10, 12)": {
            "AM2L": [
                2864
            ], 
            "WBFL": [
                123
            ], 
            "BM1F": [
                1562
            ], 
            "M1": [
                1999
            ], 
            "M2": [
                1442
            ], 
            "BM1L": [
                1664
            ], 
            "AM2F": [
                275
            ], 
            "M1_ADJ": [
                1
            ]
        }, 
        "location1": [
            10
        ], 
        "location2": [
            12
        ], 
        "sentence": "once again , the sound is awesome , the batterly life is only 6-8 hour , and that is because all my music is 320 kbps which does affect the battery life ."
    }, 
    "df802df13330b60399ef8b6c4a7f1791": {
        "(10, 13)": {
            "WBF": [
                1669
            ], 
            "BM1F": [
                1490
            ], 
            "M1": [
                1999
            ], 
            "M2": [
                1442
            ], 
            "BM1L": [
                2346
            ], 
            "WBO": [
                48
            ], 
            "WBL": [
                48
            ], 
            "M1_ADJ": [
                1
            ]
        }, 
        "location1": [
            10
        ], 
        "location2": [
            13
        ], 
        "sentence": "battery recharge , is an awesome thing , because it recharges in only like 2-3 hour ."
    }
}