{
    "1245c249dd265d331140ab5a14e99d42": {
        "location1": [
            1
        ], 
        "location2": [
            9
        ], 
        "(1, 9)": {
            "WBF": [
                2417
            ], 
            "AM2L": [
                2866
            ], 
            "BM1F": [
                1878
            ], 
            "M1": [
                1999
            ], 
            "M2": [
                2237
            ], 
            "WBO": [
                154, 
                2882, 
                2242, 
                697
            ], 
            "WBL": [
                2833
            ], 
            "AM2F": [
                275
            ], 
            "M1_ADJ": [
                1
            ]
        }, 
        "sentence": "my only reservation about this product concern the tagging process and the way it interacts with the software ."
    }
}