{
    "c59926d4de7d0d8aab8db084c3141f7d": {
        "location1": [
            1
        ], 
        "location2": [
            11
        ], 
        "(1, 11)": {
            "WBF": [
                2876
            ], 
            "AM2L": [
                2783
            ], 
            "BM1F": [
                2866
            ], 
            "M1": [
                1999
            ], 
            "M2": [
                766
            ], 
            "WBO": [
                1449, 
                931, 
                1881, 
                1669, 
                154, 
                2882
            ], 
            "WBL": [
                2866
            ], 
            "AM2F": [
                936
            ], 
            "M1_ADJ": [
                1
            ]
        }, 
        "sentence": "the only thing i do n't like about this is the cover does suck ."
    }
}