{
    "e36d6c54ed710942569ac8dc47ef1c8b": {
        "(1, 24)": {
            "WBF": [
                2975
            ], 
            "AM2L": [
                664
            ], 
            "BM1F": [
                2866
            ], 
            "M1": [
                1999
            ], 
            "M2": [
                562
            ], 
            "WBO": [
                2876, 
                2864, 
                2740, 
                1773, 
                1261, 
                1308, 
                1566, 
                112, 
                2718, 
                316, 
                2866, 
                1422, 
                2653, 
                2864, 
                664, 
                3181, 
                2866, 
                2824, 
                275
            ], 
            "WBL": [
                2948
            ], 
            "AM2F": [
                1566
            ], 
            "M1_ADJ": [
                1
            ]
        }, 
        "location1": [
            1
        ], 
        "location2": [
            24
        ], 
        "sentence": "the only two thing that stop me from giving it 5 star are the ho-hum software that comes with the system , and the traveling case it comes with ."
    }, 
    "8a31ba51febce8f3d665f6e34835eb2d": {
        "(19, 10)": {
            "WBF": [
                1562
            ], 
            "AM2L": [
                3229
            ], 
            "BM1F": [
                561
            ], 
            "M1": [
                562
            ], 
            "M2": [
                1999
            ], 
            "BM1L": [
                2864
            ], 
            "WBO": [
                2325, 
                2260, 
                275, 
                2909, 
                1773
            ], 
            "WBL": [
                2866
            ], 
            "AM2F": [
                170
            ], 
            "M1_ADJ": [
                0
            ]
        }, 
        "location1": [
            19
        ], 
        "location2": [
            10
        ], 
        "sentence": "the free ( i didnt know they still did that ) carrying case is really protective , and to me its the only accessory you need ( except good headphone ) ."
    }
}