{
    "07c7902d501403f2cfb77c7bc163b9a5": {
        "(1, 18)": {
            "WBF": [
                686
            ], 
            "AM2L": [
                931
            ], 
            "BM1F": [
                1878
            ], 
            "M1": [
                1999
            ], 
            "M2": [
                1864
            ], 
            "WBO": [
                3204, 
                402, 
                2864, 
                3229, 
                1896, 
                1457, 
                2832, 
                2864, 
                2836, 
                150, 
                3153, 
                2909, 
                931
            ], 
            "WBL": [
                3230
            ], 
            "AM2F": [
                1176
            ], 
            "M1_ADJ": [
                1
            ]
        }, 
        "location1": [
            1
        ], 
        "location2": [
            18
        ], 
        "sentence": "my only complaint would be that you need id3 tag & that takes a while to do if your mp3 file do n't have them ."
    }, 
    "eb5f7f84fb72e7589f2fbebf5436ab11": {
        "location1": [
            9
        ], 
        "location2": [
            4
        ], 
        "(9, 4)": {
            "WBF": [
                2160
            ], 
            "AM2L": [
                2255
            ], 
            "BM1F": [
                2032
            ], 
            "M1": [
                1864
            ], 
            "M2": [
                1999
            ], 
            "BM1L": [
                74
            ], 
            "WBO": [
                2882
            ], 
            "WBL": [
                3168
            ], 
            "AM2F": [
                3191
            ], 
            "M1_ADJ": [
                0
            ]
        }, 
        "sentence": "unlike my 3 other mp3 player , this thing will only work properly if you have id3 tag on all of your track ."
    }
}