{
    "700f48300fa8def127637b87e04b7e68": {
        "(12, 14)": {
            "AM2L": [
                400
            ], 
            "WBFL": [
                1994
            ], 
            "BM1F": [
                3117
            ], 
            "M1": [
                1999
            ], 
            "M2": [
                3123
            ], 
            "BM1L": [
                2873
            ], 
            "AM2F": [
                2866
            ], 
            "M1_ADJ": [
                1
            ]
        }, 
        "location1": [
            12
        ], 
        "location2": [
            14
        ], 
        "sentence": "it was easy enough to remove the front plate , and there was only one way the battery could be inserted ."
    }, 
    "1245c249dd265d331140ab5a14e99d42": {
        "location1": [
            1
        ], 
        "location2": [
            12
        ], 
        "(1, 12)": {
            "WBF": [
                2417
            ], 
            "AM2L": [
                1542
            ], 
            "BM1F": [
                1878
            ], 
            "M1": [
                1999
            ], 
            "M2": [
                3123
            ], 
            "WBO": [
                154, 
                2882, 
                2242, 
                697, 
                2866, 
                2833, 
                2237
            ], 
            "WBL": [
                2866
            ], 
            "AM2F": [
                1566
            ], 
            "M1_ADJ": [
                1
            ]
        }, 
        "sentence": "my only reservation about this product concern the tagging process and the way it interacts with the software ."
    }
}