{
    "9fab3fa1513794381fb4939e464dcc56": {
        "location1": [
            11
        ], 
        "location2": [
            2
        ], 
        "(11, 2)": {
            "WBF": [
                2281
            ], 
            "AM2L": [
                1371
            ], 
            "BM1F": [
                2866
            ], 
            "M1": [
                2676
            ], 
            "M2": [
                2032
            ], 
            "BM1L": [
                1199
            ], 
            "WBO": [
                1562, 
                1983, 
                522, 
                325, 
                337
            ], 
            "WBL": [
                1994
            ], 
            "AM2F": [
                2439
            ], 
            "M1_ADJ": [
                0
            ]
        }, 
        "sentence": "first , the sound quality is okay , but ( as at least one other reviewer has mentioned ) the eax can cause audio interference after about 30 minute ."
    }, 
    "e31dd62f55c1c30d4c665bd6ad5606e1": {
        "(13, 14)": {
            "AM2L": [
                2242
            ], 
            "BM1F": [
                3181
            ], 
            "M1": [
                2032
            ], 
            "M2": [
                2676
            ], 
            "BM1L": [
                3195
            ], 
            "WBNULL": [
                1
            ], 
            "AM2F": [
                448
            ], 
            "M1_ADJ": [
                1
            ]
        }, 
        "location1": [
            13
        ], 
        "location2": [
            14
        ], 
        "sentence": "the software is not good either and the driver has trouble working with other sound blaster product , which is very dumb ."
    }
}