{
    "371fcb1667fb81be4f3ab2087f44f90e": {
        "location1": [
            21
        ], 
        "location2": [
            8
        ], 
        "(21, 8)": {
            "WBF": [
                2609
            ], 
            "BM1F": [
                324
            ], 
            "M1": [
                237
            ], 
            "M2": [
                2032
            ], 
            "BM1L": [
                1296
            ], 
            "WBO": [
                2997, 
                1296, 
                3229, 
                1297, 
                1591, 
                242, 
                2934, 
                1490, 
                2864
            ], 
            "WBL": [
                1917
            ], 
            "AM2F": [
                929
            ], 
            "M1_ADJ": [
                0
            ]
        }, 
        "sentence": "you even can not navigate by genre / artist / album since under genre you get just all track in that genre , no other division ."
    }
}