{
    "2e3f4a9da60918bdc961149cf8e14d7f": {
        "location1": [
            9
        ], 
        "location2": [
            1
        ], 
        "(9, 1)": {
            "WBF": [
                2091
            ], 
            "AM2L": [
                1320
            ], 
            "BM1F": [
                21
            ], 
            "M1": [
                1816
            ], 
            "M2": [
                2032
            ], 
            "WBO": [
                437, 
                2666, 
                1655, 
                2862
            ], 
            "WBL": [
                1987
            ], 
            "AM2F": [
                877
            ], 
            "M1_ADJ": [
                0
            ]
        }, 
        "sentence": "11 ) minimal pause between song - less than that on other device - good achievement for a hard-drive based player"
    }
}