{
    "d7971a11f5508d7b68fd3dc153dd2301": {
        "location1": [
            15
        ], 
        "location2": [
            17
        ], 
        "(15, 17)": {
            "AM2L": [
                2864
            ], 
            "WBFL": [
                1864
            ], 
            "BM1F": [
                286
            ], 
            "M1": [
                2032
            ], 
            "M2": [
                2160
            ], 
            "BM1L": [
                2862
            ], 
            "AM2F": [
                337
            ], 
            "M1_ADJ": [
                1
            ]
        }, 
        "sentence": "well surely this is a product that i recommend someone in getting rather than any other mp3 player ( at that size and the price ) ."
    }, 
    "eb5f7f84fb72e7589f2fbebf5436ab11": {
        "(3, 5)": {
            "AM2L": [
                2876
            ], 
            "WBFL": [
                1864
            ], 
            "BM1F": [
                74
            ], 
            "M1": [
                2032
            ], 
            "M2": [
                2160
            ], 
            "BM1L": [
                1878
            ], 
            "AM2F": [
                2882
            ], 
            "M1_ADJ": [
                1
            ]
        }, 
        "location1": [
            3
        ], 
        "location2": [
            5
        ], 
        "sentence": "unlike my 3 other mp3 player , this thing will only work properly if you have id3 tag on all of your track ."
    }, 
    "f685a3a0947843463825e1bb031ce248": {
        "location1": [
            2
        ], 
        "location2": [
            6
        ], 
        "(2, 6)": {
            "WBF": [
                1637
            ], 
            "AM2L": [
                3058
            ], 
            "BM1F": [
                2909
            ], 
            "M1": [
                2032
            ], 
            "M2": [
                2160
            ], 
            "BM1L": [
                678
            ], 
            "WBO": [
                1381
            ], 
            "WBL": [
                1864
            ], 
            "AM2F": [
                2866
            ], 
            "M1_ADJ": [
                1
            ]
        }, 
        "sentence": "compared to other leading hdd mp3 player , the value per gb is the top ."
    }, 
    "2e3f4a9da60918bdc961149cf8e14d7f": {
        "(9, 17)": {
            "WBF": [
                877
            ], 
            "BM1F": [
                1987
            ], 
            "M1": [
                2032
            ], 
            "M2": [
                2160
            ], 
            "BM1L": [
                2864
            ], 
            "WBO": [
                1320, 
                179, 
                1232, 
                150
            ], 
            "WBL": [
                393
            ], 
            "M1_ADJ": [
                1
            ]
        }, 
        "location1": [
            9
        ], 
        "location2": [
            17
        ], 
        "sentence": "11 ) minimal pause between song - less than that on other device - good achievement for a hard-drive based player"
    }, 
    "042d659e2571a54ac6dd267df5c94471": {
        "location1": [
            24
        ], 
        "location2": [
            25
        ], 
        "(24, 25)": {
            "BM1F": [
                1987
            ], 
            "M1": [
                2032
            ], 
            "M2": [
                2160
            ], 
            "BM1L": [
                1320
            ], 
            "WBNULL": [
                1
            ], 
            "M1_ADJ": [
                1
            ]
        }, 
        "sentence": "i must have differing preference than others here , as i prefer the supplied earbuds to the sony 's that i thought sounded good on other player ."
    }, 
    "63b191a3a9ad3bc38caa73ddb3d65fb1": {
        "location1": [
            1
        ], 
        "location2": [
            7, 
            12
        ], 
        "(1, 7)": {
            "WBF": [
                2100
            ], 
            "AM2L": [
                2840
            ], 
            "BM1F": [
                407
            ], 
            "M1": [
                2032
            ], 
            "M2": [
                2160
            ], 
            "WBO": [
                2864, 
                684
            ], 
            "WBL": [
                2882
            ], 
            "AM2F": [
                316
            ], 
            "M1_ADJ": [
                1
            ]
        }, 
        "(1, 12)": {
            "WBF": [
                2100
            ], 
            "AM2L": [
                367
            ], 
            "BM1F": [
                407
            ], 
            "M1": [
                2032
            ], 
            "M2": [
                2160
            ], 
            "WBO": [
                2864, 
                684, 
                154, 
                2882, 
                2160, 
                316, 
                2840
            ], 
            "WBL": [
                2882
            ], 
            "AM2F": [
                1562
            ], 
            "M1_ADJ": [
                1
            ]
        }, 
        "sentence": "because other people that complain about this player are talking bull , this player is awesome , it just break fast , which is horrible ."
    }, 
    "f17720aeafd313670cd2350bf2e39041": {
        "(41, 7)": {
            "WBF": [
                1669
            ], 
            "AM2L": [
                242
            ], 
            "BM1F": [
                1864
            ], 
            "M1": [
                2160
            ], 
            "M2": [
                2032
            ], 
            "BM1L": [
                1854
            ], 
            "WBO": [
                1876, 
                275, 
                3172, 
                522, 
                1935, 
                784, 
                3183, 
                1944, 
                3229, 
                1896, 
                2909, 
                1753, 
                2359, 
                3230, 
                2162, 
                1566, 
                936, 
                1881, 
                555, 
                3144, 
                2653, 
                3229, 
                3041, 
                2909, 
                2453, 
                2019, 
                566, 
                3230, 
                1875, 
                784
            ], 
            "WBL": [
                286
            ], 
            "AM2F": [
                675
            ], 
            "M1_ADJ": [
                0
            ]
        }, 
        "location1": [
            41
        ], 
        "location2": [
            7
        ], 
        "sentence": "m3u file are used by most mp3 player like musicmatch and winamp , but not creative - without notmad you need to manually recreate your playlist ) ; it does n't care what software you use to rip or catalog your music - creative or any other company - all my 12.5 gb of music were transferred to the zen with correct tag - hooray !"
    }
}