{
    "4e222be5574201bad2e38c874688344f": {
        "(3, 16)": {
            "WBF": [
                888
            ], 
            "AM2L": [
                543
            ], 
            "BM1F": [
                931
            ], 
            "M1": [
                2032
            ], 
            "M2": [
                1544
            ], 
            "BM1L": [
                543
            ], 
            "WBO": [
                2876, 
                3181, 
                1566, 
                2782, 
                325, 
                617, 
                3144, 
                1604, 
                1971
            ], 
            "WBL": [
                2161
            ], 
            "AM2F": [
                3229
            ], 
            "M1_ADJ": [
                1
            ]
        }, 
        "(3, 21)": {
            "WBF": [
                888
            ], 
            "AM2L": [
                1839
            ], 
            "BM1F": [
                931
            ], 
            "M1": [
                2032
            ], 
            "M2": [
                1544
            ], 
            "BM1L": [
                543
            ], 
            "WBO": [
                2876, 
                3181, 
                1566, 
                2782, 
                325, 
                617, 
                3144, 
                1604, 
                1971, 
                1946, 
                2161, 
                1544, 
                3229, 
                543
            ], 
            "WBL": [
                2866
            ], 
            "AM2F": [
                325
            ], 
            "M1_ADJ": [
                1
            ]
        }, 
        "location1": [
            3
        ], 
        "location2": [
            16, 
            21
        ], 
        "sentence": "you can do other different thing with it such as choose what kind of `` now playing `` interface , you can see the interface as modern or classical ."
    }
}