{
    "3dad728919e1b406d7295e3ca95a61fa": {
        "(2, 22)": {
            "WBF": [
                2876
            ], 
            "AM2L": [
                2866
            ], 
            "BM1F": [
                1994
            ], 
            "M1": [
                2032
            ], 
            "M2": [
                166
            ], 
            "BM1L": [
                2866
            ], 
            "WBO": [
                1449, 
                1956, 
                3153, 
                1449, 
                1348, 
                2866, 
                1922, 
                1562, 
                2864, 
                2866, 
                1262, 
                766, 
                3152, 
                1562, 
                2835, 
                1972
            ], 
            "WBL": [
                1375
            ], 
            "AM2F": [
                2909
            ], 
            "M1_ADJ": [
                1
            ]
        }, 
        "location1": [
            2
        ], 
        "location2": [
            22
        ], 
        "sentence": "the one other thing i observed while i had the nomad is that the front cover , which is taken off to have access to the battery , seemed to come undone very easily ."
    }
}