{
    "aeaf53d9981fcdae134d914c14c3bf3a": {
        "(11, 19)": {
            "WBF": [
                3070
            ], 
            "AM2L": [
                1566
            ], 
            "BM1F": [
                2659
            ], 
            "M1": [
                2032
            ], 
            "M2": [
                170
            ], 
            "BM1L": [
                2019
            ], 
            "WBO": [
                3168, 
                2669, 
                663, 
                2037
            ], 
            "WBL": [
                2659
            ], 
            "AM2F": [
                1232
            ], 
            "M1_ADJ": [
                1
            ]
        }, 
        "location1": [
            11
        ], 
        "location2": [
            19
        ], 
        "sentence": "overall it is a great unit & hopefully creative lab or some other vendor will soon come out with some accessory for it ."
    }
}