{
    "648fbc07d2a2a8cf747e25741707426f": {
        "(11, 1)": {
            "WBF": [
                2522
            ], 
            "AM2L": [
                1375
            ], 
            "BM1F": [
                2866
            ], 
            "M1": [
                2076
            ], 
            "M2": [
                2032
            ], 
            "WBO": [
                1669, 
                1566, 
                3168, 
                663, 
                1972, 
                3075
            ], 
            "WBL": [
                325
            ], 
            "AM2F": [
                2100
            ], 
            "M1_ADJ": [
                0
            ]
        }, 
        "location1": [
            11
        ], 
        "location2": [
            1
        ], 
        "sentence": "the panel seems like it will come off very easily as other people have said ."
    }
}