{
    "033b35286cae2ac0ec2fc080f51e500c": {
        "(16, 25)": {
            "WBF": [
                1865
            ], 
            "AM2L": [
                1297
            ], 
            "BM1F": [
                2862
            ], 
            "M1": [
                2032
            ], 
            "M2": [
                2901
            ], 
            "BM1L": [
                1625
            ], 
            "WBO": [
                522, 
                2734, 
                1665, 
                2866, 
                2653
            ], 
            "WBL": [
                2659
            ], 
            "AM2F": [
                2909
            ], 
            "M1_ADJ": [
                1
            ]
        }, 
        "location1": [
            16
        ], 
        "location2": [
            25
        ], 
        "sentence": "there are a couple thing i didnt like though but nothing serious : a little larger than other mp3s but still light , the software takes some time to get used to ( maybe 10-15 min ) , and this thing would definitely be destroyed with one fall ."
    }
}