{
    "09d97450c691cb0d4d37880b6dfbc0f5": {
        "(1, 3)": {
            "AM2L": [
                1398
            ], 
            "WBFL": [
                2439
            ], 
            "BM1F": [
                1669
            ], 
            "M1": [
                2032
            ], 
            "M2": [
                1528
            ], 
            "AM2F": [
                3117
            ], 
            "M1_ADJ": [
                1
            ]
        }, 
        "location1": [
            1
        ], 
        "location2": [
            3
        ], 
        "sentence": "like other reviewer , installation was hell ."
    }
}