{
    "9fab3fa1513794381fb4939e464dcc56": {
        "location1": [
            11
        ], 
        "location2": [
            24
        ], 
        "(11, 24)": {
            "WBF": [
                2439
            ], 
            "BM1F": [
                1994
            ], 
            "M1": [
                2032
            ], 
            "M2": [
                1821
            ], 
            "BM1L": [
                1641
            ], 
            "WBO": [
                1371, 
                1794, 
                2866, 
                1008, 
                543, 
                570, 
                347, 
                1545, 
                221
            ], 
            "WBL": [
                78
            ], 
            "M1_ADJ": [
                1
            ]
        }, 
        "sentence": "first , the sound quality is okay , but ( as at least one other reviewer has mentioned ) the eax can cause audio interference after about 30 minute ."
    }
}