{
    "aa33d939f98b42cddc9a95271279c4a3": {
        "(0, 11)": {
            "WBF": [
                2833
            ], 
            "M1": [
                2032
            ], 
            "M2": [
                2824
            ], 
            "WBO": [
                2236, 
                2429, 
                1449, 
                2878, 
                1261, 
                2866, 
                1922
            ], 
            "WBL": [
                2008
            ], 
            "M1_ADJ": [
                1
            ]
        }, 
        "location1": [
            0
        ], 
        "location2": [
            11
        ], 
        "sentence": "other tagging problem result ( i think ) from the nomad 's operating system ."
    }
}