{
    "8c911f0be96ba4560218d1f4847f02a8": {
        "location1": [
            1
        ], 
        "location2": [
            4
        ], 
        "(1, 4)": {
            "WBF": [
                3190
            ], 
            "AM2L": [
                1935
            ], 
            "BM1F": [
                1490
            ], 
            "M1": [
                2032
            ], 
            "M2": [
                3236
            ], 
            "WBO": [
                2866
            ], 
            "WBL": [
                2866
            ], 
            "AM2F": [
                1562
            ], 
            "M1_ADJ": [
                1
            ]
        }, 
        "sentence": "in other word , the zen is not a convenient data storage device ; only buy the capacity you need for your music collection ( see point 1. for some sizing information ) ."
    }, 
    "f17720aeafd313670cd2350bf2e39041": {
        "(41, 53)": {
            "WBF": [
                675
            ], 
            "AM2L": [
                752
            ], 
            "BM1F": [
                286
            ], 
            "M1": [
                2032
            ], 
            "M2": [
                3236
            ], 
            "BM1L": [
                2019
            ], 
            "WBO": [
                242, 
                1878, 
                25, 
                1288, 
                1971, 
                1875, 
                3143, 
                2941
            ], 
            "WBL": [
                2866
            ], 
            "AM2F": [
                3181
            ], 
            "M1_ADJ": [
                1
            ]
        }, 
        "location1": [
            41
        ], 
        "location2": [
            53
        ], 
        "sentence": "m3u file are used by most mp3 player like musicmatch and winamp , but not creative - without notmad you need to manually recreate your playlist ) ; it does n't care what software you use to rip or catalog your music - creative or any other company - all my 12.5 gb of music were transferred to the zen with correct tag - hooray !"
    }
}