{
    "ead02770ba3fff710bbb69f23f20558b": {
        "location1": [
            15
        ], 
        "location2": [
            10
        ], 
        "(15, 10)": {
            "WBF": [
                400
            ], 
            "AM2L": [
                308
            ], 
            "BM1F": [
                150
            ], 
            "M1": [
                2404
            ], 
            "M2": [
                2032
            ], 
            "BM1L": [
                1971
            ], 
            "WBO": [
                1591
            ], 
            "WBL": [
                286
            ], 
            "AM2F": [
                401
            ], 
            "M1_ADJ": [
                0
            ]
        }, 
        "sentence": "the zennx will keep running for the price of a replacement battery , just like any other battery-powered appliance ."
    }
}