{
    "f8e21ab1b8a57bce5633ca8027b19bb4": {
        "(4, 18)": {
            "WBF": [
                3123
            ], 
            "AM2L": [
                1232
            ], 
            "BM1F": [
                273
            ], 
            "M1": [
                2043
            ], 
            "M2": [
                1558
            ], 
            "BM1L": [
                1562
            ], 
            "WBO": [
                2909, 
                2594, 
                1875, 
                437, 
                2680, 
                3229, 
                543, 
                5, 
                931, 
                2882
            ], 
            "WBL": [
                2866
            ], 
            "AM2F": [
                1094
            ], 
            "M1_ADJ": [
                1
            ]
        }, 
        "location1": [
            4
        ], 
        "location2": [
            18, 
            26
        ], 
        "(4, 26)": {
            "WBF": [
                3123
            ], 
            "AM2L": [
                150
            ], 
            "BM1F": [
                273
            ], 
            "M1": [
                2043
            ], 
            "M2": [
                1558
            ], 
            "BM1L": [
                1562
            ], 
            "WBO": [
                2909, 
                2594, 
                1875, 
                437, 
                2680, 
                3229, 
                543, 
                5, 
                931, 
                2882, 
                1987, 
                2866, 
                1558, 
                1094, 
                1232, 
                150, 
                793, 
                3192
            ], 
            "WBL": [
                2866
            ], 
            "AM2F": [
                325
            ], 
            "M1_ADJ": [
                1
            ]
        }, 
        "sentence": "the zen is an outstanding way to shuttle music between source , you can 't do this on the ipod ( except for a cumbersome work-around using the ipod as a hard drive instead of a player ) ."
    }
}