{
    "e17e18380718fc3b0a9d1deacbd92ff8": {
        "(4, 14)": {
            "WBF": [
                908
            ], 
            "AM2L": [
                402
            ], 
            "BM1F": [
                273
            ], 
            "M1": [
                2046
            ], 
            "M2": [
                525
            ], 
            "BM1L": [
                1562
            ], 
            "WBO": [
                3181, 
                150, 
                764, 
                1971, 
                440, 
                1211
            ], 
            "WBL": [
                2200
            ], 
            "AM2F": [
                2587
            ], 
            "M1_ADJ": [
                1
            ]
        }, 
        "location1": [
            4
        ], 
        "location2": [
            14
        ], 
        "sentence": "this player is an overall disappointment with a couple of big flaw that potential buyer should be wary of ; and all reader need to know about a third party software company that resolve virtually all of the creative mediasource file transfer issue ."
    }
}