{
    "b7a4b4086ff6f9e114fd0bbca4c9e6cc": {
        "(0, 36)": {
            "WBF": [
                1449
            ], 
            "AM2L": [
                2866
            ], 
            "M1": [
                2046
            ], 
            "M2": [
                945
            ], 
            "WBO": [
                2, 
                1308, 
                2882, 
                112, 
                2718, 
                325, 
                1449, 
                6, 
                2523, 
                1940, 
                1971, 
                2866, 
                2236, 
                2100, 
                1375, 
                2399, 
                785, 
                1378, 
                2045, 
                522, 
                325, 
                1449, 
                6, 
                1999, 
                1348, 
                2866, 
                2160, 
                1232, 
                150, 
                3153, 
                1449, 
                1643
            ], 
            "WBL": [
                1232
            ], 
            "AM2F": [
                1463
            ], 
            "M1_ADJ": [
                1
            ]
        }, 
        "location1": [
            0
        ], 
        "location2": [
            36
        ], 
        "sentence": "overall , i 'm giving this 5 star as i 've seen nothing of the problem people have repeatedly cried havoc over , but as i 've only had the player for a while i leave room for doubt if the headphone jack , hissing , or scroll wheel problem show up with me too ."
    }
}