{
    "b7a4b4086ff6f9e114fd0bbca4c9e6cc": {
        "(0, 19)": {
            "WBF": [
                1449
            ], 
            "AM2L": [
                522
            ], 
            "M1": [
                2046
            ], 
            "M2": [
                1378
            ], 
            "WBO": [
                2, 
                1308, 
                2882, 
                112, 
                2718, 
                325, 
                1449, 
                6, 
                2523, 
                1940, 
                1971, 
                2866, 
                2236, 
                2100, 
                1375
            ], 
            "WBL": [
                785
            ], 
            "AM2F": [
                2045
            ], 
            "M1_ADJ": [
                1
            ]
        }, 
        "location1": [
            0
        ], 
        "location2": [
            19
        ], 
        "sentence": "overall , i 'm giving this 5 star as i 've seen nothing of the problem people have repeatedly cried havoc over , but as i 've only had the player for a while i leave room for doubt if the headphone jack , hissing , or scroll wheel problem show up with me too ."
    }
}