{
    "83c0f79f8710192a88e6b91256723401": {
        "location1": [
            22
        ], 
        "location2": [
            8
        ], 
        "(22, 8)": {
            "WBF": [
                275
            ], 
            "AM2L": [
                325
            ], 
            "BM1F": [
                1171
            ], 
            "M1": [
                2901
            ], 
            "M2": [
                2071
            ], 
            "BM1L": [
                150
            ], 
            "WBO": [
                1449, 
                1348, 
                2909, 
                1421, 
                2866, 
                2418, 
                523, 
                522, 
                2864, 
                3117
            ], 
            "WBL": [
                1142
            ], 
            "AM2F": [
                2237
            ], 
            "M1_ADJ": [
                0
            ]
        }, 
        "sentence": "the unit itself did lock up a few time and i had to hit the reset button but that was a fairly painless process as well ."
    }, 
    "ab72638a942345b2a65db3fe67536bb1": {
        "location1": [
            24
        ], 
        "location2": [
            3
        ], 
        "(24, 3)": {
            "WBF": [
                1449
            ], 
            "BM1F": [
                2866
            ], 
            "M1": [
                2901
            ], 
            "M2": [
                2071
            ], 
            "BM1L": [
                761
            ], 
            "WBO": [
                2700, 
                1011, 
                2866, 
                2666, 
                1449, 
                2798, 
                1449, 
                2587, 
                6, 
                940, 
                1566, 
                291, 
                1987, 
                1878, 
                2094, 
                2866, 
                2939
            ], 
            "WBL": [
                2220
            ], 
            "M1_ADJ": [
                0
            ]
        }, 
        "sentence": "not counting the time i spent editing the song ( i suppose i should 've done it anyway on my pc ) the transfer was pretty painless ."
    }
}