{
    "181a7b7896f3a5bc487caf123b3e4a42": {
        "location1": [
            2
        ], 
        "location2": [
            19
        ], 
        "(2, 19)": {
            "WBF": [
                555
            ], 
            "BM1F": [
                2920
            ], 
            "M1": [
                2104
            ], 
            "M2": [
                3114
            ], 
            "BM1L": [
                1449
            ], 
            "WBO": [
                1971, 
                2882, 
                2160, 
                275, 
                2734, 
                1566, 
                886, 
                1490, 
                2866, 
                3133, 
                221, 
                2866, 
                1721
            ], 
            "WBL": [
                820
            ], 
            "AM2F": [
                1037
            ], 
            "M1_ADJ": [
                1
            ]
        }, 
        "sentence": "i took perfect care of this player and still it died in the week after the lousy 90 day warranty ended ."
    }
}