{
    "181a7b7896f3a5bc487caf123b3e4a42": {
        "(2, 13)": {
            "WBF": [
                555
            ], 
            "AM2L": [
                2866
            ], 
            "BM1F": [
                2920
            ], 
            "M1": [
                2104
            ], 
            "M2": [
                3133
            ], 
            "BM1L": [
                1449
            ], 
            "WBO": [
                1971, 
                2882, 
                2160, 
                275, 
                2734, 
                1566, 
                886
            ], 
            "WBL": [
                2866
            ], 
            "AM2F": [
                221
            ], 
            "M1_ADJ": [
                1
            ]
        }, 
        "location1": [
            2
        ], 
        "location2": [
            13
        ], 
        "sentence": "i took perfect care of this player and still it died in the week after the lousy 90 day warranty ended ."
    }
}