{
    "ef25a24c12ae7b697445f8d181fbe847": {
        "(49, 50)": {
            "BM1F": [
                347
            ], 
            "M1": [
                2111
            ], 
            "M2": [
                520
            ], 
            "BM1L": [
                2866
            ], 
            "WBNULL": [
                1
            ], 
            "M1_ADJ": [
                1
            ]
        }, 
        "location1": [
            49
        ], 
        "location2": [
            50
        ], 
        "sentence": "like it 's predecessor , the quickly revised nx , this player boast a decent size and weight , a relatively-intuitive navigational system that categorizes based on id3 tag , and excellent sound ( widely known to be better than ipod - not surprising considering the number of year creative has been in the audio peripheral business ) ."
    }
}