{
    "ef25a24c12ae7b697445f8d181fbe847": {
        "(49, 25)": {
            "WBF": [
                275
            ], 
            "BM1F": [
                1457
            ], 
            "M1": [
                2832
            ], 
            "M2": [
                2111
            ], 
            "BM1L": [
                1987
            ], 
            "WBO": [
                1092, 
                2676, 
                3165, 
                1612, 
                2909, 
                402, 
                436, 
                2862, 
                1558, 
                1935, 
                2807, 
                717, 
                2866, 
                1949, 
                1971, 
                3222, 
                784, 
                1371, 
                413, 
                1490
            ], 
            "WBL": [
                347
            ], 
            "AM2F": [
                520
            ], 
            "M1_ADJ": [
                0
            ]
        }, 
        "location1": [
            49
        ], 
        "location2": [
            25
        ], 
        "sentence": "like it 's predecessor , the quickly revised nx , this player boast a decent size and weight , a relatively-intuitive navigational system that categorizes based on id3 tag , and excellent sound ( widely known to be better than ipod - not surprising considering the number of year creative has been in the audio peripheral business ) ."
    }
}