{
    "16dccec07487bfb9e777d9b8fc08c377": {
        "(5, 6)": {
            "AM2L": [
                2989
            ], 
            "BM1F": [
                2866
            ], 
            "M1": [
                2158
            ], 
            "M2": [
                2281
            ], 
            "BM1L": [
                2242
            ], 
            "WBNULL": [
                1
            ], 
            "AM2F": [
                1562
            ], 
            "M1_ADJ": [
                1
            ]
        }, 
        "location1": [
            5
        ], 
        "location2": [
            6
        ], 
        "sentence": "being a creative product the playback quality is unbeatable ."
    }, 
    "f7e215562ee1a9103ae0258748c464f7": {
        "(15, 16)": {
            "AM2L": [
                3058
            ], 
            "BM1F": [
                2653
            ], 
            "M1": [
                2158
            ], 
            "M2": [
                2281
            ], 
            "BM1L": [
                275
            ], 
            "WBNULL": [
                1
            ], 
            "AM2F": [
                275
            ], 
            "M1_ADJ": [
                1
            ]
        }, 
        "location1": [
            15
        ], 
        "location2": [
            16
        ], 
        "sentence": "i can highly recommend this product because of its ease of use ( hardware and software ) , playback quality and value for the price ."
    }
}