{
    "0274c135b199dbc2203f17aa3978816d": {
        "(2, 3)": {
            "AM2L": [
                3181
            ], 
            "BM1F": [
                2866
            ], 
            "M1": [
                2178
            ], 
            "M2": [
                864
            ], 
            "BM1L": [
                2880
            ], 
            "WBNULL": [
                1
            ], 
            "AM2F": [
                730
            ], 
            "M1_ADJ": [
                1
            ]
        }, 
        "location1": [
            2
        ], 
        "location2": [
            3
        ], 
        "sentence": "third , the poor design continues with the case ."
    }
}