{
    "ea590102fe54b3305e3c92c7f680c4d9": {
        "(7, 8)": {
            "AM2L": [
                891
            ], 
            "BM1F": [
                2281
            ], 
            "M1": [
                2178
            ], 
            "M2": [
                2242
            ], 
            "BM1L": [
                723
            ], 
            "WBNULL": [
                1
            ], 
            "AM2F": [
                2797
            ], 
            "M1_ADJ": [
                1
            ]
        }, 
        "location1": [
            7
        ], 
        "location2": [
            8
        ], 
        "sentence": "creative zen feedback suffers from construction quality , poor product support , difficulty of using the scroll wheel and reasonably consistent feedback about problem with the headphone jack ."
    }, 
    "9962a0395a42bef512fbadba4dcc1ee1": {
        "(8, 4)": {
            "WBF": [
                2797
            ], 
            "AM2L": [
                1562
            ], 
            "BM1F": [
                4
            ], 
            "M1": [
                2242
            ], 
            "M2": [
                2178
            ], 
            "BM1L": [
                784
            ], 
            "WBO": [
                1562
            ], 
            "WBL": [
                3012
            ], 
            "AM2F": [
                2882
            ], 
            "M1_ADJ": [
                0
            ]
        }, 
        "location1": [
            8
        ], 
        "location2": [
            4, 
            23
        ], 
        "(8, 23)": {
            "WBF": [
                2882
            ], 
            "BM1F": [
                3012
            ], 
            "M1": [
                2178
            ], 
            "M2": [
                2242
            ], 
            "BM1L": [
                1562
            ], 
            "WBO": [
                1562, 
                1935, 
                1675, 
                2909, 
                2866, 
                3236, 
                1566, 
                310, 
                2909, 
                242, 
                2866
            ], 
            "WBL": [
                4
            ], 
            "M1_ADJ": [
                1
            ]
        }, 
        "sentence": "feedback on creative 's product support is universally poor ; this is not limited to the zen , it applies to all the company 's product ."
    }
}