{
    "feb7dcbbee6a06823c848eca7460da73": {
        "(5, 1)": {
            "WBF": [
                2653
            ], 
            "BM1F": [
                1496
            ], 
            "M1": [
                784
            ], 
            "M2": [
                2178
            ], 
            "WBO": [
                1562
            ], 
            "WBL": [
                2220
            ], 
            "M1_ADJ": [
                0
            ]
        }, 
        "location1": [
            5
        ], 
        "location2": [
            1
        ], 
        "sentence": "- included creative software is pretty poor ."
    }, 
    "ea590102fe54b3305e3c92c7f680c4d9": {
        "(7, 0)": {
            "WBF": [
                3236
            ], 
            "AM2L": [
                2797
            ], 
            "M1": [
                784
            ], 
            "M2": [
                2178
            ], 
            "WBO": [
                1166, 
                2784, 
                1261
            ], 
            "WBL": [
                2281
            ], 
            "AM2F": [
                2242
            ], 
            "M1_ADJ": [
                0
            ]
        }, 
        "location1": [
            7
        ], 
        "location2": [
            0
        ], 
        "sentence": "creative zen feedback suffers from construction quality , poor product support , difficulty of using the scroll wheel and reasonably consistent feedback about problem with the headphone jack ."
    }, 
    "9962a0395a42bef512fbadba4dcc1ee1": {
        "location1": [
            8
        ], 
        "location2": [
            2
        ], 
        "(8, 2)": {
            "WBF": [
                4
            ], 
            "AM2L": [
                1562
            ], 
            "BM1F": [
                1987
            ], 
            "M1": [
                784
            ], 
            "M2": [
                2178
            ], 
            "BM1L": [
                1166
            ], 
            "WBO": [
                2242, 
                2797
            ], 
            "WBL": [
                3012
            ], 
            "AM2F": [
                2882
            ], 
            "M1_ADJ": [
                0
            ]
        }, 
        "sentence": "feedback on creative 's product support is universally poor ; this is not limited to the zen , it applies to all the company 's product ."
    }
}