{
    "ea590102fe54b3305e3c92c7f680c4d9": {
        "location1": [
            7
        ], 
        "location2": [
            9
        ], 
        "(7, 9)": {
            "AM2L": [
                1971
            ], 
            "WBFL": [
                2242
            ], 
            "BM1F": [
                2281
            ], 
            "M1": [
                2178
            ], 
            "M2": [
                2797
            ], 
            "BM1L": [
                723
            ], 
            "AM2F": [
                891
            ], 
            "M1_ADJ": [
                1
            ]
        }, 
        "sentence": "creative zen feedback suffers from construction quality , poor product support , difficulty of using the scroll wheel and reasonably consistent feedback about problem with the headphone jack ."
    }, 
    "9962a0395a42bef512fbadba4dcc1ee1": {
        "(8, 5)": {
            "WBF": [
                1562
            ], 
            "AM2L": [
                1562
            ], 
            "BM1F": [
                2242
            ], 
            "M1": [
                2797
            ], 
            "M2": [
                2178
            ], 
            "BM1L": [
                4
            ], 
            "WBO": [
                3012
            ], 
            "WBL": [
                3012
            ], 
            "AM2F": [
                2882
            ], 
            "M1_ADJ": [
                0
            ]
        }, 
        "location1": [
            8
        ], 
        "location2": [
            5
        ], 
        "sentence": "feedback on creative 's product support is universally poor ; this is not limited to the zen , it applies to all the company 's product ."
    }
}