{
    "df460eaf582c2debf712f5605d908023": {
        "(16, 47)": {
            "WBF": [
                1363
            ], 
            "AM2L": [
                275
            ], 
            "BM1F": [
                103
            ], 
            "M1": [
                2187
            ], 
            "M2": [
                2676
            ], 
            "BM1L": [
                150
            ], 
            "WBO": [
                963, 
                236, 
                1994, 
                1987, 
                3152, 
                1449, 
                543, 
                5, 
                779, 
                1228, 
                2019, 
                337, 
                3200, 
                150, 
                3075, 
                1105, 
                1656, 
                1490, 
                675, 
                1902, 
                2909, 
                524, 
                2242, 
                1261, 
                222, 
                1449, 
                1375
            ], 
            "WBL": [
                346
            ], 
            "AM2F": [
                554
            ], 
            "M1_ADJ": [
                1
            ]
        }, 
        "location1": [
            16
        ], 
        "location2": [
            47
        ], 
        "sentence": "my gut tell me the nomad will in the long run be , at best , a 40gb portable hard drive , albeit one on which i can 't create folder , or , at worst , a very expensive lesson in company never to buy product from again ( i have their audigy sound card and find it in many way equally frustrating ) ."
    }, 
    "5752d425fd230241f15f09a3ca7c1c62": {
        "(12, 5)": {
            "WBF": [
                2281
            ], 
            "AM2L": [
                2160
            ], 
            "BM1F": [
                150
            ], 
            "M1": [
                2676
            ], 
            "M2": [
                2187
            ], 
            "BM1L": [
                177
            ], 
            "WBO": [
                1987, 
                2078, 
                3181
            ], 
            "WBL": [
                2605
            ], 
            "AM2F": [
                574
            ], 
            "M1_ADJ": [
                0
            ]
        }, 
        "location1": [
            12
        ], 
        "location2": [
            5
        ], 
        "sentence": "i was unable achieve a sound quality on par with my simple portable cd player with `` bass boost . ``"
    }, 
    "ee31d7df41f71e9ae037cdf06e1512c9": {
        "(26, 20)": {
            "WBF": [
                1591
            ], 
            "AM2L": [
                2160
            ], 
            "BM1F": [
                3220
            ], 
            "M1": [
                2676
            ], 
            "M2": [
                2187
            ], 
            "BM1L": [
                3236
            ], 
            "WBO": [
                325, 
                1320
            ], 
            "WBL": [
                150
            ], 
            "AM2F": [
                574
            ], 
            "M1_ADJ": [
                0
            ]
        }, 
        "(26, 8)": {
            "WBF": [
                1591
            ], 
            "AM2L": [
                2160
            ], 
            "BM1F": [
                1176
            ], 
            "M1": [
                2676
            ], 
            "M2": [
                2187
            ], 
            "BM1L": [
                3185
            ], 
            "WBO": [
                325, 
                1320, 
                325, 
                2866, 
                2680, 
                574, 
                275, 
                2866, 
                3236, 
                3220, 
                2676, 
                1591, 
                325, 
                1320
            ], 
            "WBL": [
                150
            ], 
            "AM2F": [
                574
            ], 
            "M1_ADJ": [
                0
            ]
        }, 
        "location1": [
            26
        ], 
        "location2": [
            8, 
            20
        ], 
        "sentence": "to my ear , a 160 kbps wma file sound just as good as the source cd , and the zen xtra sound just as good as a portable cd player ."
    }, 
    "de8c0ea32caab8f743c60c243bf98ff9": {
        "(13, 2)": {
            "WBF": [
                1562
            ], 
            "BM1F": [
                2866
            ], 
            "M1": [
                2676
            ], 
            "M2": [
                2187
            ], 
            "BM1L": [
                522
            ], 
            "WBO": [
                3075, 
                1320, 
                275, 
                1720, 
                275, 
                3191, 
                3138
            ], 
            "WBL": [
                1878
            ], 
            "AM2F": [
                2687
            ], 
            "M1_ADJ": [
                0
            ]
        }, 
        "location1": [
            13
        ], 
        "location2": [
            2
        ], 
        "sentence": "but the sound is very good ( and loud ) and work well on my portable speaker ."
    }
}