{
    "b2c12395e7baa4db094eb94137f35655": {
        "(21, 18)": {
            "WBF": [
                1971
            ], 
            "AM2L": [
                522
            ], 
            "BM1F": [
                1987
            ], 
            "M1": [
                2921
            ], 
            "M2": [
                2187
            ], 
            "BM1L": [
                1566
            ], 
            "WBO": [
                150
            ], 
            "WBL": [
                150
            ], 
            "AM2F": [
                2296
            ], 
            "M1_ADJ": [
                0
            ]
        }, 
        "location1": [
            21
        ], 
        "location2": [
            18
        ], 
        "sentence": "i 've tried the belkin fm transmitter unit with it & it worked well when i set it on top of a portable radio , but was awful trying to use in the car which is somewhat of a disappointment ."
    }
}