{
    "ee31d7df41f71e9ae037cdf06e1512c9": {
        "location1": [
            26
        ], 
        "location2": [
            7
        ], 
        "(26, 7)": {
            "WBF": [
                2676
            ], 
            "AM2L": [
                2160
            ], 
            "BM1F": [
                3185
            ], 
            "M1": [
                1176
            ], 
            "M2": [
                2187
            ], 
            "BM1L": [
                1595
            ], 
            "WBO": [
                1591, 
                325, 
                1320, 
                325, 
                2866, 
                2680, 
                574, 
                275, 
                2866, 
                3236, 
                3220, 
                2676, 
                1591, 
                325, 
                1320
            ], 
            "WBL": [
                150
            ], 
            "AM2F": [
                574
            ], 
            "M1_ADJ": [
                0
            ]
        }, 
        "sentence": "to my ear , a 160 kbps wma file sound just as good as the source cd , and the zen xtra sound just as good as a portable cd player ."
    }
}