{
    "5752d425fd230241f15f09a3ca7c1c62": {
        "location1": [
            12
        ], 
        "location2": [
            16
        ], 
        "(12, 16)": {
            "WBF": [
                574
            ], 
            "BM1F": [
                2605
            ], 
            "M1": [
                2187
            ], 
            "M2": [
                398
            ], 
            "BM1L": [
                1878
            ], 
            "WBO": [
                2160
            ], 
            "WBL": [
                3181
            ], 
            "AM2F": [
                470
            ], 
            "M1_ADJ": [
                1
            ]
        }, 
        "sentence": "i was unable achieve a sound quality on par with my simple portable cd player with `` bass boost . ``"
    }
}