{
    "00562a00a0ab2c377658f1ccf279b3bb": {
        "(5, 6)": {
            "AM2L": [
                2653
            ], 
            "BM1F": [
                2402
            ], 
            "M1": [
                2205
            ], 
            "M2": [
                400
            ], 
            "BM1L": [
                1544
            ], 
            "WBNULL": [
                1
            ], 
            "AM2F": [
                1320
            ], 
            "M1_ADJ": [
                1
            ]
        }, 
        "location1": [
            5
        ], 
        "location2": [
            6
        ], 
        "sentence": "great sound ; good interface ; replaceable , powerful battery ; good software ; wake-up , sleep timer ; multiple play mode"
    }
}