{
    "4669d00c8621e9a0281e783c77782dd4": {
        "(6, 19)": {
            "WBF": [
                1837
            ], 
            "AM2L": [
                2780
            ], 
            "BM1F": [
                2866
            ], 
            "M1": [
                2223
            ], 
            "M2": [
                2501
            ], 
            "BM1L": [
                2862
            ], 
            "WBO": [
                2866, 
                1951, 
                275, 
                1371, 
                150, 
                490, 
                457, 
                379, 
                3152
            ], 
            "WBL": [
                2866
            ], 
            "AM2F": [
                1851
            ], 
            "M1_ADJ": [
                1
            ]
        }, 
        "location1": [
            6
        ], 
        "location2": [
            19
        ], 
        "sentence": "the lcd is larger than the previous model , the nx , and has a bright blue backlight which illuminates the screen more successfully than the nx 's green backlight did ."
    }
}