{
    "8a31ba51febce8f3d665f6e34835eb2d": {
        "location1": [
            13
        ], 
        "location2": [
            20
        ], 
        "(13, 20)": {
            "WBF": [
                275
            ], 
            "AM2L": [
                1896
            ], 
            "BM1F": [
                2325
            ], 
            "M1": [
                2260
            ], 
            "M2": [
                170
            ], 
            "BM1L": [
                1562
            ], 
            "WBO": [
                2909, 
                1773, 
                1569
            ], 
            "WBL": [
                1999
            ], 
            "AM2F": [
                3229
            ], 
            "M1_ADJ": [
                1
            ]
        }, 
        "sentence": "the free ( i didnt know they still did that ) carrying case is really protective , and to me its the only accessory you need ( except good headphone ) ."
    }
}