{
    "f68ec80438a497aca071cd7853ac8434": {
        "location1": [
            7
        ], 
        "location2": [
            31
        ], 
        "(7, 31)": {
            "WBF": [
                562
            ], 
            "AM2L": [
                528
            ], 
            "BM1F": [
                2266
            ], 
            "M1": [
                2260
            ], 
            "M2": [
                1137
            ], 
            "BM1L": [
                2866
            ], 
            "WBO": [
                258, 
                1449, 
                1375, 
                967, 
                1566, 
                154, 
                74, 
                1231, 
                1261, 
                1878, 
                866, 
                528, 
                171, 
                325, 
                3138, 
                325, 
                1375, 
                2159, 
                1566, 
                2039
            ], 
            "WBL": [
                78
            ], 
            "AM2F": [
                3129
            ], 
            "M1_ADJ": [
                1
            ]
        }, 
        "sentence": "i use it primarily in the provided protective case although i have dropped it about 3 foot from my desk ( by accident ) as well as have played it outdoors in - 30 fahrenheit weather ( by design ) and it has continued to work fine ."
    }
}