{
    "c35cec64272467bc85a2e0ad72807549": {
        "location1": [
            7
        ], 
        "location2": [
            18
        ], 
        "(7, 18)": {
            "WBF": [
                686
            ], 
            "BM1F": [
                150
            ], 
            "M1": [
                2322
            ], 
            "M2": [
                554
            ], 
            "BM1L": [
                1935
            ], 
            "WBO": [
                2609, 
                1854, 
                3174, 
                3046, 
                931, 
                1881, 
                1293
            ], 
            "WBL": [
                1197
            ], 
            "AM2F": [
                2871
            ], 
            "M1_ADJ": [
                1
            ]
        }, 
        "sentence": "it does n't have firewire , not a real complaint since most window user do n't generally have firewire card themselves ."
    }
}