{
    "c35cec64272467bc85a2e0ad72807549": {
        "(7, 8)": {
            "AM2L": [
                1854
            ], 
            "BM1F": [
                150
            ], 
            "M1": [
                2322
            ], 
            "M2": [
                686
            ], 
            "BM1L": [
                1935
            ], 
            "WBNULL": [
                1
            ], 
            "AM2F": [
                2609
            ], 
            "M1_ADJ": [
                1
            ]
        }, 
        "location1": [
            7
        ], 
        "location2": [
            8
        ], 
        "sentence": "it does n't have firewire , not a real complaint since most window user do n't generally have firewire card themselves ."
    }
}