{
    "ef25a24c12ae7b697445f8d181fbe847": {
        "(17, 19)": {
            "AM2L": [
                568
            ], 
            "WBFL": [
                1888
            ], 
            "BM1F": [
                150
            ], 
            "M1": [
                2377
            ], 
            "M2": [
                2824
            ], 
            "BM1L": [
                3135
            ], 
            "AM2F": [
                2864
            ], 
            "M1_ADJ": [
                1
            ]
        }, 
        "location1": [
            17
        ], 
        "location2": [
            19
        ], 
        "sentence": "like it 's predecessor , the quickly revised nx , this player boast a decent size and weight , a relatively-intuitive navigational system that categorizes based on id3 tag , and excellent sound ( widely known to be better than ipod - not surprising considering the number of year creative has been in the audio peripheral business ) ."
    }
}