{
    "ef25a24c12ae7b697445f8d181fbe847": {
        "location1": [
            17
        ], 
        "location2": [
            9
        ], 
        "(17, 9)": {
            "WBF": [
                463
            ], 
            "AM2L": [
                2824
            ], 
            "BM1F": [
                2882
            ], 
            "M1": [
                2160
            ], 
            "M2": [
                2377
            ], 
            "BM1L": [
                1951
            ], 
            "WBO": [
                150, 
                827, 
                2617, 
                275
            ], 
            "WBL": [
                150
            ], 
            "AM2F": [
                1888
            ], 
            "M1_ADJ": [
                0
            ]
        }, 
        "sentence": "like it 's predecessor , the quickly revised nx , this player boast a decent size and weight , a relatively-intuitive navigational system that categorizes based on id3 tag , and excellent sound ( widely known to be better than ipod - not surprising considering the number of year creative has been in the audio peripheral business ) ."
    }
}