{
    "ef25a24c12ae7b697445f8d181fbe847": {
        "(17, 43)": {
            "WBF": [
                1888
            ], 
            "AM2L": [
                413
            ], 
            "BM1F": [
                150
            ], 
            "M1": [
                2377
            ], 
            "M2": [
                784
            ], 
            "BM1L": [
                3135
            ], 
            "WBO": [
                2824, 
                2864, 
                568, 
                393, 
                1987, 
                1457, 
                2832, 
                275, 
                1092, 
                2676, 
                3165, 
                1612, 
                2909, 
                402, 
                436, 
                2862, 
                1558, 
                1935, 
                2807, 
                717, 
                2866, 
                1949
            ], 
            "WBL": [
                3222
            ], 
            "AM2F": [
                1371
            ], 
            "M1_ADJ": [
                1
            ]
        }, 
        "location1": [
            17
        ], 
        "location2": [
            43
        ], 
        "sentence": "like it 's predecessor , the quickly revised nx , this player boast a decent size and weight , a relatively-intuitive navigational system that categorizes based on id3 tag , and excellent sound ( widely known to be better than ipod - not surprising considering the number of year creative has been in the audio peripheral business ) ."
    }
}