{
    "05b005a587509a9b418bc7b414f03e1b": {
        "(19, 13)": {
            "WBF": [
                1987
            ], 
            "BM1F": [
                1099
            ], 
            "M1": [
                2162
            ], 
            "M2": [
                2389
            ], 
            "BM1L": [
                1840
            ], 
            "WBO": [
                2866, 
                1219
            ], 
            "WBL": [
                150
            ], 
            "AM2F": [
                400
            ], 
            "M1_ADJ": [
                0
            ]
        }, 
        "location1": [
            19
        ], 
        "location2": [
            13
        ], 
        "sentence": "pro : huge storage capacity for the price , easy to navigate , can modify existing playlist on the fly , has a removable battery"
    }
}