{
    "92198989402e17a45ecbf5ef78c65e91": {
        "location1": [
            17
        ], 
        "location2": [
            23
        ], 
        "(17, 23)": {
            "WBF": [
                400
            ], 
            "AM2L": [
                275
            ], 
            "BM1F": [
                2306
            ], 
            "M1": [
                2389
            ], 
            "M2": [
                1198
            ], 
            "BM1L": [
                2346
            ], 
            "WBO": [
                2747, 
                2617
            ], 
            "WBL": [
                2501
            ], 
            "AM2F": [
                3031
            ], 
            "M1_ADJ": [
                1
            ]
        }, 
        "sentence": "great sound , very long battery life ( i routinely play it for 12 + hour ) , very fast recharges rate , removable battery , storage size , nice screen , firmware update , and great price ."
    }
}