{
    "4bd98e3804be5a792f3b30af064b63d8": {
        "(1, 2)": {
            "AM2L": [
                1333
            ], 
            "BM1F": [
                2866
            ], 
            "M1": [
                2400
            ], 
            "M2": [
                400
            ], 
            "AM2F": [
                1562
            ], 
            "WBNULL": [
                1
            ], 
            "M1_ADJ": [
                1
            ]
        }, 
        "(1, 14)": {
            "WBF": [
                400
            ], 
            "AM2L": [
                3229
            ], 
            "BM1F": [
                2866
            ], 
            "M1": [
                2400
            ], 
            "M2": [
                400
            ], 
            "WBO": [
                1562, 
                1333, 
                2609, 
                1992, 
                1566, 
                1077, 
                3128, 
                2037, 
                325
            ], 
            "WBL": [
                1689
            ], 
            "AM2F": [
                931
            ], 
            "M1_ADJ": [
                1
            ]
        }, 
        "location1": [
            1
        ], 
        "location2": [
            2, 
            14
        ], 
        "sentence": "- the replacable battery is great since once it eventually wear out ( as all lithium battery do ) , you will be able to buy another easily ."
    }, 
    "f53180de30a7308dfce4f7c6df47edae": {
        "(4, 2)": {
            "AM2L": [
                2866
            ], 
            "WBFL": [
                1562
            ], 
            "BM1F": [
                2866
            ], 
            "M1": [
                400
            ], 
            "M2": [
                2400
            ], 
            "BM1L": [
                1199
            ], 
            "AM2F": [
                528
            ], 
            "M1_ADJ": [
                0
            ]
        }, 
        "location1": [
            4
        ], 
        "location2": [
            2
        ], 
        "sentence": "first , the battery is replacable by the user , because creative intended it to be - unlike apple with the ipod ."
    }, 
    "00678fc65cf74c7bbfb5bf91f2796a34": {
        "(15, 5)": {
            "WBF": [
                1664
            ], 
            "AM2L": [
                1092
            ], 
            "BM1F": [
                2866
            ], 
            "M1": [
                400
            ], 
            "M2": [
                2400
            ], 
            "BM1L": [
                1092
            ], 
            "WBO": [
                1562, 
                1092, 
                2866, 
                1132, 
                2864, 
                2866
            ], 
            "WBL": [
                1562
            ], 
            "AM2F": [
                1562
            ], 
            "M1_ADJ": [
                0
            ]
        }, 
        "location1": [
            15
        ], 
        "location2": [
            5, 
            13
        ], 
        "(15, 13)": {
            "AM2L": [
                1092
            ], 
            "WBFL": [
                1562
            ], 
            "BM1F": [
                2866
            ], 
            "M1": [
                400
            ], 
            "M2": [
                2400
            ], 
            "BM1L": [
                2864
            ], 
            "AM2F": [
                1562
            ], 
            "M1_ADJ": [
                0
            ]
        }, 
        "sentence": "the sound is excellent , the battery life is excellent , the fact that the battery is replacable is excellent , and finally the price , $ 200 cheaper than the 40gb ipod , is excellent ."
    }
}