{
    "c797f7ccd54badc9e0db79b7ce27861a": {
        "(4, 10)": {
            "WBF": [
                400
            ], 
            "AM2L": [
                2637
            ], 
            "BM1F": [
                2866
            ], 
            "M1": [
                2402
            ], 
            "M2": [
                595
            ], 
            "BM1L": [
                3181
            ], 
            "WBO": [
                3152, 
                1449
            ], 
            "WBL": [
                307
            ], 
            "AM2F": [
                150
            ], 
            "M1_ADJ": [
                1
            ]
        }, 
        "location1": [
            4
        ], 
        "location2": [
            10
        ], 
        "sentence": "price , along with the replaceable battery ( which i understand apple charge a small fortune to replace - as well as the hassle of returning it ) were the two main factor on why i picked the nomad ."
    }
}