{
    "00562a00a0ab2c377658f1ccf279b3bb": {
        "(4, 14)": {
            "WBF": [
                2205
            ], 
            "BM1F": [
                1544
            ], 
            "M1": [
                2402
            ], 
            "M2": [
                1836
            ], 
            "BM1L": [
                1320
            ], 
            "WBO": [
                400, 
                1320, 
                2653, 
                3104, 
                2623, 
                2904
            ], 
            "WBL": [
                2157
            ], 
            "M1_ADJ": [
                1
            ]
        }, 
        "location1": [
            4
        ], 
        "location2": [
            14
        ], 
        "sentence": "great sound ; good interface ; replaceable , powerful battery ; good software ; wake-up , sleep timer ; multiple play mode"
    }
}