{
    "00562a00a0ab2c377658f1ccf279b3bb": {
        "location1": [
            4
        ], 
        "location2": [
            8
        ], 
        "(4, 8)": {
            "WBF": [
                2205
            ], 
            "AM2L": [
                2623
            ], 
            "BM1F": [
                1544
            ], 
            "M1": [
                2402
            ], 
            "M2": [
                2653
            ], 
            "BM1L": [
                1320
            ], 
            "WBO": [
                400
            ], 
            "WBL": [
                1320
            ], 
            "AM2F": [
                3104
            ], 
            "M1_ADJ": [
                1
            ]
        }, 
        "sentence": "great sound ; good interface ; replaceable , powerful battery ; good software ; wake-up , sleep timer ; multiple play mode"
    }
}