{
    "65b5c536d6d91c394bc8b7ba532235ab": {
        "location1": [
            2
        ], 
        "location2": [
            10
        ], 
        "(2, 10)": {
            "WBF": [
                400
            ], 
            "AM2L": [
                3237
            ], 
            "BM1F": [
                4
            ], 
            "M1": [
                2402
            ], 
            "M2": [
                2272
            ], 
            "BM1L": [
                3237
            ], 
            "WBO": [
                3117, 
                2866, 
                830, 
                1133
            ], 
            "WBL": [
                1878
            ], 
            "AM2F": [
                1971
            ], 
            "M1_ADJ": [
                1
            ]
        }, 
        "sentence": "zennx 's replaceable battery was the deciding factor in my purchase of zennx over ipod ."
    }
}