{
    "26afbb728550c0df1149e771bc94d54b": {
        "location1": [
            25
        ], 
        "location2": [
            11
        ], 
        "(25, 11)": {
            "WBF": [
                2866
            ], 
            "AM2L": [
                1774
            ], 
            "BM1F": [
                2864
            ], 
            "M1": [
                2764
            ], 
            "M2": [
                2402
            ], 
            "BM1L": [
                3181
            ], 
            "WBO": [
                3010, 
                1710, 
                744, 
                2501, 
                1562, 
                490, 
                275, 
                1005, 
                2909, 
                2317
            ], 
            "WBL": [
                2866
            ], 
            "AM2F": [
                400
            ], 
            "M1_ADJ": [
                0
            ]
        }, 
        "sentence": "the sound quality is excellent ( and i 'm fussy with that stuff ) , the unit look cool , screen is bright and easy to read , and the replaceable battery mean a major advantage over the ipod ( besides the price , but everyone know that ) ."
    }
}