{
    "7c34e517718ef2880221cd7408e54f54": {
        "location1": [
            18
        ], 
        "location2": [
            11
        ], 
        "(18, 11)": {
            "WBF": [
                1587
            ], 
            "BM1F": [
                2866
            ], 
            "M1": [
                315
            ], 
            "M2": [
                2419
            ], 
            "BM1L": [
                1669
            ], 
            "WBO": [
                2019, 
                2659, 
                1604
            ], 
            "WBL": [
                2576
            ], 
            "AM2F": [
                562
            ], 
            "M1_ADJ": [
                0
            ]
        }, 
        "sentence": "the nomad zen could use a little sturdier construction like the archos jukebox or some kind of shock resistant case ."
    }
}