{
    "7967db31bc77438a94a846ddeb630669": {
        "location1": [
            36
        ], 
        "location2": [
            59
        ], 
        "(36, 59)": {
            "WBF": [
                2866
            ], 
            "AM2L": [
                275
            ], 
            "BM1F": [
                275
            ], 
            "M1": [
                2516
            ], 
            "M2": [
                1558
            ], 
            "BM1L": [
                2833
            ], 
            "WBO": [
                3185, 
                347, 
                1239, 
                2783, 
                1210, 
                2037, 
                2783, 
                1490, 
                2856, 
                1971, 
                2676, 
                2281, 
                678, 
                3181, 
                2866, 
                3064, 
                2793, 
                151, 
                1239
            ], 
            "WBL": [
                307
            ], 
            "AM2F": [
                3038
            ], 
            "M1_ADJ": [
                1
            ]
        }, 
        "sentence": "finally the software used to put all the song into it is vastly inferior to itunes on two level , first it is poorly integrated into the overall player and clunky to use especially with tagging and second the wma audio format suck , flat out suck in term of sound quality compared with the vastly superior aac format the apple ipod us and it stick you with one of the sub par paid music service such as napster instead of allowing to use the itunes store , which , if you ever plan to pay for your music , is by far the best ."
    }
}