{
    "b45fbddd121d5a06ac46d216611c9b71": {
        "location1": [
            6
        ], 
        "location2": [
            8
        ], 
        "(6, 8)": {
            "WBFL": [
                3046
            ], 
            "BM1F": [
                3181
            ], 
            "M1": [
                2545
            ], 
            "M2": [
                1544
            ], 
            "BM1L": [
                309
            ], 
            "AM2F": [
                1211
            ], 
            "M1_ADJ": [
                1
            ]
        }, 
        "sentence": "3 . mediasource is an application with serious user interface flaw ."
    }
}