{
    "bc8cb26f2e111e60b22ac940195a192f": {
        "location1": [
            0
        ], 
        "location2": [
            14
        ], 
        "(0, 14)": {
            "WBF": [
                3114
            ], 
            "AM2L": [
                1004
            ], 
            "M1": [
                2582
            ], 
            "M2": [
                1253
            ], 
            "WBO": [
                74, 
                1849, 
                2650, 
                1449, 
                1322, 
                2866, 
                1116, 
                3114, 
                337, 
                434
            ], 
            "WBL": [
                1965
            ], 
            "AM2F": [
                3029
            ], 
            "M1_ADJ": [
                1
            ]
        }, 
        "sentence": "short warranty ( 3 month , so i got the extended warranty at best buy ) , occasional freeze up ( easily fixed by popping out battery ) , somewhat flimsy navigation wheel ."
    }
}