{
    "80bbb11678af660f0125fc0dd5f8324c": {
        "(0, 4)": {
            "WBF": [
                636
            ], 
            "AM2L": [
                275
            ], 
            "M1": [
                2605
            ], 
            "M2": [
                523
            ], 
            "WBO": [
                523
            ], 
            "WBL": [
                373
            ], 
            "AM2F": [
                3097
            ], 
            "M1_ADJ": [
                1
            ]
        }, 
        "location1": [
            0
        ], 
        "location2": [
            2, 
            4
        ], 
        "(0, 2)": {
            "AM2L": [
                523
            ], 
            "WBFL": [
                636
            ], 
            "M1": [
                2605
            ], 
            "M2": [
                523
            ], 
            "AM2F": [
                373
            ], 
            "M1_ADJ": [
                1
            ]
        }, 
        "sentence": "simple click button , back button volume and display are very easy to read , access and use ."
    }
}