{
    "b044707a805daadf2f4c1d1c24fefac8": {
        "(13, 1)": {
            "WBF": [
                2864
            ], 
            "BM1F": [
                2866
            ], 
            "M1": [
                1536
            ], 
            "M2": [
                2605
            ], 
            "WBO": [
                663, 
                3181, 
                1566, 
                931, 
                1881, 
                1112, 
                1444, 
                2909
            ], 
            "WBL": [
                2876
            ], 
            "M1_ADJ": [
                0
            ]
        }, 
        "location1": [
            13
        ], 
        "location2": [
            1
        ], 
        "sentence": "the instruction that come with it do n't explain how to make thing simple ."
    }
}