{
    "8d1f6697eefabe40a2bed7c33818a32d": {
        "(9, 5)": {
            "WBF": [
                654
            ], 
            "AM2L": [
                119
            ], 
            "BM1F": [
                1056
            ], 
            "M1": [
                574
            ], 
            "M2": [
                2637
            ], 
            "BM1L": [
                1878
            ], 
            "WBO": [
                1490
            ], 
            "WBL": [
                1994
            ], 
            "AM2F": [
                877
            ], 
            "M1_ADJ": [
                0
            ]
        }, 
        "location1": [
            9
        ], 
        "location2": [
            5
        ], 
        "sentence": "12 ) big storage - my entire cd collection in one small device ( 5717 song , 491 album and counting ) !"
    }
}