{
    "0908662baf8f85d175cd9e342db17d3e": {
        "(1, 18)": {
            "WBF": [
                1562
            ], 
            "BM1F": [
                2866
            ], 
            "M1": [
                2676
            ], 
            "M2": [
                1386
            ], 
            "WBO": [
                1333, 
                1075, 
                3181, 
                2866, 
                2794, 
                995, 
                522, 
                1449, 
                1185, 
                995, 
                2991, 
                2650, 
                1449
            ], 
            "WBL": [
                888
            ], 
            "M1_ADJ": [
                1
            ]
        }, 
        "location1": [
            1
        ], 
        "location2": [
            18
        ], 
        "sentence": "the sound is great even with the supplied earbuds -- but i find earbuds uncomfortable so i use different headphone ."
    }, 
    "c8196ec4c983af49734af374c87665fd": {
        "(34, 17)": {
            "WBF": [
                2875
            ], 
            "AM2L": [
                1317
            ], 
            "BM1F": [
                2866
            ], 
            "M1": [
                1386
            ], 
            "M2": [
                2676
            ], 
            "BM1L": [
                3041
            ], 
            "WBO": [
                1305, 
                3229, 
                1490, 
                2866, 
                481, 
                522, 
                1555, 
                78, 
                939, 
                1490, 
                150, 
                1907, 
                2072
            ], 
            "WBL": [
                2866
            ], 
            "AM2F": [
                2281
            ], 
            "M1_ADJ": [
                0
            ]
        }, 
        "location1": [
            34
        ], 
        "location2": [
            4, 
            17
        ], 
        "(34, 4)": {
            "WBF": [
                2882
            ], 
            "AM2L": [
                1317
            ], 
            "BM1F": [
                1971
            ], 
            "M1": [
                1386
            ], 
            "M2": [
                2676
            ], 
            "BM1L": [
                2774
            ], 
            "WBO": [
                2876, 
                2522, 
                1669, 
                150, 
                1932, 
                1864, 
                2160, 
                3147, 
                3229, 
                3041, 
                2866, 
                1386, 
                2875, 
                1305, 
                3229, 
                1490, 
                2866, 
                481, 
                522, 
                1555, 
                78, 
                939, 
                1490, 
                150, 
                1907, 
                2072
            ], 
            "WBL": [
                2866
            ], 
            "AM2F": [
                2281
            ], 
            "M1_ADJ": [
                0
            ]
        }, 
        "sentence": "on the subject of headphone , this thing seems like a normal mp3 player when you use the headphone they give you in the box , but invest 30 dollar in a nice pair and the sound quality goes up through the roof !"
    }, 
    "c4e796d80648ecc51b638ffb194b05b7": {
        "location1": [
            1
        ], 
        "location2": [
            12
        ], 
        "(1, 12)": {
            "WBF": [
                2281
            ], 
            "AM2L": [
                1971
            ], 
            "BM1F": [
                2866
            ], 
            "M1": [
                2676
            ], 
            "M2": [
                1386
            ], 
            "WBO": [
                1562, 
                254, 
                1907, 
                221, 
                1449, 
                1433, 
                3029
            ], 
            "WBL": [
                2667
            ], 
            "AM2F": [
                1535
            ], 
            "M1_ADJ": [
                1
            ]
        }, 
        "sentence": "the sound quality is also nice ... after i hooked up my sony headphone instead of those factory earbuds it comes with ."
    }, 
    "2f0c579001ddf9a71892e54a7ae11a15": {
        "(3, 7)": {
            "WBF": [
                1333
            ], 
            "AM2L": [
                3138
            ], 
            "BM1F": [
                3220
            ], 
            "M1": [
                2676
            ], 
            "M2": [
                1386
            ], 
            "BM1L": [
                3236
            ], 
            "WBO": [
                3181
            ], 
            "WBL": [
                1320
            ], 
            "AM2F": [
                275
            ], 
            "M1_ADJ": [
                1
            ]
        }, 
        "location1": [
            3
        ], 
        "location2": [
            7
        ], 
        "sentence": "the zen xtra sound great with good headphone and well recored mp3s ."
    }, 
    "e9085eaf184831b80aff2166379e289a": {
        "location1": [
            1
        ], 
        "location2": [
            12
        ], 
        "(1, 12)": {
            "WBF": [
                1562
            ], 
            "BM1F": [
                2866
            ], 
            "M1": [
                2676
            ], 
            "M2": [
                1386
            ], 
            "WBO": [
                1092, 
                522, 
                150, 
                2907, 
                1297, 
                150, 
                2322
            ], 
            "WBL": [
                1971
            ], 
            "M1_ADJ": [
                1
            ]
        }, 
        "sentence": "the sound is excellent , but a tip : get a real pair of headphone ."
    }
}