{
    "8121831049060e4e814eb90a284743c5": {
        "(13, 21)": {
            "WBF": [
                1745
            ], 
            "BM1F": [
                1333
            ], 
            "M1": [
                2676
            ], 
            "M2": [
                2011
            ], 
            "BM1L": [
                275
            ], 
            "WBO": [
                2882, 
                1994, 
                2866, 
                434
            ], 
            "WBL": [
                1878
            ], 
            "M1_ADJ": [
                1
            ]
        }, 
        "location1": [
            13
        ], 
        "location2": [
            21
        ], 
        "sentence": "ive seen em all , the archos , dell , ipod , everything ... good price and great sound makes this one the best in my opinion ."
    }
}