{
    "5fd8c0085bdee242af47218a4dee27e1": {
        "(11, 7)": {
            "WBF": [
                2909
            ], 
            "AM2L": [
                275
            ], 
            "BM1F": [
                4
            ], 
            "M1": [
                2236
            ], 
            "M2": [
                2676
            ], 
            "BM1L": [
                1566
            ], 
            "WBO": [
                1297
            ], 
            "WBL": [
                2793
            ], 
            "AM2F": [
                2281
            ], 
            "M1_ADJ": [
                0
            ]
        }, 
        "location1": [
            11
        ], 
        "location2": [
            7
        ], 
        "sentence": "i am willing to overlook it 's problem to get superior sound quality and low price , although i feel the player has a lot of room for improvement ."
    }
}