{
    "21ebed2a97f528417ad5da338ef26ef7": {
        "(43, 31)": {
            "WBF": [
                735
            ], 
            "AM2L": [
                1572
            ], 
            "BM1F": [
                1875
            ], 
            "M1": [
                2939
            ], 
            "M2": [
                2676
            ], 
            "BM1L": [
                1490
            ], 
            "WBO": [
                316, 
                1005, 
                2909, 
                3041, 
                221, 
                1764, 
                2866, 
                2506
            ], 
            "WBL": [
                1333
            ], 
            "AM2F": [
                275
            ], 
            "M1_ADJ": [
                0
            ]
        }, 
        "location1": [
            43
        ], 
        "location2": [
            31
        ], 
        "sentence": "now here the stuff you should know starting with the good thing : the screen is really big and the blue light in the back is perfect , fast as hell in music transfer , control are easy to use after mastering the scroll button , great sound and ive heard many mp3 player , a ton of different equilizer type deal on here ."
    }
}