{
    "ee31d7df41f71e9ae037cdf06e1512c9": {
        "location1": [
            8, 
            20
        ], 
        "location2": [
            7
        ], 
        "(20, 7)": {
            "WBF": [
                2676
            ], 
            "AM2L": [
                325
            ], 
            "BM1F": [
                3185
            ], 
            "M1": [
                1176
            ], 
            "M2": [
                2676
            ], 
            "BM1L": [
                1595
            ], 
            "WBO": [
                1591, 
                325, 
                1320, 
                325, 
                2866, 
                2680, 
                574, 
                275, 
                2866
            ], 
            "WBL": [
                3220
            ], 
            "AM2F": [
                1591
            ], 
            "M1_ADJ": [
                0
            ]
        }, 
        "(8, 7)": {
            "AM2L": [
                325
            ], 
            "BM1F": [
                3185
            ], 
            "M1": [
                1176
            ], 
            "M2": [
                2676
            ], 
            "BM1L": [
                1595
            ], 
            "WBNULL": [
                1
            ], 
            "AM2F": [
                1591
            ], 
            "M1_ADJ": [
                0
            ]
        }, 
        "sentence": "to my ear , a 160 kbps wma file sound just as good as the source cd , and the zen xtra sound just as good as a portable cd player ."
    }, 
    "e49ac9a4b66e14c04595bc27e7a4d260": {
        "(0, 15)": {
            "WBF": [
                2281
            ], 
            "AM2L": [
                1320
            ], 
            "M1": [
                2676
            ], 
            "M2": [
                1176
            ], 
            "WBO": [
                1562, 
                266, 
                1449, 
                3117, 
                1104, 
                3199, 
                522, 
                1569, 
                2325, 
                1320, 
                1071
            ], 
            "WBL": [
                3230
            ], 
            "AM2F": [
                1375
            ], 
            "M1_ADJ": [
                1
            ]
        }, 
        "(18, 15)": {
            "WBF": [
                1375
            ], 
            "BM1F": [
                3230
            ], 
            "M1": [
                1176
            ], 
            "M2": [
                2676
            ], 
            "BM1L": [
                1463
            ], 
            "WBO": [
                1320
            ], 
            "WBL": [
                1320
            ], 
            "AM2F": [
                2281
            ], 
            "M1_ADJ": [
                0
            ]
        }, 
        "location1": [
            0, 
            18
        ], 
        "location2": [
            15
        ], 
        "sentence": "sound quality is amazing . i was expecting worse , but its really good ( especially if your file have good sound quality ) ."
    }
}