{
    "44d22a9ad796160bb6beb7100f6b8152": {
        "location1": [
            15
        ], 
        "location2": [
            26
        ], 
        "(15, 26)": {
            "WBF": [
                3199
            ], 
            "AM2L": [
                3059
            ], 
            "BM1F": [
                2666
            ], 
            "M1": [
                2676
            ], 
            "M2": [
                1595
            ], 
            "BM1L": [
                1878
            ], 
            "WBO": [
                2862, 
                3183, 
                1566, 
                1449, 
                1034, 
                1878, 
                2666
            ], 
            "WBL": [
                40
            ], 
            "AM2F": [
                3183
            ], 
            "M1_ADJ": [
                1
            ]
        }, 
        "sentence": "the environmental audio , however , is almost completely useless and has made most of my song sound worse than without it ( i encode my song at 192-256 kbps without variable bit rate . )"
    }, 
    "25da27d72af155af06e6c5874f503ef7": {
        "(3, 22)": {
            "WBF": [
                1562
            ], 
            "AM2L": [
                936
            ], 
            "BM1F": [
                2866
            ], 
            "M1": [
                2676
            ], 
            "M2": [
                1595
            ], 
            "BM1L": [
                222
            ], 
            "WBO": [
                367, 
                2866, 
                399, 
                1664, 
                1562, 
                1999, 
                123, 
                1442, 
                275, 
                2864, 
                1562, 
                407, 
                242, 
                1878, 
                1875
            ], 
            "WBL": [
                83
            ], 
            "AM2F": [
                3152
            ], 
            "M1_ADJ": [
                1
            ]
        }, 
        "location1": [
            3
        ], 
        "location2": [
            22
        ], 
        "sentence": "once again , the sound is awesome , the batterly life is only 6-8 hour , and that is because all my music is 320 kbps which does affect the battery life ."
    }, 
    "ee31d7df41f71e9ae037cdf06e1512c9": {
        "(8, 5)": {
            "WBF": [
                3185
            ], 
            "AM2L": [
                325
            ], 
            "BM1F": [
                37
            ], 
            "M1": [
                1595
            ], 
            "M2": [
                2676
            ], 
            "BM1L": [
                150
            ], 
            "WBO": [
                1176
            ], 
            "WBL": [
                1176
            ], 
            "AM2F": [
                1591
            ], 
            "M1_ADJ": [
                0
            ]
        }, 
        "location1": [
            8, 
            20
        ], 
        "location2": [
            5
        ], 
        "(20, 5)": {
            "WBF": [
                3185
            ], 
            "AM2L": [
                325
            ], 
            "BM1F": [
                37
            ], 
            "M1": [
                1595
            ], 
            "M2": [
                2676
            ], 
            "BM1L": [
                150
            ], 
            "WBO": [
                1176, 
                2676, 
                1591, 
                325, 
                1320, 
                325, 
                2866, 
                2680, 
                574, 
                275, 
                2866
            ], 
            "WBL": [
                3220
            ], 
            "AM2F": [
                1591
            ], 
            "M1_ADJ": [
                0
            ]
        }, 
        "sentence": "to my ear , a 160 kbps wma file sound just as good as the source cd , and the zen xtra sound just as good as a portable cd player ."
    }
}