{
    "6bcac49498fd30b88131b83404d6bfaf": {
        "location1": [
            9
        ], 
        "location2": [
            4
        ], 
        "(9, 4)": {
            "WBF": [
                1287
            ], 
            "AM2L": [
                1333
            ], 
            "BM1F": [
                337
            ], 
            "M1": [
                784
            ], 
            "M2": [
                2676
            ], 
            "BM1L": [
                1258
            ], 
            "WBO": [
                2882
            ], 
            "WBL": [
                1320
            ], 
            "AM2F": [
                2281
            ], 
            "M1_ADJ": [
                0
            ]
        }, 
        "sentence": "our special friend at creative gave this thing good sound quality , great feature , long battery life , and an unbeatable price ."
    }, 
    "a0025c0db7ea0540259cd3b1b90d7fcb": {
        "(1, 10)": {
            "WBF": [
                1562
            ], 
            "BM1F": [
                2866
            ], 
            "M1": [
                2676
            ], 
            "M2": [
                784
            ], 
            "WBO": [
                1092, 
                325, 
                1994, 
                3204, 
                2811
            ], 
            "WBL": [
                150
            ], 
            "AM2F": [
                2242
            ], 
            "M1_ADJ": [
                1
            ]
        }, 
        "location1": [
            1
        ], 
        "location2": [
            10
        ], 
        "sentence": "the sound is excellent as one would suspect from a creative product ."
    }, 
    "a44b72ed937e77df7cb07d76f90f6978": {
        "(0, 9)": {
            "WBF": [
                2281
            ], 
            "M1": [
                2676
            ], 
            "M2": [
                784
            ], 
            "WBO": [
                1987, 
                2882, 
                1562, 
                266, 
                325
            ], 
            "WBL": [
                242
            ], 
            "AM2F": [
                2242
            ], 
            "M1_ADJ": [
                1
            ]
        }, 
        "location1": [
            0
        ], 
        "location2": [
            9
        ], 
        "sentence": "sound quality on this is amazing , as with all creative product ."
    }, 
    "ef25a24c12ae7b697445f8d181fbe847": {
        "location1": [
            28
        ], 
        "location2": [
            43
        ], 
        "(28, 43)": {
            "WBF": [
                3165
            ], 
            "AM2L": [
                413
            ], 
            "BM1F": [
                1092
            ], 
            "M1": [
                2676
            ], 
            "M2": [
                784
            ], 
            "BM1L": [
                275
            ], 
            "WBO": [
                1612, 
                2909, 
                402, 
                436, 
                2862, 
                1558, 
                1935, 
                2807, 
                717, 
                2866, 
                1949
            ], 
            "WBL": [
                3222
            ], 
            "AM2F": [
                1371
            ], 
            "M1_ADJ": [
                1
            ]
        }, 
        "sentence": "like it 's predecessor , the quickly revised nx , this player boast a decent size and weight , a relatively-intuitive navigational system that categorizes based on id3 tag , and excellent sound ( widely known to be better than ipod - not surprising considering the number of year creative has been in the audio peripheral business ) ."
    }, 
    "bdc192fe7f1f8ae65e2026ddd253541b": {
        "location1": [
            17
        ], 
        "location2": [
            7
        ], 
        "(17, 7)": {
            "WBF": [
                1864
            ], 
            "AM2L": [
                1971
            ], 
            "BM1F": [
                2034
            ], 
            "M1": [
                784
            ], 
            "M2": [
                2676
            ], 
            "BM1L": [
                407
            ], 
            "WBO": [
                2160, 
                316, 
                3075, 
                1320, 
                275, 
                1375
            ], 
            "WBL": [
                434
            ], 
            "AM2F": [
                2281
            ], 
            "M1_ADJ": [
                0
            ]
        }, 
        "sentence": "it 's really a shame , because otherwise , creative mp3 player are very good , and have the best sound quality of any player on the market ."
    }, 
    "8812abd94f2f4829367b5c99303eebd1": {
        "(16, 10)": {
            "WBF": [
                1864
            ], 
            "AM2L": [
                1971
            ], 
            "BM1F": [
                2866
            ], 
            "M1": [
                784
            ], 
            "M2": [
                2676
            ], 
            "BM1L": [
                2864
            ], 
            "WBO": [
                1587, 
                1375
            ], 
            "WBL": [
                434
            ], 
            "AM2F": [
                2281
            ], 
            "M1_ADJ": [
                0
            ]
        }, 
        "location1": [
            16
        ], 
        "location2": [
            10
        ], 
        "sentence": "all review i 've seen seem to indicate that the creative mp3 jukebox have the best sound quality of these 2nd generation jukeboxed ( ipod , archos , dell , samsung ) ."
    }, 
    "d6255391e01cbaa0b68fdb9cf3e4e183": {
        "(3, 0)": {
            "WBF": [
                316
            ], 
            "AM2L": [
                1232
            ], 
            "M1": [
                784
            ], 
            "M2": [
                2676
            ], 
            "WBO": [
                2866
            ], 
            "WBL": [
                2866
            ], 
            "AM2F": [
                2100
            ], 
            "M1_ADJ": [
                0
            ]
        }, 
        "location1": [
            3
        ], 
        "location2": [
            0
        ], 
        "sentence": "creative are * the * sound people for computer , i can 't understand why eax would introduce static ."
    }
}