{
    "8812abd94f2f4829367b5c99303eebd1": {
        "(16, 21)": {
            "WBF": [
                2281
            ], 
            "AM2L": [
                1558
            ], 
            "BM1F": [
                434
            ], 
            "M1": [
                2676
            ], 
            "M2": [
                1295
            ], 
            "BM1L": [
                2866
            ], 
            "WBO": [
                1971
            ], 
            "WBL": [
                72
            ], 
            "AM2F": [
                1588
            ], 
            "M1_ADJ": [
                1
            ]
        }, 
        "location1": [
            16
        ], 
        "location2": [
            21
        ], 
        "sentence": "all review i 've seen seem to indicate that the creative mp3 jukebox have the best sound quality of these 2nd generation jukeboxed ( ipod , archos , dell , samsung ) ."
    }
}