{
    "ef25a24c12ae7b697445f8d181fbe847": {
        "(28, 15)": {
            "WBF": [
                150
            ], 
            "AM2L": [
                1612
            ], 
            "BM1F": [
                275
            ], 
            "M1": [
                3135
            ], 
            "M2": [
                2676
            ], 
            "BM1L": [
                2617
            ], 
            "WBO": [
                2377, 
                1888, 
                2824, 
                2864, 
                568, 
                393, 
                1987, 
                1457, 
                2832
            ], 
            "WBL": [
                1092
            ], 
            "AM2F": [
                3165
            ], 
            "M1_ADJ": [
                0
            ]
        }, 
        "location1": [
            28
        ], 
        "location2": [
            15
        ], 
        "sentence": "like it 's predecessor , the quickly revised nx , this player boast a decent size and weight , a relatively-intuitive navigational system that categorizes based on id3 tag , and excellent sound ( widely known to be better than ipod - not surprising considering the number of year creative has been in the audio peripheral business ) ."
    }
}