{
    "92198989402e17a45ecbf5ef78c65e91": {
        "(1, 8)": {
            "WBF": [
                3075
            ], 
            "AM2L": [
                1232
            ], 
            "BM1F": [
                1333
            ], 
            "M1": [
                2676
            ], 
            "M2": [
                2157
            ], 
            "WBO": [
                1706, 
                400, 
                1664
            ], 
            "WBL": [
                2466
            ], 
            "AM2F": [
                1566
            ], 
            "M1_ADJ": [
                1
            ]
        }, 
        "location1": [
            1
        ], 
        "location2": [
            8
        ], 
        "sentence": "great sound , very long battery life ( i routinely play it for 12 + hour ) , very fast recharges rate , removable battery , storage size , nice screen , firmware update , and great price ."
    }, 
    "00562a00a0ab2c377658f1ccf279b3bb": {
        "location1": [
            1
        ], 
        "location2": [
            13
        ], 
        "(1, 13)": {
            "WBF": [
                1320
            ], 
            "BM1F": [
                1333
            ], 
            "M1": [
                2676
            ], 
            "M2": [
                2157
            ], 
            "WBO": [
                1544, 
                2402, 
                2205, 
                400, 
                1320, 
                2653, 
                3104, 
                2623
            ], 
            "WBL": [
                1873
            ], 
            "AM2F": [
                1836
            ], 
            "M1_ADJ": [
                1
            ]
        }, 
        "sentence": "great sound ; good interface ; replaceable , powerful battery ; good software ; wake-up , sleep timer ; multiple play mode"
    }
}