{
    "68a8302a084952a7e1cf8fe9f3f14b4e": {
        "(13, 14)": {
            "AM2L": [
                2017
            ], 
            "BM1F": [
                3138
            ], 
            "M1": [
                2676
            ], 
            "M2": [
                2215
            ], 
            "BM1L": [
                325
            ], 
            "WBNULL": [
                1
            ], 
            "AM2F": [
                1886
            ], 
            "M1_ADJ": [
                1
            ]
        }, 
        "location1": [
            13
        ], 
        "location2": [
            14
        ], 
        "sentence": "you of course have some good customization option with the unit as well ( sound presets , navigating option , playlist , etc ) ."
    }, 
    "a35aae065a501637e0500caa8560e498": {
        "location1": [
            7
        ], 
        "location2": [
            11
        ], 
        "(7, 11)": {
            "WBF": [
                3181
            ], 
            "AM2L": [
                1562
            ], 
            "BM1F": [
                3230
            ], 
            "M1": [
                2676
            ], 
            "M2": [
                2215
            ], 
            "BM1L": [
                1840
            ], 
            "WBO": [
                95
            ], 
            "WBL": [
                888
            ], 
            "AM2F": [
                3152
            ], 
            "M1_ADJ": [
                1
            ]
        }, 
        "sentence": "with eax on , you can modify your sound , with 4 different presets , which is pretty good , you can get different variation with it ."
    }
}