{
    "370f2f08bb8ba98db88f94c031ba3f60": {
        "(22, 11)": {
            "WBF": [
                1669
            ], 
            "AM2L": [
                3229
            ], 
            "BM1F": [
                1758
            ], 
            "M1": [
                2017
            ], 
            "M2": [
                2676
            ], 
            "BM1L": [
                1371
            ], 
            "WBO": [
                2633, 
                2019, 
                2697, 
                3029, 
                2866, 
                1875, 
                2019
            ], 
            "WBL": [
                1566
            ], 
            "AM2F": [
                1669
            ], 
            "M1_ADJ": [
                0
            ]
        }, 
        "location1": [
            5, 
            22
        ], 
        "location2": [
            11
        ], 
        "(5, 11)": {
            "WBF": [
                1333
            ], 
            "AM2L": [
                2633
            ], 
            "BM1F": [
                275
            ], 
            "M1": [
                2676
            ], 
            "M2": [
                2017
            ], 
            "BM1L": [
                1156
            ], 
            "WBO": [
                1566, 
                254
            ], 
            "WBL": [
                1758
            ], 
            "AM2F": [
                1669
            ], 
            "M1_ADJ": [
                1
            ]
        }, 
        "sentence": "the player is fast and sound great , it also has many option like slowing or speeding up the music , or making it sound like you 're hearing the music in a huge auditorium ."
    }, 
    "68a8302a084952a7e1cf8fe9f3f14b4e": {
        "(13, 16)": {
            "WBF": [
                2215
            ], 
            "AM2L": [
                1074
            ], 
            "BM1F": [
                3138
            ], 
            "M1": [
                2676
            ], 
            "M2": [
                2017
            ], 
            "BM1L": [
                325
            ], 
            "WBO": [
                1886
            ], 
            "WBL": [
                1886
            ], 
            "AM2F": [
                2162
            ], 
            "M1_ADJ": [
                1
            ]
        }, 
        "location1": [
            13
        ], 
        "location2": [
            7, 
            16
        ], 
        "(13, 7)": {
            "WBF": [
                3181
            ], 
            "AM2L": [
                1886
            ], 
            "BM1F": [
                803
            ], 
            "M1": [
                2017
            ], 
            "M2": [
                2676
            ], 
            "BM1L": [
                1320
            ], 
            "WBO": [
                2866, 
                3010
            ], 
            "WBL": [
                3138
            ], 
            "AM2F": [
                2215
            ], 
            "M1_ADJ": [
                0
            ]
        }, 
        "sentence": "you of course have some good customization option with the unit as well ( sound presets , navigating option , playlist , etc ) ."
    }, 
    "9f235bc4fe0b25cfe6ce4bd9e0035c54": {
        "(2, 3)": {
            "AM2L": [
                273
            ], 
            "BM1F": [
                1971
            ], 
            "M1": [
                2676
            ], 
            "M2": [
                2017
            ], 
            "BM1L": [
                1719
            ], 
            "WBNULL": [
                1
            ], 
            "AM2F": [
                1371
            ], 
            "M1_ADJ": [
                1
            ]
        }, 
        "(2, 12)": {
            "WBF": [
                2017
            ], 
            "BM1F": [
                1971
            ], 
            "M1": [
                2676
            ], 
            "M2": [
                2017
            ], 
            "BM1L": [
                1719
            ], 
            "WBO": [
                1371, 
                273, 
                1062, 
                248, 
                1669, 
                3172
            ], 
            "WBL": [
                2866
            ], 
            "M1_ADJ": [
                1
            ]
        }, 
        "location1": [
            2
        ], 
        "location2": [
            3, 
            12
        ], 
        "sentence": "lot of sound option , has an equalizer almost like winamp with the option ."
    }
}