{
    "68a8302a084952a7e1cf8fe9f3f14b4e": {
        "(13, 17)": {
            "WBF": [
                2215
            ], 
            "BM1F": [
                3138
            ], 
            "M1": [
                2676
            ], 
            "M2": [
                2162
            ], 
            "BM1L": [
                325
            ], 
            "WBO": [
                1886
            ], 
            "WBL": [
                2017
            ], 
            "AM2F": [
                1074
            ], 
            "M1_ADJ": [
                1
            ]
        }, 
        "location1": [
            13
        ], 
        "location2": [
            17
        ], 
        "sentence": "you of course have some good customization option with the unit as well ( sound presets , navigating option , playlist , etc ) ."
    }
}