{
    "9f2d19f4f15b79be42e96d4df6d23921": {
        "(0, 15)": {
            "WBF": [
                2281
            ], 
            "AM2L": [
                2866
            ], 
            "M1": [
                2676
            ], 
            "M2": [
                206
            ], 
            "WBO": [
                3117, 
                2866, 
                2479, 
                437, 
                2866, 
                2975, 
                522, 
                2866, 
                3236, 
                882, 
                1375
            ], 
            "WBL": [
                2676
            ], 
            "AM2F": [
                3181
            ], 
            "M1_ADJ": [
                1
            ]
        }, 
        "location1": [
            0, 
            14
        ], 
        "location2": [
            15
        ], 
        "(14, 15)": {
            "AM2L": [
                2866
            ], 
            "BM1F": [
                1851
            ], 
            "M1": [
                2676
            ], 
            "M2": [
                206
            ], 
            "BM1L": [
                1375
            ], 
            "WBNULL": [
                1
            ], 
            "AM2F": [
                3181
            ], 
            "M1_ADJ": [
                1
            ]
        }, 
        "sentence": "sound quality was the same between the two , but the zen did have more sound adjustment with the normal eax feature ."
    }
}