{
    "534cc711fb7497cc8a9f2de24a929ac6": {
        "(2, 3)": {
            "AM2L": [
                1375
            ], 
            "BM1F": [
                150
            ], 
            "M1": [
                2685
            ], 
            "M2": [
                400
            ], 
            "BM1L": [
                8
            ], 
            "WBNULL": [
                1
            ], 
            "AM2F": [
                3204
            ], 
            "M1_ADJ": [
                1
            ]
        }, 
        "location1": [
            2
        ], 
        "location2": [
            3
        ], 
        "sentence": "1 ) a spare battery would have been great ."
    }
}