{
    "3bc4feba5ac935dba2cf5229f7485723": {
        "(5, 9)": {
            "WBF": [
                1851
            ], 
            "AM2L": [
                402
            ], 
            "BM1F": [
                150
            ], 
            "M1": [
                2767
            ], 
            "M2": [
                562
            ], 
            "BM1L": [
                1641
            ], 
            "WBO": [
                2260
            ], 
            "WBL": [
                561
            ], 
            "AM2F": [
                3204
            ], 
            "M1_ADJ": [
                1
            ]
        }, 
        "location1": [
            5
        ], 
        "location2": [
            9
        ], 
        "sentence": "at the very least , a sturdier more protective carrying case would be nice ."
    }, 
    "7c34e517718ef2880221cd7408e54f54": {
        "location1": [
            7
        ], 
        "location2": [
            19
        ], 
        "(7, 19)": {
            "WBF": [
                723
            ], 
            "BM1F": [
                1690
            ], 
            "M1": [
                2767
            ], 
            "M2": [
                562
            ], 
            "BM1L": [
                150
            ], 
            "WBO": [
                1669, 
                2866, 
                315, 
                1587, 
                2019, 
                2659, 
                1604, 
                1971
            ], 
            "WBL": [
                2419
            ], 
            "M1_ADJ": [
                1
            ]
        }, 
        "sentence": "the nomad zen could use a little sturdier construction like the archos jukebox or some kind of shock resistant case ."
    }
}