{
    "7c34e517718ef2880221cd7408e54f54": {
        "location1": [
            7
        ], 
        "location2": [
            11
        ], 
        "(7, 11)": {
            "WBF": [
                723
            ], 
            "AM2L": [
                2019
            ], 
            "BM1F": [
                1690
            ], 
            "M1": [
                2767
            ], 
            "M2": [
                315
            ], 
            "BM1L": [
                150
            ], 
            "WBO": [
                1669
            ], 
            "WBL": [
                2866
            ], 
            "AM2F": [
                1587
            ], 
            "M1_ADJ": [
                1
            ]
        }, 
        "sentence": "the nomad zen could use a little sturdier construction like the archos jukebox or some kind of shock resistant case ."
    }
}