{
    "72aded7ea887df602a8ff0bb7045767d": {
        "location1": [
            10
        ], 
        "location2": [
            4
        ], 
        "(10, 4)": {
            "WBF": [
                275
            ], 
            "BM1F": [
                3181
            ], 
            "M1": [
                1576
            ], 
            "M2": [
                2793
            ], 
            "BM1L": [
                2281
            ], 
            "WBO": [
                2180, 
                1875
            ], 
            "WBL": [
                1063
            ], 
            "M1_ADJ": [
                0
            ]
        }, 
        "sentence": "the sound quality with jazz and pop music is equally superior ."
    }
}