{
    "ef25a24c12ae7b697445f8d181fbe847": {
        "location1": [
            37
        ], 
        "location2": [
            19
        ], 
        "(37, 19)": {
            "WBF": [
                2864
            ], 
            "AM2L": [
                2866
            ], 
            "BM1F": [
                1888
            ], 
            "M1": [
                2824
            ], 
            "M2": [
                2807
            ], 
            "BM1L": [
                2377
            ], 
            "WBO": [
                568, 
                393, 
                1987, 
                1457, 
                2832, 
                275, 
                1092, 
                2676, 
                3165, 
                1612, 
                2909, 
                402, 
                436, 
                2862
            ], 
            "WBL": [
                1935
            ], 
            "AM2F": [
                717
            ], 
            "M1_ADJ": [
                0
            ]
        }, 
        "sentence": "like it 's predecessor , the quickly revised nx , this player boast a decent size and weight , a relatively-intuitive navigational system that categorizes based on id3 tag , and excellent sound ( widely known to be better than ipod - not surprising considering the number of year creative has been in the audio peripheral business ) ."
    }
}