{
    "e17e18380718fc3b0a9d1deacbd92ff8": {
        "(27, 5)": {
            "WBF": [
                3181
            ], 
            "AM2L": [
                2653
            ], 
            "BM1F": [
                2046
            ], 
            "M1": [
                908
            ], 
            "M2": [
                2880
            ], 
            "BM1L": [
                273
            ], 
            "WBO": [
                150, 
                764, 
                1971, 
                440, 
                1211, 
                2864, 
                2200, 
                525, 
                2587, 
                402, 
                3116, 
                1971, 
                275, 
                242, 
                2319, 
                1896, 
                2909, 
                1610
            ], 
            "WBL": [
                150
            ], 
            "AM2F": [
                2086
            ], 
            "M1_ADJ": [
                0
            ]
        }, 
        "location1": [
            27
        ], 
        "location2": [
            5
        ], 
        "sentence": "this player is an overall disappointment with a couple of big flaw that potential buyer should be wary of ; and all reader need to know about a third party software company that resolve virtually all of the creative mediasource file transfer issue ."
    }
}