{
    "6bcac49498fd30b88131b83404d6bfaf": {
        "(18, 15)": {
            "WBF": [
                275
            ], 
            "BM1F": [
                400
            ], 
            "M1": [
                1664
            ], 
            "M2": [
                2989
            ], 
            "BM1L": [
                1706
            ], 
            "WBO": [
                273
            ], 
            "WBL": [
                273
            ], 
            "AM2F": [
                2225
            ], 
            "M1_ADJ": [
                0
            ]
        }, 
        "location1": [
            18
        ], 
        "location2": [
            15
        ], 
        "sentence": "our special friend at creative gave this thing good sound quality , great feature , long battery life , and an unbeatable price ."
    }
}