{
    "a5a636df118fc8a27663f81f5d541375": {
        "(8, 14)": {
            "WBF": [
                3014
            ], 
            "AM2L": [
                1232
            ], 
            "BM1F": [
                2220
            ], 
            "M1": [
                3045
            ], 
            "M2": [
                2160
            ], 
            "BM1L": [
                1562
            ], 
            "WBO": [
                3229, 
                3
            ], 
            "WBL": [
                2866
            ], 
            "AM2F": [
                3029
            ], 
            "M1_ADJ": [
                1
            ]
        }, 
        "location1": [
            8
        ], 
        "location2": [
            14
        ], 
        "sentence": "as it stand now , the case is pretty useless unless you 're packing the player up for travel , or if you load up all your song beforehand ."
    }
}