{
    "44d22a9ad796160bb6beb7100f6b8152": {
        "(7, 23)": {
            "WBF": [
                275
            ], 
            "AM2L": [
                40
            ], 
            "BM1F": [
                688
            ], 
            "M1": [
                3045
            ], 
            "M2": [
                2666
            ], 
            "BM1L": [
                248
            ], 
            "WBO": [
                1371, 
                1739, 
                1854, 
                1971, 
                1878, 
                2666, 
                2676, 
                3199, 
                2862, 
                3183, 
                1566, 
                1449
            ], 
            "WBL": [
                1878
            ], 
            "AM2F": [
                337
            ], 
            "M1_ADJ": [
                1
            ]
        }, 
        "(7, 14)": {
            "WBF": [
                275
            ], 
            "AM2L": [
                3199
            ], 
            "BM1F": [
                688
            ], 
            "M1": [
                3045
            ], 
            "M2": [
                2666
            ], 
            "BM1L": [
                248
            ], 
            "WBO": [
                1371, 
                1739, 
                1854
            ], 
            "WBL": [
                1878
            ], 
            "AM2F": [
                2676
            ], 
            "M1_ADJ": [
                1
            ]
        }, 
        "location1": [
            7
        ], 
        "location2": [
            14, 
            23
        ], 
        "sentence": "the environmental audio , however , is almost completely useless and has made most of my song sound worse than without it ( i encode my song at 192-256 kbps without variable bit rate . )"
    }, 
    "a5a636df118fc8a27663f81f5d541375": {
        "(8, 25)": {
            "WBF": [
                3014
            ], 
            "BM1F": [
                2220
            ], 
            "M1": [
                3045
            ], 
            "M2": [
                2666
            ], 
            "BM1L": [
                1562
            ], 
            "WBO": [
                3229, 
                3, 
                2067, 
                2866, 
                2160, 
                3029, 
                1232, 
                2946, 
                2019, 
                1463, 
                3229, 
                1694, 
                3029
            ], 
            "WBL": [
                3230
            ], 
            "AM2F": [
                416
            ], 
            "M1_ADJ": [
                1
            ]
        }, 
        "location1": [
            8
        ], 
        "location2": [
            25
        ], 
        "sentence": "as it stand now , the case is pretty useless unless you 're packing the player up for travel , or if you load up all your song beforehand ."
    }
}