{
    "ad71306ca9a64f28e317dd789b8d22d2": {
        "(3, 1)": {
            "AM2L": [
                1562
            ], 
            "WBFL": [
                688
            ], 
            "BM1F": [
                2260
            ], 
            "M1": [
                562
            ], 
            "M2": [
                3045
            ], 
            "AM2F": [
                325
            ], 
            "M1_ADJ": [
                0
            ]
        }, 
        "location1": [
            3
        ], 
        "location2": [
            1
        ], 
        "sentence": "* protective case completely useless as is since it obscures display window ."
    }, 
    "a5a636df118fc8a27663f81f5d541375": {
        "(8, 5)": {
            "WBF": [
                1562
            ], 
            "AM2L": [
                3229
            ], 
            "BM1F": [
                2866
            ], 
            "M1": [
                562
            ], 
            "M2": [
                3045
            ], 
            "BM1L": [
                1946
            ], 
            "WBO": [
                2220
            ], 
            "WBL": [
                2220
            ], 
            "AM2F": [
                3014
            ], 
            "M1_ADJ": [
                0
            ]
        }, 
        "location1": [
            8
        ], 
        "location2": [
            5
        ], 
        "sentence": "as it stand now , the case is pretty useless unless you 're packing the player up for travel , or if you load up all your song beforehand ."
    }
}