{
    "4147498480996841498df2bb40d27af6": {
        "location1": [
            3
        ], 
        "location2": [
            14
        ], 
        "(3, 14)": {
            "WBF": [
                400
            ], 
            "AM2L": [
                400
            ], 
            "BM1F": [
                601
            ], 
            "M1": [
                3048
            ], 
            "M2": [
                1558
            ], 
            "BM1L": [
                2866
            ], 
            "WBO": [
                113, 
                1261, 
                784, 
                1562, 
                150, 
                1333, 
                211
            ], 
            "WBL": [
                2866
            ], 
            "AM2F": [
                4
            ], 
            "M1_ADJ": [
                1
            ]
        }, 
        "sentence": "5 ) the cheap , user-replaceable battery ( $ 50 from creative ) is a great advantage over the ipod 's battery which cost $ 100 to replace ."
    }
}