{
    "148b1ce6d32ce2ca6d79482fee329435": {
        "(13, 14)": {
            "AM2L": [
                2676
            ], 
            "BM1F": [
                1987
            ], 
            "M1": [
                3234
            ], 
            "M2": [
                2281
            ], 
            "BM1L": [
                857
            ], 
            "WBNULL": [
                1
            ], 
            "AM2F": [
                2866
            ], 
            "M1_ADJ": [
                1
            ]
        }, 
        "location1": [
            13
        ], 
        "location2": [
            14
        ], 
        "sentence": "the sound is awesome , but if u put it too loud , depends on yoursound quality , the sound might crack ."
    }
}