{
    "a428e226be01d5090f0df044c9a294e5": {
        "location1": [
            3
        ], 
        "location2": [
            9
        ], 
        "(3, 9)": {
            "AM2L": [
                209
            ], 
            "AM2F": [
                8024
            ], 
            "WBF": [
                3705
            ], 
            "BM1F": [
                8905
            ], 
            "M1": [
                157
            ], 
            "irrelevant_Adj": [
                0
            ], 
            "M2": [
                1758
            ], 
            "BM1L": [
                5566
            ], 
            "WBO": [
                5148, 
                5764
            ], 
            "WBL": [
                5148
            ], 
            "irrelevant_Noun": [
                0
            ], 
            "M1_ADJ": [
                1
            ]
        }, 
        "sentence": "in other word 2ga has more ( perhaps 50-100 % more ) conductor than 4ga ."
    }
}