{
    "723b7d9fd3d67bc6b113a0a00eeff097": {
        "(5, 6)": {
            "AM2L": [
                599
            ], 
            "BM1F": [
                5284
            ], 
            "M1": [
                157
            ], 
            "irrelevant_Adj": [
                0
            ], 
            "M2": [
                1118
            ], 
            "BM1L": [
                6354
            ], 
            "WBNULL": [
                1
            ], 
            "irrelevant_Noun": [
                0
            ], 
            "AM2F": [
                1286
            ], 
            "M1_ADJ": [
                1
            ]
        }, 
        "(18, 6)": {
            "AM2L": [
                3252
            ], 
            "AM2F": [
                1286
            ], 
            "WBF": [
                1286
            ], 
            "BM1F": [
                157
            ], 
            "M1": [
                1118
            ], 
            "irrelevant_Adj": [
                0
            ], 
            "M2": [
                157
            ], 
            "BM1L": [
                5284
            ], 
            "WBO": [
                599, 
                8997, 
                7235, 
                5458, 
                8053, 
                2170, 
                4831, 
                310
            ], 
            "WBL": [
                5458
            ], 
            "irrelevant_Noun": [
                0
            ], 
            "M1_ADJ": [
                0
            ]
        }, 
        "location1": [
            5, 
            18
        ], 
        "location2": [
            6
        ], 
        "sentence": "( update : if you really need 2ga booster cable and your skeptical of these , deka makes a set of 2ga cable for around $ 150 ."
    }
}