{
    "33fda5a2744ad5f8840a98704ea7a462": {
        "location1": [
            16
        ], 
        "location2": [
            36
        ], 
        "(16, 36)": {
            "AM2L": [
                3705
            ], 
            "AM2F": [
                5352
            ], 
            "WBF": [
                599
            ], 
            "BM1F": [
                4043
            ], 
            "M1": [
                159
            ], 
            "irrelevant_Adj": [
                0
            ], 
            "M2": [
                6629
            ], 
            "BM1L": [
                5979
            ], 
            "WBO": [
                190, 
                5387, 
                310, 
                42, 
                7824, 
                3985, 
                4283, 
                8, 
                527, 
                3338, 
                8034, 
                503, 
                3109, 
                5543, 
                8887, 
                8034
            ], 
            "WBL": [
                599
            ], 
            "irrelevant_Noun": [
                0
            ], 
            "M1_ADJ": [
                1
            ]
        }, 
        "sentence": "at this point , i have no complaint , i do feel a slight increase in power in 2nd and 3rd ( not a 100 % sure if it 's all from the air filter or with the z-tube ) , and rev noise has stayed the same ."
    }
}