{
    "33fda5a2744ad5f8840a98704ea7a462": {
        "(16, 6)": {
            "AM2L": [
                190
            ], 
            "AM2F": [
                599
            ], 
            "WBF": [
                3962
            ], 
            "BM1F": [
                5344
            ], 
            "M1": [
                1711
            ], 
            "irrelevant_Adj": [
                0
            ], 
            "M2": [
                159
            ], 
            "BM1L": [
                3717
            ], 
            "WBO": [
                2436, 
                3066, 
                310, 
                7270, 
                4065, 
                4043
            ], 
            "WBL": [
                4043
            ], 
            "irrelevant_Noun": [
                0
            ], 
            "M1_ADJ": [
                0
            ]
        }, 
        "location1": [
            16
        ], 
        "location2": [
            6
        ], 
        "sentence": "at this point , i have no complaint , i do feel a slight increase in power in 2nd and 3rd ( not a 100 % sure if it 's all from the air filter or with the z-tube ) , and rev noise has stayed the same ."
    }
}