{
    "d102132ed156445bd0c31ed170163111": {
        "(6, 11)": {
            "AM2L": [
                7362
            ], 
            "AM2F": [
                5543
            ], 
            "WBF": [
                1286
            ], 
            "BM1F": [
                8034
            ], 
            "M1": [
                209
            ], 
            "irrelevant_Adj": [
                0
            ], 
            "M2": [
                5140
            ], 
            "BM1L": [
                8162
            ], 
            "WBO": [
                3962
            ], 
            "WBL": [
                310
            ], 
            "irrelevant_Noun": [
                0
            ], 
            "M1_ADJ": [
                1
            ]
        }, 
        "location1": [
            6
        ], 
        "location2": [
            11
        ], 
        "sentence": "( update : after compairing them to the 4ga cable i bought a month or so back for my car , they do n't really seem that much thicker ."
    }
}