{
    "a428e226be01d5090f0df044c9a294e5": {
        "(11, 9)": {
            "WBFL": [
                8024
            ], 
            "BM1F": [
                5148
            ], 
            "M1": [
                1758
            ], 
            "irrelevant_Adj": [
                0
            ], 
            "M2": [
                209
            ], 
            "BM1L": [
                229
            ], 
            "irrelevant_Noun": [
                0
            ], 
            "M1_ADJ": [
                0
            ]
        }, 
        "location1": [
            11
        ], 
        "location2": [
            9
        ], 
        "sentence": "in other word 2ga has more ( perhaps 50-100 % more ) conductor than 4ga ."
    }
}