{
    "d0c3f805da6e79e198e55dd968eb7d18": {
        "(7, 6)": {
            "AM2L": [
                1118
            ], 
            "BM1F": [
                8034
            ], 
            "M1": [
                1638
            ], 
            "irrelevant_Adj": [
                0
            ], 
            "M2": [
                209
            ], 
            "BM1L": [
                599
            ], 
            "WBNULL": [
                1
            ], 
            "irrelevant_Noun": [
                0
            ], 
            "AM2F": [
                146
            ], 
            "M1_ADJ": [
                0
            ]
        }, 
        "location1": [
            7
        ], 
        "location2": [
            6
        ], 
        "sentence": "i own both these and the coleman 4ga 25 ' booster cable ."
    }
}