{
    "2992546b6c0e171533079193622e951c": {
        "location1": [
            1
        ], 
        "location2": [
            11
        ], 
        "(1, 11)": {
            "AM2L": [
                8162
            ], 
            "AM2F": [
                8501
            ], 
            "WBF": [
                8851
            ], 
            "BM1F": [
                8034
            ], 
            "M1": [
                209
            ], 
            "irrelevant_Adj": [
                0
            ], 
            "M2": [
                2750
            ], 
            "WBO": [
                2436, 
                8991, 
                3120, 
                760, 
                8034, 
                146
            ], 
            "WBL": [
                3252
            ], 
            "irrelevant_Noun": [
                0
            ], 
            "M1_ADJ": [
                1
            ]
        }, 
        "sentence": "the 4ga will do you fine at the 25 ' length for engine up to 5-liters or so ( and honestly probably up to about 6l as well . )"
    }
}