{
    "4ab97dd30e1df24f5b4f8945d6830292": {
        "(22, 10)": {
            "AM2L": [
                5495
            ], 
            "AM2F": [
                7362
            ], 
            "WBF": [
                720
            ], 
            "BM1F": [
                1872
            ], 
            "M1": [
                8874
            ], 
            "irrelevant_Adj": [
                0
            ], 
            "M2": [
                250
            ], 
            "BM1L": [
                5191
            ], 
            "WBO": [
                282, 
                599, 
                194, 
                4268, 
                310, 
                325, 
                8362, 
                720
            ], 
            "WBL": [
                720
            ], 
            "irrelevant_Noun": [
                0
            ], 
            "M1_ADJ": [
                0
            ]
        }, 
        "(3, 10)": {
            "AM2L": [
                282
            ], 
            "AM2F": [
                720
            ], 
            "WBF": [
                3705
            ], 
            "BM1F": [
                2877
            ], 
            "M1": [
                250
            ], 
            "irrelevant_Adj": [
                0
            ], 
            "M2": [
                8874
            ], 
            "BM1L": [
                3252
            ], 
            "WBO": [
                325, 
                8362, 
                720
            ], 
            "WBL": [
                1872
            ], 
            "irrelevant_Noun": [
                0
            ], 
            "M1_ADJ": [
                1
            ]
        }, 
        "location1": [
            3, 
            22
        ], 
        "location2": [
            10
        ], 
        "sentence": "so for example 6-ga has about twice as much copper wire as 8-ga , and 4-ga is a about twice as much as 6-ga , so on and so on ."
    }
}