{
    "eecc04eeb420656acf1358bfe84c1aa0": {
        "(10, 12)": {
            "WBFL": [
                636
            ], 
            "BM1F": [
                4376
            ], 
            "M1": [
                324
            ], 
            "irrelevant_Adj": [
                0
            ], 
            "M2": [
                7942
            ], 
            "BM1L": [
                3252
            ], 
            "irrelevant_Noun": [
                0
            ], 
            "M1_ADJ": [
                1
            ]
        }, 
        "location1": [
            10
        ], 
        "location2": [
            12
        ], 
        "sentence": "this is a small funnel , it will work for just abought any task ."
    }
}