{
    "664d8d0a63ae2e29fdcad89851351001": {
        "(5, 21)": {
            "AM2L": [
                6087
            ], 
            "AM2F": [
                6025
            ], 
            "WBF": [
                3339
            ], 
            "BM1F": [
                527
            ], 
            "M1": [
                352
            ], 
            "irrelevant_Adj": [
                0
            ], 
            "M2": [
                4286
            ], 
            "BM1L": [
                8162
            ], 
            "WBO": [
                2974, 
                7826, 
                599, 
                5512, 
                8034, 
                7522, 
                8814, 
                8049, 
                8718, 
                5387, 
                310, 
                2122
            ], 
            "WBL": [
                5566
            ], 
            "irrelevant_Noun": [
                0
            ], 
            "M1_ADJ": [
                1
            ]
        }, 
        "location1": [
            5
        ], 
        "location2": [
            21
        ], 
        "sentence": "i applied this to all accessible ( front face ) surface , and only the spot where there was not a decal or other item present , probably less than 30 % of the total frontal surface ( keep in mind 50 % is the evaporator and blower vent ) , and the available space on the front cover ."
    }
}