{
    "aae3a25c7393500867c8407cd178e146": {
        "(8, 12)": {
            "WBF": [
                1890
            ], 
            "BM1F": [
                8034
            ], 
            "M1": [
                401
            ], 
            "irrelevant_Adj": [
                0
            ], 
            "M2": [
                3248
            ], 
            "BM1L": [
                1301
            ], 
            "WBO": [
                5752
            ], 
            "WBL": [
                7544
            ], 
            "irrelevant_Noun": [
                0
            ], 
            "M1_ADJ": [
                1
            ]
        }, 
        "location1": [
            8
        ], 
        "location2": [
            12
        ], 
        "sentence": "when looking at these product , simply calculate the actual cost per square foot ."
    }
}