{
    "cc38c3c0bcdde80c216422fa14865414": {
        "location1": [
            6
        ], 
        "location2": [
            5
        ], 
        "(6, 5)": {
            "AM2L": [
                1262
            ], 
            "BM1F": [
                268
            ], 
            "M1": [
                8750
            ], 
            "irrelevant_Adj": [
                0
            ], 
            "M2": [
                435
            ], 
            "BM1L": [
                8034
            ], 
            "WBNULL": [
                1
            ], 
            "irrelevant_Noun": [
                1
            ], 
            "AM2F": [
                5410
            ], 
            "M1_ADJ": [
                0
            ]
        }, 
        "sentence": "we typically buy the 7 way adjustable nozzle , but i thought these would allow more versatility ."
    }, 
    "5887aa8ea1924a3c686f57781e887e66": {
        "(3, 26)": {
            "AM2L": [
                3962
            ], 
            "AM2F": [
                8819
            ], 
            "WBF": [
                7362
            ], 
            "BM1F": [
                688
            ], 
            "M1": [
                435
            ], 
            "irrelevant_Adj": [
                0
            ], 
            "M2": [
                8750
            ], 
            "BM1L": [
                2319
            ], 
            "WBO": [
                8028, 
                8991, 
                1323, 
                3459, 
                8041, 
                8162, 
                3149, 
                2847, 
                3985, 
                8991, 
                3717, 
                310, 
                8591, 
                4590, 
                5543, 
                6925, 
                8028, 
                4929, 
                3459
            ], 
            "WBL": [
                8034
            ], 
            "irrelevant_Noun": [
                1
            ], 
            "M1_ADJ": [
                1
            ]
        }, 
        "location1": [
            3
        ], 
        "location2": [
            26
        ], 
        "sentence": "`` the diffuser are adjustable so that you can get them to fit even if you have a vent lever or screw that may get in the way , which i do ."
    }
}