{
    "30703b1c7be7050aa1917659c8a04921": {
        "(14, 21)": {
            "AM2L": [
                8034
            ], 
            "AM2F": [
                8162
            ], 
            "WBF": [
                3841
            ], 
            "BM1F": [
                8034
            ], 
            "M1": [
                435
            ], 
            "irrelevant_Adj": [
                0
            ], 
            "M2": [
                7473
            ], 
            "BM1L": [
                945
            ], 
            "WBO": [
                3771, 
                4268, 
                310
            ], 
            "WBL": [
                5820
            ], 
            "irrelevant_Noun": [
                0
            ], 
            "M1_ADJ": [
                1
            ]
        }, 
        "location1": [
            14
        ], 
        "location2": [
            21
        ], 
        "sentence": "spinning ball hitch for different size wo n't work in my case because the adjustable hitch height is a solid piece specific to the entire hitch ."
    }
}