{
    "186cb0691d97115ca6ca00c3a8db6083": {
        "location1": [
            24
        ], 
        "location2": [
            17
        ], 
        "(24, 17)": {
            "AM2F": [
                5953
            ], 
            "WBF": [
                8889
            ], 
            "BM1F": [
                8034
            ], 
            "M1": [
                1286
            ], 
            "irrelevant_Adj": [
                0
            ], 
            "M2": [
                514
            ], 
            "BM1L": [
                8531
            ], 
            "WBO": [
                3719, 
                8162, 
                4872
            ], 
            "WBL": [
                7405
            ], 
            "irrelevant_Noun": [
                0
            ], 
            "M1_ADJ": [
                0
            ]
        }, 
        "sentence": "the `` booster car `` ( the car w/o a dead battery ) can pull in close enough to use the cable without having to manuver into some akward position ."
    }
}