{
    "186cb0691d97115ca6ca00c3a8db6083": {
        "(24, 4)": {
            "AM2F": [
                5953
            ], 
            "WBF": [
                8671
            ], 
            "BM1F": [
                8034
            ], 
            "M1": [
                1358
            ], 
            "irrelevant_Adj": [
                0
            ], 
            "M2": [
                514
            ], 
            "BM1L": [
                1358
            ], 
            "WBO": [
                310, 
                2099, 
                921, 
                1323, 
                6181, 
                4043, 
                1598, 
                2767, 
                8162, 
                8531, 
                8034, 
                1286, 
                8889, 
                3719, 
                8162, 
                4872
            ], 
            "WBL": [
                7405
            ], 
            "irrelevant_Noun": [
                0
            ], 
            "M1_ADJ": [
                0
            ]
        }, 
        "location1": [
            24
        ], 
        "location2": [
            2, 
            4
        ], 
        "(24, 2)": {
            "AM2F": [
                5953
            ], 
            "WBF": [
                8034
            ], 
            "BM1F": [
                1118
            ], 
            "M1": [
                1358
            ], 
            "irrelevant_Adj": [
                0
            ], 
            "M2": [
                514
            ], 
            "BM1L": [
                8034
            ], 
            "WBO": [
                1358, 
                8671, 
                310, 
                2099, 
                921, 
                1323, 
                6181, 
                4043, 
                1598, 
                2767, 
                8162, 
                8531, 
                8034, 
                1286, 
                8889, 
                3719, 
                8162, 
                4872
            ], 
            "WBL": [
                7405
            ], 
            "irrelevant_Noun": [
                0
            ], 
            "M1_ADJ": [
                0
            ]
        }, 
        "sentence": "the `` booster car `` ( the car w/o a dead battery ) can pull in close enough to use the cable without having to manuver into some akward position ."
    }
}