{
    "3e04290a909350b9653b6f7e53b8437d": {
        "location1": [
            10
        ], 
        "location2": [
            11
        ], 
        "(10, 11)": {
            "AM2L": [
                5630
            ], 
            "BM1F": [
                5158
            ], 
            "M1": [
                572
            ], 
            "irrelevant_Adj": [
                0
            ], 
            "M2": [
                6509
            ], 
            "BM1L": [
                8034
            ], 
            "WBNULL": [
                1
            ], 
            "irrelevant_Noun": [
                0
            ], 
            "AM2F": [
                5458
            ], 
            "M1_ADJ": [
                1
            ]
        }, 
        "sentence": "i use mcguires fiberglass restorer and that did the most amazing removal of oxidation on an older rv i restored back to new so i knew it had to be good and tried it ."
    }
}