{
    "3e04290a909350b9653b6f7e53b8437d": {
        "(10, 17)": {
            "AM2L": [
                6596
            ], 
            "AM2F": [
                3962
            ], 
            "WBF": [
                6509
            ], 
            "BM1F": [
                5158
            ], 
            "M1": [
                572
            ], 
            "irrelevant_Adj": [
                0
            ], 
            "M2": [
                6793
            ], 
            "BM1L": [
                8034
            ], 
            "WBO": [
                5458, 
                5630, 
                5495
            ], 
            "WBL": [
                5489
            ], 
            "irrelevant_Noun": [
                0
            ], 
            "M1_ADJ": [
                1
            ]
        }, 
        "location1": [
            10
        ], 
        "location2": [
            17
        ], 
        "sentence": "i use mcguires fiberglass restorer and that did the most amazing removal of oxidation on an older rv i restored back to new so i knew it had to be good and tried it ."
    }
}