{
    "7da8e7deb0eda34f4448525951bb81a9": {
        "(6, 7)": {
            "AM2L": [
                8736
            ], 
            "BM1F": [
                591
            ], 
            "M1": [
                572
            ], 
            "irrelevant_Adj": [
                0
            ], 
            "M2": [
                583
            ], 
            "BM1L": [
                5574
            ], 
            "WBNULL": [
                1
            ], 
            "irrelevant_Noun": [
                0
            ], 
            "AM2F": [
                5458
            ], 
            "M1_ADJ": [
                1
            ]
        }, 
        "location1": [
            6
        ], 
        "location2": [
            7
        ], 
        "sentence": "this hose nozzle let out an amazing amount of water and look like it could survive a nuclear blast ."
    }
}