{
    "5fbbcc9625d6c205a1dfd2947537ef5b": {
        "(26, 16)": {
            "AM2L": [
                5495
            ], 
            "AM2F": [
                563
            ], 
            "WBF": [
                1262
            ], 
            "BM1F": [
                5458
            ], 
            "M1": [
                5047
            ], 
            "irrelevant_Adj": [
                0
            ], 
            "M2": [
                619
            ], 
            "BM1L": [
                1134
            ], 
            "WBO": [
                8034, 
                1651, 
                1098, 
                8224, 
                8034, 
                6359
            ], 
            "WBL": [
                4625
            ], 
            "irrelevant_Noun": [
                0
            ], 
            "M1_ADJ": [
                0
            ]
        }, 
        "location1": [
            26
        ], 
        "location2": [
            16, 
            31
        ], 
        "(26, 31)": {
            "WBF": [
                563
            ], 
            "BM1F": [
                4625
            ], 
            "M1": [
                619
            ], 
            "irrelevant_Adj": [
                0
            ], 
            "M2": [
                5047
            ], 
            "BM1L": [
                4717
            ], 
            "WBO": [
                5495
            ], 
            "WBL": [
                5458
            ], 
            "irrelevant_Noun": [
                0
            ], 
            "M1_ADJ": [
                1
            ]
        }, 
        "sentence": "whoop , just noticed in the pic here at amazon , front nozzle is stainless on both of mine but the colored body toward the rear look like anodized aluminum on both of mine ."
    }
}