{
    "488bd812fef85152df3ebeed5406917c": {
        "(4, 19)": {
            "AM2L": [
                804
            ], 
            "AM2F": [
                5458
            ], 
            "WBF": [
                583
            ], 
            "BM1F": [
                591
            ], 
            "M1": [
                757
            ], 
            "irrelevant_Adj": [
                0
            ], 
            "M2": [
                2547
            ], 
            "BM1L": [
                3855
            ], 
            "WBO": [
                5458, 
                8736, 
                3252, 
                4289, 
                7230, 
                599, 
                8781, 
                599, 
                4268, 
                2880, 
                760
            ], 
            "WBL": [
                3312
            ], 
            "irrelevant_Noun": [
                0
            ], 
            "M1_ADJ": [
                1
            ]
        }, 
        "location1": [
            4
        ], 
        "location2": [
            19
        ], 
        "sentence": "this thing holds an astounding amount of water for its size and weight and is excellent at streak free drying of automotive surface ."
    }
}