{
    "488bd812fef85152df3ebeed5406917c": {
        "(4, 5)": {
            "AM2L": [
                8736
            ], 
            "BM1F": [
                591
            ], 
            "M1": [
                757
            ], 
            "irrelevant_Adj": [
                0
            ], 
            "M2": [
                583
            ], 
            "BM1L": [
                3855
            ], 
            "WBNULL": [
                1
            ], 
            "irrelevant_Noun": [
                0
            ], 
            "AM2F": [
                5458
            ], 
            "M1_ADJ": [
                1
            ]
        }, 
        "location1": [
            4
        ], 
        "location2": [
            5
        ], 
        "sentence": "this thing holds an astounding amount of water for its size and weight and is excellent at streak free drying of automotive surface ."
    }
}