{
    "488bd812fef85152df3ebeed5406917c": {
        "(4, 10)": {
            "AM2L": [
                8781
            ], 
            "AM2F": [
                599
            ], 
            "WBF": [
                583
            ], 
            "BM1F": [
                591
            ], 
            "M1": [
                757
            ], 
            "irrelevant_Adj": [
                0
            ], 
            "M2": [
                7230
            ], 
            "BM1L": [
                3855
            ], 
            "WBO": [
                5458, 
                8736
            ], 
            "WBL": [
                4289
            ], 
            "irrelevant_Noun": [
                0
            ], 
            "M1_ADJ": [
                1
            ]
        }, 
        "location1": [
            4
        ], 
        "location2": [
            10
        ], 
        "sentence": "this thing holds an astounding amount of water for its size and weight and is excellent at streak free drying of automotive surface ."
    }
}