{
    "488bd812fef85152df3ebeed5406917c": {
        "location1": [
            21
        ], 
        "location2": [
            12
        ], 
        "(21, 12)": {
            "AM2F": [
                7826
            ], 
            "WBF": [
                599
            ], 
            "BM1F": [
                599
            ], 
            "M1": [
                8781
            ], 
            "irrelevant_Adj": [
                0
            ], 
            "M2": [
                804
            ], 
            "BM1L": [
                7230
            ], 
            "WBO": [
                4268, 
                2880, 
                760, 
                7688, 
                3312
            ], 
            "WBL": [
                5458
            ], 
            "irrelevant_Noun": [
                0
            ], 
            "M1_ADJ": [
                0
            ]
        }, 
        "sentence": "this thing holds an astounding amount of water for its size and weight and is excellent at streak free drying of automotive surface ."
    }
}