{
    "4cb292428a2e45d638efd43691a01164": {
        "(9, 29)": {
            "AM2L": [
                5387
            ], 
            "AM2F": [
                599
            ], 
            "WBF": [
                7528
            ], 
            "BM1F": [
                5566
            ], 
            "M1": [
                808
            ], 
            "irrelevant_Adj": [
                0
            ], 
            "M2": [
                5001
            ], 
            "BM1L": [
                8162
            ], 
            "WBO": [
                5458, 
                7204, 
                6219, 
                3962, 
                8931, 
                3717, 
                8162, 
                3502, 
                8887, 
                7405, 
                5458, 
                8034, 
                1473, 
                5503, 
                8028, 
                688
            ], 
            "WBL": [
                5458
            ], 
            "irrelevant_Noun": [
                0
            ], 
            "M1_ADJ": [
                1
            ]
        }, 
        "location1": [
            9
        ], 
        "location2": [
            29
        ], 
        "sentence": "when comparing the price of the unit to other available sprayer of similar quality i would have to go with some of the cheaper one that are made of metal and not plastic ."
    }
}