{
    "664d8d0a63ae2e29fdcad89851351001": {
        "(44, 8)": {
            "AM2L": [
                5495
            ], 
            "AM2F": [
                7449
            ], 
            "WBF": [
                599
            ], 
            "BM1F": [
                2974
            ], 
            "M1": [
                7826
            ], 
            "irrelevant_Adj": [
                0
            ], 
            "M2": [
                808
            ], 
            "BM1L": [
                3339
            ], 
            "WBO": [
                5512, 
                8034, 
                7522, 
                8814, 
                8049, 
                8718, 
                5387, 
                310, 
                2122, 
                5543, 
                5566, 
                4286, 
                6025, 
                6087, 
                4578, 
                8024, 
                170, 
                5458, 
                8034, 
                8212, 
                3342, 
                7826, 
                4401, 
                4043, 
                5046, 
                227, 
                4268, 
                8034, 
                2845, 
                599, 
                1084, 
                8591
            ], 
            "WBL": [
                8034
            ], 
            "irrelevant_Noun": [
                0
            ], 
            "M1_ADJ": [
                0
            ]
        }, 
        "location1": [
            44
        ], 
        "location2": [
            8, 
            31
        ], 
        "(44, 31)": {
            "AM2L": [
                5495
            ], 
            "AM2F": [
                7449
            ], 
            "WBF": [
                4401
            ], 
            "BM1F": [
                3342
            ], 
            "M1": [
                7826
            ], 
            "irrelevant_Adj": [
                0
            ], 
            "M2": [
                808
            ], 
            "BM1L": [
                8212
            ], 
            "WBO": [
                4043, 
                5046, 
                227, 
                4268, 
                8034, 
                2845, 
                599, 
                1084, 
                8591
            ], 
            "WBL": [
                8034
            ], 
            "irrelevant_Noun": [
                0
            ], 
            "M1_ADJ": [
                0
            ]
        }, 
        "sentence": "i applied this to all accessible ( front face ) surface , and only the spot where there was not a decal or other item present , probably less than 30 % of the total frontal surface ( keep in mind 50 % is the evaporator and blower vent ) , and the available space on the front cover ."
    }
}