{
    "4cb292428a2e45d638efd43691a01164": {
        "(9, 6)": {
            "AM2L": [
                5458
            ], 
            "AM2F": [
                7528
            ], 
            "WBF": [
                8162
            ], 
            "BM1F": [
                8034
            ], 
            "M1": [
                8451
            ], 
            "irrelevant_Adj": [
                0
            ], 
            "M2": [
                808
            ], 
            "BM1L": [
                5458
            ], 
            "WBO": [
                5566
            ], 
            "WBL": [
                5566
            ], 
            "irrelevant_Noun": [
                0
            ], 
            "M1_ADJ": [
                0
            ]
        }, 
        "location1": [
            9
        ], 
        "location2": [
            6
        ], 
        "sentence": "when comparing the price of the unit to other available sprayer of similar quality i would have to go with some of the cheaper one that are made of metal and not plastic ."
    }
}