{
    "45c79c07de2b17a425789e4308e80f8b": {
        "(13, 14)": {
            "BM1F": [
                8034
            ], 
            "M1": [
                813
            ], 
            "irrelevant_Adj": [
                0
            ], 
            "M2": [
                5777
            ], 
            "BM1L": [
                8024
            ], 
            "WBNULL": [
                1
            ], 
            "irrelevant_Noun": [
                0
            ], 
            "M1_ADJ": [
                1
            ]
        }, 
        "location1": [
            13
        ], 
        "location2": [
            14
        ], 
        "sentence": "while not a pro recovery guy i use my cable more than the average person ."
    }
}