{
    "a5ac601043e29cf5abf8645ff7d351fd": {
        "(4, 5)": {
            "BM1F": [
                3916
            ], 
            "M1": [
                813
            ], 
            "irrelevant_Adj": [
                0
            ], 
            "M2": [
                6038
            ], 
            "BM1L": [
                5232
            ], 
            "WBNULL": [
                1
            ], 
            "irrelevant_Noun": [
                0
            ], 
            "M1_ADJ": [
                1
            ]
        }, 
        "location1": [
            4
        ], 
        "location2": [
            5
        ], 
        "sentence": "i consider my house average pressure ."
    }, 
    "7d9664f2bb632cd84099722685a040f2": {
        "(10, 13)": {
            "AM2L": [
                8991
            ], 
            "AM2F": [
                8456
            ], 
            "WBF": [
                599
            ], 
            "BM1F": [
                8887
            ], 
            "M1": [
                813
            ], 
            "irrelevant_Adj": [
                0
            ], 
            "M2": [
                6038
            ], 
            "BM1L": [
                8527
            ], 
            "WBO": [
                4752
            ], 
            "WBL": [
                4752
            ], 
            "irrelevant_Noun": [
                0
            ], 
            "M1_ADJ": [
                1
            ]
        }, 
        "location1": [
            10
        ], 
        "location2": [
            13, 
            28
        ], 
        "(10, 28)": {
            "WBF": [
                599
            ], 
            "BM1F": [
                8887
            ], 
            "M1": [
                813
            ], 
            "irrelevant_Adj": [
                0
            ], 
            "M2": [
                6038
            ], 
            "BM1L": [
                8527
            ], 
            "WBO": [
                4752, 
                6038, 
                8456, 
                8991, 
                4376, 
                8702, 
                310, 
                7463, 
                8028, 
                3481, 
                8991, 
                4737, 
                5458, 
                8736
            ], 
            "WBL": [
                7365
            ], 
            "irrelevant_Noun": [
                0
            ], 
            "M1_ADJ": [
                1
            ]
        }, 
        "sentence": "i would not recommend it for those of us with average and low pressure unless you just want a spayer that gives you lot of water and so/so pressure ."
    }
}