{
    "aba1ea1a5e6bec74919eb998d133a6da": {
        "(38, 27)": {
            "AM2L": [
                1323
            ], 
            "AM2F": [
                3638
            ], 
            "WBF": [
                2953
            ], 
            "BM1F": [
                3638
            ], 
            "M1": [
                1209
            ], 
            "irrelevant_Adj": [
                0
            ], 
            "M2": [
                813
            ], 
            "BM1L": [
                3518
            ], 
            "WBO": [
                4710, 
                760, 
                146, 
                5685, 
                1553, 
                688, 
                7707
            ], 
            "WBL": [
                591
            ], 
            "irrelevant_Noun": [
                0
            ], 
            "M1_ADJ": [
                0
            ]
        }, 
        "location1": [
            38
        ], 
        "location2": [
            27
        ], 
        "sentence": "pro - i know i can jump start a semi with these ( more importantly , i can get a jump from a semi - truck driver are the good guy btw ) - extra long at 25 ' - parrot clamp are strong , but an average guy can open them with one hand - copper insert in the parrot clamp is nice - clamp are rated at 500amps - they 're friggin heavy at near 14 lbs , yes that 's a pro !"
    }
}