{
    "aba1ea1a5e6bec74919eb998d133a6da": {
        "location1": [
            38
        ], 
        "location2": [
            45
        ], 
        "(38, 45)": {
            "AM2L": [
                4131
            ], 
            "AM2F": [
                1872
            ], 
            "WBF": [
                3638
            ], 
            "BM1F": [
                591
            ], 
            "M1": [
                813
            ], 
            "irrelevant_Adj": [
                0
            ], 
            "M2": [
                3661
            ], 
            "BM1L": [
                1262
            ], 
            "WBO": [
                1323, 
                5522, 
                8041
            ], 
            "WBL": [
                5503
            ], 
            "irrelevant_Noun": [
                0
            ], 
            "M1_ADJ": [
                1
            ]
        }, 
        "sentence": "pro - i know i can jump start a semi with these ( more importantly , i can get a jump from a semi - truck driver are the good guy btw ) - extra long at 25 ' - parrot clamp are strong , but an average guy can open them with one hand - copper insert in the parrot clamp is nice - clamp are rated at 500amps - they 're friggin heavy at near 14 lbs , yes that 's a pro !"
    }
}