{
    "aba1ea1a5e6bec74919eb998d133a6da": {
        "(38, 20)": {
            "AM2L": [
                1323
            ], 
            "AM2F": [
                3638
            ], 
            "WBF": [
                8320
            ], 
            "BM1F": [
                310
            ], 
            "M1": [
                6997
            ], 
            "irrelevant_Adj": [
                0
            ], 
            "M2": [
                813
            ], 
            "BM1L": [
                3338
            ], 
            "WBO": [
                2526, 
                688, 
                8034, 
                3518, 
                3638, 
                1209, 
                2953, 
                4710, 
                760, 
                146, 
                5685, 
                1553, 
                688, 
                7707
            ], 
            "WBL": [
                591
            ], 
            "irrelevant_Noun": [
                0
            ], 
            "M1_ADJ": [
                0
            ]
        }, 
        "location1": [
            38
        ], 
        "location2": [
            8, 
            20
        ], 
        "(38, 8)": {
            "AM2L": [
                1323
            ], 
            "AM2F": [
                3638
            ], 
            "WBF": [
                8887
            ], 
            "BM1F": [
                310
            ], 
            "M1": [
                6997
            ], 
            "irrelevant_Adj": [
                0
            ], 
            "M2": [
                813
            ], 
            "BM1L": [
                7598
            ], 
            "WBO": [
                8053, 
                5148, 
                4026, 
                3962, 
                1323, 
                3459, 
                310, 
                4367, 
                3338, 
                310, 
                6997, 
                8320, 
                2526, 
                688, 
                8034, 
                3518, 
                3638, 
                1209, 
                2953, 
                4710, 
                760, 
                146, 
                5685, 
                1553, 
                688, 
                7707
            ], 
            "WBL": [
                591
            ], 
            "irrelevant_Noun": [
                0
            ], 
            "M1_ADJ": [
                0
            ]
        }, 
        "sentence": "pro - i know i can jump start a semi with these ( more importantly , i can get a jump from a semi - truck driver are the good guy btw ) - extra long at 25 ' - parrot clamp are strong , but an average guy can open them with one hand - copper insert in the parrot clamp is nice - clamp are rated at 500amps - they 're friggin heavy at near 14 lbs , yes that 's a pro !"
    }
}