{
    "64beba54363d301cd816d2f1dd9f9661": {
        "(9, 6)": {
            "AM2L": [
                8188
            ], 
            "AM2F": [
                6054
            ], 
            "WBF": [
                599
            ], 
            "BM1F": [
                8708
            ], 
            "M1": [
                2107
            ], 
            "irrelevant_Adj": [
                0
            ], 
            "M2": [
                825
            ], 
            "BM1L": [
                574
            ], 
            "WBO": [
                591
            ], 
            "WBL": [
                591
            ], 
            "irrelevant_Noun": [
                0
            ], 
            "M1_ADJ": [
                0
            ]
        }, 
        "location1": [
            9
        ], 
        "location2": [
            6
        ], 
        "sentence": "got it from the amazon warehouse deal and an awesome price too ( about the price of 2 of the cheapest paper filter you can buy ) ."
    }
}