{
    "67f1571c56623db58ddf1487214e5875": {
        "(8, 3)": {
            "WBF": [
                4268
            ], 
            "BM1F": [
                6994
            ], 
            "M1": [
                5905
            ], 
            "irrelevant_Adj": [
                0
            ], 
            "M2": [
                850
            ], 
            "BM1L": [
                1286
            ], 
            "WBO": [
                554
            ], 
            "WBL": [
                2505
            ], 
            "irrelevant_Noun": [
                0
            ], 
            "M1_ADJ": [
                0
            ]
        }, 
        "location1": [
            8
        ], 
        "location2": [
            3
        ], 
        "sentence": "this cable selling point is also a draw back ."
    }
}