{
    "c576aa15ea0d5c69b8a3a8156132ce24": {
        "(23, 8)": {
            "AM2L": [
                8034
            ], 
            "AM2F": [
                5458
            ], 
            "WBF": [
                8057
            ], 
            "BM1F": [
                7308
            ], 
            "M1": [
                6378
            ], 
            "irrelevant_Adj": [
                0
            ], 
            "M2": [
                850
            ], 
            "BM1L": [
                6229
            ], 
            "WBO": [
                688, 
                8034, 
                5756, 
                4570, 
                8162, 
                5936, 
                5232, 
                3879, 
                6772, 
                8034, 
                1286
            ], 
            "WBL": [
                8034
            ], 
            "irrelevant_Noun": [
                0
            ], 
            "M1_ADJ": [
                0
            ]
        }, 
        "location1": [
            23
        ], 
        "location2": [
            8
        ], 
        "sentence": "if you are in need a quick small recharge they are the perfect length to pop my hood , run the cable to the back of the truck and hook up to the battery that are on the tongue of my travel trailer ."
    }
}