{
    "4b16334b91a976a6905223dfc0f670dd": {
        "location1": [
            6
        ], 
        "location2": [
            14
        ], 
        "(6, 14)": {
            "AM2L": [
                5543
            ], 
            "AM2F": [
                8410
            ], 
            "WBF": [
                599
            ], 
            "BM1F": [
                8034
            ], 
            "M1": [
                850
            ], 
            "irrelevant_Adj": [
                0
            ], 
            "M2": [
                1286
            ], 
            "BM1L": [
                8162
            ], 
            "WBO": [
                5543, 
                7178, 
                599, 
                4376
            ], 
            "WBL": [
                8034
            ], 
            "irrelevant_Noun": [
                0
            ], 
            "M1_ADJ": [
                1
            ]
        }, 
        "sentence": "you can pull up to the back and or side and just run the cable under or down the side of the vehicle ."
    }, 
    "67f1571c56623db58ddf1487214e5875": {
        "(8, 1)": {
            "WBF": [
                6994
            ], 
            "BM1F": [
                8073
            ], 
            "M1": [
                1286
            ], 
            "irrelevant_Adj": [
                0
            ], 
            "M2": [
                850
            ], 
            "WBO": [
                5905, 
                4268, 
                554
            ], 
            "WBL": [
                2505
            ], 
            "irrelevant_Noun": [
                0
            ], 
            "M1_ADJ": [
                0
            ]
        }, 
        "location1": [
            8
        ], 
        "location2": [
            1
        ], 
        "sentence": "this cable selling point is also a draw back ."
    }, 
    "c576aa15ea0d5c69b8a3a8156132ce24": {
        "(23, 20)": {
            "AM2L": [
                8034
            ], 
            "AM2F": [
                5458
            ], 
            "WBF": [
                8162
            ], 
            "BM1F": [
                8034
            ], 
            "M1": [
                1286
            ], 
            "irrelevant_Adj": [
                0
            ], 
            "M2": [
                850
            ], 
            "BM1L": [
                6772
            ], 
            "WBO": [
                8034
            ], 
            "WBL": [
                8034
            ], 
            "irrelevant_Noun": [
                0
            ], 
            "M1_ADJ": [
                0
            ]
        }, 
        "location1": [
            23
        ], 
        "location2": [
            20
        ], 
        "sentence": "if you are in need a quick small recharge they are the perfect length to pop my hood , run the cable to the back of the truck and hook up to the battery that are on the tongue of my travel trailer ."
    }, 
    "d102132ed156445bd0c31ed170163111": {
        "(14, 7)": {
            "AM2L": [
                5232
            ], 
            "AM2F": [
                3252
            ], 
            "WBF": [
                3962
            ], 
            "BM1F": [
                209
            ], 
            "M1": [
                1286
            ], 
            "irrelevant_Adj": [
                0
            ], 
            "M2": [
                850
            ], 
            "BM1L": [
                8034
            ], 
            "WBO": [
                1141, 
                310, 
                5140
            ], 
            "WBL": [
                7362
            ], 
            "irrelevant_Noun": [
                0
            ], 
            "M1_ADJ": [
                0
            ]
        }, 
        "location1": [
            14
        ], 
        "location2": [
            7
        ], 
        "sentence": "( update : after compairing them to the 4ga cable i bought a month or so back for my car , they do n't really seem that much thicker ."
    }
}