{
    "3e04290a909350b9653b6f7e53b8437d": {
        "location1": [
            20
        ], 
        "location2": [
            1
        ], 
        "(20, 1)": {
            "AM2L": [
                5314
            ], 
            "AM2F": [
                8162
            ], 
            "WBF": [
                4938
            ], 
            "BM1F": [
                3962
            ], 
            "M1": [
                8531
            ], 
            "irrelevant_Adj": [
                0
            ], 
            "M2": [
                850
            ], 
            "WBO": [
                3090, 
                6597, 
                599, 
                8028, 
                2304, 
                8034, 
                5158, 
                572, 
                6509, 
                5458, 
                5630, 
                5495, 
                591, 
                5489, 
                6793
            ], 
            "WBL": [
                6596
            ], 
            "irrelevant_Noun": [
                0
            ], 
            "M1_ADJ": [
                0
            ]
        }, 
        "sentence": "i use mcguires fiberglass restorer and that did the most amazing removal of oxidation on an older rv i restored back to new so i knew it had to be good and tried it ."
    }, 
    "3c0987173b1b5e16ff24b7fd1ab2e4fd": {
        "(6, 3)": {
            "AM2L": [
                5232
            ], 
            "AM2F": [
                5458
            ], 
            "WBF": [
                4043
            ], 
            "BM1F": [
                8162
            ], 
            "M1": [
                8531
            ], 
            "irrelevant_Adj": [
                0
            ], 
            "M2": [
                850
            ], 
            "BM1L": [
                8073
            ], 
            "WBO": [
                8034
            ], 
            "WBL": [
                8034
            ], 
            "irrelevant_Noun": [
                0
            ], 
            "M1_ADJ": [
                0
            ]
        }, 
        "location1": [
            6
        ], 
        "location2": [
            3
        ], 
        "sentence": "bought this to use in the back of my chevy silverado ."
    }, 
    "b47b76fee619b4e2dbead2f3f3acbe79": {
        "(16, 28)": {
            "WBF": [
                599
            ], 
            "BM1F": [
                1663
            ], 
            "M1": [
                850
            ], 
            "irrelevant_Adj": [
                0
            ], 
            "M2": [
                8531
            ], 
            "BM1L": [
                8851
            ], 
            "WBO": [
                8503, 
                5232, 
                6637, 
                4268, 
                3962, 
                3117, 
                636, 
                4279
            ], 
            "WBL": [
                3142
            ], 
            "irrelevant_Noun": [
                0
            ], 
            "M1_ADJ": [
                1
            ]
        }, 
        "location1": [
            16
        ], 
        "location2": [
            28
        ], 
        "sentence": "ca n't comment much on these since they have not yet been used ( i will come back and update my review is i find any issue after first use ) ."
    }, 
    "988ab2270844640af6c361d4a04c0361": {
        "location1": [
            9
        ], 
        "location2": [
            4
        ], 
        "(9, 4)": {
            "AM2L": [
                8819
            ], 
            "AM2F": [
                8860
            ], 
            "WBF": [
                8034
            ], 
            "BM1F": [
                8162
            ], 
            "M1": [
                8531
            ], 
            "irrelevant_Adj": [
                0
            ], 
            "M2": [
                850
            ], 
            "BM1L": [
                4625
            ], 
            "WBO": [
                6103
            ], 
            "WBL": [
                8034
            ], 
            "irrelevant_Noun": [
                0
            ], 
            "M1_ADJ": [
                0
            ]
        }, 
        "sentence": "i also like to use the product on the back window , which does n't have a wiper , because it keep the window clearer ."
    }, 
    "38984ab6c1c2761b7191977a8e5d70a1": {
        "location1": [
            18
        ], 
        "location2": [
            5
        ], 
        "(18, 5)": {
            "AM2L": [
                8034
            ], 
            "AM2F": [
                5458
            ], 
            "WBF": [
                8887
            ], 
            "BM1F": [
                3252
            ], 
            "M1": [
                8531
            ], 
            "irrelevant_Adj": [
                0
            ], 
            "M2": [
                850
            ], 
            "BM1L": [
                8073
            ], 
            "WBO": [
                5232, 
                4396, 
                8819, 
                688, 
                70, 
                4710, 
                8162, 
                1382, 
                8041
            ], 
            "WBL": [
                8034
            ], 
            "irrelevant_Noun": [
                0
            ], 
            "M1_ADJ": [
                0
            ]
        }, 
        "sentence": "i originally bought this for use with my kayak which are 14 ' long to carry them in the back of the truck with its 6 ."
    }
}