{
    "e5395125f9baed620fb23a38e85edf7e": {
        "(25, 12)": {
            "AM2L": [
                3285
            ], 
            "AM2F": [
                599
            ], 
            "WBF": [
                5458
            ], 
            "BM1F": [
                8034
            ], 
            "M1": [
                850
            ], 
            "irrelevant_Adj": [
                0
            ], 
            "M2": [
                850
            ], 
            "BM1L": [
                4043
            ], 
            "WBO": [
                8034, 
                3916, 
                1262, 
                4152, 
                3962, 
                10, 
                4376, 
                956, 
                7878
            ], 
            "WBL": [
                5503
            ], 
            "irrelevant_Noun": [
                0
            ], 
            "M1_ADJ": [
                0
            ]
        }, 
        "(12, 25)": {
            "AM2L": [
                3285
            ], 
            "AM2F": [
                599
            ], 
            "WBF": [
                5458
            ], 
            "BM1F": [
                8034
            ], 
            "M1": [
                850
            ], 
            "irrelevant_Adj": [
                0
            ], 
            "M2": [
                850
            ], 
            "BM1L": [
                4043
            ], 
            "WBO": [
                8034, 
                3916, 
                1262, 
                4152, 
                3962, 
                10, 
                4376, 
                956, 
                7878
            ], 
            "WBL": [
                5503
            ], 
            "irrelevant_Noun": [
                0
            ], 
            "M1_ADJ": [
                1
            ]
        }, 
        "location1": [
            12, 
            25
        ], 
        "location2": [
            12, 
            25
        ], 
        "sentence": "i had intended to buy another one for the hose in the back of the house , but instead i 've just been switching this one back and forth as necessary ."
    }, 
    "774660f6f72e116df3dff2b9a0b412c1": {
        "(65, 19)": {
            "WBF": [
                4043
            ], 
            "BM1F": [
                4283
            ], 
            "M1": [
                850
            ], 
            "irrelevant_Adj": [
                0
            ], 
            "M2": [
                850
            ], 
            "BM1L": [
                3459
            ], 
            "WBO": [
                8034, 
                8333, 
                8991, 
                5222, 
                945, 
                8991, 
                1282, 
                5245, 
                6718, 
                4283, 
                5502, 
                4283, 
                2545, 
                1262, 
                3962, 
                4625, 
                8162, 
                4555, 
                8034, 
                8195, 
                5459, 
                5458, 
                8034, 
                8333, 
                8162, 
                540, 
                503, 
                4043, 
                8049, 
                8162, 
                2545, 
                4283, 
                5574, 
                959, 
                3962, 
                1598, 
                4283, 
                8501, 
                599, 
                8028, 
                5226, 
                3597
            ], 
            "WBL": [
                1668
            ], 
            "irrelevant_Noun": [
                0
            ], 
            "M1_ADJ": [
                0
            ]
        }, 
        "sentence": "yes it is true that you can put it right back into the tube wet ( well to get it back in the tube , you must , because you ca n't roll it once it dry ) , but i like to leave the top off of the tube to allow air in there to dry it out before i close it up and that musty gross smell comes back .", 
        "location2": [
            10, 
            19, 
            65
        ], 
        "(19, 65)": {
            "WBF": [
                4043
            ], 
            "BM1F": [
                4283
            ], 
            "M1": [
                850
            ], 
            "irrelevant_Adj": [
                0
            ], 
            "M2": [
                850
            ], 
            "BM1L": [
                3459
            ], 
            "WBO": [
                8034, 
                8333, 
                8991, 
                5222, 
                945, 
                8991, 
                1282, 
                5245, 
                6718, 
                4283, 
                5502, 
                4283, 
                2545, 
                1262, 
                3962, 
                4625, 
                8162, 
                4555, 
                8034, 
                8195, 
                5459, 
                5458, 
                8034, 
                8333, 
                8162, 
                540, 
                503, 
                4043, 
                8049, 
                8162, 
                2545, 
                4283, 
                5574, 
                959, 
                3962, 
                1598, 
                4283, 
                8501, 
                599, 
                8028, 
                5226, 
                3597
            ], 
            "WBL": [
                1668
            ], 
            "irrelevant_Noun": [
                0
            ], 
            "M1_ADJ": [
                1
            ]
        }, 
        "location1": [
            10, 
            19, 
            65
        ], 
        "(19, 10)": {
            "AM2L": [
                8034
            ], 
            "AM2F": [
                4043
            ], 
            "WBF": [
                4216
            ], 
            "BM1F": [
                6667
            ], 
            "M1": [
                850
            ], 
            "irrelevant_Adj": [
                0
            ], 
            "M2": [
                850
            ], 
            "BM1L": [
                4283
            ], 
            "WBO": [
                8034, 
                8333, 
                8803, 
                8789, 
                8162
            ], 
            "WBL": [
                4283
            ], 
            "irrelevant_Noun": [
                0
            ], 
            "M1_ADJ": [
                0
            ]
        }, 
        "(10, 65)": {
            "WBF": [
                4216
            ], 
            "BM1F": [
                6667
            ], 
            "M1": [
                850
            ], 
            "irrelevant_Adj": [
                0
            ], 
            "M2": [
                850
            ], 
            "BM1L": [
                4283
            ], 
            "WBO": [
                8034, 
                8333, 
                8803, 
                8789, 
                8162, 
                3459, 
                4283, 
                850, 
                4043, 
                8034, 
                8333, 
                8991, 
                5222, 
                945, 
                8991, 
                1282, 
                5245, 
                6718, 
                4283, 
                5502, 
                4283, 
                2545, 
                1262, 
                3962, 
                4625, 
                8162, 
                4555, 
                8034, 
                8195, 
                5459, 
                5458, 
                8034, 
                8333, 
                8162, 
                540, 
                503, 
                4043, 
                8049, 
                8162, 
                2545, 
                4283, 
                5574, 
                959, 
                3962, 
                1598, 
                4283, 
                8501, 
                599, 
                8028, 
                5226, 
                3597
            ], 
            "WBL": [
                1668
            ], 
            "irrelevant_Noun": [
                0
            ], 
            "M1_ADJ": [
                1
            ]
        }, 
        "(65, 10)": {
            "WBF": [
                4216
            ], 
            "BM1F": [
                6667
            ], 
            "M1": [
                850
            ], 
            "irrelevant_Adj": [
                0
            ], 
            "M2": [
                850
            ], 
            "BM1L": [
                4283
            ], 
            "WBO": [
                8034, 
                8333, 
                8803, 
                8789, 
                8162, 
                3459, 
                4283, 
                850, 
                4043, 
                8034, 
                8333, 
                8991, 
                5222, 
                945, 
                8991, 
                1282, 
                5245, 
                6718, 
                4283, 
                5502, 
                4283, 
                2545, 
                1262, 
                3962, 
                4625, 
                8162, 
                4555, 
                8034, 
                8195, 
                5459, 
                5458, 
                8034, 
                8333, 
                8162, 
                540, 
                503, 
                4043, 
                8049, 
                8162, 
                2545, 
                4283, 
                5574, 
                959, 
                3962, 
                1598, 
                4283, 
                8501, 
                599, 
                8028, 
                5226, 
                3597
            ], 
            "WBL": [
                1668
            ], 
            "irrelevant_Noun": [
                0
            ], 
            "M1_ADJ": [
                0
            ]
        }, 
        "(10, 19)": {
            "AM2L": [
                8034
            ], 
            "AM2F": [
                4043
            ], 
            "WBF": [
                4216
            ], 
            "BM1F": [
                6667
            ], 
            "M1": [
                850
            ], 
            "irrelevant_Adj": [
                0
            ], 
            "M2": [
                850
            ], 
            "BM1L": [
                4283
            ], 
            "WBO": [
                8034, 
                8333, 
                8803, 
                8789, 
                8162
            ], 
            "WBL": [
                4283
            ], 
            "irrelevant_Noun": [
                0
            ], 
            "M1_ADJ": [
                1
            ]
        }
    }
}