{
    "c576aa15ea0d5c69b8a3a8156132ce24": {
        "(23, 32)": {
            "AM2L": [
                688
            ], 
            "AM2F": [
                8028
            ], 
            "WBF": [
                5458
            ], 
            "BM1F": [
                8034
            ], 
            "M1": [
                850
            ], 
            "irrelevant_Adj": [
                0
            ], 
            "M2": [
                921
            ], 
            "BM1L": [
                8162
            ], 
            "WBO": [
                8034, 
                8320, 
                599, 
                3880, 
                8501
            ], 
            "WBL": [
                8034
            ], 
            "irrelevant_Noun": [
                0
            ], 
            "M1_ADJ": [
                1
            ]
        }, 
        "location1": [
            23
        ], 
        "location2": [
            32
        ], 
        "sentence": "if you are in need a quick small recharge they are the perfect length to pop my hood , run the cable to the back of the truck and hook up to the battery that are on the tongue of my travel trailer ."
    }
}