{
    "0b2d4cdfb17b9aed769d5ad9af83db51": {
        "(12, 9)": {
            "AM2L": [
                5232
            ], 
            "AM2F": [
                527
            ], 
            "WBF": [
                6103
            ], 
            "BM1F": [
                310
            ], 
            "M1": [
                6219
            ], 
            "irrelevant_Adj": [
                0
            ], 
            "M2": [
                865
            ], 
            "BM1L": [
                4268
            ], 
            "WBO": [
                8188
            ], 
            "WBL": [
                8188
            ], 
            "irrelevant_Noun": [
                0
            ], 
            "M1_ADJ": [
                0
            ]
        }, 
        "location1": [
            12
        ], 
        "location2": [
            9
        ], 
        "sentence": "considering this is made in china , it is a quality product , too bad all my lock are keyed to the some number"
    }
}