{
    "352cc03ac00ccbbc8541f85e2b494034": {
        "location1": [
            5
        ], 
        "location2": [
            16
        ], 
        "(5, 16)": {
            "WBF": [
                2920
            ], 
            "BM1F": [
                310
            ], 
            "M1": [
                865
            ], 
            "irrelevant_Adj": [
                0
            ], 
            "M2": [
                6637
            ], 
            "BM1L": [
                3717
            ], 
            "WBO": [
                8887, 
                8053, 
                3962, 
                8851, 
                1663, 
                850, 
                599
            ], 
            "WBL": [
                8034
            ], 
            "irrelevant_Noun": [
                0
            ], 
            "M1_ADJ": [
                1
            ]
        }, 
        "sentence": "if i ever have a bad experience with these i will come back and update the review ."
    }
}