{
    "2abb4d85e0cecac03645055bfd1245de": {
        "(4, 5)": {
            "AM2L": [
                7405
            ], 
            "BM1F": [
                310
            ], 
            "M1": [
                865
            ], 
            "irrelevant_Adj": [
                0
            ], 
            "M2": [
                6583
            ], 
            "BM1L": [
                3646
            ], 
            "WBNULL": [
                1
            ], 
            "irrelevant_Noun": [
                0
            ], 
            "AM2F": [
                5458
            ], 
            "M1_ADJ": [
                1
            ]
        }, 
        "location1": [
            4
        ], 
        "location2": [
            5
        ], 
        "sentence": "it still had a bad resonance of some vibrating metal on the machine ."
    }
}