{
    "2abb4d85e0cecac03645055bfd1245de": {
        "(4, 9)": {
            "AM2L": [
                8034
            ], 
            "AM2F": [
                5495
            ], 
            "WBF": [
                6583
            ], 
            "BM1F": [
                310
            ], 
            "M1": [
                865
            ], 
            "irrelevant_Adj": [
                0
            ], 
            "M2": [
                5001
            ], 
            "BM1L": [
                3646
            ], 
            "WBO": [
                5458
            ], 
            "WBL": [
                8608
            ], 
            "irrelevant_Noun": [
                0
            ], 
            "M1_ADJ": [
                1
            ]
        }, 
        "location1": [
            4
        ], 
        "location2": [
            9
        ], 
        "sentence": "it still had a bad resonance of some vibrating metal on the machine ."
    }
}