{
    "1a8c6fc3137a00909d532d514418fdbf": {
        "(1, 14)": {
            "WBF": [
                2980
            ], 
            "BM1F": [
                3154
            ], 
            "M1": [
                909
            ], 
            "irrelevant_Adj": [
                0
            ], 
            "M2": [
                4640
            ], 
            "WBO": [
                1844, 
                8162, 
                6577, 
                4043, 
                310, 
                3479, 
                2014, 
                599, 
                2269
            ], 
            "WBL": [
                677
            ], 
            "irrelevant_Noun": [
                0
            ], 
            "AM2F": [
                7230
            ], 
            "M1_ADJ": [
                1
            ]
        }, 
        "location1": [
            1
        ], 
        "location2": [
            14
        ], 
        "sentence": "five basic factor contribute to resistance in a give curcuit and determine the appropriate line size ."
    }
}