{
    "172cec9b7494410394dec1b36e5095e4": {
        "(11, 12)": {
            "BM1F": [
                5322
            ], 
            "M1": [
                1005
            ], 
            "irrelevant_Adj": [
                0
            ], 
            "M2": [
                8065
            ], 
            "BM1L": [
                8034
            ], 
            "WBNULL": [
                1
            ], 
            "irrelevant_Noun": [
                1
            ], 
            "M1_ADJ": [
                1
            ]
        }, 
        "location1": [
            11
        ], 
        "location2": [
            12
        ], 
        "sentence": "she does not have heated seates so this is the next best thing ."
    }, 
    "13afee072f8ded98607bb706d6dafa55": {
        "(1, 2)": {
            "AM2L": [
                4283
            ], 
            "BM1F": [
                8034
            ], 
            "M1": [
                1005
            ], 
            "irrelevant_Adj": [
                0
            ], 
            "M2": [
                8065
            ], 
            "AM2F": [
                4268
            ], 
            "irrelevant_Noun": [
                1
            ], 
            "WBNULL": [
                1
            ], 
            "M1_ADJ": [
                1
            ]
        }, 
        "location1": [
            1
        ], 
        "location2": [
            2
        ], 
        "sentence": "the best thing is it 's reusable ! !"
    }, 
    "3f6f9e0efcae36587c2bad576e596981": {
        "(8, 5)": {
            "AM2L": [
                2547
            ], 
            "AM2F": [
                3252
            ], 
            "WBF": [
                4268
            ], 
            "BM1F": [
                8073
            ], 
            "M1": [
                8065
            ], 
            "irrelevant_Adj": [
                0
            ], 
            "M2": [
                1005
            ], 
            "BM1L": [
                5751
            ], 
            "WBO": [
                8034
            ], 
            "WBL": [
                8034
            ], 
            "irrelevant_Noun": [
                1
            ], 
            "M1_ADJ": [
                0
            ]
        }, 
        "location1": [
            8
        ], 
        "location2": [
            5
        ], 
        "sentence": "do your research people , this thing is the best for drying your car ."
    }, 
    "9ba874cdab0e4100d850aed263e74e73": {
        "(3, 4)": {
            "AM2L": [
                3717
            ], 
            "BM1F": [
                8034
            ], 
            "M1": [
                1005
            ], 
            "irrelevant_Adj": [
                0
            ], 
            "M2": [
                8065
            ], 
            "BM1L": [
                5458
            ], 
            "WBNULL": [
                1
            ], 
            "irrelevant_Noun": [
                1
            ], 
            "AM2F": [
                3962
            ], 
            "M1_ADJ": [
                1
            ]
        }, 
        "location1": [
            3
        ], 
        "location2": [
            4
        ], 
        "sentence": "one of the best thing i have bought to keep the inside of my car clean and looking new ."
    }
}