{
    "bc267bd47ec52fba432276c7095cd324": {
        "(17, 2)": {
            "AM2L": [
                8531
            ], 
            "AM2F": [
                8162
            ], 
            "WBF": [
                8162
            ], 
            "BM1F": [
                3142
            ], 
            "M1": [
                772
            ], 
            "irrelevant_Adj": [
                0
            ], 
            "M2": [
                1005
            ], 
            "BM1L": [
                5232
            ], 
            "WBO": [
                8531, 
                4283, 
                8718, 
                8887, 
                310, 
                7308, 
                2301, 
                3903, 
                599, 
                8057, 
                688
            ], 
            "WBL": [
                8034
            ], 
            "irrelevant_Noun": [
                0
            ], 
            "M1_ADJ": [
                0
            ]
        }, 
        "location1": [
            17
        ], 
        "location2": [
            2
        ], 
        "sentence": "my first attempt to use it was with a small diameter hose and they are not the best to use for a nozzle that us a standard hose ."
    }
}