{
    "3bfd26d5b29391074d3ebf0080d4d0c2": {
        "(4, 0)": {
            "WBF": [
                5244
            ], 
            "AM2L": [
                599
            ], 
            "M1": [
                4382
            ], 
            "irrelevant_Adj": [
                0
            ], 
            "M2": [
                1005
            ], 
            "WBO": [
                4831
            ], 
            "WBL": [
                8034
            ], 
            "irrelevant_Noun": [
                0
            ], 
            "AM2F": [
                3109
            ], 
            "M1_ADJ": [
                0
            ]
        }, 
        "location1": [
            4
        ], 
        "location2": [
            0
        ], 
        "sentence": "k & n makes the best filter and for a drop in this work great ."
    }
}