{
    "15ea4487004a7450b21f3ef3af0350a4": {
        "(1, 8)": {
            "AM2L": [
                1358
            ], 
            "AM2F": [
                8034
            ], 
            "WBF": [
                6603
            ], 
            "BM1F": [
                3252
            ], 
            "M1": [
                1005
            ], 
            "irrelevant_Adj": [
                0
            ], 
            "M2": [
                1564
            ], 
            "WBO": [
                3962, 
                6390, 
                8028
            ], 
            "WBL": [
                1563
            ], 
            "irrelevant_Noun": [
                0
            ], 
            "M1_ADJ": [
                1
            ]
        }, 
        "location1": [
            1
        ], 
        "location2": [
            8
        ], 
        "sentence": "for best result , i recommend that you clay clean the car with a good car clay and wax it with s100 car wax every few month ."
    }, 
    "9ba874cdab0e4100d850aed263e74e73": {
        "location1": [
            3
        ], 
        "location2": [
            15
        ], 
        "(3, 15)": {
            "AM2L": [
                4719
            ], 
            "AM2F": [
                599
            ], 
            "WBF": [
                8065
            ], 
            "BM1F": [
                8034
            ], 
            "M1": [
                1005
            ], 
            "irrelevant_Adj": [
                0
            ], 
            "M2": [
                1564
            ], 
            "BM1L": [
                5458
            ], 
            "WBO": [
                3962, 
                3717, 
                1141, 
                8162, 
                4401, 
                8034, 
                4134, 
                5458
            ], 
            "WBL": [
                1358
            ], 
            "irrelevant_Noun": [
                0
            ], 
            "M1_ADJ": [
                1
            ]
        }, 
        "sentence": "one of the best thing i have bought to keep the inside of my car clean and looking new ."
    }
}