{
    "55c41a6cbb70fd89bddb6ee8c3b254a8": {
        "location1": [
            54
        ], 
        "location2": [
            83
        ], 
        "(54, 83)": {
            "AM2L": [
                8073
            ], 
            "AM2F": [
                5458
            ], 
            "WBF": [
                3962
            ], 
            "BM1F": [
                8034
            ], 
            "M1": [
                1005
            ], 
            "irrelevant_Adj": [
                0
            ], 
            "M2": [
                5103
            ], 
            "BM1L": [
                5458
            ], 
            "WBO": [
                10, 
                6977, 
                1262, 
                3962, 
                5, 
                5387, 
                3510, 
                8162, 
                1696, 
                8073, 
                8162, 
                310, 
                6038, 
                8723, 
                3962, 
                3717, 
                5503, 
                599, 
                5392, 
                1696, 
                8162, 
                310, 
                6038, 
                8723, 
                1262
            ], 
            "WBL": [
                4335
            ], 
            "irrelevant_Noun": [
                0
            ], 
            "M1_ADJ": [
                1
            ]
        }, 
        "sentence": "pro - very solid construction , either aluminum or steel - padded with thick rubber - look like fireman 's hose - smoothly fade from closed to soaker to rain to fan to jet with a simple twist - easy to work with wet handscons - nonenow i will tell you that the jet on this nozzle is one of the best i 've seen but i 'm not going to compare this to a pressure washer , i have one and nothing compare to a pressure washer , but the jet mode of this is pretty darn good ."
    }
}