{
    "3908e69c2be8cb41edb75d4a5210f856": {
        "location1": [
            6
        ], 
        "location2": [
            36
        ], 
        "(6, 36)": {
            "AM2L": [
                5392
            ], 
            "AM2F": [
                599
            ], 
            "WBF": [
                7114
            ], 
            "BM1F": [
                8034
            ], 
            "M1": [
                1005
            ], 
            "irrelevant_Adj": [
                0
            ], 
            "M2": [
                4344
            ], 
            "BM1L": [
                3294
            ], 
            "WBO": [
                8747, 
                6153, 
                8542, 
                591, 
                6793, 
                8747, 
                1307, 
                6150, 
                8887, 
                8555, 
                4116, 
                4043, 
                4283, 
                6073, 
                8162, 
                8330, 
                8073, 
                3165, 
                8747, 
                599, 
                8534, 
                4283, 
                3252, 
                8979, 
                599, 
                4283
            ], 
            "WBL": [
                8034
            ], 
            "irrelevant_Noun": [
                0
            ], 
            "M1_ADJ": [
                1
            ]
        }, 
        "sentence": "i thought i had found the best shine wax protection using an rv wax called protect-all with uv inhibitor in it prior to trying this flagship wax and used it for year and it did the job and nothing else on the market ( so i thought ) was going to top it for fiberglass ."
    }
}