{
    "d8e95dad6bfb2d6be36694fd4250fd3a": {
        "location1": [
            42
        ], 
        "location2": [
            20
        ], 
        "(42, 20)": {
            "AM2F": [
                6603
            ], 
            "WBF": [
                599
            ], 
            "BM1F": [
                8034
            ], 
            "M1": [
                3730
            ], 
            "irrelevant_Adj": [
                0
            ], 
            "M2": [
                1005
            ], 
            "BM1L": [
                6738
            ], 
            "WBO": [
                7659, 
                8812, 
                8991, 
                8067, 
                4283, 
                4268, 
                8805, 
                8991, 
                5284, 
                5477, 
                4997, 
                703, 
                3121, 
                8346, 
                4283, 
                8162, 
                8329, 
                599
            ], 
            "WBL": [
                8034
            ], 
            "irrelevant_Noun": [
                0
            ], 
            "M1_ADJ": [
                0
            ]
        }, 
        "sentence": "for a start , there is no quick way to get the desired spray pattern , you have to slowly rotate the head and stop when you think it is what you need , often messing around ' finely tuning ' it to try and get the best result ."
    }
}