{
    "55c41a6cbb70fd89bddb6ee8c3b254a8": {
        "(54, 7)": {
            "AM2L": [
                10
            ], 
            "AM2F": [
                3962
            ], 
            "WBF": [
                5648
            ], 
            "BM1F": [
                5543
            ], 
            "M1": [
                7615
            ], 
            "irrelevant_Adj": [
                0
            ], 
            "M2": [
                1005
            ], 
            "BM1L": [
                563
            ], 
            "WBO": [
                8887, 
                8058, 
                6757, 
                4717, 
                4625, 
                3135, 
                8, 
                3903, 
                7335, 
                2982, 
                3338, 
                1599, 
                8162, 
                7368, 
                8162, 
                6267, 
                8162, 
                3008, 
                8162, 
                4335, 
                8887, 
                310, 
                7208, 
                8364, 
                2617, 
                8162, 
                8907, 
                8887, 
                8803, 
                3669, 
                5364, 
                3962, 
                8851, 
                7979, 
                8991, 
                8028, 
                8034, 
                4335, 
                5495, 
                8073, 
                5410, 
                4268, 
                5503
            ], 
            "WBL": [
                8034
            ], 
            "irrelevant_Noun": [
                0
            ], 
            "M1_ADJ": [
                0
            ]
        }, 
        "location1": [
            54
        ], 
        "location2": [
            7
        ], 
        "sentence": "pro - very solid construction , either aluminum or steel - padded with thick rubber - look like fireman 's hose - smoothly fade from closed to soaker to rain to fan to jet with a simple twist - easy to work with wet handscons - nonenow i will tell you that the jet on this nozzle is one of the best i 've seen but i 'm not going to compare this to a pressure washer , i have one and nothing compare to a pressure washer , but the jet mode of this is pretty darn good ."
    }
}