{
    "be4b0fb155c463ea57eca38d9669d48f": {
        "(10, 7)": {
            "AM2F": [
                2107
            ], 
            "WBF": [
                3646
            ], 
            "BM1F": [
                1262
            ], 
            "M1": [
                574
            ], 
            "irrelevant_Adj": [
                0
            ], 
            "M2": [
                1005
            ], 
            "BM1L": [
                4268
            ], 
            "WBO": [
                8034
            ], 
            "WBL": [
                8034
            ], 
            "irrelevant_Noun": [
                0
            ], 
            "M1_ADJ": [
                0
            ]
        }, 
        "location1": [
            10
        ], 
        "location2": [
            7
        ], 
        "sentence": "definatly pricey for what it is , but amazon had the best deal ."
    }, 
    "1eddb28bebc9f2c2d631bda8052800e5": {
        "(11, 8)": {
            "AM2F": [
                5416
            ], 
            "WBF": [
                3646
            ], 
            "BM1F": [
                1262
            ], 
            "M1": [
                574
            ], 
            "irrelevant_Adj": [
                0
            ], 
            "M2": [
                1005
            ], 
            "BM1L": [
                6054
            ], 
            "WBO": [
                8034
            ], 
            "WBL": [
                8034
            ], 
            "irrelevant_Noun": [
                0
            ], 
            "M1_ADJ": [
                0
            ]
        }, 
        "location1": [
            11
        ], 
        "location2": [
            8
        ], 
        "sentence": "i looked around for a better price but amazon had the best number !"
    }, 
    "6e9b7bd7c25b1e7ecb54ad2182126e04": {
        "(3, 0)": {
            "WBF": [
                3646
            ], 
            "AM2L": [
                5766
            ], 
            "M1": [
                574
            ], 
            "irrelevant_Adj": [
                0
            ], 
            "M2": [
                1005
            ], 
            "WBO": [
                8034
            ], 
            "WBL": [
                8034
            ], 
            "irrelevant_Noun": [
                0
            ], 
            "AM2F": [
                6054
            ], 
            "M1_ADJ": [
                0
            ]
        }, 
        "location1": [
            3
        ], 
        "location2": [
            0
        ], 
        "sentence": "amazon had the best price period ."
    }, 
    "03b0285b0b881f05d6ce1d808d12a963": {
        "(8, 4)": {
            "AM2L": [
                599
            ], 
            "AM2F": [
                6054
            ], 
            "WBF": [
                3252
            ], 
            "BM1F": [
                599
            ], 
            "M1": [
                574
            ], 
            "irrelevant_Adj": [
                0
            ], 
            "M2": [
                1005
            ], 
            "BM1L": [
                1510
            ], 
            "WBO": [
                3719
            ], 
            "WBL": [
                8034
            ], 
            "irrelevant_Noun": [
                0
            ], 
            "M1_ADJ": [
                0
            ]
        }, 
        "location1": [
            8
        ], 
        "location2": [
            4
        ], 
        "sentence": "thanks to chip and amazon ( for having the best price and free shipping ) ! i would have given it a 6 out of 5 if i could ."
    }
}