{
    "862fad7d56d231ca808872052fcc9c26": {
        "(11, 18)": {
            "AM2L": [
                8034
            ], 
            "AM2F": [
                5458
            ], 
            "WBF": [
                7910
            ], 
            "BM1F": [
                760
            ], 
            "M1": [
                1005
            ], 
            "irrelevant_Adj": [
                0
            ], 
            "M2": [
                7668
            ], 
            "BM1L": [
                8931
            ], 
            "WBO": [
                8034, 
                7690, 
                5595
            ], 
            "WBL": [
                6954
            ], 
            "irrelevant_Noun": [
                0
            ], 
            "M1_ADJ": [
                1
            ]
        }, 
        "location1": [
            11
        ], 
        "location2": [
            18
        ], 
        "sentence": "then i used the standard hose and the nozzle would at best take the stream over the second story of the house with no problem ."
    }
}