{
    "3bfd26d5b29391074d3ebf0080d4d0c2": {
        "location1": [
            4
        ], 
        "location2": [
            12
        ], 
        "(4, 12)": {
            "AM2F": [
                3564
            ], 
            "WBF": [
                3109
            ], 
            "BM1F": [
                8034
            ], 
            "M1": [
                1005
            ], 
            "irrelevant_Adj": [
                0
            ], 
            "M2": [
                8907
            ], 
            "BM1L": [
                4831
            ], 
            "WBO": [
                599, 
                3252, 
                310, 
                2532
            ], 
            "WBL": [
                8073
            ], 
            "irrelevant_Noun": [
                0
            ], 
            "M1_ADJ": [
                1
            ]
        }, 
        "sentence": "k & n makes the best filter and for a drop in this work great ."
    }, 
    "55c41a6cbb70fd89bddb6ee8c3b254a8": {
        "(54, 35)": {
            "AM2L": [
                10
            ], 
            "AM2F": [
                3962
            ], 
            "WBF": [
                8887
            ], 
            "BM1F": [
                8162
            ], 
            "M1": [
                8907
            ], 
            "irrelevant_Adj": [
                0
            ], 
            "M2": [
                1005
            ], 
            "BM1L": [
                2617
            ], 
            "WBO": [
                8803, 
                3669, 
                5364, 
                3962, 
                8851, 
                7979, 
                8991, 
                8028, 
                8034, 
                4335, 
                5495, 
                8073, 
                5410, 
                4268, 
                5503
            ], 
            "WBL": [
                8034
            ], 
            "irrelevant_Noun": [
                0
            ], 
            "M1_ADJ": [
                0
            ]
        }, 
        "location1": [
            54
        ], 
        "location2": [
            35
        ], 
        "sentence": "pro - very solid construction , either aluminum or steel - padded with thick rubber - look like fireman 's hose - smoothly fade from closed to soaker to rain to fan to jet with a simple twist - easy to work with wet handscons - nonenow i will tell you that the jet on this nozzle is one of the best i 've seen but i 'm not going to compare this to a pressure washer , i have one and nothing compare to a pressure washer , but the jet mode of this is pretty darn good ."
    }
}