{
    "2f4d261db6cfdb0473b45e46a3eb59d6": {
        "(6, 11)": {
            "AM2L": [
                3717
            ], 
            "AM2F": [
                3962
            ], 
            "WBF": [
                3297
            ], 
            "BM1F": [
                8034
            ], 
            "M1": [
                1005
            ], 
            "irrelevant_Adj": [
                0
            ], 
            "M2": [
                1214
            ], 
            "BM1L": [
                5458
            ], 
            "WBO": [
                599
            ], 
            "WBL": [
                3651
            ], 
            "irrelevant_Noun": [
                0
            ], 
            "M1_ADJ": [
                1
            ]
        }, 
        "location1": [
            6
        ], 
        "location2": [
            11
        ], 
        "sentence": "this is absolutely one of the best four and a half buck i have ever spent ."
    }
}