{
    "3bfd26d5b29391074d3ebf0080d4d0c2": {
        "(4, 9)": {
            "AM2L": [
                8073
            ], 
            "AM2F": [
                4043
            ], 
            "WBF": [
                3109
            ], 
            "BM1F": [
                8034
            ], 
            "M1": [
                1005
            ], 
            "irrelevant_Adj": [
                0
            ], 
            "M2": [
                2532
            ], 
            "BM1L": [
                4831
            ], 
            "WBO": [
                599
            ], 
            "WBL": [
                310
            ], 
            "irrelevant_Noun": [
                0
            ], 
            "M1_ADJ": [
                1
            ]
        }, 
        "location1": [
            4
        ], 
        "location2": [
            9
        ], 
        "sentence": "k & n makes the best filter and for a drop in this work great ."
    }
}