{
    "3908e69c2be8cb41edb75d4a5210f856": {
        "(6, 9)": {
            "AM2L": [
                591
            ], 
            "AM2F": [
                8542
            ], 
            "WBF": [
                7114
            ], 
            "BM1F": [
                8034
            ], 
            "M1": [
                1005
            ], 
            "irrelevant_Adj": [
                0
            ], 
            "M2": [
                6153
            ], 
            "BM1L": [
                3294
            ], 
            "WBO": [
                8747
            ], 
            "WBL": [
                8747
            ], 
            "irrelevant_Noun": [
                0
            ], 
            "M1_ADJ": [
                1
            ]
        }, 
        "location1": [
            6
        ], 
        "location2": [
            9
        ], 
        "sentence": "i thought i had found the best shine wax protection using an rv wax called protect-all with uv inhibitor in it prior to trying this flagship wax and used it for year and it did the job and nothing else on the market ( so i thought ) was going to top it for fiberglass ."
    }
}