{
    "6e9b7bd7c25b1e7ecb54ad2182126e04": {
        "(3, 5)": {
            "WBFL": [
                6054
            ], 
            "BM1F": [
                8034
            ], 
            "M1": [
                1005
            ], 
            "irrelevant_Adj": [
                0
            ], 
            "M2": [
                5766
            ], 
            "BM1L": [
                3646
            ], 
            "irrelevant_Noun": [
                0
            ], 
            "M1_ADJ": [
                1
            ]
        }, 
        "location1": [
            3
        ], 
        "location2": [
            5
        ], 
        "sentence": "amazon had the best price period ."
    }
}