{
    "a93ce9356fb58fe5ba4e1a3a907ef1b3": {
        "(12, 1)": {
            "AM2L": [
                3205
            ], 
            "AM2F": [
                503
            ], 
            "WBF": [
                3149
            ], 
            "BM1F": [
                8073
            ], 
            "M1": [
                3109
            ], 
            "irrelevant_Adj": [
                0
            ], 
            "M2": [
                1014
            ], 
            "WBO": [
                2873, 
                4625, 
                8034, 
                5457, 
                3109, 
                1262, 
                8851
            ], 
            "WBL": [
                5191
            ], 
            "irrelevant_Noun": [
                0
            ], 
            "M1_ADJ": [
                0
            ]
        }, 
        "location1": [
            12
        ], 
        "location2": [
            1, 
            7
        ], 
        "(12, 7)": {
            "AM2L": [
                3205
            ], 
            "AM2F": [
                503
            ], 
            "WBF": [
                1262
            ], 
            "BM1F": [
                5457
            ], 
            "M1": [
                3109
            ], 
            "irrelevant_Adj": [
                0
            ], 
            "M2": [
                1014
            ], 
            "BM1L": [
                8034
            ], 
            "WBO": [
                8851
            ], 
            "WBL": [
                5191
            ], 
            "irrelevant_Noun": [
                0
            ], 
            "M1_ADJ": [
                0
            ]
        }, 
        "sentence": "this filter fit exactly like the oem filter but will allow much better air flow to my big v8 & save me sum $ $ $ $ $ @ the same time ."
    }, 
    "76548e9d10d7ba055c25bdd0830fe3f1": {
        "(19, 10)": {
            "WBF": [
                4268
            ], 
            "BM1F": [
                503
            ], 
            "M1": [
                3109
            ], 
            "irrelevant_Adj": [
                0
            ], 
            "M2": [
                1014
            ], 
            "BM1L": [
                7647
            ], 
            "WBO": [
                4376, 
                8058, 
                5672, 
                5244, 
                503
            ], 
            "WBL": [
                8750
            ], 
            "irrelevant_Noun": [
                0
            ], 
            "M1_ADJ": [
                0
            ]
        }, 
        "location1": [
            19
        ], 
        "location2": [
            10
        ], 
        "sentence": "it 's more power to the engine the stock air filter is just thick papersk & n ; air is way better ."
    }, 
    "5ee56297392352702085eeaec2c8de8e": {
        "(8, 4)": {
            "AM2L": [
                2981
            ], 
            "AM2F": [
                8024
            ], 
            "WBF": [
                720
            ], 
            "BM1F": [
                8034
            ], 
            "M1": [
                3109
            ], 
            "irrelevant_Adj": [
                0
            ], 
            "M2": [
                1014
            ], 
            "BM1L": [
                6390
            ], 
            "WBO": [
                4283
            ], 
            "WBL": [
                4717
            ], 
            "irrelevant_Noun": [
                0
            ], 
            "M1_ADJ": [
                0
            ]
        }, 
        "location1": [
            8
        ], 
        "location2": [
            4
        ], 
        "sentence": "anyways , i recommend the filter as it look better than factory , and will be used and cleaned for many mile to come !"
    }, 
    "77fe0d15aaf64c6c1215082a29765665": {
        "(11, 20)": {
            "WBF": [
                508
            ], 
            "BM1F": [
                5191
            ], 
            "M1": [
                1014
            ], 
            "irrelevant_Adj": [
                0
            ], 
            "M2": [
                3109
            ], 
            "BM1L": [
                2183
            ], 
            "WBO": [
                8162, 
                8034, 
                2750, 
                8024, 
                7579
            ], 
            "WBL": [
                823
            ], 
            "irrelevant_Noun": [
                0
            ], 
            "M1_ADJ": [
                1
            ]
        }, 
        "location1": [
            11
        ], 
        "location2": [
            20
        ], 
        "sentence": "it adds a throating sound to your vehicle while delivering much better airflow to the engine than standard throw away filter ."
    }, 
    "1f7ae5b547c52eb75d1061234c26d70d": {
        "(16, 8)": {
            "AM2L": [
                3205
            ], 
            "AM2F": [
                503
            ], 
            "WBF": [
                8991
            ], 
            "BM1F": [
                823
            ], 
            "M1": [
                3109
            ], 
            "irrelevant_Adj": [
                0
            ], 
            "M2": [
                1014
            ], 
            "BM1L": [
                8108
            ], 
            "WBO": [
                3459, 
                310, 
                4611, 
                3109
            ], 
            "WBL": [
                6164
            ], 
            "irrelevant_Noun": [
                0
            ], 
            "M1_ADJ": [
                0
            ]
        }, 
        "location1": [
            16
        ], 
        "location2": [
            8, 
            13
        ], 
        "(16, 13)": {
            "AM2L": [
                3205
            ], 
            "AM2F": [
                503
            ], 
            "WBF": [
                8028
            ], 
            "BM1F": [
                4611
            ], 
            "M1": [
                3109
            ], 
            "irrelevant_Adj": [
                0
            ], 
            "M2": [
                1014
            ], 
            "BM1L": [
                310
            ], 
            "WBO": [
                6164
            ], 
            "WBL": [
                6164
            ], 
            "irrelevant_Noun": [
                0
            ], 
            "M1_ADJ": [
                0
            ]
        }, 
        "sentence": "for about the cost of 3 throw away filter , you get a lifetime filter that provides better air flow ."
    }
}