{
    "a445a224cab644aa0048870656ae4f37": {
        "location1": [
            2
        ], 
        "location2": [
            9
        ], 
        "(2, 9)": {
            "AM2L": [
                1271
            ], 
            "AM2F": [
                599
            ], 
            "WBF": [
                5459
            ], 
            "BM1F": [
                688
            ], 
            "M1": [
                1014
            ], 
            "irrelevant_Adj": [
                0
            ], 
            "M2": [
                7663
            ], 
            "BM1L": [
                8991
            ], 
            "WBO": [
                3510, 
                8162, 
                8997
            ], 
            "WBL": [
                2206
            ], 
            "irrelevant_Noun": [
                0
            ], 
            "M1_ADJ": [
                1
            ]
        }, 
        "sentence": "you are better off going to your local department store and buying the craftsman brand nozzle instead ."
    }
}