{
    "95cd928ec2ccd1cf58097f4e2a697485": {
        "(5, 12)": {
            "AM2L": [
                5245
            ], 
            "AM2F": [
                1282
            ], 
            "WBF": [
                8887
            ], 
            "BM1F": [
                3461
            ], 
            "M1": [
                1014
            ], 
            "irrelevant_Adj": [
                0
            ], 
            "M2": [
                1908
            ], 
            "BM1L": [
                5512
            ], 
            "WBO": [
                8140, 
                599, 
                2356
            ], 
            "WBL": [
                5458
            ], 
            "irrelevant_Noun": [
                0
            ], 
            "M1_ADJ": [
                1
            ]
        }, 
        "location1": [
            5
        ], 
        "location2": [
            12
        ], 
        "sentence": "maker claim it only gets better with time and dirt , but of course ca n't figure out how that could be true ."
    }
}