{
    "0160f1084e85eb7bc13afacf945c1e00": {
        "location1": [
            10
        ], 
        "location2": [
            11
        ], 
        "(10, 11)": {
            "AM2L": [
                3149
            ], 
            "BM1F": [
                310
            ], 
            "M1": [
                1014
            ], 
            "irrelevant_Adj": [
                0
            ], 
            "M2": [
                2239
            ], 
            "BM1L": [
                929
            ], 
            "WBNULL": [
                1
            ], 
            "irrelevant_Noun": [
                0
            ], 
            "AM2F": [
                8162
            ], 
            "M1_ADJ": [
                1
            ]
        }, 
        "sentence": "the rubber cap covering the key hole could be a better design to fit more securely but i 'd buy it again ."
    }
}