{
    "023ee6975342ab4f38611745413e6520": {
        "(10, 7)": {
            "AM2L": [
                8887
            ], 
            "AM2F": [
                5459
            ], 
            "WBF": [
                8991
            ], 
            "BM1F": [
                4043
            ], 
            "M1": [
                6349
            ], 
            "irrelevant_Adj": [
                0
            ], 
            "M2": [
                1014
            ], 
            "BM1L": [
                1262
            ], 
            "WBO": [
                688
            ], 
            "WBL": [
                688
            ], 
            "irrelevant_Noun": [
                0
            ], 
            "M1_ADJ": [
                0
            ]
        }, 
        "location1": [
            10
        ], 
        "location2": [
            7
        ], 
        "sentence": "this is a good idea , but in reality you are better off with a 7 way nozzle ."
    }
}