{
    "1eddb28bebc9f2c2d631bda8052800e5": {
        "location1": [
            5
        ], 
        "location2": [
            8
        ], 
        "(5, 8)": {
            "AM2L": [
                8034
            ], 
            "AM2F": [
                3646
            ], 
            "WBF": [
                6054
            ], 
            "BM1F": [
                310
            ], 
            "M1": [
                1014
            ], 
            "irrelevant_Adj": [
                0
            ], 
            "M2": [
                574
            ], 
            "BM1L": [
                3252
            ], 
            "WBO": [
                1262
            ], 
            "WBL": [
                1262
            ], 
            "irrelevant_Noun": [
                0
            ], 
            "M1_ADJ": [
                1
            ]
        }, 
        "sentence": "i looked around for a better price but amazon had the best number !"
    }
}