{
    "ccf17c66305ec37f836e034210c8e74b": {
        "(1, 10)": {
            "AM2L": [
                310
            ], 
            "AM2F": [
                4216
            ], 
            "WBF": [
                8987
            ], 
            "BM1F": [
                5543
            ], 
            "M1": [
                1014
            ], 
            "irrelevant_Adj": [
                0
            ], 
            "M2": [
                8587
            ], 
            "WBO": [
                8991, 
                8893, 
                5245, 
                3717, 
                8162
            ], 
            "WBL": [
                8997
            ], 
            "irrelevant_Noun": [
                0
            ], 
            "M1_ADJ": [
                1
            ]
        }, 
        "location1": [
            1
        ], 
        "location2": [
            10
        ], 
        "sentence": "or better yet , you wo n't have to push your vehicle into a position to be jumped ."
    }, 
    "77fe0d15aaf64c6c1215082a29765665": {
        "(11, 7)": {
            "AM2L": [
                8162
            ], 
            "AM2F": [
                508
            ], 
            "WBF": [
                8821
            ], 
            "BM1F": [
                8997
            ], 
            "M1": [
                8587
            ], 
            "irrelevant_Adj": [
                0
            ], 
            "M2": [
                1014
            ], 
            "BM1L": [
                8162
            ], 
            "WBO": [
                2183
            ], 
            "WBL": [
                5191
            ], 
            "irrelevant_Noun": [
                0
            ], 
            "M1_ADJ": [
                0
            ]
        }, 
        "location1": [
            11
        ], 
        "location2": [
            7
        ], 
        "sentence": "it adds a throating sound to your vehicle while delivering much better airflow to the engine than standard throw away filter ."
    }, 
    "46a82677204cb11512f041fa21422296": {
        "location1": [
            17
        ], 
        "location2": [
            7
        ], 
        "(17, 7)": {
            "AM2L": [
                540
            ], 
            "AM2F": [
                599
            ], 
            "WBF": [
                5387
            ], 
            "BM1F": [
                5232
            ], 
            "M1": [
                8587
            ], 
            "irrelevant_Adj": [
                0
            ], 
            "M2": [
                1014
            ], 
            "BM1L": [
                5458
            ], 
            "WBO": [
                8162, 
                6851, 
                5131, 
                1262, 
                945, 
                8057
            ], 
            "WBL": [
                2356
            ], 
            "irrelevant_Noun": [
                0
            ], 
            "M1_ADJ": [
                0
            ]
        }, 
        "sentence": "i have these in all of my vehicle , not to save money , but because they stop dirt better and allow more air flow ."
    }
}