{
    "591c7490ce9e32cd951ff4f37b60f74f": {
        "(14, 41)": {
            "AM2L": [
                3089
            ], 
            "AM2F": [
                5015
            ], 
            "WBF": [
                8987
            ], 
            "BM1F": [
                599
            ], 
            "M1": [
                1014
            ], 
            "irrelevant_Adj": [
                0
            ], 
            "M2": [
                8678
            ], 
            "BM1L": [
                335
            ], 
            "WBO": [
                8034, 
                8942, 
                5574, 
                8718, 
                7362, 
                2617, 
                161, 
                3229, 
                599, 
                310, 
                8364, 
                599, 
                300, 
                5458, 
                8034, 
                8736, 
                8718, 
                5574, 
                3962, 
                1141, 
                5503, 
                5458, 
                8034
            ], 
            "WBL": [
                3638
            ], 
            "irrelevant_Noun": [
                0
            ], 
            "M1_ADJ": [
                1
            ]
        }, 
        "location1": [
            14
        ], 
        "location2": [
            41
        ], 
        "sentence": "i used this product and was blown away buy how well it absorbed and better yet the wring out was so easy ,3 fold and a twist and 90 % of the water was out ! i bought one of the chemical guy waffle micro fiber cloth and it was awesome , but when you go to wring it out the shear size ( 25 & # 34 ; x36 & # 34 ; ) made it very hard to get a good wring out ."
    }
}