{
    "0160f1084e85eb7bc13afacf945c1e00": {
        "location1": [
            10
        ], 
        "location2": [
            6
        ], 
        "(10, 6)": {
            "AM2L": [
                8162
            ], 
            "AM2F": [
                2239
            ], 
            "WBF": [
                1899
            ], 
            "BM1F": [
                4409
            ], 
            "M1": [
                3856
            ], 
            "irrelevant_Adj": [
                0
            ], 
            "M2": [
                1014
            ], 
            "BM1L": [
                8034
            ], 
            "WBO": [
                929
            ], 
            "WBL": [
                310
            ], 
            "irrelevant_Noun": [
                0
            ], 
            "M1_ADJ": [
                0
            ]
        }, 
        "sentence": "the rubber cap covering the key hole could be a better design to fit more securely but i 'd buy it again ."
    }
}