{
    "e775eb6314fa85860a21c6615897ba46": {
        "location1": [
            10
        ], 
        "location2": [
            4
        ], 
        "(10, 4)": {
            "AM2L": [
                5495
            ], 
            "AM2F": [
                3587
            ], 
            "WBF": [
                688
            ], 
            "BM1F": [
                5383
            ], 
            "M1": [
                8190
            ], 
            "irrelevant_Adj": [
                0
            ], 
            "M2": [
                1014
            ], 
            "BM1L": [
                760
            ], 
            "WBO": [
                3758, 
                599
            ], 
            "WBL": [
                310
            ], 
            "irrelevant_Noun": [
                0
            ], 
            "M1_ADJ": [
                0
            ]
        }, 
        "sentence": "99 each at northern tool are heavier and provides a better grip on concrete , but they are heavy to carry around ."
    }
}