{
    "50d4b5a317b18af8c977285b717df80a": {
        "(11, 5)": {
            "AM2L": [
                5458
            ], 
            "AM2F": [
                2223
            ], 
            "WBF": [
                703
            ], 
            "BM1F": [
                8034
            ], 
            "M1": [
                689
            ], 
            "irrelevant_Adj": [
                0
            ], 
            "M2": [
                1014
            ], 
            "BM1L": [
                4831
            ], 
            "WBO": [
                8034, 
                7465
            ], 
            "WBL": [
                3482
            ], 
            "irrelevant_Noun": [
                0
            ], 
            "M1_ADJ": [
                0
            ]
        }, 
        "location1": [
            11
        ], 
        "location2": [
            5
        ], 
        "sentence": "this stuff real makes the area around the speaker thick giving better depth of sound ."
    }
}