{
    "d29810efaf26a62f0243ade88940a348": {
        "(21, 2)": {
            "AM2F": [
                8570
            ], 
            "WBF": [
                3338
            ], 
            "BM1F": [
                3931
            ], 
            "M1": [
                4039
            ], 
            "irrelevant_Adj": [
                0
            ], 
            "M2": [
                1014
            ], 
            "BM1L": [
                310
            ], 
            "WBO": [
                8034, 
                7308, 
                7218, 
                5641, 
                8057, 
                8534, 
                8162, 
                4829, 
                5543, 
                4930, 
                8057, 
                7640, 
                2436, 
                8073, 
                4268
            ], 
            "WBL": [
                5191
            ], 
            "irrelevant_Noun": [
                0
            ], 
            "M1_ADJ": [
                0
            ]
        }, 
        "location1": [
            21
        ], 
        "location2": [
            2
        ], 
        "sentence": "a huge improvement from the small , single-use package they used to make ( or maybe they still do ) ; this is a much better value ."
    }
}