{
    "820f3ffea335bb3dd8a32dea99cf7ef5": {
        "(7, 15)": {
            "AM2L": [
                599
            ], 
            "AM2F": [
                8860
            ], 
            "WBF": [
                945
            ], 
            "BM1F": [
                5191
            ], 
            "M1": [
                1014
            ], 
            "irrelevant_Adj": [
                0
            ], 
            "M2": [
                3485
            ], 
            "BM1L": [
                7362
            ], 
            "WBO": [
                4283, 
                2445, 
                5245, 
                4555
            ], 
            "WBL": [
                5495
            ], 
            "irrelevant_Noun": [
                0
            ], 
            "M1_ADJ": [
                1
            ]
        }, 
        "location1": [
            7, 
            30
        ], 
        "location2": [
            15
        ], 
        "(30, 15)": {
            "WBF": [
                8860
            ], 
            "BM1F": [
                5495
            ], 
            "M1": [
                3485
            ], 
            "irrelevant_Adj": [
                0
            ], 
            "M2": [
                1014
            ], 
            "BM1L": [
                7688
            ], 
            "WBO": [
                599, 
                4283, 
                1564, 
                8501, 
                8034, 
                8736, 
                599, 
                636, 
                4560, 
                2356, 
                5495
            ], 
            "WBL": [
                1358
            ], 
            "irrelevant_Noun": [
                0
            ], 
            "M1_ADJ": [
                0
            ]
        }, 
        "sentence": "i like genuine leather chamois so much better because it does n't leave streak on glass window and it clean up the water and any leftover dirt on the car better ."
    }
}