{
    "c21a413d2b1d8ef3e64e2b88fc7c0293": {
        "(16, 15)": {
            "BM1F": [
                5232
            ], 
            "M1": [
                7737
            ], 
            "irrelevant_Adj": [
                0
            ], 
            "M2": [
                1026
            ], 
            "BM1L": [
                3338
            ], 
            "WBNULL": [
                1
            ], 
            "irrelevant_Noun": [
                0
            ], 
            "AM2F": [
                8140
            ], 
            "M1_ADJ": [
                0
            ]
        }, 
        "location1": [
            16
        ], 
        "location2": [
            15
        ], 
        "sentence": "put this on the lid of my trunk and it decreased the rattling from my sub big time ."
    }
}