{
    "4077a8b4d80be430a983d45c2a7c72a2": {
        "location1": [
            29
        ], 
        "location2": [
            9
        ], 
        "(29, 9)": {
            "AM2F": [
                4993
            ], 
            "WBF": [
                8028
            ], 
            "BM1F": [
                8034
            ], 
            "M1": [
                2979
            ], 
            "irrelevant_Adj": [
                0
            ], 
            "M2": [
                1026
            ], 
            "BM1L": [
                8
            ], 
            "WBO": [
                5502, 
                8991, 
                7630, 
                4283, 
                5495, 
                7409, 
                8991, 
                8851, 
                5387, 
                929, 
                320, 
                8162, 
                3459, 
                4283, 
                5459, 
                8889
            ], 
            "WBL": [
                310
            ], 
            "irrelevant_Noun": [
                0
            ], 
            "M1_ADJ": [
                0
            ]
        }, 
        "sentence": "it does have one drawback , and that 's the fact that once you stick it on something , you will not be able to get it off without making a big mess ."
    }, 
    "5b1420c634235a46d10b5df03377a14d": {
        "location1": [
            29
        ], 
        "location2": [
            9
        ], 
        "(29, 9)": {
            "AM2F": [
                4993
            ], 
            "WBF": [
                8028
            ], 
            "BM1F": [
                8034
            ], 
            "M1": [
                2979
            ], 
            "irrelevant_Adj": [
                0
            ], 
            "M2": [
                1026
            ], 
            "BM1L": [
                8
            ], 
            "WBO": [
                5502, 
                8991, 
                7630, 
                4283, 
                5495, 
                7409, 
                8991, 
                8851, 
                5387, 
                929, 
                320, 
                8162, 
                3459, 
                4283, 
                5459, 
                8889
            ], 
            "WBL": [
                310
            ], 
            "irrelevant_Noun": [
                0
            ], 
            "M1_ADJ": [
                0
            ]
        }, 
        "sentence": "it does have one drawback , and that 's the fact that once you stick it on something , you will not be able to get it off without making a big mess ."
    }
}