{
    "977d531f585472548a781b842dbffb0d": {
        "(3, 5)": {
            "AM2L": [
                8034
            ], 
            "WBFL": [
                310
            ], 
            "BM1F": [
                8188
            ], 
            "M1": [
                1026
            ], 
            "irrelevant_Adj": [
                0
            ], 
            "M2": [
                6262
            ], 
            "BM1L": [
                4671
            ], 
            "AM2F": [
                5495
            ], 
            "irrelevant_Noun": [
                0
            ], 
            "M1_ADJ": [
                1
            ]
        }, 
        "location1": [
            3
        ], 
        "location2": [
            5
        ], 
        "sentence": "a little too big a radius on the curved side for my wheel , otherwise would be a 5-star ."
    }
}