{
    "9b28307b31493427a458c567afc9aaa7": {
        "(4, 5)": {
            "BM1F": [
                310
            ], 
            "M1": [
                1026
            ], 
            "irrelevant_Adj": [
                0
            ], 
            "M2": [
                1793
            ], 
            "BM1L": [
                554
            ], 
            "WBNULL": [
                1
            ], 
            "irrelevant_Noun": [
                0
            ], 
            "M1_ADJ": [
                1
            ]
        }, 
        "location1": [
            4
        ], 
        "location2": [
            5
        ], 
        "sentence": "amperage is also a big consideration ."
    }
}