{
    "db11e559d15a272afb1f623c9e0f543f": {
        "(9, 10)": {
            "AM2L": [
                3905
            ], 
            "BM1F": [
                5543
            ], 
            "M1": [
                1026
            ], 
            "irrelevant_Adj": [
                0
            ], 
            "M2": [
                4344
            ], 
            "BM1L": [
                1358
            ], 
            "WBNULL": [
                1
            ], 
            "irrelevant_Noun": [
                0
            ], 
            "AM2F": [
                4625
            ], 
            "M1_ADJ": [
                1
            ]
        }, 
        "location1": [
            9
        ], 
        "location2": [
            10
        ], 
        "sentence": "this would be great for washing a car or big job like hosing down a pool or screen , but for watering potted plant and tree , this nozzle put too much water down and creates splashing ."
    }
}