{
    "9b28307b31493427a458c567afc9aaa7": {
        "(4, 0)": {
            "WBF": [
                4268
            ], 
            "M1": [
                585
            ], 
            "irrelevant_Adj": [
                0
            ], 
            "M2": [
                1026
            ], 
            "WBO": [
                554
            ], 
            "WBL": [
                310
            ], 
            "irrelevant_Noun": [
                0
            ], 
            "AM2F": [
                1793
            ], 
            "M1_ADJ": [
                0
            ]
        }, 
        "location1": [
            4
        ], 
        "location2": [
            0
        ], 
        "sentence": "amperage is also a big consideration ."
    }
}