{
    "39bef860406faed9262cc4785dbf5b93": {
        "(1, 21)": {
            "AM2L": [
                3101
            ], 
            "AM2F": [
                8162
            ], 
            "WBF": [
                8531
            ], 
            "BM1F": [
                5232
            ], 
            "M1": [
                1030
            ], 
            "irrelevant_Adj": [
                0
            ], 
            "M2": [
                5846
            ], 
            "WBO": [
                4268, 
                8887, 
                5979, 
                2812, 
                4625, 
                5232, 
                6663, 
                4528, 
                8034, 
                5483, 
                1339, 
                4268, 
                5272, 
                8034, 
                1140, 
                599
            ], 
            "WBL": [
                2317
            ], 
            "irrelevant_Noun": [
                1
            ], 
            "M1_ADJ": [
                1
            ]
        }, 
        "location1": [
            1
        ], 
        "location2": [
            21
        ], 
        "sentence": "my biggest use is with power equipment like my riding lawnmower ; the oil cap is near the bottom and a difficult place to fill ."
    }
}