{
    "fdd328ded8b1c2f0d3cf947a6bb5898c": {
        "(2, 3)": {
            "AM2L": [
                2974
            ], 
            "BM1F": [
                8034
            ], 
            "M1": [
                1030
            ], 
            "irrelevant_Adj": [
                0
            ], 
            "M2": [
                6090
            ], 
            "BM1L": [
                6087
            ], 
            "WBNULL": [
                1
            ], 
            "irrelevant_Noun": [
                0
            ], 
            "AM2F": [
                8756
            ], 
            "M1_ADJ": [
                1
            ]
        }, 
        "location1": [
            2
        ], 
        "location2": [
            3
        ], 
        "sentence": "probably the biggest problem we face ."
    }
}