{
    "a41286885b8a09904fe1ffbf23d47e64": {
        "(1, 0)": {
            "AM2L": [
                8028
            ], 
            "M1": [
                642
            ], 
            "irrelevant_Adj": [
                0
            ], 
            "M2": [
                1029
            ], 
            "WBNULL": [
                1
            ], 
            "irrelevant_Noun": [
                0
            ], 
            "AM2F": [
                8024
            ], 
            "M1_ADJ": [
                0
            ]
        }, 
        "location1": [
            1
        ], 
        "location2": [
            0
        ], 
        "sentence": "anything bigger than that and you should be considering these or something even better ."
    }
}