{
    "b978bb4193c9c70d76174b7de8ad1e2c": {
        "(13, 18)": {
            "AM2L": [
                307
            ], 
            "AM2F": [
                7042
            ], 
            "WBF": [
                1531
            ], 
            "BM1F": [
                303
            ], 
            "M1": [
                1050
            ], 
            "irrelevant_Adj": [
                0
            ], 
            "M2": [
                7378
            ], 
            "BM1L": [
                827
            ], 
            "WBO": [
                599
            ], 
            "WBL": [
                2836
            ], 
            "irrelevant_Noun": [
                0
            ], 
            "M1_ADJ": [
                1
            ]
        }, 
        "location1": [
            13
        ], 
        "location2": [
            18
        ], 
        "sentence": "if you have an altima you had better get out your awesomestanley 92-839 black chrome and laser etched socket set , 99-piece ."
    }
}