{
    "1ef5584d58e74a98c936b754cb262349": {
        "location1": [
            34
        ], 
        "location2": [
            0
        ], 
        "(34, 0)": {
            "WBF": [
                3564
            ], 
            "M1": [
                8907
            ], 
            "irrelevant_Adj": [
                0
            ], 
            "M2": [
                1050
            ], 
            "WBO": [
                3252, 
                2547, 
                8034, 
                1358, 
                6232, 
                599, 
                2616, 
                8812, 
                4289, 
                5387, 
                3911, 
                2767, 
                5574, 
                8162, 
                2436, 
                4283, 
                6232, 
                599, 
                8991, 
                2436, 
                5245, 
                8698, 
                5246, 
                3717, 
                8162, 
                5913, 
                5574, 
                527, 
                8034, 
                8736
            ], 
            "WBL": [
                480
            ], 
            "irrelevant_Noun": [
                0
            ], 
            "AM2F": [
                1358
            ], 
            "M1_ADJ": [
                0
            ]
        }, 
        "sentence": "work great for drying the car quickly and easily when its not hot enough out to do it quickly , and you do n't wan na have to polish out all the water spot afterwords ( black car ) ."
    }
}