{
    "d9f031cf94ce3521a1f1c67ac3ee22aa": {
        "location1": [
            17
        ], 
        "location2": [
            15
        ], 
        "(17, 15)": {
            "AM2L": [
                8823
            ], 
            "WBFL": [
                3338
            ], 
            "BM1F": [
                1358
            ], 
            "M1": [
                3128
            ], 
            "irrelevant_Adj": [
                0
            ], 
            "M2": [
                1050
            ], 
            "BM1L": [
                5488
            ], 
            "AM2F": [
                8162
            ], 
            "irrelevant_Noun": [
                0
            ], 
            "M1_ADJ": [
                0
            ]
        }, 
        "sentence": "have used a california duster for over 15 year on brand new and old car finish , from black to white ."
    }
}