{
    "28fd067761c7fda1660629a178a5ff0d": {
        "(11, 8)": {
            "AM2L": [
                5387
            ], 
            "AM2F": [
                1262
            ], 
            "WBF": [
                8887
            ], 
            "BM1F": [
                5148
            ], 
            "M1": [
                8736
            ], 
            "irrelevant_Adj": [
                0
            ], 
            "M2": [
                1105
            ], 
            "BM1L": [
                3459
            ], 
            "WBO": [
                8034
            ], 
            "WBL": [
                8034
            ], 
            "irrelevant_Noun": [
                0
            ], 
            "M1_ADJ": [
                0
            ]
        }, 
        "location1": [
            11
        ], 
        "location2": [
            8
        ], 
        "sentence": "( not to mention the price ) you get more water with the bon-aire , but not the great pressure i have experienced from the little tip-style sprayer ."
    }
}