{
    "351895a80aa95262007bfafecb73ba15": {
        "(9, 11)": {
            "AM2L": [
                808
            ], 
            "WBFL": [
                8387
            ], 
            "BM1F": [
                8034
            ], 
            "M1": [
                1105
            ], 
            "irrelevant_Adj": [
                0
            ], 
            "M2": [
                5410
            ], 
            "BM1L": [
                8812
            ], 
            "AM2F": [
                8718
            ], 
            "irrelevant_Noun": [
                0
            ], 
            "M1_ADJ": [
                1
            ]
        }, 
        "location1": [
            9
        ], 
        "location2": [
            11
        ], 
        "sentence": "the sky high rating intrigued me , so when the bon-aire `` ultimate `` nozzle was available as a lightning deal , i bought one to see if it lived up to the hype ."
    }
}