{
    "351895a80aa95262007bfafecb73ba15": {
        "(19, 16)": {
            "AM2L": [
                8162
            ], 
            "AM2F": [
                5503
            ], 
            "WBF": [
                2107
            ], 
            "BM1F": [
                310
            ], 
            "M1": [
                4622
            ], 
            "irrelevant_Adj": [
                0
            ], 
            "M2": [
                1141
            ], 
            "BM1L": [
                720
            ], 
            "WBO": [
                3962
            ], 
            "WBL": [
                3962
            ], 
            "irrelevant_Noun": [
                0
            ], 
            "M1_ADJ": [
                0
            ]
        }, 
        "location1": [
            19
        ], 
        "location2": [
            16
        ], 
        "sentence": "the sky high rating intrigued me , so when the bon-aire `` ultimate `` nozzle was available as a lightning deal , i bought one to see if it lived up to the hype ."
    }
}