{
    "706583577ed1658ebf8244d9d7f08ef4": {
        "(0, 9)": {
            "WBF": [
                104
            ], 
            "AM2L": [
                8057
            ], 
            "M1": [
                1141
            ], 
            "irrelevant_Adj": [
                0
            ], 
            "M2": [
                1250
            ], 
            "WBO": [
                5458, 
                8053, 
                3252, 
                5232, 
                152
            ], 
            "WBL": [
                4323
            ], 
            "irrelevant_Noun": [
                0
            ], 
            "AM2F": [
                599
            ], 
            "M1_ADJ": [
                1
            ]
        }, 
        "location1": [
            0
        ], 
        "location2": [
            9
        ], 
        "sentence": "bought 2 of these for my 27 foot jayco bunkhouse and they seem to work great ."
    }
}