{
    "efc98e2c5e246552dab18000f0adb963": {
        "location1": [
            1
        ], 
        "location2": [
            4
        ], 
        "(1, 4)": {
            "AM2L": [
                8073
            ], 
            "AM2F": [
                2162
            ], 
            "WBF": [
                5232
            ], 
            "BM1F": [
                3962
            ], 
            "M1": [
                1141
            ], 
            "irrelevant_Adj": [
                0
            ], 
            "M2": [
                503
            ], 
            "WBO": [
                3142
            ], 
            "WBL": [
                3142
            ], 
            "irrelevant_Noun": [
                0
            ], 
            "M1_ADJ": [
                1
            ]
        }, 
        "sentence": "i bought my first air deflector ( this same model ) 20 year ago from lowe 's for my 4 `` x 10 `` floor register ."
    }
}