{
    "591c7490ce9e32cd951ff4f37b60f74f": {
        "(35, 44)": {
            "AM2L": [
                4283
            ], 
            "AM2F": [
                599
            ], 
            "WBF": [
                5503
            ], 
            "BM1F": [
                3962
            ], 
            "M1": [
                1141
            ], 
            "irrelevant_Adj": [
                0
            ], 
            "M2": [
                1605
            ], 
            "BM1L": [
                5574
            ], 
            "WBO": [
                5458, 
                8034, 
                1489, 
                3638, 
                8678
            ], 
            "WBL": [
                3089
            ], 
            "irrelevant_Noun": [
                0
            ], 
            "M1_ADJ": [
                1
            ]
        }, 
        "location1": [
            35
        ], 
        "location2": [
            44
        ], 
        "sentence": "i used this product and was blown away buy how well it absorbed and better yet the wring out was so easy ,3 fold and a twist and 90 % of the water was out ! i bought one of the chemical guy waffle micro fiber cloth and it was awesome , but when you go to wring it out the shear size ( 25 & # 34 ; x36 & # 34 ; ) made it very hard to get a good wring out ."
    }
}