{
    "f55dfdf3fef557677ec376e4ff4de68a": {
        "location1": [
            1
        ], 
        "location2": [
            7
        ], 
        "(1, 7)": {
            "AM2L": [
                8887
            ], 
            "AM2F": [
                8250
            ], 
            "WBF": [
                8073
            ], 
            "BM1F": [
                3962
            ], 
            "M1": [
                1141
            ], 
            "irrelevant_Adj": [
                0
            ], 
            "M2": [
                8275
            ], 
            "WBO": [
                8162, 
                8329
            ], 
            "WBL": [
                5232
            ], 
            "irrelevant_Noun": [
                0
            ], 
            "M1_ADJ": [
                1
            ]
        }, 
        "sentence": "i bought this to try on my travel trailer with a gel coat finish ."
    }, 
    "b346736d82a874113ebfa1a86d893ca7": {
        "(12, 14)": {
            "AM2L": [
                7362
            ], 
            "WBFL": [
                310
            ], 
            "BM1F": [
                6373
            ], 
            "M1": [
                1141
            ], 
            "irrelevant_Adj": [
                0
            ], 
            "M2": [
                8275
            ], 
            "BM1L": [
                1262
            ], 
            "AM2F": [
                8250
            ], 
            "irrelevant_Noun": [
                0
            ], 
            "M1_ADJ": [
                1
            ]
        }, 
        "(2, 14)": {
            "AM2L": [
                7362
            ], 
            "AM2F": [
                8250
            ], 
            "WBF": [
                310
            ], 
            "BM1F": [
                3646
            ], 
            "M1": [
                1141
            ], 
            "irrelevant_Adj": [
                0
            ], 
            "M2": [
                8275
            ], 
            "BM1L": [
                3962
            ], 
            "WBO": [
                1907, 
                5458, 
                8053, 
                4873, 
                8979, 
                491, 
                1262, 
                6373
            ], 
            "WBL": [
                310
            ], 
            "irrelevant_Noun": [
                0
            ], 
            "M1_ADJ": [
                1
            ]
        }, 
        "location1": [
            2, 
            12
        ], 
        "location2": [
            14
        ], 
        "sentence": "i had bought a couple of these many year ago but recently bought a travel trailer so needed 4 more ( could only find one of my old one ) ."
    }, 
    "bca066e11a7a4e5bd589f45568f671fc": {
        "(8, 5)": {
            "AM2L": [
                5458
            ], 
            "AM2F": [
                8368
            ], 
            "WBF": [
                8250
            ], 
            "BM1F": [
                3640
            ], 
            "M1": [
                8275
            ], 
            "irrelevant_Adj": [
                0
            ], 
            "M2": [
                1141
            ], 
            "BM1L": [
                275
            ], 
            "WBO": [
                599
            ], 
            "WBL": [
                599
            ], 
            "irrelevant_Noun": [
                0
            ], 
            "M1_ADJ": [
                0
            ]
        }, 
        "location1": [
            8
        ], 
        "location2": [
            5
        ], 
        "sentence": "i have a ~ 7000 gvwr travel trailer and bought two of these ."
    }, 
    "48deff6cfcdefca799b83e420fb99528": {
        "(1, 8)": {
            "WBF": [
                310
            ], 
            "BM1F": [
                3962
            ], 
            "M1": [
                1141
            ], 
            "irrelevant_Adj": [
                0
            ], 
            "M2": [
                8275
            ], 
            "WBO": [
                5660, 
                5458, 
                8053
            ], 
            "WBL": [
                5232
            ], 
            "irrelevant_Noun": [
                0
            ], 
            "AM2F": [
                8250
            ], 
            "M1_ADJ": [
                1
            ]
        }, 
        "location1": [
            1
        ], 
        "location2": [
            8
        ], 
        "sentence": "i bought a pair of these for my travel trailer ."
    }, 
    "51b09f36123deda0443ed6ab49bd35fa": {
        "(1, 8)": {
            "AM2L": [
                599
            ], 
            "AM2F": [
                8250
            ], 
            "WBF": [
                8053
            ], 
            "BM1F": [
                3962
            ], 
            "M1": [
                1141
            ], 
            "irrelevant_Adj": [
                0
            ], 
            "M2": [
                8275
            ], 
            "WBO": [
                8162, 
                8531, 
                8812
            ], 
            "WBL": [
                5571
            ], 
            "irrelevant_Noun": [
                0
            ], 
            "M1_ADJ": [
                1
            ]
        }, 
        "location1": [
            1
        ], 
        "location2": [
            8
        ], 
        "sentence": "i bought these to use when parking our travel trailer and did not want to spend a fortune for something that does such a simple basic job ."
    }
}