{
    "4db612bba2ffb92da5a7f8ef7b556968": {
        "(2, 7)": {
            "AM2L": [
                5232
            ], 
            "AM2F": [
                4216
            ], 
            "WBF": [
                4283
            ], 
            "BM1F": [
                3962
            ], 
            "M1": [
                1141
            ], 
            "irrelevant_Adj": [
                0
            ], 
            "M2": [
                5483
            ], 
            "BM1L": [
                1262
            ], 
            "WBO": [
                3252
            ], 
            "WBL": [
                6223
            ], 
            "irrelevant_Noun": [
                0
            ], 
            "M1_ADJ": [
                1
            ]
        }, 
        "location1": [
            2
        ], 
        "location2": [
            7
        ], 
        "sentence": "but i bought it for pouring quart oil into my crankcase ."
    }, 
    "3e3a67ac2714c4345c035fce0fce61d4": {
        "(22, 31)": {
            "WBF": [
                8073
            ], 
            "BM1F": [
                3962
            ], 
            "M1": [
                1141
            ], 
            "irrelevant_Adj": [
                0
            ], 
            "M2": [
                5483
            ], 
            "BM1L": [
                8819
            ], 
            "WBO": [
                5503, 
                8819, 
                4268, 
                3252, 
                5976
            ], 
            "WBL": [
                599
            ], 
            "irrelevant_Noun": [
                0
            ], 
            "M1_ADJ": [
                1
            ]
        }, 
        "location1": [
            22
        ], 
        "location2": [
            31
        ], 
        "sentence": "the us for this item are nearly endless and i will order another one to serve the original purpoe for which i bought this one which is for pouring gas and oil ."
    }
}