{
    "b5822574efbf6efff73a5592039d3c85": {
        "(4, 9)": {
            "WBF": [
                620
            ], 
            "BM1F": [
                824
            ], 
            "M1": [
                1141
            ], 
            "irrelevant_Adj": [
                0
            ], 
            "M2": [
                574
            ], 
            "BM1L": [
                8108
            ], 
            "WBO": [
                113
            ], 
            "WBL": [
                3338
            ], 
            "irrelevant_Noun": [
                0
            ], 
            "M1_ADJ": [
                1
            ]
        }, 
        "location1": [
            4
        ], 
        "location2": [
            9
        ], 
        "sentence": "after several throw aways bought another $ 20 one from amazon ."
    }
}