{
    "d9ffb9e020a37c320a74082f07770abe": {
        "location1": [
            12
        ], 
        "location2": [
            6
        ], 
        "(12, 6)": {
            "AM2L": [
                5314
            ], 
            "AM2F": [
                310
            ], 
            "WBF": [
                8889
            ], 
            "BM1F": [
                7053
            ], 
            "M1": [
                8979
            ], 
            "irrelevant_Adj": [
                0
            ], 
            "M2": [
                1141
            ], 
            "BM1L": [
                3252
            ], 
            "WBO": [
                636, 
                6090
            ], 
            "WBL": [
                6373
            ], 
            "irrelevant_Noun": [
                0
            ], 
            "M1_ADJ": [
                0
            ]
        }, 
        "sentence": "i have used it for several year without any problem , and recently bought a new one to replace the one that got ruined in hurricane irene this past summer ( my garage was flooded ) ."
    }, 
    "efc98e2c5e246552dab18000f0adb963": {
        "(1, 10)": {
            "AM2L": [
                3338
            ], 
            "AM2F": [
                491
            ], 
            "WBF": [
                5232
            ], 
            "BM1F": [
                3962
            ], 
            "M1": [
                1141
            ], 
            "irrelevant_Adj": [
                0
            ], 
            "M2": [
                8979
            ], 
            "WBO": [
                3142, 
                503, 
                2162, 
                8073, 
                6830
            ], 
            "WBL": [
                113
            ], 
            "irrelevant_Noun": [
                0
            ], 
            "M1_ADJ": [
                1
            ]
        }, 
        "location1": [
            1
        ], 
        "location2": [
            10
        ], 
        "sentence": "i bought my first air deflector ( this same model ) 20 year ago from lowe 's for my 4 `` x 10 `` floor register ."
    }, 
    "34d9ef1faa14a99f063ae8ecf9a18770": {
        "(4, 7)": {
            "AM2L": [
                1262
            ], 
            "AM2F": [
                491
            ], 
            "WBF": [
                325
            ], 
            "BM1F": [
                3962
            ], 
            "M1": [
                1141
            ], 
            "irrelevant_Adj": [
                0
            ], 
            "M2": [
                8979
            ], 
            "BM1L": [
                5503
            ], 
            "WBO": [
                268
            ], 
            "WBL": [
                268
            ], 
            "irrelevant_Noun": [
                0
            ], 
            "M1_ADJ": [
                1
            ]
        }, 
        "location1": [
            4
        ], 
        "location2": [
            7
        ], 
        "sentence": "the first one i bought about 7 year ago but it wast the tri-ball , so when i upgraded my trailer to the 2 11/16 i needed to buy a new ball ."
    }, 
    "b8097fb3d11a6a23c2c9ed579ea42024": {
        "location1": [
            0
        ], 
        "location2": [
            7
        ], 
        "(0, 7)": {
            "WBF": [
                5503
            ], 
            "M1": [
                1141
            ], 
            "irrelevant_Adj": [
                0
            ], 
            "M2": [
                8979
            ], 
            "WBO": [
                3252, 
                5232, 
                1358
            ], 
            "WBL": [
                3297
            ], 
            "irrelevant_Noun": [
                0
            ], 
            "AM2F": [
                491
            ], 
            "M1_ADJ": [
                1
            ]
        }, 
        "sentence": "bought one for my car about four year ago ."
    }, 
    "a04e52dbb2b72ef78a272bd9a48d2005": {
        "(0, 4)": {
            "WBF": [
                3142
            ], 
            "M1": [
                1141
            ], 
            "irrelevant_Adj": [
                0
            ], 
            "M2": [
                8979
            ], 
            "WBO": [
                5503
            ], 
            "WBL": [
                7994
            ], 
            "irrelevant_Noun": [
                0
            ], 
            "M1_ADJ": [
                1
            ]
        }, 
        "location1": [
            0
        ], 
        "location2": [
            4
        ], 
        "sentence": "bought first one ten year ( ? )"
    }, 
    "b346736d82a874113ebfa1a86d893ca7": {
        "(2, 8)": {
            "AM2L": [
                1262
            ], 
            "AM2F": [
                491
            ], 
            "WBF": [
                310
            ], 
            "BM1F": [
                3646
            ], 
            "M1": [
                1141
            ], 
            "irrelevant_Adj": [
                0
            ], 
            "M2": [
                8979
            ], 
            "BM1L": [
                3962
            ], 
            "WBO": [
                1907, 
                5458
            ], 
            "WBL": [
                4873
            ], 
            "irrelevant_Noun": [
                0
            ], 
            "M1_ADJ": [
                1
            ]
        }, 
        "location1": [
            2, 
            12
        ], 
        "location2": [
            8
        ], 
        "(12, 8)": {
            "AM2L": [
                8275
            ], 
            "AM2F": [
                310
            ], 
            "WBF": [
                491
            ], 
            "BM1F": [
                4873
            ], 
            "M1": [
                8979
            ], 
            "irrelevant_Adj": [
                0
            ], 
            "M2": [
                1141
            ], 
            "BM1L": [
                8053
            ], 
            "WBO": [
                1262
            ], 
            "WBL": [
                6373
            ], 
            "irrelevant_Noun": [
                0
            ], 
            "M1_ADJ": [
                0
            ]
        }, 
        "sentence": "i had bought a couple of these many year ago but recently bought a travel trailer so needed 4 more ( could only find one of my old one ) ."
    }, 
    "bd2558201ff671c969d6084537db3287": {
        "(11, 20)": {
            "WBF": [
                7405
            ], 
            "BM1F": [
                3962
            ], 
            "M1": [
                1141
            ], 
            "irrelevant_Adj": [
                0
            ], 
            "M2": [
                8979
            ], 
            "BM1L": [
                8028
            ], 
            "WBO": [
                720, 
                3468, 
                3252, 
                5751, 
                3252
            ], 
            "WBL": [
                8073
            ], 
            "irrelevant_Noun": [
                0
            ], 
            "M1_ADJ": [
                1
            ]
        }, 
        "location1": [
            11
        ], 
        "location2": [
            20
        ], 
        "sentence": "i was so pleased with how well they worked that i bought some as gift for people for christmas this year ."
    }
}