{
    "b1f788748beb9c0d33b8e694a4a62220": {
        "location1": [
            1
        ], 
        "location2": [
            12
        ], 
        "(1, 12)": {
            "AM2L": [
                2705
            ], 
            "AM2F": [
                7178
            ], 
            "WBF": [
                104
            ], 
            "BM1F": [
                3962
            ], 
            "M1": [
                1141
            ], 
            "irrelevant_Adj": [
                0
            ], 
            "M2": [
                6685
            ], 
            "WBO": [
                5458, 
                8053, 
                5503, 
                8162, 
                4401, 
                4043, 
                5232
            ], 
            "WBL": [
                3252
            ], 
            "irrelevant_Noun": [
                0
            ], 
            "M1_ADJ": [
                1
            ]
        }, 
        "sentence": "i bought 2 of these , one to keep in my truck for road side emergency and the other for automotive work use at home ."
    }
}