{
    "8a499317f08cd41653a21bd5acf81ee4": {
        "(1, 21)": {
            "AM2L": [
                8684
            ], 
            "AM2F": [
                5459
            ], 
            "WBF": [
                8073
            ], 
            "BM1F": [
                3962
            ], 
            "M1": [
                1141
            ], 
            "irrelevant_Adj": [
                0
            ], 
            "M2": [
                3987
            ], 
            "WBO": [
                8887, 
                310, 
                1637, 
                8869, 
                4043, 
                5046, 
                974, 
                4043, 
                5232, 
                1358, 
                1323, 
                929, 
                1637, 
                7411, 
                475, 
                3962
            ], 
            "WBL": [
                8034
            ], 
            "irrelevant_Noun": [
                0
            ], 
            "M1_ADJ": [
                1
            ]
        }, 
        "location1": [
            1
        ], 
        "location2": [
            21
        ], 
        "sentence": "i bought this with a cold winter in mind , being in my car can be cold sometimes after i cut the ignition off waiting for someone ."
    }
}