{
    "88632ff52306e1f5abf620c2e2ef786e": {
        "(1, 30)": {
            "WBF": [
                8368
            ], 
            "BM1F": [
                3962
            ], 
            "M1": [
                1141
            ], 
            "irrelevant_Adj": [
                0
            ], 
            "M2": [
                8227
            ], 
            "WBO": [
                402, 
                5503, 
                3252, 
                3781, 
                599, 
                5503, 
                3252, 
                4940, 
                8162, 
                8531, 
                5495, 
                5232, 
                1025, 
                8068, 
                4283, 
                8931, 
                929, 
                7409, 
                4625, 
                310, 
                7795, 
                334, 
                1445, 
                6303, 
                8024
            ], 
            "WBL": [
                3626
            ], 
            "irrelevant_Noun": [
                0
            ], 
            "M1_ADJ": [
                1
            ]
        }, 
        "location1": [
            1
        ], 
        "location2": [
            30
        ], 
        "sentence": "`` i bought two actually , one for her and one for me to use on my bicycle -- thinking it would be something like a super absorbant chamois rather than a gum towel ."
    }
}