{
    "34d9ef1faa14a99f063ae8ecf9a18770": {
        "location1": [
            4
        ], 
        "location2": [
            30
        ], 
        "(4, 30)": {
            "WBF": [
                325
            ], 
            "BM1F": [
                3962
            ], 
            "M1": [
                1141
            ], 
            "irrelevant_Adj": [
                0
            ], 
            "M2": [
                879
            ], 
            "BM1L": [
                5503
            ], 
            "WBO": [
                268, 
                8979, 
                491, 
                1262, 
                4283, 
                8726, 
                8034, 
                8294, 
                7362, 
                8812, 
                3962, 
                8508, 
                5232, 
                8250, 
                8162, 
                8034, 
                104, 
                53, 
                3962, 
                5285, 
                8162, 
                1269
            ], 
            "WBL": [
                5314
            ], 
            "irrelevant_Noun": [
                0
            ], 
            "M1_ADJ": [
                1
            ]
        }, 
        "sentence": "the first one i bought about 7 year ago but it wast the tri-ball , so when i upgraded my trailer to the 2 11/16 i needed to buy a new ball ."
    }
}