{
    "7ca4fd00d2cff0b60f57753798929751": {
        "(3, 5)": {
            "WBFL": [
                1088
            ], 
            "BM1F": [
                8034
            ], 
            "M1": [
                1180
            ], 
            "irrelevant_Adj": [
                0
            ], 
            "M2": [
                8153
            ], 
            "BM1L": [
                4746
            ], 
            "irrelevant_Noun": [
                0
            ], 
            "M1_ADJ": [
                1
            ]
        }, 
        "location1": [
            3
        ], 
        "location2": [
            5
        ], 
        "sentence": "i love the bright blue tip ."
    }
}