{
    "a74b68eefff8364d673ef05d607a6190": {
        "(1, 5)": {
            "AM2L": [
                1262
            ], 
            "AM2F": [
                3403
            ], 
            "WBF": [
                777
            ], 
            "BM1F": [
                3962
            ], 
            "M1": [
                1337
            ], 
            "irrelevant_Adj": [
                0
            ], 
            "M2": [
                5979
            ], 
            "WBO": [
                8162
            ], 
            "WBL": [
                636
            ], 
            "irrelevant_Noun": [
                0
            ], 
            "M1_ADJ": [
                1
            ]
        }, 
        "location1": [
            1
        ], 
        "location2": [
            5
        ], 
        "sentence": "i cant attest to any power gain but i do like k & n 's product line ."
    }, 
    "0c4918492cc1c417924af3afcb6fb372": {
        "(14, 7)": {
            "AM2L": [
                2911
            ], 
            "AM2F": [
                6354
            ], 
            "WBF": [
                5495
            ], 
            "BM1F": [
                5148
            ], 
            "M1": [
                5979
            ], 
            "irrelevant_Adj": [
                0
            ], 
            "M2": [
                1337
            ], 
            "BM1L": [
                4671
            ], 
            "WBO": [
                8034, 
                3808, 
                6038
            ], 
            "WBL": [
                1262
            ], 
            "irrelevant_Noun": [
                0
            ], 
            "M1_ADJ": [
                0
            ]
        }, 
        "location1": [
            14
        ], 
        "location2": [
            7
        ], 
        "sentence": "i had hoped for a little more power on the high pressure setting but cant really expect much i guess ."
    }
}