{
    "16fbbdc76d87fc89dae7b95a4d386bce": {
        "(18, 9)": {
            "AM2F": [
                8063
            ], 
            "WBF": [
                6976
            ], 
            "BM1F": [
                8073
            ], 
            "M1": [
                2286
            ], 
            "irrelevant_Adj": [
                0
            ], 
            "M2": [
                1397
            ], 
            "BM1L": [
                5602
            ], 
            "WBO": [
                4625, 
                310, 
                6042, 
                3518, 
                2274
            ], 
            "WBL": [
                8034
            ], 
            "irrelevant_Noun": [
                0
            ], 
            "M1_ADJ": [
                0
            ]
        }, 
        "location1": [
            18
        ], 
        "location2": [
            9
        ], 
        "sentence": "tubular lock are not my favorite , but overall this device seems like a pretty good deterrent for the casual thief ."
    }
}