{
    "16fbbdc76d87fc89dae7b95a4d386bce": {
        "location1": [
            18
        ], 
        "location2": [
            19
        ], 
        "(18, 19)": {
            "BM1F": [
                8034
            ], 
            "M1": [
                1397
            ], 
            "irrelevant_Adj": [
                0
            ], 
            "M2": [
                8063
            ], 
            "BM1L": [
                3252
            ], 
            "WBNULL": [
                1
            ], 
            "irrelevant_Noun": [
                0
            ], 
            "M1_ADJ": [
                1
            ]
        }, 
        "sentence": "tubular lock are not my favorite , but overall this device seems like a pretty good deterrent for the casual thief ."
    }
}