{
    "a1c828aa8cee3d97a6d40dafa22577bf": {
        "(4, 9)": {
            "AM2L": [
                8034
            ], 
            "AM2F": [
                599
            ], 
            "WBF": [
                3252
            ], 
            "BM1F": [
                8034
            ], 
            "M1": [
                1445
            ], 
            "irrelevant_Adj": [
                0
            ], 
            "M2": [
                8810
            ], 
            "BM1L": [
                8531
            ], 
            "WBO": [
                8034
            ], 
            "WBL": [
                599
            ], 
            "irrelevant_Noun": [
                0
            ], 
            "M1_ADJ": [
                1
            ]
        }, 
        "location1": [
            4
        ], 
        "location2": [
            9
        ], 
        "sentence": "now i use the chamois for the tire and wheel and the absorber for the car ."
    }
}