{
    "af9181485cdf6cfb2baeeeb10e23e400": {
        "location1": [
            4
        ], 
        "location2": [
            3
        ], 
        "(4, 3)": {
            "AM2L": [
                8979
            ], 
            "BM1F": [
                8534
            ], 
            "M1": [
                337
            ], 
            "irrelevant_Adj": [
                0
            ], 
            "M2": [
                1445
            ], 
            "BM1L": [
                3717
            ], 
            "WBNULL": [
                1
            ], 
            "irrelevant_Noun": [
                0
            ], 
            "AM2F": [
                3252
            ], 
            "M1_ADJ": [
                0
            ]
        }, 
        "sentence": "i have used absorber chamois for year , much better than natural one or any other brand ."
    }, 
    "a1c828aa8cee3d97a6d40dafa22577bf": {
        "location1": [
            4
        ], 
        "location2": [
            12
        ], 
        "(4, 12)": {
            "AM2L": [
                8034
            ], 
            "AM2F": [
                3252
            ], 
            "WBF": [
                3252
            ], 
            "BM1F": [
                8034
            ], 
            "M1": [
                1445
            ], 
            "irrelevant_Adj": [
                0
            ], 
            "M2": [
                337
            ], 
            "BM1L": [
                8531
            ], 
            "WBO": [
                8034, 
                8157, 
                599, 
                8810
            ], 
            "WBL": [
                8034
            ], 
            "irrelevant_Noun": [
                0
            ], 
            "M1_ADJ": [
                1
            ]
        }, 
        "sentence": "now i use the chamois for the tire and wheel and the absorber for the car ."
    }
}