{
    "1634ecc9737304dbeed723386234c63e": {
        "(27, 2)": {
            "WBF": [
                2547
            ], 
            "BM1F": [
                2030
            ], 
            "M1": [
                1358
            ], 
            "irrelevant_Adj": [
                0
            ], 
            "M2": [
                1445
            ], 
            "BM1L": [
                4283
            ], 
            "WBO": [
                8140, 
                760, 
                4553, 
                4043, 
                3651, 
                4930, 
                5148, 
                5894, 
                8034, 
                2653, 
                8162, 
                2545, 
                8887, 
                8073, 
                8227, 
                4268, 
                4578, 
                8024, 
                8887, 
                310, 
                7579
            ], 
            "WBL": [
                5543
            ], 
            "irrelevant_Noun": [
                0
            ], 
            "M1_ADJ": [
                0
            ]
        }, 
        "location1": [
            27
        ], 
        "location2": [
            2
        ], 
        "sentence": "it cut car drying time at least in half , maybe more , plus the effort to dry with this towel is less than with a standard towel or chamois ."
    }, 
    "a1c828aa8cee3d97a6d40dafa22577bf": {
        "(4, 15)": {
            "WBF": [
                3252
            ], 
            "BM1F": [
                8034
            ], 
            "M1": [
                1445
            ], 
            "irrelevant_Adj": [
                0
            ], 
            "M2": [
                1358
            ], 
            "BM1L": [
                8531
            ], 
            "WBO": [
                8034, 
                8157, 
                599, 
                8810, 
                599, 
                8034, 
                337
            ], 
            "WBL": [
                8034
            ], 
            "irrelevant_Noun": [
                0
            ], 
            "M1_ADJ": [
                1
            ]
        }, 
        "location1": [
            4
        ], 
        "location2": [
            15
        ], 
        "sentence": "now i use the chamois for the tire and wheel and the absorber for the car ."
    }, 
    "0de95416632dea9f3c04745e281d7522": {
        "(6, 28)": {
            "AM2L": [
                8719
            ], 
            "AM2F": [
                5322
            ], 
            "WBF": [
                2057
            ], 
            "BM1F": [
                8034
            ], 
            "M1": [
                1445
            ], 
            "irrelevant_Adj": [
                0
            ], 
            "M2": [
                1358
            ], 
            "BM1L": [
                4401
            ], 
            "WBO": [
                7362, 
                8812, 
                3962, 
                566, 
                2461, 
                3962, 
                4376, 
                6209, 
                4283, 
                850, 
                4043, 
                8034, 
                1389, 
                599, 
                4283, 
                8851, 
                7609, 
                2057
            ], 
            "WBL": [
                5232
            ], 
            "irrelevant_Noun": [
                0
            ], 
            "M1_ADJ": [
                1
            ]
        }, 
        "location1": [
            6
        ], 
        "location2": [
            28
        ], 
        "sentence": "you are supposed to keep the chamois damp so when i am done i just put it back in the case and it will stay damp until my car next wash ."
    }, 
    "c4a15b6fa06735b9455a332bb5ce910b": {
        "(8, 15)": {
            "WBF": [
                5595
            ], 
            "BM1F": [
                8073
            ], 
            "M1": [
                1445
            ], 
            "irrelevant_Adj": [
                0
            ], 
            "M2": [
                1358
            ], 
            "BM1L": [
                8531
            ], 
            "WBO": [
                310, 
                8227, 
                8821
            ], 
            "WBL": [
                310
            ], 
            "irrelevant_Noun": [
                0
            ], 
            "M1_ADJ": [
                1
            ]
        }, 
        "location1": [
            8
        ], 
        "location2": [
            15
        ], 
        "sentence": "i find it much easier to use this chamois over a towel while drying a car ."
    }, 
    "b017eef55ee1c1174e727e1d3cd61dcb": {
        "(18, 12)": {
            "WBF": [
                8044
            ], 
            "BM1F": [
                5232
            ], 
            "M1": [
                1358
            ], 
            "irrelevant_Adj": [
                0
            ], 
            "M2": [
                1445
            ], 
            "BM1L": [
                2547
            ], 
            "WBO": [
                3233, 
                8501
            ], 
            "WBL": [
                310
            ], 
            "irrelevant_Noun": [
                0
            ], 
            "M1_ADJ": [
                0
            ]
        }, 
        "location1": [
            18
        ], 
        "location2": [
            12
        ], 
        "sentence": "lately i 'd been using a flexible squeege to begin drying my car then follow up with a chamois ."
    }, 
    "ee443f27bda490a416495d233bc12882": {
        "(1, 10)": {
            "AM2L": [
                8227
            ], 
            "AM2F": [
                4625
            ], 
            "WBF": [
                2445
            ], 
            "BM1F": [
                8034
            ], 
            "M1": [
                1445
            ], 
            "irrelevant_Adj": [
                0
            ], 
            "M2": [
                1358
            ], 
            "WBO": [
                5387, 
                4555, 
                1605, 
                599, 
                4646
            ], 
            "WBL": [
                8997
            ], 
            "irrelevant_Noun": [
                0
            ], 
            "M1_ADJ": [
                1
            ]
        }, 
        "location1": [
            1
        ], 
        "location2": [
            10
        ], 
        "sentence": "the chamois does not leave cloth and lint on your car like towel and old shirt ."
    }, 
    "820f3ffea335bb3dd8a32dea99cf7ef5": {
        "location1": [
            4
        ], 
        "location2": [
            29
        ], 
        "(4, 29)": {
            "AM2F": [
                1014
            ], 
            "WBF": [
                7362
            ], 
            "BM1F": [
                4554
            ], 
            "M1": [
                1445
            ], 
            "irrelevant_Adj": [
                0
            ], 
            "M2": [
                1358
            ], 
            "BM1L": [
                3453
            ], 
            "WBO": [
                5191, 
                1014, 
                945, 
                4283, 
                2445, 
                5245, 
                4555, 
                7688, 
                5495, 
                3485, 
                8860, 
                599, 
                4283, 
                1564, 
                8501, 
                8034, 
                8736, 
                599, 
                636, 
                4560, 
                2356
            ], 
            "WBL": [
                8034
            ], 
            "irrelevant_Noun": [
                0
            ], 
            "M1_ADJ": [
                1
            ]
        }, 
        "sentence": "i like genuine leather chamois so much better because it does n't leave streak on glass window and it clean up the water and any leftover dirt on the car better ."
    }
}