{
    "d034a62977e8dbb8efc547b04b1aea5c": {
        "location1": [
            10
        ], 
        "location2": [
            20
        ], 
        "(10, 20)": {
            "AM2L": [
                8997
            ], 
            "AM2F": [
                5458
            ], 
            "WBF": [
                599
            ], 
            "BM1F": [
                2358
            ], 
            "M1": [
                1445
            ], 
            "irrelevant_Adj": [
                0
            ], 
            "M2": [
                4882
            ], 
            "BM1L": [
                310
            ], 
            "WBO": [
                2495, 
                4283, 
                385, 
                8997, 
                5657, 
                8073
            ], 
            "WBL": [
                4226
            ], 
            "irrelevant_Noun": [
                0
            ], 
            "M1_ADJ": [
                1
            ]
        }, 
        "sentence": "the wort thing you could do is have a dirty chamois and drag it across your paint , this will introduce maring of your clear coat ."
    }
}