{
    "1634ecc9737304dbeed723386234c63e": {
        "(27, 25)": {
            "WBFL": [
                5543
            ], 
            "BM1F": [
                7579
            ], 
            "M1": [
                8227
            ], 
            "irrelevant_Adj": [
                0
            ], 
            "M2": [
                1445
            ], 
            "BM1L": [
                310
            ], 
            "irrelevant_Noun": [
                0
            ], 
            "M1_ADJ": [
                0
            ]
        }, 
        "location1": [
            27
        ], 
        "location2": [
            18, 
            25
        ], 
        "(27, 18)": {
            "WBF": [
                4268
            ], 
            "BM1F": [
                8073
            ], 
            "M1": [
                8227
            ], 
            "irrelevant_Adj": [
                0
            ], 
            "M2": [
                1445
            ], 
            "BM1L": [
                8887
            ], 
            "WBO": [
                4578, 
                8024, 
                8887, 
                310, 
                7579
            ], 
            "WBL": [
                5543
            ], 
            "irrelevant_Noun": [
                0
            ], 
            "M1_ADJ": [
                0
            ]
        }, 
        "sentence": "it cut car drying time at least in half , maybe more , plus the effort to dry with this towel is less than with a standard towel or chamois ."
    }, 
    "ee443f27bda490a416495d233bc12882": {
        "location1": [
            1
        ], 
        "location2": [
            12
        ], 
        "(1, 12)": {
            "AM2L": [
                5488
            ], 
            "AM2F": [
                599
            ], 
            "WBF": [
                2445
            ], 
            "BM1F": [
                8034
            ], 
            "M1": [
                1445
            ], 
            "irrelevant_Adj": [
                0
            ], 
            "M2": [
                8227
            ], 
            "WBO": [
                5387, 
                4555, 
                1605, 
                599, 
                4646, 
                5495, 
                8997
            ], 
            "WBL": [
                4625
            ], 
            "irrelevant_Noun": [
                0
            ], 
            "M1_ADJ": [
                1
            ]
        }, 
        "sentence": "the chamois does not leave cloth and lint on your car like towel and old shirt ."
    }, 
    "88632ff52306e1f5abf620c2e2ef786e": {
        "(25, 30)": {
            "WBF": [
                6303
            ], 
            "BM1F": [
                334
            ], 
            "M1": [
                1445
            ], 
            "irrelevant_Adj": [
                0
            ], 
            "M2": [
                8227
            ], 
            "BM1L": [
                7795
            ], 
            "WBO": [
                8024
            ], 
            "WBL": [
                3626
            ], 
            "irrelevant_Noun": [
                0
            ], 
            "M1_ADJ": [
                1
            ]
        }, 
        "location1": [
            25
        ], 
        "location2": [
            30
        ], 
        "sentence": "`` i bought two actually , one for her and one for me to use on my bicycle -- thinking it would be something like a super absorbant chamois rather than a gum towel ."
    }, 
    "c4a15b6fa06735b9455a332bb5ce910b": {
        "(8, 11)": {
            "AM2L": [
                2547
            ], 
            "AM2F": [
                8821
            ], 
            "WBF": [
                5595
            ], 
            "BM1F": [
                8073
            ], 
            "M1": [
                1445
            ], 
            "irrelevant_Adj": [
                0
            ], 
            "M2": [
                8227
            ], 
            "BM1L": [
                8531
            ], 
            "WBO": [
                310
            ], 
            "WBL": [
                310
            ], 
            "irrelevant_Noun": [
                0
            ], 
            "M1_ADJ": [
                1
            ]
        }, 
        "location1": [
            8
        ], 
        "location2": [
            11
        ], 
        "sentence": "i find it much easier to use this chamois over a towel while drying a car ."
    }
}