{
    "1a0982fab5181c8516a98c47a72e2b84": {
        "(17, 21)": {
            "AM2L": [
                8044
            ], 
            "AM2F": [
                599
            ], 
            "WBF": [
                599
            ], 
            "BM1F": [
                8034
            ], 
            "M1": [
                1445
            ], 
            "irrelevant_Adj": [
                0
            ], 
            "M2": [
                7826
            ], 
            "BM1L": [
                1016
            ], 
            "WBO": [
                8034
            ], 
            "WBL": [
                5657
            ], 
            "irrelevant_Noun": [
                0
            ], 
            "M1_ADJ": [
                1
            ]
        }, 
        "location1": [
            17
        ], 
        "location2": [
            9, 
            21
        ], 
        "(17, 9)": {
            "AM2L": [
                8034
            ], 
            "AM2F": [
                599
            ], 
            "WBF": [
                8812
            ], 
            "BM1F": [
                8034
            ], 
            "M1": [
                7826
            ], 
            "irrelevant_Adj": [
                0
            ], 
            "M2": [
                1445
            ], 
            "BM1L": [
                5458
            ], 
            "WBO": [
                7308, 
                5691, 
                3459, 
                8271
            ], 
            "WBL": [
                8034
            ], 
            "irrelevant_Noun": [
                0
            ], 
            "M1_ADJ": [
                0
            ]
        }, 
        "sentence": "this practice also help to prevent scratching of the surface when small particle get trapped between the chamois and the paint surface and then your hand comes and push it right into the paint ."
    }
}