{
    "0de95416632dea9f3c04745e281d7522": {
        "(6, 20)": {
            "AM2L": [
                4283
            ], 
            "AM2F": [
                599
            ], 
            "WBF": [
                2057
            ], 
            "BM1F": [
                8034
            ], 
            "M1": [
                1445
            ], 
            "irrelevant_Adj": [
                0
            ], 
            "M2": [
                1389
            ], 
            "BM1L": [
                4401
            ], 
            "WBO": [
                7362, 
                8812, 
                3962, 
                566, 
                2461, 
                3962, 
                4376, 
                6209, 
                4283, 
                850
            ], 
            "WBL": [
                8034
            ], 
            "irrelevant_Noun": [
                0
            ], 
            "M1_ADJ": [
                1
            ]
        }, 
        "location1": [
            6
        ], 
        "location2": [
            20
        ], 
        "sentence": "you are supposed to keep the chamois damp so when i am done i just put it back in the case and it will stay damp until my car next wash ."
    }
}