{
    "04de1b39e39d162196ab8378893a1ac8": {
        "(14, 13)": {
            "BM1F": [
                7096
            ], 
            "M1": [
                7240
            ], 
            "irrelevant_Adj": [
                0
            ], 
            "M2": [
                1445
            ], 
            "BM1L": [
                5265
            ], 
            "WBNULL": [
                1
            ], 
            "irrelevant_Noun": [
                0
            ], 
            "M1_ADJ": [
                0
            ]
        }, 
        "location1": [
            14
        ], 
        "location2": [
            13
        ], 
        "sentence": "i have used these for over 10 year as well as natural sheep skin chamois ."
    }
}