{
    "1634ecc9737304dbeed723386234c63e": {
        "(27, 4)": {
            "WBF": [
                760
            ], 
            "BM1F": [
                2547
            ], 
            "M1": [
                8140
            ], 
            "irrelevant_Adj": [
                0
            ], 
            "M2": [
                1445
            ], 
            "BM1L": [
                1358
            ], 
            "WBO": [
                4553, 
                4043, 
                3651, 
                4930, 
                5148, 
                5894, 
                8034, 
                2653, 
                8162, 
                2545, 
                8887, 
                8073, 
                8227, 
                4268, 
                4578, 
                8024, 
                8887, 
                310, 
                7579
            ], 
            "WBL": [
                5543
            ], 
            "irrelevant_Noun": [
                1
            ], 
            "M1_ADJ": [
                0
            ]
        }, 
        "location1": [
            27
        ], 
        "location2": [
            4
        ], 
        "sentence": "it cut car drying time at least in half , maybe more , plus the effort to dry with this towel is less than with a standard towel or chamois ."
    }, 
    "277bad8c6391b4d4b46182ea79862dc1": {
        "(17, 13)": {
            "AM2L": [
                8870
            ], 
            "AM2F": [
                8024
            ], 
            "WBF": [
                8942
            ], 
            "BM1F": [
                5503
            ], 
            "M1": [
                8140
            ], 
            "irrelevant_Adj": [
                0
            ], 
            "M2": [
                1445
            ], 
            "BM1L": [
                7897
            ], 
            "WBO": [
                5574
            ], 
            "WBL": [
                8034
            ], 
            "irrelevant_Noun": [
                1
            ], 
            "M1_ADJ": [
                0
            ]
        }, 
        "location1": [
            3, 
            17
        ], 
        "location2": [
            13
        ], 
        "(3, 13)": {
            "AM2L": [
                5574
            ], 
            "AM2F": [
                8942
            ], 
            "WBF": [
                527
            ], 
            "BM1F": [
                8073
            ], 
            "M1": [
                1445
            ], 
            "irrelevant_Adj": [
                0
            ], 
            "M2": [
                8140
            ], 
            "BM1L": [
                8887
            ], 
            "WBO": [
                3962, 
                2436, 
                4268, 
                8870, 
                8034, 
                2787
            ], 
            "WBL": [
                5503
            ], 
            "irrelevant_Noun": [
                1
            ], 
            "M1_ADJ": [
                1
            ]
        }, 
        "sentence": "now , with this chamois , all i do is wipe the entire table one time , wring out the chamois , than wipe the table again ."
    }
}