{
    "77313683b6cc5c47dced7bc6bdce8fb3": {
        "(11, 12)": {
            "BM1F": [
                4268
            ], 
            "M1": [
                1473
            ], 
            "irrelevant_Adj": [
                0
            ], 
            "M2": [
                7722
            ], 
            "BM1L": [
                8049
            ], 
            "WBNULL": [
                1
            ], 
            "irrelevant_Noun": [
                0
            ], 
            "AM2F": [
                808
            ], 
            "M1_ADJ": [
                1
            ]
        }, 
        "location1": [
            11
        ], 
        "location2": [
            12
        ], 
        "sentence": "it work very well , but then i found out there is cheaper stuff available ."
    }
}