{
    "d95884132a2e18d9d559585e49819e39": {
        "(8, 14)": {
            "AM2L": [
                8991
            ], 
            "AM2F": [
                8812
            ], 
            "WBF": [
                6267
            ], 
            "BM1F": [
                8028
            ], 
            "M1": [
                1472
            ], 
            "irrelevant_Adj": [
                0
            ], 
            "M2": [
                7433
            ], 
            "BM1L": [
                4800
            ], 
            "WBO": [
                5495, 
                310
            ], 
            "WBL": [
                6729
            ], 
            "irrelevant_Noun": [
                0
            ], 
            "M1_ADJ": [
                1
            ]
        }, 
        "location1": [
            8
        ], 
        "location2": [
            14
        ], 
        "sentence": "the sink was insulated , but it made that cheap rain on a metal roof sound when you turned on the water ."
    }
}