{
    "1d0cb82131e537b7291a071413dc08d1": {
        "location1": [
            14
        ], 
        "location2": [
            8
        ], 
        "(14, 8)": {
            "AM2F": [
                5410
            ], 
            "WBF": [
                5458
            ], 
            "BM1F": [
                8060
            ], 
            "M1": [
                7690
            ], 
            "irrelevant_Adj": [
                0
            ], 
            "M2": [
                1478
            ], 
            "BM1L": [
                310
            ], 
            "WBO": [
                8736, 
                8024
            ], 
            "WBL": [
                8375
            ], 
            "irrelevant_Noun": [
                0
            ], 
            "M1_ADJ": [
                0
            ]
        }, 
        "sentence": "12 inch in diameter , which produce a thicker stream of water than your typical cheapo nozzle ."
    }
}