{
    "19b32e74ad59cdfe1e64882268d23774": {
        "(13, 14)": {
            "AM2L": [
                7526
            ], 
            "BM1F": [
                8581
            ], 
            "M1": [
                1478
            ], 
            "irrelevant_Adj": [
                0
            ], 
            "M2": [
                5410
            ], 
            "BM1L": [
                8034
            ], 
            "WBNULL": [
                1
            ], 
            "irrelevant_Noun": [
                0
            ], 
            "AM2F": [
                599
            ], 
            "M1_ADJ": [
                1
            ]
        }, 
        "location1": [
            13
        ], 
        "location2": [
            14
        ], 
        "sentence": "it does a good job , but not that much better than the various cheapo nozzle and spray gun ."
    }, 
    "1d0cb82131e537b7291a071413dc08d1": {
        "location1": [
            14
        ], 
        "location2": [
            15
        ], 
        "(14, 15)": {
            "BM1F": [
                8375
            ], 
            "M1": [
                1478
            ], 
            "irrelevant_Adj": [
                0
            ], 
            "M2": [
                5410
            ], 
            "BM1L": [
                8997
            ], 
            "WBNULL": [
                1
            ], 
            "irrelevant_Noun": [
                0
            ], 
            "M1_ADJ": [
                1
            ]
        }, 
        "sentence": "12 inch in diameter , which produce a thicker stream of water than your typical cheapo nozzle ."
    }, 
    "0a11fb4092a0933ff57ab0c590a3184a": {
        "(19, 20)": {
            "BM1F": [
                8375
            ], 
            "M1": [
                1478
            ], 
            "irrelevant_Adj": [
                0
            ], 
            "M2": [
                5410
            ], 
            "BM1L": [
                8997
            ], 
            "WBNULL": [
                1
            ], 
            "irrelevant_Noun": [
                0
            ], 
            "M1_ADJ": [
                1
            ]
        }, 
        "location1": [
            19
        ], 
        "location2": [
            20
        ], 
        "sentence": "the product appears to be very well constructed , and is quite a bit larger and heavier , than your typical cheapo nozzle ."
    }
}