{
    "1091a4dd55f5dd0e9f7bd63653be9dff": {
        "location1": [
            3
        ], 
        "location2": [
            9
        ], 
        "(3, 9)": {
            "WBF": [
                2767
            ], 
            "BM1F": [
                8718
            ], 
            "M1": [
                1472
            ], 
            "irrelevant_Adj": [
                0
            ], 
            "M2": [
                1449
            ], 
            "BM1L": [
                4283
            ], 
            "WBO": [
                7362, 
                3962
            ], 
            "WBL": [
                310
            ], 
            "irrelevant_Noun": [
                1
            ], 
            "M1_ADJ": [
                1
            ]
        }, 
        "sentence": "however , it was cheap enough so i took a chance ."
    }
}