{
    "55d5443b97bba82a4176200bdb183ca0": {
        "location1": [
            2
        ], 
        "location2": [
            6
        ], 
        "(2, 6)": {
            "WBF": [
                3190
            ], 
            "BM1F": [
                4094
            ], 
            "M1": [
                1472
            ], 
            "irrelevant_Adj": [
                0
            ], 
            "M2": [
                3153
            ], 
            "BM1L": [
                8603
            ], 
            "WBO": [
                599
            ], 
            "WBL": [
                4723
            ], 
            "irrelevant_Noun": [
                0
            ], 
            "M1_ADJ": [
                1
            ]
        }, 
        "sentence": "very inexpensive ( cheap ) , flimsy and loose fitting ."
    }
}