{
    "b5999bc18f1e3e2018c506a5c14dac88": {
        "(0, 8)": {
            "WBF": [
                558
            ], 
            "AM2L": [
                6718
            ], 
            "M1": [
                1472
            ], 
            "irrelevant_Adj": [
                0
            ], 
            "M2": [
                733
            ], 
            "WBO": [
                8028, 
                7405, 
                5751, 
                8531
            ], 
            "WBL": [
                8034
            ], 
            "irrelevant_Noun": [
                0
            ], 
            "AM2F": [
                907
            ], 
            "M1_ADJ": [
                1
            ]
        }, 
        "location1": [
            0
        ], 
        "location2": [
            8
        ], 
        "sentence": "cheap alternative that some people use include the asphalt based roll of roof sealer ."
    }
}