{
    "008e4dec2c7bcd7889f45f8d051cf295": {
        "(12, 21)": {
            "AM2L": [
                6219
            ], 
            "AM2F": [
                599
            ], 
            "WBF": [
                1262
            ], 
            "BM1F": [
                688
            ], 
            "M1": [
                1473
            ], 
            "irrelevant_Adj": [
                0
            ], 
            "M2": [
                8062
            ], 
            "BM1L": [
                8028
            ], 
            "WBO": [
                978, 
                4940, 
                8073, 
                5503, 
                4268
            ], 
            "WBL": [
                4043
            ], 
            "irrelevant_Noun": [
                0
            ], 
            "M1_ADJ": [
                1
            ]
        }, 
        "location1": [
            12
        ], 
        "location2": [
            21
        ], 
        "sentence": "there are a lot of pva drying towel out there that are cheaper , but believe me , this one is superior in thickness and quality ."
    }
}