{
    "9f056448de690612775f1b54b191f90d": {
        "location1": [
            0
        ], 
        "location2": [
            2
        ], 
        "(0, 2)": {
            "WBFL": [
                1509
            ], 
            "M1": [
                1472
            ], 
            "irrelevant_Adj": [
                0
            ], 
            "M2": [
                4373
            ], 
            "irrelevant_Noun": [
                0
            ], 
            "M1_ADJ": [
                1
            ]
        }, 
        "sentence": "cheap chinese-made junk !"
    }
}