{
    "f46f5348eeff91738602f53c6d9a1b8a": {
        "(5, 14)": {
            "AM2L": [
                5458
            ], 
            "AM2F": [
                945
            ], 
            "WBF": [
                599
            ], 
            "BM1F": [
                2356
            ], 
            "M1": [
                1472
            ], 
            "irrelevant_Adj": [
                0
            ], 
            "M2": [
                3559
            ], 
            "BM1L": [
                688
            ], 
            "WBO": [
                8991, 
                1282, 
                5245, 
                4731, 
                8041
            ], 
            "WBL": [
                8034
            ], 
            "irrelevant_Noun": [
                0
            ], 
            "M1_ADJ": [
                1
            ]
        }, 
        "location1": [
            5
        ], 
        "location2": [
            14
        ], 
        "sentence": "they hold-up great , are dirt cheap and you ca n't lose them in the grass because of the bright yellow color ."
    }
}