{
    "1bb49ea120f5796fabd146a09475bbd4": {
        "(13, 3)": {
            "AM2L": [
                8034
            ], 
            "AM2F": [
                8024
            ], 
            "WBF": [
                688
            ], 
            "BM1F": [
                5862
            ], 
            "M1": [
                7528
            ], 
            "irrelevant_Adj": [
                0
            ], 
            "M2": [
                1473
            ], 
            "BM1L": [
                3924
            ], 
            "WBO": [
                5387, 
                527, 
                8028, 
                865, 
                599, 
                5503
            ], 
            "WBL": [
                4737
            ], 
            "irrelevant_Noun": [
                0
            ], 
            "M1_ADJ": [
                0
            ]
        }, 
        "location1": [
            13
        ], 
        "location2": [
            3
        ], 
        "sentence": "some , however , plastic sprayer are not all that bad and one heckuva lot cheaper than the almost $ 25 for this nozzle ."
    }, 
    "4cb292428a2e45d638efd43691a01164": {
        "(23, 10)": {
            "AM2L": [
                8028
            ], 
            "AM2F": [
                5503
            ], 
            "WBF": [
                5458
            ], 
            "BM1F": [
                808
            ], 
            "M1": [
                7528
            ], 
            "irrelevant_Adj": [
                0
            ], 
            "M2": [
                1473
            ], 
            "BM1L": [
                5566
            ], 
            "WBO": [
                7204, 
                6219, 
                3962, 
                8931, 
                3717, 
                8162, 
                3502, 
                8887, 
                7405
            ], 
            "WBL": [
                8034
            ], 
            "irrelevant_Noun": [
                0
            ], 
            "M1_ADJ": [
                0
            ]
        }, 
        "location1": [
            23
        ], 
        "location2": [
            10
        ], 
        "sentence": "when comparing the price of the unit to other available sprayer of similar quality i would have to go with some of the cheaper one that are made of metal and not plastic ."
    }
}