{
    "7c0fa156d443c0eef14764e39adcb57a": {
        "location1": [
            30
        ], 
        "location2": [
            6
        ], 
        "(30, 6)": {
            "AM2F": [
                5410
            ], 
            "WBF": [
                5586
            ], 
            "BM1F": [
                3808
            ], 
            "M1": [
                8736
            ], 
            "irrelevant_Adj": [
                0
            ], 
            "M2": [
                1473
            ], 
            "BM1L": [
                8702
            ], 
            "WBO": [
                8044, 
                2436, 
                5245, 
                3459, 
                8073, 
                5410, 
                5568, 
                3962, 
                8931, 
                3819, 
                6390, 
                7485, 
                5148, 
                5131, 
                8162, 
                3459, 
                5503, 
                5458, 
                8053, 
                6303
            ], 
            "WBL": [
                8034
            ], 
            "irrelevant_Noun": [
                0
            ], 
            "M1_ADJ": [
                0
            ]
        }, 
        "sentence": "if you do n't want high water output , then do n't get this nozzle , otherwise , i would highly recommend spending more money to get one of these rather than the cheaper nozzle ."
    }
}