{
    "9f056448de690612775f1b54b191f90d": {
        "(1, 2)": {
            "BM1F": [
                1472
            ], 
            "M1": [
                1509
            ], 
            "irrelevant_Adj": [
                0
            ], 
            "M2": [
                4373
            ], 
            "WBNULL": [
                1
            ], 
            "irrelevant_Noun": [
                0
            ], 
            "M1_ADJ": [
                1
            ]
        }, 
        "location1": [
            1
        ], 
        "location2": [
            2
        ], 
        "sentence": "cheap chinese-made junk !"
    }
}