{
    "9803cdb4173ed704c31118bc79e8f267": {
        "(12, 14)": {
            "WBFL": [
                1016
            ], 
            "BM1F": [
                1358
            ], 
            "M1": [
                1564
            ], 
            "irrelevant_Adj": [
                0
            ], 
            "M2": [
                8719
            ], 
            "BM1L": [
                8040
            ], 
            "irrelevant_Noun": [
                0
            ], 
            "M1_ADJ": [
                1
            ]
        }, 
        "location1": [
            12
        ], 
        "location2": [
            14
        ], 
        "sentence": "this is a must for anybody who wants to keep their car clean between wash ."
    }, 
    "7706f11f072d10392180dc13e7773718": {
        "(8, 1)": {
            "AM2L": [
                5325
            ], 
            "AM2F": [
                8501
            ], 
            "WBF": [
                8073
            ], 
            "BM1F": [
                3962
            ], 
            "M1": [
                8719
            ], 
            "irrelevant_Adj": [
                0
            ], 
            "M2": [
                1564
            ], 
            "WBO": [
                4043, 
                8034, 
                4523
            ], 
            "WBL": [
                4283
            ], 
            "irrelevant_Noun": [
                0
            ], 
            "M1_ADJ": [
                0
            ]
        }, 
        "location1": [
            8
        ], 
        "location2": [
            1
        ], 
        "sentence": "i wash this in the laundry and it clean up nice , so easy to use and care for ."
    }, 
    "3171cfb68883c2d8161351ec569ea1e0": {
        "location1": [
            6
        ], 
        "location2": [
            8
        ], 
        "(6, 8)": {
            "AM2L": [
                2545
            ], 
            "WBFL": [
                4376
            ], 
            "BM1F": [
                8162
            ], 
            "M1": [
                1564
            ], 
            "irrelevant_Adj": [
                0
            ], 
            "M2": [
                8719
            ], 
            "BM1L": [
                2614
            ], 
            "AM2F": [
                599
            ], 
            "irrelevant_Noun": [
                0
            ], 
            "M1_ADJ": [
                1
            ]
        }, 
        "sentence": "the microfiber are also easier to clean , just wash and dry and you are on your way ."
    }
}