{
    "5e2a50b08b7d80a7e8eb335fb2154537": {
        "(13, 2)": {
            "WBF": [
                8162
            ], 
            "BM1F": [
                599
            ], 
            "M1": [
                2617
            ], 
            "irrelevant_Adj": [
                0
            ], 
            "M2": [
                1564
            ], 
            "BM1L": [
                7308
            ], 
            "WBO": [
                7663, 
                4043, 
                310, 
                9020, 
                4694, 
                868, 
                8162
            ], 
            "WBL": [
                4283
            ], 
            "irrelevant_Noun": [
                0
            ], 
            "M1_ADJ": [
                0
            ]
        }, 
        "location1": [
            13
        ], 
        "location2": [
            2
        ], 
        "sentence": "small and easy to store in a zip lock bag to keep it clean ."
    }, 
    "2827d91062cf459ed920c7fb37b7518d": {
        "(9, 6)": {
            "AM2L": [
                5455
            ], 
            "AM2F": [
                5871
            ], 
            "WBF": [
                8871
            ], 
            "BM1F": [
                5495
            ], 
            "M1": [
                2617
            ], 
            "irrelevant_Adj": [
                0
            ], 
            "M2": [
                1564
            ], 
            "BM1L": [
                8798
            ], 
            "WBO": [
                5459
            ], 
            "WBL": [
                5459
            ], 
            "irrelevant_Noun": [
                0
            ], 
            "M1_ADJ": [
                0
            ]
        }, 
        "location1": [
            9
        ], 
        "location2": [
            6
        ], 
        "sentence": "it worked very well , went on easy , wiped off clean , pleasant odor , removed stain and mark ."
    }, 
    "711217422e6ae2a907e11a9e2ae1740b": {
        "(5, 2)": {
            "WBF": [
                1668
            ], 
            "BM1F": [
                5495
            ], 
            "M1": [
                2617
            ], 
            "irrelevant_Adj": [
                0
            ], 
            "M2": [
                1564
            ], 
            "BM1L": [
                3508
            ], 
            "WBO": [
                5459
            ], 
            "WBL": [
                5459
            ], 
            "irrelevant_Noun": [
                0
            ], 
            "M1_ADJ": [
                0
            ]
        }, 
        "location1": [
            5
        ], 
        "location2": [
            2
        ], 
        "sentence": "goes on easy comes off clean ."
    }, 
    "7706f11f072d10392180dc13e7773718": {
        "(8, 12)": {
            "AM2L": [
                8531
            ], 
            "AM2F": [
                8162
            ], 
            "WBF": [
                8501
            ], 
            "BM1F": [
                4283
            ], 
            "M1": [
                1564
            ], 
            "irrelevant_Adj": [
                0
            ], 
            "M2": [
                2617
            ], 
            "BM1L": [
                599
            ], 
            "WBO": [
                5325
            ], 
            "WBL": [
                7362
            ], 
            "irrelevant_Noun": [
                0
            ], 
            "M1_ADJ": [
                1
            ]
        }, 
        "location1": [
            8
        ], 
        "location2": [
            12
        ], 
        "sentence": "i wash this in the laundry and it clean up nice , so easy to use and care for ."
    }, 
    "2db43e40d02955f3566038336f894a3e": {
        "(12, 5)": {
            "AM2L": [
                2545
            ], 
            "AM2F": [
                599
            ], 
            "WBF": [
                8162
            ], 
            "BM1F": [
                688
            ], 
            "M1": [
                2617
            ], 
            "irrelevant_Adj": [
                0
            ], 
            "M2": [
                1564
            ], 
            "BM1L": [
                599
            ], 
            "WBO": [
                8531, 
                599, 
                4401
            ], 
            "WBL": [
                1785
            ], 
            "irrelevant_Noun": [
                0
            ], 
            "M1_ADJ": [
                0
            ]
        }, 
        "location1": [
            12
        ], 
        "location2": [
            5
        ], 
        "sentence": "these fit perfectly and are easy to use and keep your connector clean and dry when not in use ."
    }, 
    "7323f9f3dc0afd63f33fa074617b521f": {
        "(4, 2)": {
            "AM2L": [
                7072
            ], 
            "WBFL": [
                8162
            ], 
            "BM1F": [
                4268
            ], 
            "M1": [
                2617
            ], 
            "irrelevant_Adj": [
                0
            ], 
            "M2": [
                1564
            ], 
            "BM1L": [
                8073
            ], 
            "AM2F": [
                4376
            ], 
            "irrelevant_Noun": [
                0
            ], 
            "M1_ADJ": [
                0
            ]
        }, 
        "location1": [
            4
        ], 
        "location2": [
            2
        ], 
        "sentence": "this is easy to clean ( just shake it out ) and work great no matter how dirty it gets ."
    }, 
    "be0e736e9f91f703cbe08ee038215902": {
        "(48, 6)": {
            "AM2L": [
                8501
            ], 
            "AM2F": [
                3128
            ], 
            "WBF": [
                5502
            ], 
            "BM1F": [
                5495
            ], 
            "M1": [
                2617
            ], 
            "irrelevant_Adj": [
                0
            ], 
            "M2": [
                1564
            ], 
            "BM1L": [
                3502
            ], 
            "WBO": [
                5495, 
                4289, 
                7609, 
                4431, 
                5458, 
                5116, 
                4625, 
                1262, 
                2548, 
                7383, 
                4625, 
                1262, 
                4283, 
                1668, 
                5459, 
                5325, 
                8044, 
                3962, 
                3233, 
                8887, 
                159, 
                2545, 
                1605, 
                8162, 
                4829, 
                7824, 
                4289, 
                1719, 
                5459, 
                599, 
                7116, 
                599, 
                4283, 
                2445, 
                1663, 
                5459, 
                2617, 
                599
            ], 
            "WBL": [
                2445
            ], 
            "irrelevant_Noun": [
                0
            ], 
            "M1_ADJ": [
                0
            ]
        }, 
        "location1": [
            48
        ], 
        "location2": [
            6, 
            44
        ], 
        "(48, 44)": {
            "AM2L": [
                8501
            ], 
            "AM2F": [
                3128
            ], 
            "WBF": [
                599
            ], 
            "BM1F": [
                5459
            ], 
            "M1": [
                2617
            ], 
            "irrelevant_Adj": [
                0
            ], 
            "M2": [
                1564
            ], 
            "BM1L": [
                1663
            ], 
            "WBO": [
                4283
            ], 
            "WBL": [
                2445
            ], 
            "irrelevant_Noun": [
                0
            ], 
            "M1_ADJ": [
                0
            ]
        }, 
        "sentence": "1st off it does go on easy , once on its stay kind of moist like but drys soft like but it comes off nice , then i follow with 2nd dry cloth to make sure its completly off and shiny and it does come off easy and it does clean finish up leaving a nice shiny glazed surface ."
    }
}