{
    "9186c28a3a592fb305b30f17556e9f96": {
        "(11, 1)": {
            "AM2L": [
                8049
            ], 
            "AM2F": [
                4335
            ], 
            "WBF": [
                5458
            ], 
            "BM1F": [
                6956
            ], 
            "M1": [
                5363
            ], 
            "irrelevant_Adj": [
                0
            ], 
            "M2": [
                1564
            ], 
            "WBO": [
                8034, 
                4335, 
                5686, 
                5458, 
                8034, 
                438
            ], 
            "WBL": [
                310
            ], 
            "irrelevant_Noun": [
                0
            ], 
            "M1_ADJ": [
                0
            ]
        }, 
        "location1": [
            11
        ], 
        "location2": [
            1
        ], 
        "sentence": "secondly , none of the ' jet ' part of the adjustment creates a clean jet , there is always a fine mist or errant second or third jet spraying in a different direction at the same time ."
    }
}