{
    "b1ca28e7aa8cb3bfdf6d6a7704db0c0e": {
        "(19, 20)": {
            "BM1F": [
                310
            ], 
            "M1": [
                1566
            ], 
            "irrelevant_Adj": [
                0
            ], 
            "M2": [
                7114
            ], 
            "BM1L": [
                4556
            ], 
            "WBNULL": [
                1
            ], 
            "irrelevant_Noun": [
                0
            ], 
            "M1_ADJ": [
                1
            ]
        }, 
        "location1": [
            13, 
            19
        ], 
        "location2": [
            20
        ], 
        "(13, 20)": {
            "WBF": [
                475
            ], 
            "BM1F": [
                5459
            ], 
            "M1": [
                1566
            ], 
            "irrelevant_Adj": [
                0
            ], 
            "M2": [
                7114
            ], 
            "BM1L": [
                1663
            ], 
            "WBO": [
                672, 
                8747, 
                4556
            ], 
            "WBL": [
                1566
            ], 
            "irrelevant_Noun": [
                0
            ], 
            "M1_ADJ": [
                1
            ]
        }, 
        "sentence": "i also find the protect-all brand wax to last long and come off cleaner after applying wax leaving a cleaner shine ."
    }
}