{
    "be9ac57ce88d0ae8efaf5f5a913a285d": {
        "location1": [
            14
        ], 
        "location2": [
            15
        ], 
        "(14, 15)": {
            "AM2L": [
                8887
            ], 
            "BM1F": [
                8162
            ], 
            "M1": [
                1564
            ], 
            "irrelevant_Adj": [
                0
            ], 
            "M2": [
                3762
            ], 
            "BM1L": [
                8329
            ], 
            "WBNULL": [
                1
            ], 
            "irrelevant_Noun": [
                0
            ], 
            "AM2F": [
                2356
            ], 
            "M1_ADJ": [
                1
            ]
        }, 
        "sentence": "as long as you use as suggested , dust your car , and not try to clean heavy dirt with it , it will leave your car spotless ."
    }
}