{
    "c2e10ff7451f13af5fcfcce4de11f527": {
        "location1": [
            12
        ], 
        "location2": [
            6
        ], 
        "(12, 6)": {
            "AM2L": [
                4283
            ], 
            "AM2F": [
                1262
            ], 
            "WBF": [
                5905
            ], 
            "BM1F": [
                8034
            ], 
            "M1": [
                3122
            ], 
            "irrelevant_Adj": [
                0
            ], 
            "M2": [
                1564
            ], 
            "BM1L": [
                8420
            ], 
            "WBO": [
                5458, 
                4403
            ], 
            "WBL": [
                1358
            ], 
            "irrelevant_Noun": [
                0
            ], 
            "M1_ADJ": [
                0
            ]
        }, 
        "sentence": "maybe i do n't understand the finer point of keeping your car clean , but it seems to me that whatever instrument one us to dust their car should not leave behind more lint and strand of fabric than it pick up ."
    }
}