{
    "311f965842af6ed27d5034be21b9cb05": {
        "(19, 16)": {
            "AM2L": [
                4268
            ], 
            "AM2F": [
                8862
            ], 
            "WBF": [
                8812
            ], 
            "BM1F": [
                760
            ], 
            "M1": [
                5333
            ], 
            "irrelevant_Adj": [
                0
            ], 
            "M2": [
                1566
            ], 
            "BM1L": [
                2528
            ], 
            "WBO": [
                310
            ], 
            "WBL": [
                310
            ], 
            "irrelevant_Noun": [
                1
            ], 
            "M1_ADJ": [
                0
            ]
        }, 
        "location1": [
            19
        ], 
        "location2": [
            16
        ], 
        "sentence": "we go to maine every year from florida and i do most of the driving at night when a cleaner windshield is nice to have ."
    }
}