{
    "79404c30bd61cceaac68ffa824b099e5": {
        "(8, 6)": {
            "AM2L": [
                599
            ], 
            "WBFL": [
                8162
            ], 
            "BM1F": [
                8034
            ], 
            "M1": [
                8320
            ], 
            "irrelevant_Adj": [
                0
            ], 
            "M2": [
                1564
            ], 
            "BM1L": [
                5495
            ], 
            "AM2F": [
                4283
            ], 
            "irrelevant_Noun": [
                0
            ], 
            "M1_ADJ": [
                0
            ]
        }, 
        "location1": [
            8
        ], 
        "location2": [
            6
        ], 
        "sentence": "also , i used it on the truck to clean it and it did a decent job except in an effort to preserve water it is something of a pain to have to screw the nozzle each time you want to cut the water off ."
    }
}