{
    "18235b48b5f2f9d36397f0a99b65c916": {
        "(9, 21)": {
            "WBF": [
                599
            ], 
            "BM1F": [
                553
            ], 
            "M1": [
                1564
            ], 
            "irrelevant_Adj": [
                0
            ], 
            "M2": [
                4587
            ], 
            "BM1L": [
                5232
            ], 
            "WBO": [
                7116, 
                6793, 
                4283, 
                8189, 
                8034, 
                7114, 
                8162, 
                310
            ], 
            "WBL": [
                3815
            ], 
            "irrelevant_Noun": [
                0
            ], 
            "M1_ADJ": [
                1
            ]
        }, 
        "location1": [
            9
        ], 
        "location2": [
            21
        ], 
        "sentence": "well after applying this flagship wax to my already clean and shiny rv it took the shine to a whole higher level ."
    }
}