{
    "9186c28a3a592fb305b30f17556e9f96": {
        "location1": [
            11
        ], 
        "location2": [
            25
        ], 
        "(11, 25)": {
            "AM2L": [
                310
            ], 
            "AM2F": [
                4043
            ], 
            "WBF": [
                4335
            ], 
            "BM1F": [
                310
            ], 
            "M1": [
                1564
            ], 
            "irrelevant_Adj": [
                0
            ], 
            "M2": [
                7529
            ], 
            "BM1L": [
                1948
            ], 
            "WBO": [
                8049, 
                4268, 
                565, 
                310, 
                3120, 
                5076, 
                5543, 
                2819, 
                6954, 
                5543
            ], 
            "WBL": [
                4335
            ], 
            "irrelevant_Noun": [
                0
            ], 
            "M1_ADJ": [
                1
            ]
        }, 
        "sentence": "secondly , none of the ' jet ' part of the adjustment creates a clean jet , there is always a fine mist or errant second or third jet spraying in a different direction at the same time ."
    }
}