{
    "b12aa7035ca8dfbf1171a656367ff702": {
        "location1": [
            9
        ], 
        "location2": [
            4
        ], 
        "(9, 4)": {
            "AM2L": [
                6422
            ], 
            "AM2F": [
                4268
            ], 
            "WBF": [
                7362
            ], 
            "BM1F": [
                4501
            ], 
            "M1": [
                689
            ], 
            "irrelevant_Adj": [
                0
            ], 
            "M2": [
                1564
            ], 
            "BM1L": [
                310
            ], 
            "WBO": [
                8034
            ], 
            "WBL": [
                8162
            ], 
            "irrelevant_Noun": [
                0
            ], 
            "M1_ADJ": [
                0
            ]
        }, 
        "sentence": "this cover a large area , so the time to clean is reduced ."
    }
}