{
    "bb3d16ecc6b23fba32024fb816d507a7": {
        "location1": [
            21
        ], 
        "location2": [
            8
        ], 
        "(21, 8)": {
            "AM2L": [
                5767
            ], 
            "AM2F": [
                4283
            ], 
            "WBF": [
                4134
            ], 
            "BM1F": [
                6787
            ], 
            "M1": [
                1231
            ], 
            "irrelevant_Adj": [
                0
            ], 
            "M2": [
                1564
            ], 
            "BM1L": [
                3461
            ], 
            "WBO": [
                8034, 
                4694, 
                4954, 
                475, 
                310, 
                3085, 
                5140, 
                7362, 
                8991
            ], 
            "WBL": [
                8162
            ], 
            "irrelevant_Noun": [
                0
            ], 
            "M1_ADJ": [
                0
            ]
        }, 
        "sentence": "my only complaint is that it gets rust buildup inside the lock mechanism after a few month , so you need to clean it periodically ."
    }
}