{
    "b83d25fb2eee53278c253f218d06f02d": {
        "(26, 21)": {
            "AM2L": [
                6163
            ], 
            "AM2F": [
                4156
            ], 
            "WBF": [
                4268
            ], 
            "BM1F": [
                8034
            ], 
            "M1": [
                2580
            ], 
            "irrelevant_Adj": [
                0
            ], 
            "M2": [
                1568
            ], 
            "BM1L": [
                8542
            ], 
            "WBO": [
                8162
            ], 
            "WBL": [
                8034
            ], 
            "irrelevant_Noun": [
                0
            ], 
            "M1_ADJ": [
                0
            ]
        }, 
        "location1": [
            26
        ], 
        "location2": [
            21
        ], 
        "sentence": "how many thing out there can give you a spiffy shine in a couple of minute ? the key to using the duster is to follow the clear instruction provided ."
    }
}