{
    "fa44696db88f4dafbff7407a8b5c0c16": {
        "location1": [
            7
        ], 
        "location2": [
            10
        ], 
        "(7, 10)": {
            "AM2L": [
                8789
            ], 
            "AM2F": [
                8188
            ], 
            "WBF": [
                8501
            ], 
            "BM1F": [
                6354
            ], 
            "M1": [
                1564
            ], 
            "irrelevant_Adj": [
                0
            ], 
            "M2": [
                2577
            ], 
            "BM1L": [
                5245
            ], 
            "WBO": [
                8034
            ], 
            "WBL": [
                8034
            ], 
            "irrelevant_Noun": [
                0
            ], 
            "M1_ADJ": [
                1
            ]
        }, 
        "sentence": "using a microfiber cloth did n't really clean up the dust too well and another duster i picked up here work ok on the radio console and steering wheel but not on the dash itself ."
    }, 
    "c2e10ff7451f13af5fcfcce4de11f527": {
        "(12, 24)": {
            "AM2L": [
                1358
            ], 
            "AM2F": [
                8040
            ], 
            "WBF": [
                1262
            ], 
            "BM1F": [
                1358
            ], 
            "M1": [
                1564
            ], 
            "irrelevant_Adj": [
                0
            ], 
            "M2": [
                2577
            ], 
            "BM1L": [
                8997
            ], 
            "WBO": [
                4283, 
                6976, 
                8162, 
                4940, 
                8028, 
                8806, 
                4158, 
                5503
            ], 
            "WBL": [
                8162
            ], 
            "irrelevant_Noun": [
                0
            ], 
            "M1_ADJ": [
                1
            ]
        }, 
        "location1": [
            12
        ], 
        "location2": [
            24
        ], 
        "sentence": "maybe i do n't understand the finer point of keeping your car clean , but it seems to me that whatever instrument one us to dust their car should not leave behind more lint and strand of fabric than it pick up ."
    }, 
    "be9ac57ce88d0ae8efaf5f5a913a285d": {
        "(14, 7)": {
            "AM2L": [
                2356
            ], 
            "AM2F": [
                3762
            ], 
            "WBF": [
                8997
            ], 
            "BM1F": [
                7775
            ], 
            "M1": [
                2577
            ], 
            "irrelevant_Adj": [
                0
            ], 
            "M2": [
                1564
            ], 
            "BM1L": [
                720
            ], 
            "WBO": [
                1358, 
                599, 
                5387
            ], 
            "WBL": [
                8162
            ], 
            "irrelevant_Noun": [
                0
            ], 
            "M1_ADJ": [
                0
            ]
        }, 
        "location1": [
            14
        ], 
        "location2": [
            7
        ], 
        "sentence": "as long as you use as suggested , dust your car , and not try to clean heavy dirt with it , it will leave your car spotless ."
    }, 
    "c5eddf78593859a22b887c5c6c510756": {
        "location1": [
            10
        ], 
        "location2": [
            4
        ], 
        "(10, 4)": {
            "AM2L": [
                6685
            ], 
            "AM2F": [
                3338
            ], 
            "WBF": [
                1914
            ], 
            "BM1F": [
                6532
            ], 
            "M1": [
                2577
            ], 
            "irrelevant_Adj": [
                0
            ], 
            "M2": [
                1564
            ], 
            "BM1L": [
                3176
            ], 
            "WBO": [
                3776, 
                4401
            ], 
            "WBL": [
                2730
            ], 
            "irrelevant_Noun": [
                0
            ], 
            "M1_ADJ": [
                0
            ]
        }, 
        "sentence": "the 4wire flat replacement dust cover help keep the end clean from road dirt ."
    }, 
    "9ff76c70640ac19969f9d985dd3dd359": {
        "location1": [
            24
        ], 
        "location2": [
            17
        ], 
        "(24, 17)": {
            "WBF": [
                4283
            ], 
            "BM1F": [
                599
            ], 
            "M1": [
                2577
            ], 
            "irrelevant_Adj": [
                0
            ], 
            "M2": [
                1564
            ], 
            "BM1L": [
                2436
            ], 
            "WBO": [
                2049, 
                8162, 
                4401
            ], 
            "WBL": [
                4719
            ], 
            "irrelevant_Noun": [
                0
            ], 
            "M1_ADJ": [
                0
            ]
        }, 
        "sentence": "you must either keep your car in a garage , or use a cover like i do , and dust it daily to keep it looking clean ."
    }, 
    "27f901830375a22ce99f2600184c8802": {
        "(28, 30)": {
            "AM2L": [
                5458
            ], 
            "WBFL": [
                8034
            ], 
            "BM1F": [
                7759
            ], 
            "M1": [
                1564
            ], 
            "irrelevant_Adj": [
                0
            ], 
            "M2": [
                2577
            ], 
            "BM1L": [
                1323
            ], 
            "AM2F": [
                5459
            ], 
            "irrelevant_Noun": [
                0
            ], 
            "M1_ADJ": [
                1
            ]
        }, 
        "location1": [
            28
        ], 
        "location2": [
            30
        ], 
        "sentence": "why vw chose to use this material is beyond me , but i know that the mini california duster is the only product i 've found that can successfully clean the dust off of the dashboard ."
    }
}