{
    "c2e10ff7451f13af5fcfcce4de11f527": {
        "(12, 32)": {
            "AM2L": [
                7677
            ], 
            "AM2F": [
                599
            ], 
            "WBF": [
                1262
            ], 
            "BM1F": [
                1358
            ], 
            "M1": [
                1564
            ], 
            "irrelevant_Adj": [
                0
            ], 
            "M2": [
                4646
            ], 
            "BM1L": [
                8997
            ], 
            "WBO": [
                4283, 
                6976, 
                8162, 
                4940, 
                8028, 
                8806, 
                4158, 
                5503, 
                8527, 
                8162, 
                2577, 
                8040, 
                1358, 
                7144, 
                5387, 
                4555
            ], 
            "WBL": [
                5148
            ], 
            "irrelevant_Noun": [
                0
            ], 
            "M1_ADJ": [
                1
            ]
        }, 
        "location1": [
            12
        ], 
        "location2": [
            32
        ], 
        "sentence": "maybe i do n't understand the finer point of keeping your car clean , but it seems to me that whatever instrument one us to dust their car should not leave behind more lint and strand of fabric than it pick up ."
    }
}