{
    "d034a62977e8dbb8efc547b04b1aea5c": {
        "location1": [
            23
        ], 
        "location2": [
            2
        ], 
        "(23, 2)": {
            "AM2F": [
                1621
            ], 
            "WBF": [
                8991
            ], 
            "BM1F": [
                8926
            ], 
            "M1": [
                8065
            ], 
            "irrelevant_Adj": [
                0
            ], 
            "M2": [
                1568
            ], 
            "BM1L": [
                8034
            ], 
            "WBO": [
                1899, 
                2436, 
                4268, 
                3717, 
                310, 
                2358, 
                1445, 
                599, 
                2495, 
                4283, 
                385, 
                8997, 
                5657, 
                8073, 
                8851, 
                4226, 
                4882
            ], 
            "WBL": [
                8997
            ], 
            "irrelevant_Noun": [
                1
            ], 
            "M1_ADJ": [
                0
            ]
        }, 
        "sentence": "the wort thing you could do is have a dirty chamois and drag it across your paint , this will introduce maring of your clear coat ."
    }, 
    "b83d25fb2eee53278c253f218d06f02d": {
        "(26, 2)": {
            "AM2L": [
                6163
            ], 
            "AM2F": [
                4156
            ], 
            "WBF": [
                5574
            ], 
            "BM1F": [
                4873
            ], 
            "M1": [
                8065
            ], 
            "irrelevant_Adj": [
                0
            ], 
            "M2": [
                1568
            ], 
            "BM1L": [
                3920
            ], 
            "WBO": [
                8049, 
                1323, 
                3479, 
                8991, 
                310, 
                7491, 
                7114, 
                4043, 
                310, 
                1907, 
                5458, 
                5062, 
                8034, 
                4409, 
                8162, 
                8542, 
                8034, 
                2580, 
                4268, 
                8162
            ], 
            "WBL": [
                8034
            ], 
            "irrelevant_Noun": [
                1
            ], 
            "M1_ADJ": [
                0
            ]
        }, 
        "location1": [
            26
        ], 
        "location2": [
            2
        ], 
        "sentence": "how many thing out there can give you a spiffy shine in a couple of minute ? the key to using the duster is to follow the clear instruction provided ."
    }
}