{
    "7a96befdd569e496ee6ff864c2d8b390": {
        "(25, 24)": {
            "AM2L": [
                1262
            ], 
            "BM1F": [
                310
            ], 
            "M1": [
                2358
            ], 
            "irrelevant_Adj": [
                0
            ], 
            "M2": [
                1596
            ], 
            "BM1L": [
                3338
            ], 
            "WBNULL": [
                1
            ], 
            "irrelevant_Noun": [
                0
            ], 
            "AM2F": [
                5503
            ], 
            "M1_ADJ": [
                0
            ]
        }, 
        "location1": [
            25
        ], 
        "location2": [
            24
        ], 
        "sentence": "first , this filter will not give you huge horsepower gain , it might give you minimal mpg gain just by replacing the filter from a dirty , clogged one , but that will come with any filter ."
    }
}