{
    "9a170ed254fd773f7757fad6e0d9cb69": {
        "(22, 7)": {
            "AM2L": [
                8162
            ], 
            "AM2F": [
                775
            ], 
            "WBF": [
                8028
            ], 
            "BM1F": [
                8810
            ], 
            "M1": [
                1515
            ], 
            "irrelevant_Adj": [
                0
            ], 
            "M2": [
                1598
            ], 
            "BM1L": [
                2583
            ], 
            "WBO": [
                1312, 
                554, 
                6996, 
                201, 
                6793, 
                7795, 
                8810, 
                1516, 
                1141, 
                8073, 
                5387
            ], 
            "WBL": [
                8603
            ], 
            "irrelevant_Noun": [
                0
            ], 
            "M1_ADJ": [
                0
            ]
        }, 
        "location1": [
            22
        ], 
        "location2": [
            7
        ], 
        "sentence": "this is not the heavy duty wheel chock that camco also sellscamco 44492 rv super wheel chocki bought this not paying very close attention to the detail ."
    }
}