{
    "9605f47fba0fbcec8151bd21e296c9e8": {
        "(1, 18)": {
            "AM2L": [
                7391
            ], 
            "AM2F": [
                7933
            ], 
            "WBF": [
                8065
            ], 
            "BM1F": [
                8034
            ], 
            "M1": [
                1602
            ], 
            "irrelevant_Adj": [
                0
            ], 
            "M2": [
                7470
            ], 
            "WBO": [
                3962, 
                3717, 
                1663, 
                385, 
                8028, 
                6570, 
                2590, 
                8968, 
                4268, 
                3688, 
                1394, 
                3228, 
                3587
            ], 
            "WBL": [
                310
            ], 
            "irrelevant_Noun": [
                0
            ], 
            "M1_ADJ": [
                1
            ]
        }, 
        "location1": [
            1
        ], 
        "location2": [
            18
        ], 
        "sentence": "the closest thing i have come across that resembles dynamat xtreme is hard cast foil grip 1402 , a specialty tape sold to contractor for hvac duct sealing ."
    }
}