{
    "60e9a2b97463be7aec0d267d6042133f": {
        "location1": [
            10
        ], 
        "location2": [
            2
        ], 
        "(10, 2)": {
            "AM2L": [
                8034
            ], 
            "AM2F": [
                8162
            ], 
            "WBF": [
                8991
            ], 
            "BM1F": [
                146
            ], 
            "M1": [
                3248
            ], 
            "irrelevant_Adj": [
                0
            ], 
            "M2": [
                1598
            ], 
            "BM1L": [
                8887
            ], 
            "WBO": [
                2436, 
                5245, 
                3717, 
                8162
            ], 
            "WBL": [
                6344
            ], 
            "irrelevant_Noun": [
                0
            ], 
            "M1_ADJ": [
                0
            ]
        }, 
        "sentence": "with 25 foot , you do n't have to get real close to the other vehicle ."
    }
}