{
    "9605f47fba0fbcec8151bd21e296c9e8": {
        "(1, 2)": {
            "AM2L": [
                3717
            ], 
            "BM1F": [
                8034
            ], 
            "M1": [
                1602
            ], 
            "irrelevant_Adj": [
                0
            ], 
            "M2": [
                8065
            ], 
            "AM2F": [
                3962
            ], 
            "irrelevant_Noun": [
                1
            ], 
            "WBNULL": [
                1
            ], 
            "M1_ADJ": [
                1
            ]
        }, 
        "location1": [
            1
        ], 
        "location2": [
            2
        ], 
        "sentence": "the closest thing i have come across that resembles dynamat xtreme is hard cast foil grip 1402 , a specialty tape sold to contractor for hvac duct sealing ."
    }
}