{
    "89903ecf8b8af1686903775b7fd39172": {
        "(15, 12)": {
            "AM2L": [
                8991
            ], 
            "AM2F": [
                720
            ], 
            "WBF": [
                4043
            ], 
            "BM1F": [
                1118
            ], 
            "M1": [
                8587
            ], 
            "irrelevant_Adj": [
                0
            ], 
            "M2": [
                1598
            ], 
            "BM1L": [
                8034
            ], 
            "WBO": [
                720
            ], 
            "WBL": [
                720
            ], 
            "irrelevant_Noun": [
                0
            ], 
            "M1_ADJ": [
                0
            ]
        }, 
        "location1": [
            15
        ], 
        "location2": [
            6, 
            12
        ], 
        "(15, 6)": {
            "AM2L": [
                8991
            ], 
            "AM2F": [
                720
            ], 
            "WBF": [
                5574
            ], 
            "BM1F": [
                8183
            ], 
            "M1": [
                8587
            ], 
            "irrelevant_Adj": [
                0
            ], 
            "M2": [
                1598
            ], 
            "BM1L": [
                161
            ], 
            "WBO": [
                8991, 
                6181, 
                8034, 
                1118, 
                8587
            ], 
            "WBL": [
                720
            ], 
            "irrelevant_Noun": [
                0
            ], 
            "M1_ADJ": [
                0
            ]
        }, 
        "sentence": "rather than pushing a 3 ton vehicle out you pull the booster vehicle in as close as you can and let the length work for you ."
    }, 
    "60e9a2b97463be7aec0d267d6042133f": {
        "(10, 14)": {
            "WBF": [
                8162
            ], 
            "BM1F": [
                6344
            ], 
            "M1": [
                1598
            ], 
            "irrelevant_Adj": [
                0
            ], 
            "M2": [
                8587
            ], 
            "BM1L": [
                3459
            ], 
            "WBO": [
                8034
            ], 
            "WBL": [
                5566
            ], 
            "irrelevant_Noun": [
                0
            ], 
            "M1_ADJ": [
                1
            ]
        }, 
        "location1": [
            10
        ], 
        "location2": [
            14
        ], 
        "sentence": "with 25 foot , you do n't have to get real close to the other vehicle ."
    }
}