{
    "1c81fabb3bfc9cc2630671fe607b2ddd": {
        "location1": [
            38, 
            64
        ], 
        "location2": [
            21
        ], 
        "(64, 21)": {
            "AM2L": [
                8812
            ], 
            "AM2F": [
                5333
            ], 
            "WBF": [
                8
            ], 
            "BM1F": [
                5458
            ], 
            "M1": [
                8843
            ], 
            "irrelevant_Adj": [
                0
            ], 
            "M2": [
                1637
            ], 
            "BM1L": [
                5503
            ], 
            "WBO": [
                4329, 
                4283, 
                7411, 
                2445, 
                5387, 
                3459, 
                2525, 
                3252, 
                2087, 
                8819, 
                4268, 
                5512, 
                310, 
                1743, 
                2576, 
                1637, 
                3995, 
                8869, 
                599, 
                5232, 
                8320, 
                8819, 
                565, 
                4268, 
                5589, 
                2445, 
                5387, 
                3149, 
                4043, 
                3416, 
                599, 
                8082, 
                4283, 
                8931, 
                929, 
                310, 
                3518, 
                3976, 
                5495
            ], 
            "WBL": [
                7795
            ], 
            "irrelevant_Noun": [
                0
            ], 
            "M1_ADJ": [
                0
            ]
        }, 
        "(38, 21)": {
            "AM2L": [
                8869
            ], 
            "AM2F": [
                3995
            ], 
            "WBF": [
                8
            ], 
            "BM1F": [
                5458
            ], 
            "M1": [
                8843
            ], 
            "irrelevant_Adj": [
                0
            ], 
            "M2": [
                1637
            ], 
            "BM1L": [
                5503
            ], 
            "WBO": [
                4329, 
                4283, 
                7411, 
                2445, 
                5387, 
                3459, 
                2525, 
                3252, 
                2087, 
                8819, 
                4268, 
                5512, 
                310
            ], 
            "WBL": [
                2576
            ], 
            "irrelevant_Noun": [
                0
            ], 
            "M1_ADJ": [
                0
            ]
        }, 
        "sentence": "i ordered four to start , one for dad [ has a truck he rarely drive ] , one for car i `` baby-sit `` , one of wife 's jeep it sometimes does not get driven for day which is only a concern during cold illinois winter , and my truck which always is outside [ does not fit in garage ] and thought it would be a good idea on those super cold night when i also plug in my battery blanket and oil heater ."
    }
}