{
    "ba7efb330a6c490dcfd2c3c2de132d13": {
        "(18, 9)": {
            "AM2L": [
                599
            ], 
            "AM2F": [
                8736
            ], 
            "WBF": [
                7224
            ], 
            "BM1F": [
                5495
            ], 
            "M1": [
                4344
            ], 
            "irrelevant_Adj": [
                0
            ], 
            "M2": [
                1637
            ], 
            "BM1L": [
                8041
            ], 
            "WBO": [
                8162, 
                4401, 
                1865, 
                4376, 
                2345
            ], 
            "WBL": [
                4043
            ], 
            "irrelevant_Noun": [
                0
            ], 
            "M1_ADJ": [
                0
            ]
        }, 
        "location1": [
            18
        ], 
        "location2": [
            9
        ], 
        "sentence": "they last for many year , i use them on job site to keep cool , just dip it in cold water and instant cooling ."
    }
}