{
    "8a499317f08cd41653a21bd5acf81ee4": {
        "(5, 25)": {
            "WBF": [
                8869
            ], 
            "BM1F": [
                310
            ], 
            "M1": [
                1637
            ], 
            "irrelevant_Adj": [
                0
            ], 
            "M2": [
                7408
            ], 
            "BM1L": [
                8887
            ], 
            "WBO": [
                4043, 
                5046, 
                974, 
                4043, 
                5232, 
                1358, 
                1323, 
                929, 
                1637, 
                7411, 
                475, 
                3962, 
                2030, 
                8034, 
                3987, 
                5459
            ], 
            "WBL": [
                3252
            ], 
            "irrelevant_Noun": [
                0
            ], 
            "M1_ADJ": [
                1
            ]
        }, 
        "(15, 25)": {
            "WBF": [
                7411
            ], 
            "BM1F": [
                929
            ], 
            "M1": [
                1637
            ], 
            "irrelevant_Adj": [
                0
            ], 
            "M2": [
                7408
            ], 
            "BM1L": [
                1323
            ], 
            "WBO": [
                475, 
                3962, 
                2030, 
                8034, 
                3987, 
                5459
            ], 
            "WBL": [
                3252
            ], 
            "irrelevant_Noun": [
                0
            ], 
            "M1_ADJ": [
                1
            ]
        }, 
        "location1": [
            5, 
            15
        ], 
        "location2": [
            25
        ], 
        "sentence": "i bought this with a cold winter in mind , being in my car can be cold sometimes after i cut the ignition off waiting for someone ."
    }
}