{
    "8a499317f08cd41653a21bd5acf81ee4": {
        "(15, 8)": {
            "AM2L": [
                475
            ], 
            "AM2F": [
                7411
            ], 
            "WBF": [
                974
            ], 
            "BM1F": [
                4043
            ], 
            "M1": [
                5046
            ], 
            "irrelevant_Adj": [
                0
            ], 
            "M2": [
                1637
            ], 
            "BM1L": [
                8869
            ], 
            "WBO": [
                4043, 
                5232, 
                1358
            ], 
            "WBL": [
                929
            ], 
            "irrelevant_Noun": [
                0
            ], 
            "M1_ADJ": [
                0
            ]
        }, 
        "location1": [
            5, 
            15
        ], 
        "location2": [
            8
        ], 
        "(5, 8)": {
            "AM2L": [
                4043
            ], 
            "AM2F": [
                974
            ], 
            "WBF": [
                8869
            ], 
            "BM1F": [
                310
            ], 
            "M1": [
                1637
            ], 
            "irrelevant_Adj": [
                0
            ], 
            "M2": [
                5046
            ], 
            "BM1L": [
                8887
            ], 
            "WBO": [
                4043
            ], 
            "WBL": [
                4043
            ], 
            "irrelevant_Noun": [
                0
            ], 
            "M1_ADJ": [
                1
            ]
        }, 
        "sentence": "i bought this with a cold winter in mind , being in my car can be cold sometimes after i cut the ignition off waiting for someone ."
    }
}