{
    "ba7efb330a6c490dcfd2c3c2de132d13": {
        "(18, 22)": {
            "WBF": [
                8736
            ], 
            "BM1F": [
                4043
            ], 
            "M1": [
                1637
            ], 
            "irrelevant_Adj": [
                0
            ], 
            "M2": [
                1867
            ], 
            "BM1L": [
                4283
            ], 
            "WBO": [
                599
            ], 
            "WBL": [
                4150
            ], 
            "irrelevant_Noun": [
                0
            ], 
            "M1_ADJ": [
                1
            ]
        }, 
        "location1": [
            18
        ], 
        "location2": [
            22
        ], 
        "sentence": "they last for many year , i use them on job site to keep cool , just dip it in cold water and instant cooling ."
    }
}