{
    "1240aeb99b0efa15432488e1a5ff7284": {
        "location1": [
            30
        ], 
        "location2": [
            17
        ], 
        "(30, 17)": {
            "AM2L": [
                8028
            ], 
            "AM2F": [
                8736
            ], 
            "WBF": [
                1262
            ], 
            "BM1F": [
                5458
            ], 
            "M1": [
                2647
            ], 
            "irrelevant_Adj": [
                0
            ], 
            "M2": [
                1741
            ], 
            "BM1L": [
                4431
            ], 
            "WBO": [
                8812, 
                7878, 
                1016, 
                5714, 
                4283, 
                5699, 
                5159, 
                8105, 
                8581
            ], 
            "WBL": [
                5458
            ], 
            "irrelevant_Noun": [
                0
            ], 
            "M1_ADJ": [
                0
            ]
        }, 
        "sentence": "sure , it has a unique ability to produce a fine spray and a fire hose kind of effect , but when switching between pattern it pass mostly through various stream of concentrated water that dench anything in its way ."
    }
}