{
    "b368852548251324a196a5cc250f525b": {
        "(12, 8)": {
            "AM2L": [
                8162
            ], 
            "AM2F": [
                8587
            ], 
            "WBF": [
                8812
            ], 
            "BM1F": [
                8034
            ], 
            "M1": [
                1785
            ], 
            "irrelevant_Adj": [
                0
            ], 
            "M2": [
                1781
            ], 
            "BM1L": [
                8887
            ], 
            "WBO": [
                8991
            ], 
            "WBL": [
                688
            ], 
            "irrelevant_Noun": [
                0
            ], 
            "M1_ADJ": [
                0
            ]
        }, 
        "location1": [
            12
        ], 
        "location2": [
            8
        ], 
        "sentence": "with the retaining loop they stay with the connector when you are connected vehicle to trailer ."
    }
}