{
    "7dc8a85ef5b3920cd42c4afd3838307c": {
        "(12, 5)": {
            "AM2L": [
                5232
            ], 
            "AM2F": [
                3338
            ], 
            "WBF": [
                8887
            ], 
            "BM1F": [
                171
            ], 
            "M1": [
                5062
            ], 
            "irrelevant_Adj": [
                0
            ], 
            "M2": [
                1781
            ], 
            "BM1L": [
                3252
            ], 
            "WBO": [
                8073, 
                5325, 
                4501
            ], 
            "WBL": [
                8874
            ], 
            "irrelevant_Noun": [
                0
            ], 
            "M1_ADJ": [
                0
            ]
        }, 
        "location1": [
            12
        ], 
        "location2": [
            5
        ], 
        "sentence": "running the truck for 30-45 minute with this nice large gauge wire connected from my battery tot he trailer battery will give me a bit of a charge if ever in a pinch and i have no shore power , solar , or generator to recharge ."
    }
}