{
    "b368852548251324a196a5cc250f525b": {
        "(12, 13)": {
            "AM2L": [
                8250
            ], 
            "BM1F": [
                688
            ], 
            "M1": [
                1781
            ], 
            "irrelevant_Adj": [
                0
            ], 
            "M2": [
                8587
            ], 
            "BM1L": [
                8991
            ], 
            "WBNULL": [
                1
            ], 
            "irrelevant_Noun": [
                0
            ], 
            "AM2F": [
                8162
            ], 
            "M1_ADJ": [
                1
            ]
        }, 
        "location1": [
            12
        ], 
        "location2": [
            13
        ], 
        "sentence": "with the retaining loop they stay with the connector when you are connected vehicle to trailer ."
    }
}