{
    "b368852548251324a196a5cc250f525b": {
        "(12, 15)": {
            "WBF": [
                8587
            ], 
            "BM1F": [
                688
            ], 
            "M1": [
                1781
            ], 
            "irrelevant_Adj": [
                0
            ], 
            "M2": [
                8250
            ], 
            "BM1L": [
                8991
            ], 
            "WBO": [
                8162
            ], 
            "WBL": [
                8162
            ], 
            "irrelevant_Noun": [
                0
            ], 
            "M1_ADJ": [
                1
            ]
        }, 
        "location1": [
            12
        ], 
        "location2": [
            15
        ], 
        "sentence": "with the retaining loop they stay with the connector when you are connected vehicle to trailer ."
    }, 
    "7dc8a85ef5b3920cd42c4afd3838307c": {
        "(12, 18)": {
            "AM2L": [
                8851
            ], 
            "AM2F": [
                921
            ], 
            "WBF": [
                3338
            ], 
            "BM1F": [
                8874
            ], 
            "M1": [
                1781
            ], 
            "irrelevant_Adj": [
                0
            ], 
            "M2": [
                8250
            ], 
            "BM1L": [
                3426
            ], 
            "WBO": [
                5232, 
                921
            ], 
            "WBL": [
                3729
            ], 
            "irrelevant_Noun": [
                0
            ], 
            "M1_ADJ": [
                1
            ]
        }, 
        "location1": [
            12
        ], 
        "location2": [
            18
        ], 
        "sentence": "running the truck for 30-45 minute with this nice large gauge wire connected from my battery tot he trailer battery will give me a bit of a charge if ever in a pinch and i have no shore power , solar , or generator to recharge ."
    }
}