{
    "7dc8a85ef5b3920cd42c4afd3838307c": {
        "location1": [
            12
        ], 
        "location2": [
            16
        ], 
        "(12, 16)": {
            "AM2L": [
                8250
            ], 
            "AM2F": [
                3729
            ], 
            "WBF": [
                3338
            ], 
            "BM1F": [
                8874
            ], 
            "M1": [
                1781
            ], 
            "irrelevant_Adj": [
                0
            ], 
            "M2": [
                8211
            ], 
            "BM1L": [
                3426
            ], 
            "WBO": [
                5232
            ], 
            "WBL": [
                921
            ], 
            "irrelevant_Noun": [
                0
            ], 
            "M1_ADJ": [
                1
            ]
        }, 
        "sentence": "running the truck for 30-45 minute with this nice large gauge wire connected from my battery tot he trailer battery will give me a bit of a charge if ever in a pinch and i have no shore power , solar , or generator to recharge ."
    }
}