{
    "fa6b363f7b06f223b3512916557fe352": {
        "(2, 3)": {
            "AM2L": [
                8162
            ], 
            "BM1F": [
                5322
            ], 
            "M1": [
                1849
            ], 
            "irrelevant_Adj": [
                0
            ], 
            "M2": [
                8065
            ], 
            "BM1L": [
                8034
            ], 
            "WBNULL": [
                1
            ], 
            "irrelevant_Noun": [
                1
            ], 
            "AM2F": [
                4268
            ], 
            "M1_ADJ": [
                1
            ]
        }, 
        "location1": [
            2
        ], 
        "location2": [
            3
        ], 
        "sentence": "the next convenient thing is to find a good retractable power cord that can either be installed in the car with the on-board charger , or to the outlet for which the charger will be tapping power from ."
    }
}