{
    "283037cc90c836653f9cb2960258aa60": {
        "location1": [
            10
        ], 
        "location2": [
            23
        ], 
        "(10, 23)": {
            "WBF": [
                5033
            ], 
            "BM1F": [
                310
            ], 
            "M1": [
                1967
            ], 
            "irrelevant_Adj": [
                0
            ], 
            "M2": [
                3460
            ], 
            "BM1L": [
                8028
            ], 
            "WBO": [
                6335, 
                8991, 
                959, 
                8991, 
                1323, 
                3459, 
                310, 
                4367, 
                599
            ], 
            "WBL": [
                8997
            ], 
            "irrelevant_Noun": [
                0
            ], 
            "M1_ADJ": [
                1
            ]
        }, 
        "sentence": "worse , having no cable or less-than-worthless cable mean that a criminal might reach you before you can get a jump and make your getaway ."
    }
}