{
    "6717d7b303524d0ea025e86c6898388d": {
        "(1, 19)": {
            "WBF": [
                892
            ], 
            "BM1F": [
                8034
            ], 
            "M1": [
                1982
            ], 
            "irrelevant_Adj": [
                0
            ], 
            "M2": [
                8320
            ], 
            "WBO": [
                720, 
                5204, 
                3856, 
                7362, 
                3962, 
                1899, 
                434, 
                4283, 
                3252, 
                8034, 
                3771, 
                5458, 
                8034, 
                951
            ], 
            "WBL": [
                5232
            ], 
            "irrelevant_Noun": [
                0
            ], 
            "M1_ADJ": [
                1
            ]
        }, 
        "location1": [
            1
        ], 
        "location2": [
            19
        ], 
        "sentence": "the cross bar as multiple hole so i could adjust it for the height of the bed of my truck ."
    }
}