{
    "944e4b1e6b65890d673649f471d7a058": {
        "(12, 8)": {
            "AM2L": [
                4509
            ], 
            "AM2F": [
                8310
            ], 
            "WBF": [
                8718
            ], 
            "BM1F": [
                8534
            ], 
            "M1": [
                6274
            ], 
            "irrelevant_Adj": [
                0
            ], 
            "M2": [
                1983
            ], 
            "BM1L": [
                3962
            ], 
            "WBO": [
                5495
            ], 
            "WBL": [
                310
            ], 
            "irrelevant_Noun": [
                0
            ], 
            "M1_ADJ": [
                0
            ]
        }, 
        "location1": [
            12
        ], 
        "location2": [
            8
        ], 
        "sentence": "the first time it rained after i used rainx was on a cross-country trip last week , and amazingly it almost completely eliminated the need to use windshield wipe even during downpour ."
    }
}