{
    "2f1c153afc9490c49135269df645e87c": {
        "(9, 8)": {
            "AM2L": [
                3205
            ], 
            "BM1F": [
                3252
            ], 
            "M1": [
                2094
            ], 
            "irrelevant_Adj": [
                0
            ], 
            "M2": [
                2018
            ], 
            "BM1L": [
                5547
            ], 
            "WBNULL": [
                1
            ], 
            "irrelevant_Noun": [
                0
            ], 
            "AM2F": [
                8162
            ], 
            "M1_ADJ": [
                0
            ]
        }, 
        "location1": [
            9
        ], 
        "location2": [
            8
        ], 
        "sentence": "now , according to electrical theory in order for dc current to flow across long distance , you need thicker cable ."
    }
}