{
    "00969ee64f10657540e07e831ef2e7b5": {
        "(3, 11)": {
            "AM2L": [
                6232
            ], 
            "AM2F": [
                7826
            ], 
            "WBF": [
                5325
            ], 
            "BM1F": [
                310
            ], 
            "M1": [
                2055
            ], 
            "irrelevant_Adj": [
                0
            ], 
            "M2": [
                1358
            ], 
            "BM1L": [
                2445
            ], 
            "WBO": [
                4344, 
                5458, 
                2581, 
                527
            ], 
            "WBL": [
                8034
            ], 
            "irrelevant_Noun": [
                0
            ], 
            "M1_ADJ": [
                1
            ]
        }, 
        "location1": [
            3
        ], 
        "location2": [
            11
        ], 
        "sentence": "this does a damn nice job of dusting all of the car surface quickly and easily ."
    }, 
    "d6859c7f270d77daa8311d55315ce17e": {
        "(8, 12)": {
            "AM2L": [
                310
            ], 
            "AM2F": [
                2497
            ], 
            "WBF": [
                8300
            ], 
            "BM1F": [
                310
            ], 
            "M1": [
                2055
            ], 
            "irrelevant_Adj": [
                0
            ], 
            "M2": [
                1358
            ], 
            "BM1L": [
                3717
            ], 
            "WBO": [
                720
            ], 
            "WBL": [
                8073
            ], 
            "irrelevant_Noun": [
                0
            ], 
            "M1_ADJ": [
                1
            ]
        }, 
        "location1": [
            8
        ], 
        "location2": [
            12
        ], 
        "sentence": "i am also convinced that ford have a damn trickle as this car drain a battery faster than anything else i have seen [ maybe not as fast as a snooty bmw ] ."
    }
}