{
    "a1fe39e7b44d7ea88560fe6e96d17d85": {
        "location1": [
            4
        ], 
        "location2": [
            13
        ], 
        "(4, 13)": {
            "AM2L": [
                5232
            ], 
            "AM2F": [
                5458
            ], 
            "WBF": [
                1445
            ], 
            "BM1F": [
                310
            ], 
            "M1": [
                2057
            ], 
            "irrelevant_Adj": [
                0
            ], 
            "M2": [
                6951
            ], 
            "BM1L": [
                8531
            ], 
            "WBO": [
                8162, 
                8870, 
                2481, 
                8034, 
                4197
            ], 
            "WBL": [
                599
            ], 
            "irrelevant_Noun": [
                0
            ], 
            "M1_ADJ": [
                1
            ]
        }, 
        "sentence": "i also use a damp chamois to wipe down the interior dash and seat of my vehicle , which work very well ."
    }
}