{
    "dcb73d356972335389fc1b1fd59d23c0": {
        "(42, 34)": {
            "AM2L": [
                4625
            ], 
            "AM2F": [
                4376
            ], 
            "WBF": [
                4283
            ], 
            "BM1F": [
                8034
            ], 
            "M1": [
                2546
            ], 
            "irrelevant_Adj": [
                0
            ], 
            "M2": [
                2057
            ], 
            "BM1L": [
                4043
            ], 
            "WBO": [
                1668, 
                5574, 
                5458, 
                8034
            ], 
            "WBL": [
                7272
            ], 
            "irrelevant_Noun": [
                0
            ], 
            "M1_ADJ": [
                0
            ]
        }, 
        "location1": [
            42
        ], 
        "location2": [
            34
        ], 
        "sentence": "when it gets a little dirty , soak it in a little soap and water and wring it out or throw it in the washer ( just make sure you do n't put it in the dryer , it comes out of the washer slightly damp , just like it should be stored ) ."
    }
}