{
    "ff76764bb06a21694d65afc770177cd7": {
        "(3, 21)": {
            "AM2F": [
                8905
            ], 
            "WBF": [
                3578
            ], 
            "BM1F": [
                310
            ], 
            "M1": [
                2072
            ], 
            "irrelevant_Adj": [
                0
            ], 
            "M2": [
                8736
            ], 
            "BM1L": [
                3717
            ], 
            "WBO": [
                1651, 
                4197, 
                8028, 
                4268, 
                5716, 
                599, 
                546, 
                3066, 
                7634, 
                8162, 
                8034, 
                8216, 
                3252, 
                4483
            ], 
            "WBL": [
                310
            ], 
            "irrelevant_Noun": [
                0
            ], 
            "M1_ADJ": [
                1
            ]
        }, 
        "location1": [
            3
        ], 
        "location2": [
            21
        ], 
        "sentence": "i have a dark grey/charcoal colored interior that is patterned and almost feel ' sticky ' to the touch for lack of a water word ."
    }
}