{
    "186cb0691d97115ca6ca00c3a8db6083": {
        "(7, 17)": {
            "AM2L": [
                3719
            ], 
            "AM2F": [
                8889
            ], 
            "WBF": [
                921
            ], 
            "BM1F": [
                310
            ], 
            "M1": [
                2099
            ], 
            "irrelevant_Adj": [
                0
            ], 
            "M2": [
                1286
            ], 
            "BM1L": [
                8671
            ], 
            "WBO": [
                1323, 
                6181, 
                4043, 
                1598, 
                2767, 
                8162
            ], 
            "WBL": [
                8034
            ], 
            "irrelevant_Noun": [
                0
            ], 
            "M1_ADJ": [
                1
            ]
        }, 
        "location1": [
            7
        ], 
        "location2": [
            17
        ], 
        "sentence": "the `` booster car `` ( the car w/o a dead battery ) can pull in close enough to use the cable without having to manuver into some akward position ."
    }
}