{
    "3b0deb9b4c5146413d684c8eb56c2377": {
        "(19, 12)": {
            "AM2L": [
                5284
            ], 
            "AM2F": [
                8991
            ], 
            "WBF": [
                4737
            ], 
            "BM1F": [
                7405
            ], 
            "M1": [
                5683
            ], 
            "irrelevant_Adj": [
                0
            ], 
            "M2": [
                2099
            ], 
            "BM1L": [
                4043
            ], 
            "WBO": [
                7413, 
                599, 
                8997
            ], 
            "WBL": [
                4268
            ], 
            "irrelevant_Noun": [
                0
            ], 
            "M1_ADJ": [
                0
            ]
        }, 
        "location1": [
            19
        ], 
        "location2": [
            12
        ], 
        "sentence": "when you 're in a bind on some dark night in some parking lot somewhere and your battery is dead , you need to get out of there pronto ."
    }
}