{
    "ef5997e3a79ad066e8fba4b2293b7a45": {
        "(12, 18)": {
            "AM2L": [
                599
            ], 
            "AM2F": [
                5001
            ], 
            "WBF": [
                1358
            ], 
            "BM1F": [
                8034
            ], 
            "M1": [
                2099
            ], 
            "irrelevant_Adj": [
                0
            ], 
            "M2": [
                7409
            ], 
            "BM1L": [
                8162
            ], 
            "WBO": [
                5495, 
                310
            ], 
            "WBL": [
                3599
            ], 
            "irrelevant_Noun": [
                0
            ], 
            "M1_ADJ": [
                1
            ]
        }, 
        "location1": [
            12
        ], 
        "location2": [
            18
        ], 
        "sentence": "make sure the last connection make is the neg clamp to the `` dead `` car on a frame ground ( something metal and not moving or going to move in the engine compartment . )"
    }
}