{
    "56613a32e85583238edbaddeb1ab649f": {
        "location1": [
            26
        ], 
        "location2": [
            31
        ], 
        "(26, 31)": {
            "WBF": [
                8162
            ], 
            "BM1F": [
                7433
            ], 
            "M1": [
                2103
            ], 
            "irrelevant_Adj": [
                0
            ], 
            "M2": [
                2454
            ], 
            "BM1L": [
                3252
            ], 
            "WBO": [
                6851
            ], 
            "WBL": [
                3085
            ], 
            "irrelevant_Noun": [
                0
            ], 
            "M1_ADJ": [
                1
            ]
        }, 
        "sentence": "there is no way i would take my truck that ive put so much time and money in , and line it with roofing tar for sound deadening to save a few dollar ."
    }
}