{
    "9722f1c862c397fb5190578c0a914d03": {
        "(4, 10)": {
            "WBF": [
                921
            ], 
            "BM1F": [
                310
            ], 
            "M1": [
                2099
            ], 
            "irrelevant_Adj": [
                0
            ], 
            "M2": [
                5979
            ], 
            "BM1L": [
                2847
            ], 
            "WBO": [
                8851, 
                6209
            ], 
            "WBL": [
                7405
            ], 
            "irrelevant_Noun": [
                0
            ], 
            "M1_ADJ": [
                1
            ]
        }, 
        "location1": [
            4
        ], 
        "location2": [
            10
        ], 
        "sentence": "that said even a `` dead `` battery will put out some power ."
    }
}