{
    "24814860c1a21af16d43888e4e89b866": {
        "(4, 22)": {
            "AM2L": [
                2176
            ], 
            "AM2F": [
                5543
            ], 
            "WBF": [
                4344
            ], 
            "BM1F": [
                310
            ], 
            "M1": [
                2125
            ], 
            "irrelevant_Adj": [
                0
            ], 
            "M2": [
                5860
            ], 
            "BM1L": [
                2445
            ], 
            "WBO": [
                5458, 
                2320, 
                8736, 
                3205, 
                6102, 
                310, 
                5325, 
                3450, 
                3208, 
                3296, 
                5458, 
                8736, 
                7780, 
                3252
            ], 
            "WBL": [
                5969
            ], 
            "irrelevant_Noun": [
                0
            ], 
            "M1_ADJ": [
                1
            ]
        }, 
        "location1": [
            4
        ], 
        "location2": [
            22
        ], 
        "sentence": "the nozzle does a decent job of diffusing water flow , producing a nice gentle flowing fountain of water suitable for watering potted plant or delicate flower ."
    }
}