{
    "1a0a2f2c38a1611ea8ff69c50c4c03d7": {
        "(19, 28)": {
            "AM2L": [
                8162
            ], 
            "AM2F": [
                5459
            ], 
            "WBF": [
                583
            ], 
            "BM1F": [
                310
            ], 
            "M1": [
                2125
            ], 
            "irrelevant_Adj": [
                0
            ], 
            "M2": [
                8750
            ], 
            "BM1L": [
                4268
            ], 
            "WBO": [
                5458, 
                3329, 
                4247, 
                4043, 
                8354
            ], 
            "WBL": [
                8034
            ], 
            "irrelevant_Noun": [
                1
            ], 
            "M1_ADJ": [
                1
            ]
        }, 
        "location1": [
            19
        ], 
        "location2": [
            28, 
            33
        ], 
        "(19, 33)": {
            "AM2L": [
                7362
            ], 
            "AM2F": [
                5495
            ], 
            "WBF": [
                583
            ], 
            "BM1F": [
                310
            ], 
            "M1": [
                2125
            ], 
            "irrelevant_Adj": [
                0
            ], 
            "M2": [
                8750
            ], 
            "BM1L": [
                4268
            ], 
            "WBO": [
                5458, 
                3329, 
                4247, 
                4043, 
                8354, 
                527, 
                8034, 
                8750, 
                5459, 
                8162
            ], 
            "WBL": [
                8034
            ], 
            "irrelevant_Noun": [
                1
            ], 
            "M1_ADJ": [
                1
            ]
        }, 
        "sentence": "the only drawback i find is that for those who turn it on and off frequently , there is a decent amount of friction involved in turning all the way off to all the way on , so it 's not as quick to use as a trigger shot ."
    }
}