{
    "fa8f63f7ecc50796fd91a0680e3dae42": {
        "(8, 20)": {
            "AM2L": [
                4283
            ], 
            "AM2F": [
                599
            ], 
            "WBF": [
                4671
            ], 
            "BM1F": [
                310
            ], 
            "M1": [
                2125
            ], 
            "irrelevant_Adj": [
                0
            ], 
            "M2": [
                4954
            ], 
            "BM1L": [
                599
            ], 
            "WBO": [
                6757, 
                1339, 
                8162, 
                4401, 
                8034, 
                3591, 
                5574, 
                5458
            ], 
            "WBL": [
                4694
            ], 
            "irrelevant_Noun": [
                0
            ], 
            "M1_ADJ": [
                1
            ]
        }, 
        "location1": [
            8
        ], 
        "location2": [
            20
        ], 
        "sentence": "there 's a little anodized flare , and a decent little rubber cap to keep the grit out of the lock mechanism and it 's stainless steel to boot !"
    }
}