{
    "24814860c1a21af16d43888e4e89b866": {
        "(24, 8)": {
            "AM2F": [
                3207
            ], 
            "WBF": [
                3205
            ], 
            "BM1F": [
                2320
            ], 
            "M1": [
                8736
            ], 
            "irrelevant_Adj": [
                0
            ], 
            "M2": [
                2176
            ], 
            "BM1L": [
                5458
            ], 
            "WBO": [
                6102, 
                310, 
                5325, 
                3450, 
                3208, 
                3296, 
                5458, 
                8736, 
                7780, 
                3252, 
                8739, 
                5969
            ], 
            "WBL": [
                5543
            ], 
            "irrelevant_Noun": [
                0
            ], 
            "M1_ADJ": [
                0
            ]
        }, 
        "location1": [
            24
        ], 
        "location2": [
            8, 
            17
        ], 
        "(24, 17)": {
            "AM2F": [
                3207
            ], 
            "WBF": [
                7780
            ], 
            "BM1F": [
                5458
            ], 
            "M1": [
                8736
            ], 
            "irrelevant_Adj": [
                0
            ], 
            "M2": [
                2176
            ], 
            "BM1L": [
                3296
            ], 
            "WBO": [
                3252, 
                8739, 
                5969
            ], 
            "WBL": [
                5543
            ], 
            "irrelevant_Noun": [
                0
            ], 
            "M1_ADJ": [
                0
            ]
        }, 
        "sentence": "the nozzle does a decent job of diffusing water flow , producing a nice gentle flowing fountain of water suitable for watering potted plant or delicate flower ."
    }
}