{
    "6a7a1f2dd4aa0f37ec1fb2384eebf823": {
        "(9, 10)": {
            "BM1F": [
                6219
            ], 
            "M1": [
                2296
            ], 
            "irrelevant_Adj": [
                0
            ], 
            "M2": [
                2812
            ], 
            "BM1L": [
                4833
            ], 
            "WBNULL": [
                1
            ], 
            "irrelevant_Noun": [
                0
            ], 
            "M1_ADJ": [
                1
            ]
        }, 
        "location1": [
            9
        ], 
        "location2": [
            10
        ], 
        "sentence": "actron seems to be a company that makeshigh quality diagnostic equipment ."
    }
}