{
    "4dc353f3afd80c2d53d2568931b56bec": {
        "location1": [
            17
        ], 
        "location2": [
            8
        ], 
        "(17, 8)": {
            "AM2F": [
                4796
            ], 
            "WBF": [
                599
            ], 
            "BM1F": [
                8034
            ], 
            "M1": [
                4950
            ], 
            "irrelevant_Adj": [
                0
            ], 
            "M2": [
                2296
            ], 
            "BM1L": [
                8162
            ], 
            "WBO": [
                8057, 
                8931, 
                3880, 
                4283, 
                8501
            ], 
            "WBL": [
                8040
            ], 
            "irrelevant_Noun": [
                0
            ], 
            "M1_ADJ": [
                0
            ]
        }, 
        "sentence": "i used to take my car to the mechanic and they would hook it up to their diagnostic machine ."
    }
}