{
    "30703b1c7be7050aa1917659c8a04921": {
        "(4, 2)": {
            "AM2L": [
                8893
            ], 
            "WBFL": [
                3252
            ], 
            "BM1F": [
                879
            ], 
            "M1": [
                3841
            ], 
            "irrelevant_Adj": [
                1
            ], 
            "M2": [
                2313
            ], 
            "BM1L": [
                7499
            ], 
            "AM2F": [
                7230
            ], 
            "irrelevant_Noun": [
                0
            ], 
            "M1_ADJ": [
                0
            ]
        }, 
        "sentence": "spinning ball hitch for different size wo n't work in my case because the adjustable hitch height is a solid piece specific to the entire hitch .", 
        "location2": [
            2, 
            15, 
            25
        ], 
        "location1": [
            4
        ], 
        "(4, 15)": {
            "AM2L": [
                4268
            ], 
            "AM2F": [
                3771
            ], 
            "WBF": [
                7230
            ], 
            "BM1F": [
                3252
            ], 
            "M1": [
                2313
            ], 
            "irrelevant_Adj": [
                1
            ], 
            "M2": [
                3841
            ], 
            "BM1L": [
                3841
            ], 
            "WBO": [
                8893, 
                5245, 
                8907, 
                4043, 
                5232, 
                1389, 
                945
            ], 
            "WBL": [
                435
            ], 
            "irrelevant_Noun": [
                0
            ], 
            "M1_ADJ": [
                1
            ]
        }, 
        "(4, 25)": {
            "WBF": [
                7230
            ], 
            "BM1F": [
                3252
            ], 
            "M1": [
                2313
            ], 
            "irrelevant_Adj": [
                1
            ], 
            "M2": [
                3841
            ], 
            "BM1L": [
                3841
            ], 
            "WBO": [
                8893, 
                5245, 
                8907, 
                4043, 
                5232, 
                1389, 
                945, 
                8034, 
                435, 
                3841, 
                3771, 
                4268, 
                310, 
                7395, 
                5820, 
                7473, 
                8162
            ], 
            "WBL": [
                2787
            ], 
            "irrelevant_Noun": [
                0
            ], 
            "M1_ADJ": [
                1
            ]
        }
    }, 
    "39d5c7c2aa5f2e5fd164bb6f702413ad": {
        "(6, 13)": {
            "WBF": [
                8250
            ], 
            "BM1F": [
                104
            ], 
            "M1": [
                2313
            ], 
            "irrelevant_Adj": [
                1
            ], 
            "M2": [
                3841
            ], 
            "BM1L": [
                5232
            ], 
            "WBO": [
                3962, 
                2, 
                5284
            ], 
            "WBL": [
                2532
            ], 
            "irrelevant_Noun": [
                0
            ], 
            "M1_ADJ": [
                1
            ]
        }, 
        "location1": [
            6
        ], 
        "location2": [
            13
        ], 
        "sentence": "in order to tow my 2 different trailer i 'd need 2 drop hitch ."
    }, 
    "78d9e8210aede5a346e80847d7ec50ae": {
        "(3, 4)": {
            "AM2L": [
                8140
            ], 
            "BM1F": [
                161
            ], 
            "M1": [
                2313
            ], 
            "irrelevant_Adj": [
                1
            ], 
            "M2": [
                3841
            ], 
            "BM1L": [
                3719
            ], 
            "WBNULL": [
                1
            ], 
            "irrelevant_Noun": [
                0
            ], 
            "AM2F": [
                310
            ], 
            "M1_ADJ": [
                1
            ]
        }, 
        "location1": [
            3
        ], 
        "location2": [
            4
        ], 
        "sentence": "makes having 3 different hitch a time of your life you 'll look back at with shame ."
    }
}