{
    "39d5c7c2aa5f2e5fd164bb6f702413ad": {
        "(6, 1)": {
            "AM2L": [
                3962
            ], 
            "AM2F": [
                8250
            ], 
            "WBF": [
                8162
            ], 
            "BM1F": [
                4043
            ], 
            "M1": [
                5547
            ], 
            "irrelevant_Adj": [
                1
            ], 
            "M2": [
                2313
            ], 
            "WBO": [
                8223
            ], 
            "WBL": [
                104
            ], 
            "irrelevant_Noun": [
                0
            ], 
            "M1_ADJ": [
                0
            ]
        }, 
        "location1": [
            6
        ], 
        "location2": [
            1
        ], 
        "sentence": "in order to tow my 2 different trailer i 'd need 2 drop hitch ."
    }
}