{
    "7f3759df71e7a3ac04d822d6f63702c4": {
        "(5, 7)": {
            "WBFL": [
                2902
            ], 
            "BM1F": [
                310
            ], 
            "M1": [
                2313
            ], 
            "irrelevant_Adj": [
                1
            ], 
            "M2": [
                7888
            ], 
            "BM1L": [
                3717
            ], 
            "irrelevant_Noun": [
                0
            ], 
            "M1_ADJ": [
                1
            ]
        }, 
        "location1": [
            5
        ], 
        "location2": [
            7
        ], 
        "sentence": "great if you have a different exhaust system ! ! !"
    }
}