{
    "30703b1c7be7050aa1917659c8a04921": {
        "(4, 11)": {
            "AM2L": [
                8034
            ], 
            "AM2F": [
                945
            ], 
            "WBF": [
                7230
            ], 
            "BM1F": [
                3252
            ], 
            "M1": [
                2313
            ], 
            "irrelevant_Adj": [
                1
            ], 
            "M2": [
                1389
            ], 
            "BM1L": [
                3841
            ], 
            "WBO": [
                8893, 
                5245, 
                8907
            ], 
            "WBL": [
                5232
            ], 
            "irrelevant_Noun": [
                0
            ], 
            "M1_ADJ": [
                1
            ]
        }, 
        "location1": [
            4
        ], 
        "location2": [
            11
        ], 
        "sentence": "spinning ball hitch for different size wo n't work in my case because the adjustable hitch height is a solid piece specific to the entire hitch ."
    }
}