{
    "df2a1253d98a5f9fe06c54b79cf3d0f9": {
        "location1": [
            4
        ], 
        "location2": [
            26
        ], 
        "(4, 26)": {
            "WBF": [
                4431
            ], 
            "BM1F": [
                4873
            ], 
            "M1": [
                2313
            ], 
            "irrelevant_Adj": [
                1
            ], 
            "M2": [
                2239
            ], 
            "BM1L": [
                8534
            ], 
            "WBO": [
                4043, 
                2979, 
                5232, 
                4509, 
                6195, 
                3338, 
                574, 
                4059, 
                8073, 
                5503, 
                720, 
                8789, 
                720, 
                310, 
                3013, 
                5503, 
                8887, 
                310
            ], 
            "WBL": [
                5714
            ], 
            "irrelevant_Noun": [
                0
            ], 
            "M1_ADJ": [
                1
            ]
        }, 
        "sentence": "i have used many different kind , in fact my last purchase from amazon included this one as well as a fancy one with a waffle pattern design ."
    }
}