{
    "39bef860406faed9262cc4785dbf5b93": {
        "(20, 13)": {
            "AM2L": [
                8162
            ], 
            "AM2F": [
                5846
            ], 
            "WBF": [
                4268
            ], 
            "BM1F": [
                5483
            ], 
            "M1": [
                1339
            ], 
            "irrelevant_Adj": [
                0
            ], 
            "M2": [
                2317
            ], 
            "BM1L": [
                8034
            ], 
            "WBO": [
                5272, 
                8034, 
                1140
            ], 
            "WBL": [
                310
            ], 
            "irrelevant_Noun": [
                0
            ], 
            "M1_ADJ": [
                0
            ]
        }, 
        "location1": [
            20
        ], 
        "location2": [
            13
        ], 
        "sentence": "my biggest use is with power equipment like my riding lawnmower ; the oil cap is near the bottom and a difficult place to fill ."
    }
}