{
    "39d5c7c2aa5f2e5fd164bb6f702413ad": {
        "(6, 7)": {
            "AM2L": [
                2
            ], 
            "BM1F": [
                104
            ], 
            "M1": [
                2313
            ], 
            "irrelevant_Adj": [
                1
            ], 
            "M2": [
                8250
            ], 
            "BM1L": [
                5232
            ], 
            "WBNULL": [
                1
            ], 
            "irrelevant_Noun": [
                0
            ], 
            "AM2F": [
                3962
            ], 
            "M1_ADJ": [
                1
            ]
        }, 
        "location1": [
            6
        ], 
        "location2": [
            7
        ], 
        "sentence": "in order to tow my 2 different trailer i 'd need 2 drop hitch ."
    }
}