{
    "9186c28a3a592fb305b30f17556e9f96": {
        "location1": [
            28
        ], 
        "location2": [
            29
        ], 
        "(28, 29)": {
            "AM2L": [
                8034
            ], 
            "BM1F": [
                310
            ], 
            "M1": [
                2313
            ], 
            "irrelevant_Adj": [
                1
            ], 
            "M2": [
                2352
            ], 
            "BM1L": [
                4043
            ], 
            "WBNULL": [
                1
            ], 
            "irrelevant_Noun": [
                0
            ], 
            "AM2F": [
                760
            ], 
            "M1_ADJ": [
                1
            ]
        }, 
        "sentence": "secondly , none of the ' jet ' part of the adjustment creates a clean jet , there is always a fine mist or errant second or third jet spraying in a different direction at the same time ."
    }
}