{
    "78d9e8210aede5a346e80847d7ec50ae": {
        "location1": [
            3
        ], 
        "location2": [
            9
        ], 
        "(3, 9)": {
            "AM2L": [
                4
            ], 
            "AM2F": [
                8991
            ], 
            "WBF": [
                3841
            ], 
            "BM1F": [
                161
            ], 
            "M1": [
                2313
            ], 
            "irrelevant_Adj": [
                1
            ], 
            "M2": [
                4605
            ], 
            "BM1L": [
                3719
            ], 
            "WBO": [
                310, 
                8140
            ], 
            "WBL": [
                8997
            ], 
            "irrelevant_Noun": [
                0
            ], 
            "M1_ADJ": [
                1
            ]
        }, 
        "sentence": "makes having 3 different hitch a time of your life you 'll look back at with shame ."
    }
}