{
    "79afb225fb273bc33d79c9461a3a3930": {
        "location1": [
            6
        ], 
        "location2": [
            14
        ], 
        "(6, 14)": {
            "WBF": [
                1693
            ], 
            "BM1F": [
                310
            ], 
            "M1": [
                2313
            ], 
            "irrelevant_Adj": [
                1
            ], 
            "M2": [
                5862
            ], 
            "BM1L": [
                3338
            ], 
            "WBO": [
                8028, 
                1197, 
                945, 
                8034
            ], 
            "WBL": [
                8718
            ], 
            "irrelevant_Noun": [
                0
            ], 
            "M1_ADJ": [
                1
            ]
        }, 
        "sentence": "i had another one from a different company that broke because the handle was plastic ."
    }
}