{
    "e1342b08d42d94b4a957f21271731618": {
        "(4, 5)": {
            "AM2L": [
                8040
            ], 
            "BM1F": [
                8887
            ], 
            "M1": [
                2421
            ], 
            "irrelevant_Adj": [
                0
            ], 
            "M2": [
                8736
            ], 
            "BM1L": [
                4283
            ], 
            "WBNULL": [
                1
            ], 
            "irrelevant_Noun": [
                0
            ], 
            "AM2F": [
                599
            ], 
            "M1_ADJ": [
                1
            ]
        }, 
        "location1": [
            4
        ], 
        "location2": [
            5
        ], 
        "sentence": "i mix it with distilled water and their 2 in 1 glass cleaner ."
    }
}