{
    "b2eaff3033036ca79cbb08451f6f2b9a": {
        "(9, 8)": {
            "AM2L": [
                7405
            ], 
            "BM1F": [
                8034
            ], 
            "M1": [
                3220
            ], 
            "irrelevant_Adj": [
                0
            ], 
            "M2": [
                2475
            ], 
            "BM1L": [
                8887
            ], 
            "WBNULL": [
                1
            ], 
            "irrelevant_Noun": [
                0
            ], 
            "AM2F": [
                8058
            ], 
            "M1_ADJ": [
                0
            ]
        }, 
        "location1": [
            9
        ], 
        "location2": [
            8
        ], 
        "sentence": "after the dynamat , i backed it with the foam , double thick some place ."
    }
}