{
    "d063dc3096b662d6e0dbd0aaa544bfbf": {
        "(5, 6)": {
            "BM1F": [
                310
            ], 
            "M1": [
                2501
            ], 
            "irrelevant_Adj": [
                0
            ], 
            "M2": [
                2312
            ], 
            "BM1L": [
                5394
            ], 
            "WBNULL": [
                1
            ], 
            "irrelevant_Noun": [
                1
            ], 
            "M1_ADJ": [
                1
            ]
        }, 
        "location1": [
            5
        ], 
        "location2": [
            6
        ], 
        "sentence": "i did not notice a dramatic difference ."
    }
}