{
    "e9bb110d647b0929ac5731a4d9b71b86": {
        "(7, 4)": {
            "AM2L": [
                8034
            ], 
            "AM2F": [
                8162
            ], 
            "WBF": [
                720
            ], 
            "BM1F": [
                3459
            ], 
            "M1": [
                7409
            ], 
            "irrelevant_Adj": [
                0
            ], 
            "M2": [
                2545
            ], 
            "BM1L": [
                5245
            ], 
            "WBO": [
                4013
            ], 
            "WBL": [
                4013
            ], 
            "irrelevant_Noun": [
                0
            ], 
            "M1_ADJ": [
                0
            ]
        }, 
        "location1": [
            7
        ], 
        "location2": [
            4
        ], 
        "sentence": "it wo n't get something as immediately dry to the touch as a towel since it is slightly damp to start with , but evaporation quickly takes care of the rest ."
    }
}