{
    "7e65a8712def487be11f3cbf7438e325": {
        "location1": [
            50
        ], 
        "location2": [
            51
        ], 
        "(50, 51)": {
            "AM2L": [
                310
            ], 
            "BM1F": [
                8851
            ], 
            "M1": [
                2545
            ], 
            "irrelevant_Adj": [
                0
            ], 
            "M2": [
                7635
            ], 
            "BM1L": [
                4283
            ], 
            "WBNULL": [
                1
            ], 
            "irrelevant_Noun": [
                0
            ], 
            "AM2F": [
                720
            ], 
            "M1_ADJ": [
                1
            ]
        }, 
        "sentence": "- does not produce streak when drying car - spot free ! - i cut it to half and quarter size - makes it great for the kitchen top , sink and bathroom - work great for kitchen spill - available almost everywhere - cheaper than chamoiscons : - you have to store it moist in the canister or it will dry stiff as a cardboard ."
    }, 
    "3882305478b8ae1ee49d367ec74f8824": {
        "(18, 16)": {
            "WBFL": [
                8812
            ], 
            "BM1F": [
                8603
            ], 
            "M1": [
                7635
            ], 
            "irrelevant_Adj": [
                0
            ], 
            "M2": [
                2545
            ], 
            "BM1L": [
                3461
            ], 
            "irrelevant_Noun": [
                0
            ], 
            "M1_ADJ": [
                0
            ]
        }, 
        "location1": [
            18
        ], 
        "location2": [
            16
        ], 
        "sentence": "the absorber is pva , so it need to stay a little wet because it gets very stiff when dry ."
    }
}