{
    "8168cd2eab4ae563e185899d76d388bd": {
        "sentence": "so if i just hosed down the bike while cleaning and wanted to get on with the next step of polishing and relubing , this towel is a great way to dry the bike when it 's neither hot nor dry enough of a day for the bike to dry out on it 's own in a fair amount of time .", 
        "(48, 39)": {
            "AM2L": [
                5495
            ], 
            "AM2F": [
                5574
            ], 
            "WBF": [
                2767
            ], 
            "BM1F": [
                5379
            ], 
            "M1": [
                2545
            ], 
            "irrelevant_Adj": [
                0
            ], 
            "M2": [
                2545
            ], 
            "BM1L": [
                3911
            ], 
            "WBO": [
                5458, 
                310, 
                2087, 
                3252, 
                8034
            ], 
            "WBL": [
                8162
            ], 
            "irrelevant_Noun": [
                0
            ], 
            "M1_ADJ": [
                0
            ]
        }, 
        "location2": [
            30, 
            39, 
            48
        ], 
        "(48, 30)": {
            "AM2L": [
                5495
            ], 
            "AM2F": [
                5574
            ], 
            "WBF": [
                8034
            ], 
            "BM1F": [
                8162
            ], 
            "M1": [
                2545
            ], 
            "irrelevant_Adj": [
                0
            ], 
            "M2": [
                2545
            ], 
            "BM1L": [
                8750
            ], 
            "WBO": [
                1032, 
                8812, 
                4283, 
                8, 
                5296, 
                3911, 
                5379, 
                2545, 
                2767, 
                5458, 
                310, 
                2087, 
                3252, 
                8034
            ], 
            "WBL": [
                8162
            ], 
            "irrelevant_Noun": [
                0
            ], 
            "M1_ADJ": [
                0
            ]
        }, 
        "location1": [
            30, 
            39, 
            48
        ], 
        "(30, 48)": {
            "AM2L": [
                5495
            ], 
            "AM2F": [
                5574
            ], 
            "WBF": [
                8034
            ], 
            "BM1F": [
                8162
            ], 
            "M1": [
                2545
            ], 
            "irrelevant_Adj": [
                0
            ], 
            "M2": [
                2545
            ], 
            "BM1L": [
                8750
            ], 
            "WBO": [
                1032, 
                8812, 
                4283, 
                8, 
                5296, 
                3911, 
                5379, 
                2545, 
                2767, 
                5458, 
                310, 
                2087, 
                3252, 
                8034
            ], 
            "WBL": [
                8162
            ], 
            "irrelevant_Noun": [
                0
            ], 
            "M1_ADJ": [
                1
            ]
        }, 
        "(30, 39)": {
            "AM2L": [
                5458
            ], 
            "AM2F": [
                2767
            ], 
            "WBF": [
                8034
            ], 
            "BM1F": [
                8162
            ], 
            "M1": [
                2545
            ], 
            "irrelevant_Adj": [
                0
            ], 
            "M2": [
                2545
            ], 
            "BM1L": [
                8750
            ], 
            "WBO": [
                1032, 
                8812, 
                4283, 
                8, 
                5296
            ], 
            "WBL": [
                5379
            ], 
            "irrelevant_Noun": [
                0
            ], 
            "M1_ADJ": [
                1
            ]
        }, 
        "(39, 48)": {
            "AM2L": [
                5495
            ], 
            "AM2F": [
                5574
            ], 
            "WBF": [
                2767
            ], 
            "BM1F": [
                5379
            ], 
            "M1": [
                2545
            ], 
            "irrelevant_Adj": [
                0
            ], 
            "M2": [
                2545
            ], 
            "BM1L": [
                3911
            ], 
            "WBO": [
                5458, 
                310, 
                2087, 
                3252, 
                8034
            ], 
            "WBL": [
                8162
            ], 
            "irrelevant_Noun": [
                0
            ], 
            "M1_ADJ": [
                1
            ]
        }, 
        "(39, 30)": {
            "AM2L": [
                5458
            ], 
            "AM2F": [
                2767
            ], 
            "WBF": [
                8034
            ], 
            "BM1F": [
                8162
            ], 
            "M1": [
                2545
            ], 
            "irrelevant_Adj": [
                0
            ], 
            "M2": [
                2545
            ], 
            "BM1L": [
                8750
            ], 
            "WBO": [
                1032, 
                8812, 
                4283, 
                8, 
                5296
            ], 
            "WBL": [
                5379
            ], 
            "irrelevant_Noun": [
                0
            ], 
            "M1_ADJ": [
                0
            ]
        }
    }, 
    "b26038c5e299d8e55bd6865b31a2f135": {
        "(13, 16)": {
            "AM2L": [
                599
            ], 
            "AM2F": [
                7688
            ], 
            "WBF": [
                5232
            ], 
            "BM1F": [
                8053
            ], 
            "M1": [
                2545
            ], 
            "irrelevant_Adj": [
                0
            ], 
            "M2": [
                2545
            ], 
            "BM1L": [
                720
            ], 
            "WBO": [
                1358
            ], 
            "WBL": [
                1358
            ], 
            "irrelevant_Noun": [
                0
            ], 
            "M1_ADJ": [
                1
            ]
        }, 
        "location1": [
            13, 
            16
        ], 
        "location2": [
            13, 
            16
        ], 
        "(16, 13)": {
            "AM2L": [
                599
            ], 
            "AM2F": [
                7688
            ], 
            "WBF": [
                5232
            ], 
            "BM1F": [
                8053
            ], 
            "M1": [
                2545
            ], 
            "irrelevant_Adj": [
                0
            ], 
            "M2": [
                2545
            ], 
            "BM1L": [
                720
            ], 
            "WBO": [
                1358
            ], 
            "WBL": [
                1358
            ], 
            "irrelevant_Noun": [
                0
            ], 
            "M1_ADJ": [
                0
            ]
        }, 
        "sentence": "not sure what all the 1 star reviewer are doing wrong as these dry my car dry streak and spot free ."
    }, 
    "774660f6f72e116df3dff2b9a0b412c1": {
        "location1": [
            33, 
            51
        ], 
        "location2": [
            33, 
            51
        ], 
        "(33, 51)": {
            "AM2L": [
                5574
            ], 
            "AM2F": [
                4283
            ], 
            "WBF": [
                1262
            ], 
            "BM1F": [
                4283
            ], 
            "M1": [
                2545
            ], 
            "irrelevant_Adj": [
                0
            ], 
            "M2": [
                2545
            ], 
            "BM1L": [
                5502
            ], 
            "WBO": [
                3962, 
                4625, 
                8162, 
                4555, 
                8034, 
                8195, 
                5459, 
                5458, 
                8034, 
                8333, 
                8162, 
                540, 
                503, 
                4043
            ], 
            "WBL": [
                8162
            ], 
            "irrelevant_Noun": [
                0
            ], 
            "M1_ADJ": [
                1
            ]
        }, 
        "(51, 33)": {
            "AM2L": [
                5574
            ], 
            "AM2F": [
                4283
            ], 
            "WBF": [
                1262
            ], 
            "BM1F": [
                4283
            ], 
            "M1": [
                2545
            ], 
            "irrelevant_Adj": [
                0
            ], 
            "M2": [
                2545
            ], 
            "BM1L": [
                5502
            ], 
            "WBO": [
                3962, 
                4625, 
                8162, 
                4555, 
                8034, 
                8195, 
                5459, 
                5458, 
                8034, 
                8333, 
                8162, 
                540, 
                503, 
                4043
            ], 
            "WBL": [
                8162
            ], 
            "irrelevant_Noun": [
                0
            ], 
            "M1_ADJ": [
                0
            ]
        }, 
        "sentence": "yes it is true that you can put it right back into the tube wet ( well to get it back in the tube , you must , because you ca n't roll it once it dry ) , but i like to leave the top off of the tube to allow air in there to dry it out before i close it up and that musty gross smell comes back ."
    }, 
    "aecc66b14117f7c0f5253efeed425583": {
        "(19, 26)": {
            "AM2L": [
                5666
            ], 
            "AM2F": [
                8034
            ], 
            "WBF": [
                8044
            ], 
            "BM1F": [
                7554
            ], 
            "M1": [
                2545
            ], 
            "irrelevant_Adj": [
                0
            ], 
            "M2": [
                2545
            ], 
            "BM1L": [
                5666
            ], 
            "WBO": [
                310, 
                6954, 
                7871
            ], 
            "WBL": [
                1715
            ], 
            "irrelevant_Noun": [
                0
            ], 
            "M1_ADJ": [
                1
            ]
        }, 
        "location1": [
            19, 
            26
        ], 
        "location2": [
            19, 
            26
        ], 
        "(26, 19)": {
            "AM2L": [
                5666
            ], 
            "AM2F": [
                8034
            ], 
            "WBF": [
                8044
            ], 
            "BM1F": [
                7554
            ], 
            "M1": [
                2545
            ], 
            "irrelevant_Adj": [
                0
            ], 
            "M2": [
                2545
            ], 
            "BM1L": [
                5666
            ], 
            "WBO": [
                310, 
                6954, 
                7871
            ], 
            "WBL": [
                1715
            ], 
            "irrelevant_Noun": [
                0
            ], 
            "M1_ADJ": [
                0
            ]
        }, 
        "sentence": "i washed my minivan the other day ; and i 'd say it took one swipe on a panel , squeeze dry , then a second swipe to completely dry the panel ."
    }
}