{
    "7e65a8712def487be11f3cbf7438e325": {
        "(50, 54)": {
            "WBF": [
                7635
            ], 
            "BM1F": [
                8851
            ], 
            "M1": [
                2545
            ], 
            "irrelevant_Adj": [
                0
            ], 
            "M2": [
                1365
            ], 
            "BM1L": [
                4283
            ], 
            "WBO": [
                720
            ], 
            "WBL": [
                310
            ], 
            "irrelevant_Noun": [
                0
            ], 
            "M1_ADJ": [
                1
            ]
        }, 
        "location1": [
            50
        ], 
        "location2": [
            54
        ], 
        "sentence": "- does not produce streak when drying car - spot free ! - i cut it to half and quarter size - makes it great for the kitchen top , sink and bathroom - work great for kitchen spill - available almost everywhere - cheaper than chamoiscons : - you have to store it moist in the canister or it will dry stiff as a cardboard ."
    }
}