{
    "8168cd2eab4ae563e185899d76d388bd": {
        "(48, 43)": {
            "AM2L": [
                5495
            ], 
            "AM2F": [
                5574
            ], 
            "WBF": [
                3252
            ], 
            "BM1F": [
                310
            ], 
            "M1": [
                2087
            ], 
            "irrelevant_Adj": [
                0
            ], 
            "M2": [
                2545
            ], 
            "BM1L": [
                5458
            ], 
            "WBO": [
                8034
            ], 
            "WBL": [
                8162
            ], 
            "irrelevant_Noun": [
                1
            ], 
            "M1_ADJ": [
                0
            ]
        }, 
        "sentence": "so if i just hosed down the bike while cleaning and wanted to get on with the next step of polishing and relubing , this towel is a great way to dry the bike when it 's neither hot nor dry enough of a day for the bike to dry out on it 's own in a fair amount of time .", 
        "(39, 43)": {
            "AM2L": [
                8034
            ], 
            "AM2F": [
                3252
            ], 
            "WBF": [
                2767
            ], 
            "BM1F": [
                5379
            ], 
            "M1": [
                2545
            ], 
            "irrelevant_Adj": [
                0
            ], 
            "M2": [
                2087
            ], 
            "BM1L": [
                3911
            ], 
            "WBO": [
                5458
            ], 
            "WBL": [
                310
            ], 
            "irrelevant_Noun": [
                1
            ], 
            "M1_ADJ": [
                1
            ]
        }, 
        "location2": [
            43
        ], 
        "location1": [
            30, 
            39, 
            48
        ], 
        "(30, 43)": {
            "AM2L": [
                8034
            ], 
            "AM2F": [
                3252
            ], 
            "WBF": [
                8034
            ], 
            "BM1F": [
                8162
            ], 
            "M1": [
                2545
            ], 
            "irrelevant_Adj": [
                0
            ], 
            "M2": [
                2087
            ], 
            "BM1L": [
                8750
            ], 
            "WBO": [
                1032, 
                8812, 
                4283, 
                8, 
                5296, 
                3911, 
                5379, 
                2545, 
                2767
            ], 
            "WBL": [
                310
            ], 
            "irrelevant_Noun": [
                1
            ], 
            "M1_ADJ": [
                1
            ]
        }
    }, 
    "130a2f83fe59dd9e52238c7a115b3a82": {
        "(4, 7)": {
            "AM2L": [
                8368
            ], 
            "AM2F": [
                5543
            ], 
            "WBF": [
                5574
            ], 
            "BM1F": [
                4283
            ], 
            "M1": [
                2545
            ], 
            "irrelevant_Adj": [
                0
            ], 
            "M2": [
                2087
            ], 
            "BM1L": [
                4583
            ], 
            "WBO": [
                310
            ], 
            "WBL": [
                310
            ], 
            "irrelevant_Noun": [
                1
            ], 
            "M1_ADJ": [
                1
            ]
        }, 
        "location1": [
            4
        ], 
        "location2": [
            7
        ], 
        "sentence": "you must let it dry out a day or two before initial use ."
    }, 
    "aecc66b14117f7c0f5253efeed425583": {
        "(26, 6)": {
            "AM2L": [
                5666
            ], 
            "AM2F": [
                8034
            ], 
            "WBF": [
                599
            ], 
            "BM1F": [
                5566
            ], 
            "M1": [
                2087
            ], 
            "irrelevant_Adj": [
                0
            ], 
            "M2": [
                2545
            ], 
            "BM1L": [
                8034
            ], 
            "WBO": [
                3962, 
                2, 
                6857, 
                4283, 
                8189, 
                5503, 
                7871, 
                5495, 
                310, 
                5666, 
                7554, 
                2545, 
                8044, 
                310, 
                6954, 
                7871
            ], 
            "WBL": [
                1715
            ], 
            "irrelevant_Noun": [
                1
            ], 
            "M1_ADJ": [
                0
            ]
        }, 
        "(19, 6)": {
            "AM2L": [
                310
            ], 
            "AM2F": [
                8044
            ], 
            "WBF": [
                599
            ], 
            "BM1F": [
                5566
            ], 
            "M1": [
                2087
            ], 
            "irrelevant_Adj": [
                0
            ], 
            "M2": [
                2545
            ], 
            "BM1L": [
                8034
            ], 
            "WBO": [
                3962, 
                2, 
                6857, 
                4283, 
                8189, 
                5503, 
                7871, 
                5495, 
                310
            ], 
            "WBL": [
                7554
            ], 
            "irrelevant_Noun": [
                1
            ], 
            "M1_ADJ": [
                0
            ]
        }, 
        "location1": [
            19, 
            26
        ], 
        "location2": [
            6
        ], 
        "sentence": "i washed my minivan the other day ; and i 'd say it took one swipe on a panel , squeeze dry , then a second swipe to completely dry the panel ."
    }
}