{
    "774660f6f72e116df3dff2b9a0b412c1": {
        "(51, 47)": {
            "AM2L": [
                5574
            ], 
            "AM2F": [
                4283
            ], 
            "WBF": [
                4043
            ], 
            "BM1F": [
                540
            ], 
            "M1": [
                503
            ], 
            "irrelevant_Adj": [
                0
            ], 
            "M2": [
                2545
            ], 
            "BM1L": [
                8162
            ], 
            "WBO": [
                8049
            ], 
            "WBL": [
                8162
            ], 
            "irrelevant_Noun": [
                0
            ], 
            "M1_ADJ": [
                0
            ]
        }, 
        "location1": [
            33, 
            51
        ], 
        "location2": [
            47
        ], 
        "(33, 47)": {
            "AM2L": [
                8049
            ], 
            "AM2F": [
                4043
            ], 
            "WBF": [
                1262
            ], 
            "BM1F": [
                4283
            ], 
            "M1": [
                2545
            ], 
            "irrelevant_Adj": [
                0
            ], 
            "M2": [
                503
            ], 
            "BM1L": [
                5502
            ], 
            "WBO": [
                3962, 
                4625, 
                8162, 
                4555, 
                8034, 
                8195, 
                5459, 
                5458, 
                8034, 
                8333
            ], 
            "WBL": [
                540
            ], 
            "irrelevant_Noun": [
                0
            ], 
            "M1_ADJ": [
                1
            ]
        }, 
        "sentence": "yes it is true that you can put it right back into the tube wet ( well to get it back in the tube , you must , because you ca n't roll it once it dry ) , but i like to leave the top off of the tube to allow air in there to dry it out before i close it up and that musty gross smell comes back ."
    }, 
    "aec2d58c0b77e34cbddcbe6c7a412990": {
        "location1": [
            13
        ], 
        "location2": [
            12
        ], 
        "(13, 12)": {
            "BM1F": [
                8044
            ], 
            "M1": [
                503
            ], 
            "irrelevant_Adj": [
                0
            ], 
            "M2": [
                2545
            ], 
            "BM1L": [
                8626
            ], 
            "WBNULL": [
                1
            ], 
            "irrelevant_Noun": [
                0
            ], 
            "M1_ADJ": [
                0
            ]
        }, 
        "sentence": "i wash it on gentle cycle with a little distilled vinegar then air dry ."
    }
}