{
    "5bdd1d766ff3428ce587563aefdaa7e3": {
        "(21, 18)": {
            "WBF": [
                8493
            ], 
            "BM1F": [
                5543
            ], 
            "M1": [
                6915
            ], 
            "irrelevant_Adj": [
                0
            ], 
            "M2": [
                2545
            ], 
            "BM1L": [
                7875
            ], 
            "WBO": [
                4283
            ], 
            "WBL": [
                4283
            ], 
            "irrelevant_Noun": [
                0
            ], 
            "M1_ADJ": [
                0
            ]
        }, 
        "location1": [
            21
        ], 
        "location2": [
            18
        ], 
        "sentence": "and , if there is moisture on the car 's surface , it too will look like a swirl or scratch until it dry ."
    }, 
    "6f75b98e946f8bb7bc76f9ac7aab5982": {
        "(5, 14)": {
            "AM2F": [
                4283
            ], 
            "WBF": [
                6761
            ], 
            "BM1F": [
                720
            ], 
            "M1": [
                2545
            ], 
            "irrelevant_Adj": [
                0
            ], 
            "M2": [
                6915
            ], 
            "BM1L": [
                4376
            ], 
            "WBO": [
                310, 
                1358, 
                8, 
                3128, 
                8887
            ], 
            "WBL": [
                8851
            ], 
            "irrelevant_Noun": [
                0
            ], 
            "M1_ADJ": [
                1
            ]
        }, 
        "(5, 2)": {
            "AM2L": [
                310
            ], 
            "AM2F": [
                6761
            ], 
            "WBF": [
                4376
            ], 
            "BM1F": [
                8851
            ], 
            "M1": [
                6915
            ], 
            "irrelevant_Adj": [
                0
            ], 
            "M2": [
                2545
            ], 
            "BM1L": [
                4283
            ], 
            "WBO": [
                720
            ], 
            "WBL": [
                720
            ], 
            "irrelevant_Noun": [
                0
            ], 
            "M1_ADJ": [
                0
            ]
        }, 
        "location1": [
            5
        ], 
        "location2": [
            2, 
            14
        ], 
        "sentence": ", it will scratch , just as dry rubbing a car 's finish with anything will scratch it ."
    }, 
    "99171724dc6411ad36469d1598371af2": {
        "(21, 10)": {
            "AM2F": [
                5574
            ], 
            "WBF": [
                1262
            ], 
            "BM1F": [
                2580
            ], 
            "M1": [
                6915
            ], 
            "irrelevant_Adj": [
                0
            ], 
            "M2": [
                2545
            ], 
            "BM1L": [
                8034
            ], 
            "WBO": [
                7846, 
                4283, 
                4268, 
                945, 
                8057, 
                2304, 
                5245
            ], 
            "WBL": [
                4283
            ], 
            "irrelevant_Noun": [
                0
            ], 
            "M1_ADJ": [
                0
            ]
        }, 
        "location1": [
            21
        ], 
        "location2": [
            10
        ], 
        "sentence": "have read a couple of review that claim the duster scratch , but suspect it is because they did n't let it dry out ."
    }, 
    "1fd15875b581c48f787e97deeaa1ce23": {
        "(22, 15)": {
            "AM2L": [
                959
            ], 
            "AM2F": [
                5574
            ], 
            "WBF": [
                8034
            ], 
            "BM1F": [
                5387
            ], 
            "M1": [
                6915
            ], 
            "irrelevant_Adj": [
                0
            ], 
            "M2": [
                2545
            ], 
            "BM1L": [
                2445
            ], 
            "WBO": [
                3128, 
                599, 
                4283
            ], 
            "WBL": [
                8162
            ], 
            "irrelevant_Noun": [
                0
            ], 
            "M1_ADJ": [
                0
            ]
        }, 
        "location1": [
            22
        ], 
        "location2": [
            15
        ], 
        "sentence": "it has a waxy coating on the fiber ( all the more reason it does not scratch the finish ) and it has to dry out before initial use ."
    }
}