{
    "7e65a8712def487be11f3cbf7438e325": {
        "(50, 26)": {
            "AM2L": [
                720
            ], 
            "AM2F": [
                7635
            ], 
            "WBF": [
                8907
            ], 
            "BM1F": [
                599
            ], 
            "M1": [
                918
            ], 
            "irrelevant_Adj": [
                0
            ], 
            "M2": [
                2545
            ], 
            "BM1L": [
                7219
            ], 
            "WBO": [
                3564, 
                3252, 
                4440, 
                7494, 
                808, 
                546, 
                2860, 
                1473, 
                8024, 
                1447, 
                8991, 
                3717, 
                8162, 
                7663, 
                4283, 
                5116, 
                4043, 
                8034, 
                1331, 
                5543
            ], 
            "WBL": [
                8851
            ], 
            "irrelevant_Noun": [
                0
            ], 
            "M1_ADJ": [
                0
            ]
        }, 
        "location1": [
            50
        ], 
        "location2": [
            26
        ], 
        "sentence": "- does not produce streak when drying car - spot free ! - i cut it to half and quarter size - makes it great for the kitchen top , sink and bathroom - work great for kitchen spill - available almost everywhere - cheaper than chamoiscons : - you have to store it moist in the canister or it will dry stiff as a cardboard ."
    }
}