{
    "e0a88653d41615972ce2200c5df848dd": {
        "(18, 24)": {
            "WBF": [
                599
            ], 
            "BM1F": [
                1715
            ], 
            "M1": [
                2545
            ], 
            "irrelevant_Adj": [
                0
            ], 
            "M2": [
                8140
            ], 
            "BM1L": [
                1358
            ], 
            "WBO": [
                7688, 
                3312
            ], 
            "WBL": [
                5344
            ], 
            "irrelevant_Noun": [
                1
            ], 
            "M1_ADJ": [
                1
            ]
        }, 
        "location1": [
            18
        ], 
        "location2": [
            24
        ], 
        "sentence": "just trust me here ; get this and the meguiars drying towel and you 'll have your car completely dry and streak free in no time ."
    }, 
    "8168cd2eab4ae563e185899d76d388bd": {
        "sentence": "so if i just hosed down the bike while cleaning and wanted to get on with the next step of polishing and relubing , this towel is a great way to dry the bike when it 's neither hot nor dry enough of a day for the bike to dry out on it 's own in a fair amount of time .", 
        "location2": [
            59
        ], 
        "location1": [
            30, 
            39, 
            48
        ], 
        "(48, 59)": {
            "WBF": [
                5574
            ], 
            "BM1F": [
                8162
            ], 
            "M1": [
                2545
            ], 
            "irrelevant_Adj": [
                0
            ], 
            "M2": [
                8140
            ], 
            "BM1L": [
                1032
            ], 
            "WBO": [
                5495, 
                4283, 
                8, 
                5624, 
                4043, 
                310, 
                2990
            ], 
            "WBL": [
                5458
            ], 
            "irrelevant_Noun": [
                1
            ], 
            "M1_ADJ": [
                1
            ]
        }, 
        "(30, 59)": {
            "WBF": [
                8034
            ], 
            "BM1F": [
                8162
            ], 
            "M1": [
                2545
            ], 
            "irrelevant_Adj": [
                0
            ], 
            "M2": [
                8140
            ], 
            "BM1L": [
                8750
            ], 
            "WBO": [
                1032, 
                8812, 
                4283, 
                8, 
                5296, 
                3911, 
                5379, 
                2545, 
                2767, 
                5458, 
                310, 
                2087, 
                3252, 
                8034, 
                1032, 
                8162, 
                2545, 
                5574, 
                5495, 
                4283, 
                8, 
                5624, 
                4043, 
                310, 
                2990
            ], 
            "WBL": [
                5458
            ], 
            "irrelevant_Noun": [
                1
            ], 
            "M1_ADJ": [
                1
            ]
        }, 
        "(39, 59)": {
            "WBF": [
                2767
            ], 
            "BM1F": [
                5379
            ], 
            "M1": [
                2545
            ], 
            "irrelevant_Adj": [
                0
            ], 
            "M2": [
                8140
            ], 
            "BM1L": [
                3911
            ], 
            "WBO": [
                5458, 
                310, 
                2087, 
                3252, 
                8034, 
                1032, 
                8162, 
                2545, 
                5574, 
                5495, 
                4283, 
                8, 
                5624, 
                4043, 
                310, 
                2990
            ], 
            "WBL": [
                5458
            ], 
            "irrelevant_Noun": [
                1
            ], 
            "M1_ADJ": [
                1
            ]
        }
    }, 
    "2fd3f0bceb98ef087572134b5a49ff28": {
        "(22, 29)": {
            "AM2L": [
                760
            ], 
            "AM2F": [
                8162
            ], 
            "WBF": [
                720
            ], 
            "BM1F": [
                8162
            ], 
            "M1": [
                2545
            ], 
            "irrelevant_Adj": [
                0
            ], 
            "M2": [
                8140
            ], 
            "BM1L": [
                5574
            ], 
            "WBO": [
                8073, 
                8851, 
                2030
            ], 
            "WBL": [
                2547
            ], 
            "irrelevant_Noun": [
                1
            ], 
            "M1_ADJ": [
                1
            ]
        }, 
        "location1": [
            22
        ], 
        "location2": [
            29
        ], 
        "sentence": "if you wash a sweater for example , it 's best to roll it up in the absorber before laying it out to dry , as this will cut your drying time to at least half and make it less of a hazard that the sweater will get out of shape ."
    }, 
    "1634ecc9737304dbeed723386234c63e": {
        "(15, 4)": {
            "AM2L": [
                8073
            ], 
            "AM2F": [
                8887
            ], 
            "WBF": [
                760
            ], 
            "BM1F": [
                2547
            ], 
            "M1": [
                8140
            ], 
            "irrelevant_Adj": [
                0
            ], 
            "M2": [
                2545
            ], 
            "BM1L": [
                1358
            ], 
            "WBO": [
                4553, 
                4043, 
                3651, 
                4930, 
                5148, 
                5894, 
                8034
            ], 
            "WBL": [
                8162
            ], 
            "irrelevant_Noun": [
                1
            ], 
            "M1_ADJ": [
                0
            ]
        }, 
        "location1": [
            15
        ], 
        "location2": [
            4
        ], 
        "sentence": "it cut car drying time at least in half , maybe more , plus the effort to dry with this towel is less than with a standard towel or chamois ."
    }
}