{
    "f39a334c418a38b2d2abc3d8f7d6f3d5": {
        "(19, 4)": {
            "AM2L": [
                8542
            ], 
            "AM2F": [
                959
            ], 
            "WBF": [
                5495
            ], 
            "BM1F": [
                4268
            ], 
            "M1": [
                1751
            ], 
            "irrelevant_Adj": [
                0
            ], 
            "M2": [
                2545
            ], 
            "BM1L": [
                8049
            ], 
            "WBO": [
                8034, 
                1358, 
                4283, 
                6354, 
                6514, 
                8034, 
                2580, 
                4090, 
                7362, 
                4829, 
                7824
            ], 
            "WBL": [
                8
            ], 
            "irrelevant_Noun": [
                0
            ], 
            "M1_ADJ": [
                0
            ]
        }, 
        "location1": [
            19
        ], 
        "location2": [
            4
        ], 
        "sentence": "also , if there is condensation on the car it really render the duster ineffective so make sure it 's dry before using it ."
    }
}