{
    "aec2d58c0b77e34cbddcbe6c7a412990": {
        "location1": [
            13
        ], 
        "location2": [
            5
        ], 
        "(13, 5)": {
            "WBF": [
                8887
            ], 
            "BM1F": [
                3450
            ], 
            "M1": [
                2034
            ], 
            "irrelevant_Adj": [
                0
            ], 
            "M2": [
                2545
            ], 
            "BM1L": [
                5495
            ], 
            "WBO": [
                310, 
                4671, 
                2421, 
                8626
            ], 
            "WBL": [
                503
            ], 
            "irrelevant_Noun": [
                0
            ], 
            "M1_ADJ": [
                0
            ]
        }, 
        "sentence": "i wash it on gentle cycle with a little distilled vinegar then air dry ."
    }
}