{
    "1226cf3f907f40cd596df0f74dd1c65b": {
        "(5, 9)": {
            "AM2L": [
                8870
            ], 
            "AM2F": [
                599
            ], 
            "WBF": [
                8162
            ], 
            "BM1F": [
                4283
            ], 
            "M1": [
                2545
            ], 
            "irrelevant_Adj": [
                0
            ], 
            "M2": [
                3727
            ], 
            "BM1L": [
                4583
            ], 
            "WBO": [
                310
            ], 
            "WBL": [
                4616
            ], 
            "irrelevant_Noun": [
                0
            ], 
            "M1_ADJ": [
                1
            ]
        }, 
        "location1": [
            5
        ], 
        "location2": [
            9
        ], 
        "sentence": "follow the direction -- let it dry to a light haze and wipe it off with a microfiber or paper towel until the windshield is clear ."
    }
}