{
    "901a6751a13c90042555f1c0585c3b8e": {
        "(14, 20)": {
            "AM2L": [
                8034
            ], 
            "AM2F": [
                703
            ], 
            "WBF": [
                8112
            ], 
            "BM1F": [
                310
            ], 
            "M1": [
                2559
            ], 
            "irrelevant_Adj": [
                0
            ], 
            "M2": [
                6669
            ], 
            "BM1L": [
                8887
            ], 
            "WBO": [
                3338, 
                8028
            ], 
            "WBL": [
                6757
            ], 
            "irrelevant_Noun": [
                0
            ], 
            "M1_ADJ": [
                1
            ]
        }, 
        "location1": [
            14
        ], 
        "location2": [
            20
        ], 
        "sentence": "it 's heavy-duty enough to drop on the concrete , it just land with a dull thud from that thick rubber ring around the end , and year of abuse have n't affected it in the slightest ."
    }
}