{
    "901a6751a13c90042555f1c0585c3b8e": {
        "location1": [
            14
        ], 
        "location2": [
            34
        ], 
        "(14, 34)": {
            "WBF": [
                8112
            ], 
            "BM1F": [
                310
            ], 
            "M1": [
                2559
            ], 
            "irrelevant_Adj": [
                0
            ], 
            "M2": [
                7271
            ], 
            "BM1L": [
                8887
            ], 
            "WBO": [
                3338, 
                8028, 
                8058, 
                6757, 
                6669, 
                703, 
                8034, 
                2730, 
                599, 
                8979, 
                5458, 
                340, 
                3717, 
                5245, 
                467, 
                4283
            ], 
            "WBL": [
                8034
            ], 
            "irrelevant_Noun": [
                0
            ], 
            "M1_ADJ": [
                1
            ]
        }, 
        "sentence": "it 's heavy-duty enough to drop on the concrete , it just land with a dull thud from that thick rubber ring around the end , and year of abuse have n't affected it in the slightest ."
    }
}