{
    "422fb51a37c1c2429141b2168f955d15": {
        "location1": [
            4
        ], 
        "location2": [
            6
        ], 
        "(4, 6)": {
            "WBFL": [
                3688
            ], 
            "BM1F": [
                5458
            ], 
            "M1": [
                2572
            ], 
            "irrelevant_Adj": [
                0
            ], 
            "M2": [
                5862
            ], 
            "BM1L": [
                4800
            ], 
            "irrelevant_Noun": [
                0
            ], 
            "M1_ADJ": [
                1
            ]
        }, 
        "sentence": "very well made of durable hard plastic ."
    }
}