{
    "ccbe88b24e677a5f7468385624e3d2f8": {
        "location1": [
            1
        ], 
        "location2": [
            7
        ], 
        "(1, 7)": {
            "AM2L": [
                3962
            ], 
            "AM2F": [
                7362
            ], 
            "WBF": [
                8162
            ], 
            "BM1F": [
                8603
            ], 
            "M1": [
                2617
            ], 
            "irrelevant_Adj": [
                0
            ], 
            "M2": [
                1626
            ], 
            "WBO": [
                8531, 
                3427
            ], 
            "WBL": [
                8034
            ], 
            "irrelevant_Noun": [
                0
            ], 
            "M1_ADJ": [
                1
            ]
        }, 
        "sentence": "very easy to use , gave me the code so i could check what it was ."
    }
}