{
    "a4ce3f8ae1b7748063b6a4ff9e31e368": {
        "(1, 5)": {
            "AM2L": [
                8162
            ], 
            "AM2F": [
                4694
            ], 
            "WBF": [
                8162
            ], 
            "BM1F": [
                8603
            ], 
            "M1": [
                2617
            ], 
            "irrelevant_Adj": [
                0
            ], 
            "M2": [
                6111
            ], 
            "WBO": [
                8531
            ], 
            "WBL": [
                4752
            ], 
            "irrelevant_Noun": [
                0
            ], 
            "M1_ADJ": [
                1
            ]
        }, 
        "location1": [
            1
        ], 
        "location2": [
            5
        ], 
        "sentence": "very easy to use low profile lock to protect your trailer hitch attachment ."
    }
}