{
    "f4dd8df94c0975e8a6b9f3e5355f5950": {
        "(8, 14)": {
            "WBF": [
                8190
            ], 
            "BM1F": [
                591
            ], 
            "M1": [
                2617
            ], 
            "irrelevant_Adj": [
                0
            ], 
            "M2": [
                5164
            ], 
            "BM1L": [
                5467
            ], 
            "WBO": [
                3252, 
                8531
            ], 
            "WBL": [
                5232
            ], 
            "irrelevant_Noun": [
                0
            ], 
            "M1_ADJ": [
                1
            ]
        }, 
        "location1": [
            8
        ], 
        "location2": [
            14
        ], 
        "sentence": "it is a good length and offered an easy tool for use with my motorcycle ."
    }
}