{
    "f4d00b74ed8f69c1787cb54a6edb17a7": {
        "(0, 4)": {
            "WBF": [
                8162
            ], 
            "M1": [
                2617
            ], 
            "irrelevant_Adj": [
                0
            ], 
            "M2": [
                8907
            ], 
            "WBO": [
                740
            ], 
            "WBL": [
                599
            ], 
            "irrelevant_Noun": [
                0
            ], 
            "AM2F": [
                3564
            ], 
            "M1_ADJ": [
                1
            ]
        }, 
        "location1": [
            0
        ], 
        "location2": [
            4
        ], 
        "sentence": "easy to assemble and work great !"
    }, 
    "5547f20596e24842dc68d8c1671a8c3d": {
        "location1": [
            10
        ], 
        "location2": [
            18
        ], 
        "(10, 18)": {
            "AM2L": [
                2232
            ], 
            "AM2F": [
                720
            ], 
            "WBF": [
                8162
            ], 
            "BM1F": [
                8049
            ], 
            "M1": [
                2617
            ], 
            "irrelevant_Adj": [
                0
            ], 
            "M2": [
                8907
            ], 
            "BM1L": [
                527
            ], 
            "WBO": [
                4144, 
                7913, 
                4578, 
                8024
            ], 
            "WBL": [
                5062
            ], 
            "irrelevant_Noun": [
                0
            ], 
            "M1_ADJ": [
                1
            ]
        }, 
        "sentence": "package arrived a bit ragged but it was all there , easy to install , takes less than 5 minute , work as described ."
    }, 
    "3d1cc290aae50f479a03eb75dd520fca": {
        "location1": [
            2
        ], 
        "location2": [
            4
        ], 
        "(2, 4)": {
            "WBFL": [
                8162
            ], 
            "BM1F": [
                4268
            ], 
            "M1": [
                2617
            ], 
            "irrelevant_Adj": [
                0
            ], 
            "M2": [
                8907
            ], 
            "BM1L": [
                6103
            ], 
            "AM2F": [
                8887
            ], 
            "irrelevant_Noun": [
                0
            ], 
            "M1_ADJ": [
                1
            ]
        }, 
        "sentence": "product is easy to work with ."
    }, 
    "2e59377823eaec764dd4eea699fc0448": {
        "(1, 5)": {
            "AM2L": [
                8789
            ], 
            "AM2F": [
                6354
            ], 
            "WBF": [
                8162
            ], 
            "BM1F": [
                2992
            ], 
            "M1": [
                2617
            ], 
            "irrelevant_Adj": [
                0
            ], 
            "M2": [
                8907
            ], 
            "WBO": [
                671
            ], 
            "WBL": [
                599
            ], 
            "irrelevant_Noun": [
                0
            ], 
            "M1_ADJ": [
                1
            ]
        }, 
        "location1": [
            1
        ], 
        "location2": [
            5
        ], 
        "sentence": "fairly easy to apply and work really well ."
    }, 
    "32d8f68d750b78af828f5e8d086e2489": {
        "(0, 5)": {
            "WBF": [
                8162
            ], 
            "M1": [
                2617
            ], 
            "irrelevant_Adj": [
                0
            ], 
            "M2": [
                8907
            ], 
            "WBO": [
                8531
            ], 
            "WBL": [
                6252
            ], 
            "irrelevant_Noun": [
                0
            ], 
            "AM2F": [
                3518
            ], 
            "M1_ADJ": [
                1
            ]
        }, 
        "location1": [
            0
        ], 
        "location2": [
            5
        ], 
        "sentence": "easy to use and racheting work good ."
    }, 
    "7323f9f3dc0afd63f33fa074617b521f": {
        "location1": [
            2
        ], 
        "location2": [
            10
        ], 
        "(2, 10)": {
            "AM2L": [
                5344
            ], 
            "AM2F": [
                3564
            ], 
            "WBF": [
                8162
            ], 
            "BM1F": [
                4268
            ], 
            "M1": [
                2617
            ], 
            "irrelevant_Adj": [
                0
            ], 
            "M2": [
                8907
            ], 
            "BM1L": [
                8073
            ], 
            "WBO": [
                1564, 
                4376, 
                7072, 
                4283
            ], 
            "WBL": [
                599
            ], 
            "irrelevant_Noun": [
                0
            ], 
            "M1_ADJ": [
                1
            ]
        }, 
        "sentence": "this is easy to clean ( just shake it out ) and work great no matter how dirty it gets ."
    }, 
    "55c41a6cbb70fd89bddb6ee8c3b254a8": {
        "location1": [
            33
        ], 
        "location2": [
            35
        ], 
        "(33, 35)": {
            "AM2L": [
                8803
            ], 
            "WBFL": [
                8162
            ], 
            "BM1F": [
                8364
            ], 
            "M1": [
                2617
            ], 
            "irrelevant_Adj": [
                0
            ], 
            "M2": [
                8907
            ], 
            "BM1L": [
                7208
            ], 
            "AM2F": [
                8887
            ], 
            "irrelevant_Noun": [
                0
            ], 
            "M1_ADJ": [
                1
            ]
        }, 
        "sentence": "pro - very solid construction , either aluminum or steel - padded with thick rubber - look like fireman 's hose - smoothly fade from closed to soaker to rain to fan to jet with a simple twist - easy to work with wet handscons - nonenow i will tell you that the jet on this nozzle is one of the best i 've seen but i 'm not going to compare this to a pressure washer , i have one and nothing compare to a pressure washer , but the jet mode of this is pretty darn good ."
    }
}