{
    "f4dd8df94c0975e8a6b9f3e5355f5950": {
        "(8, 4)": {
            "AM2L": [
                3252
            ], 
            "AM2F": [
                8190
            ], 
            "WBF": [
                599
            ], 
            "BM1F": [
                3518
            ], 
            "M1": [
                4570
            ], 
            "irrelevant_Adj": [
                0
            ], 
            "M2": [
                2617
            ], 
            "BM1L": [
                310
            ], 
            "WBO": [
                5467
            ], 
            "WBL": [
                591
            ], 
            "irrelevant_Noun": [
                0
            ], 
            "M1_ADJ": [
                0
            ]
        }, 
        "location1": [
            8
        ], 
        "location2": [
            4
        ], 
        "sentence": "it is a good length and offered an easy tool for use with my motorcycle ."
    }
}