{
    "be0e736e9f91f703cbe08ee038215902": {
        "location1": [
            6, 
            44
        ], 
        "location2": [
            30
        ], 
        "(6, 30)": {
            "AM2L": [
                4829
            ], 
            "AM2F": [
                8162
            ], 
            "WBF": [
                5502
            ], 
            "BM1F": [
                5495
            ], 
            "M1": [
                2617
            ], 
            "irrelevant_Adj": [
                0
            ], 
            "M2": [
                1605
            ], 
            "BM1L": [
                3502
            ], 
            "WBO": [
                5495, 
                4289, 
                7609, 
                4431, 
                5458, 
                5116, 
                4625, 
                1262, 
                2548, 
                7383, 
                4625, 
                1262, 
                4283, 
                1668, 
                5459, 
                5325, 
                8044, 
                3962, 
                3233, 
                8887
            ], 
            "WBL": [
                2545
            ], 
            "irrelevant_Noun": [
                0
            ], 
            "M1_ADJ": [
                1
            ]
        }, 
        "(44, 30)": {
            "AM2L": [
                4283
            ], 
            "AM2F": [
                599
            ], 
            "WBF": [
                8162
            ], 
            "BM1F": [
                2545
            ], 
            "M1": [
                1605
            ], 
            "irrelevant_Adj": [
                0
            ], 
            "M2": [
                2617
            ], 
            "BM1L": [
                159
            ], 
            "WBO": [
                4829, 
                7824, 
                4289, 
                1719, 
                5459, 
                599, 
                7116, 
                599, 
                4283, 
                2445
            ], 
            "WBL": [
                5459
            ], 
            "irrelevant_Noun": [
                0
            ], 
            "M1_ADJ": [
                0
            ]
        }, 
        "sentence": "1st off it does go on easy , once on its stay kind of moist like but drys soft like but it comes off nice , then i follow with 2nd dry cloth to make sure its completly off and shiny and it does come off easy and it does clean finish up leaving a nice shiny glazed surface ."
    }, 
    "591c7490ce9e32cd951ff4f37b60f74f": {
        "(21, 44)": {
            "AM2L": [
                4283
            ], 
            "AM2F": [
                599
            ], 
            "WBF": [
                161
            ], 
            "BM1F": [
                7362
            ], 
            "M1": [
                2617
            ], 
            "irrelevant_Adj": [
                0
            ], 
            "M2": [
                1605
            ], 
            "BM1L": [
                8718
            ], 
            "WBO": [
                3229, 
                599, 
                310, 
                8364, 
                599, 
                300, 
                5458, 
                8034, 
                8736, 
                8718, 
                5574, 
                3962, 
                1141, 
                5503, 
                5458, 
                8034, 
                1489, 
                3638, 
                8678
            ], 
            "WBL": [
                3089
            ], 
            "irrelevant_Noun": [
                0
            ], 
            "M1_ADJ": [
                1
            ]
        }, 
        "location1": [
            21
        ], 
        "location2": [
            44
        ], 
        "sentence": "i used this product and was blown away buy how well it absorbed and better yet the wring out was so easy ,3 fold and a twist and 90 % of the water was out ! i bought one of the chemical guy waffle micro fiber cloth and it was awesome , but when you go to wring it out the shear size ( 25 & # 34 ; x36 & # 34 ; ) made it very hard to get a good wring out ."
    }
}