{
    "a4ce3f8ae1b7748063b6a4ff9e31e368": {
        "(1, 10)": {
            "AM2L": [
                769
            ], 
            "AM2F": [
                3841
            ], 
            "WBF": [
                8162
            ], 
            "BM1F": [
                8603
            ], 
            "M1": [
                2617
            ], 
            "irrelevant_Adj": [
                0
            ], 
            "M2": [
                8250
            ], 
            "WBO": [
                8531, 
                4752, 
                6111, 
                4694, 
                8162
            ], 
            "WBL": [
                8997
            ], 
            "irrelevant_Noun": [
                0
            ], 
            "M1_ADJ": [
                1
            ]
        }, 
        "location1": [
            1
        ], 
        "location2": [
            10
        ], 
        "sentence": "very easy to use low profile lock to protect your trailer hitch attachment ."
    }
}