{
    "69452b8f5e1e4639b28263a5682c601d": {
        "(8, 9)": {
            "AM2L": [
                4940
            ], 
            "BM1F": [
                599
            ], 
            "M1": [
                2628
            ], 
            "irrelevant_Adj": [
                0
            ], 
            "M2": [
                6074
            ], 
            "BM1L": [
                6005
            ], 
            "WBNULL": [
                1
            ], 
            "irrelevant_Noun": [
                0
            ], 
            "AM2F": [
                3252
            ], 
            "M1_ADJ": [
                1
            ]
        }, 
        "location1": [
            8
        ], 
        "location2": [
            9
        ], 
        "sentence": "i guess it is just personal preference and economic priority , for me the extra $ 85 in the pocket was better ."
    }
}