{
    "69452b8f5e1e4639b28263a5682c601d": {
        "location1": [
            8
        ], 
        "location2": [
            17
        ], 
        "(8, 17)": {
            "AM2L": [
                1014
            ], 
            "AM2F": [
                8718
            ], 
            "WBF": [
                6074
            ], 
            "BM1F": [
                599
            ], 
            "M1": [
                2628
            ], 
            "irrelevant_Adj": [
                0
            ], 
            "M2": [
                5901
            ], 
            "BM1L": [
                6005
            ], 
            "WBO": [
                3252, 
                4940, 
                8034, 
                2953, 
                291
            ], 
            "WBL": [
                8034
            ], 
            "irrelevant_Noun": [
                0
            ], 
            "M1_ADJ": [
                1
            ]
        }, 
        "sentence": "i guess it is just personal preference and economic priority , for me the extra $ 85 in the pocket was better ."
    }
}