{
    "d54abdeeddb50eb76ce2b6159885dc6c": {
        "(4, 1)": {
            "AM2L": [
                8162
            ], 
            "AM2F": [
                8750
            ], 
            "WBF": [
                4268
            ], 
            "BM1F": [
                8073
            ], 
            "M1": [
                6103
            ], 
            "irrelevant_Adj": [
                0
            ], 
            "M2": [
                2648
            ], 
            "WBO": [
                591
            ], 
            "WBL": [
                591
            ], 
            "irrelevant_Noun": [
                0
            ], 
            "M1_ADJ": [
                0
            ]
        }, 
        "location1": [
            4
        ], 
        "location2": [
            1
        ], 
        "sentence": "this product is an effective way to remove dust and pollen in between car wash ."
    }
}