{
    "d54abdeeddb50eb76ce2b6159885dc6c": {
        "(4, 10)": {
            "AM2L": [
                1016
            ], 
            "AM2F": [
                4043
            ], 
            "WBF": [
                8750
            ], 
            "BM1F": [
                591
            ], 
            "M1": [
                2648
            ], 
            "irrelevant_Adj": [
                0
            ], 
            "M2": [
                5919
            ], 
            "BM1L": [
                4268
            ], 
            "WBO": [
                8162, 
                6510
            ], 
            "WBL": [
                599
            ], 
            "irrelevant_Noun": [
                0
            ], 
            "M1_ADJ": [
                1
            ]
        }, 
        "location1": [
            4
        ], 
        "location2": [
            10
        ], 
        "sentence": "this product is an effective way to remove dust and pollen in between car wash ."
    }
}