{
    "809c5a7a20ca2565a5abd1c18e38896e": {
        "location1": [
            22
        ], 
        "location2": [
            9
        ], 
        "(22, 9)": {
            "AM2L": [
                8034
            ], 
            "AM2F": [
                3338
            ], 
            "WBF": [
                599
            ], 
            "BM1F": [
                5232
            ], 
            "M1": [
                8324
            ], 
            "irrelevant_Adj": [
                0
            ], 
            "M2": [
                2669
            ], 
            "BM1L": [
                5458
            ], 
            "WBO": [
                5232, 
                4134, 
                3138, 
                599, 
                3962, 
                4465, 
                5232, 
                1358, 
                8851
            ], 
            "WBL": [
                7433
            ], 
            "irrelevant_Noun": [
                0
            ], 
            "M1_ADJ": [
                0
            ]
        }, 
        "sentence": "i am about to do my bottom of my trunk and my inside firewall and i know my car will almost sound electric from the interior ! ! !"
    }
}