{
    "acbda1e3600f714fbc543623aff49d5d": {
        "location1": [
            6
        ], 
        "location2": [
            12
        ], 
        "(6, 12)": {
            "AM2L": [
                8034
            ], 
            "AM2F": [
                5458
            ], 
            "WBF": [
                7888
            ], 
            "BM1F": [
                8587
            ], 
            "M1": [
                2671
            ], 
            "irrelevant_Adj": [
                0
            ], 
            "M2": [
                2938
            ], 
            "BM1L": [
                8991
            ], 
            "WBO": [
                600, 
                1410
            ], 
            "WBL": [
                1254
            ], 
            "irrelevant_Noun": [
                0
            ], 
            "M1_ADJ": [
                1
            ]
        }, 
        "sentence": "doing so could damage you vehicle electrical system , and/or cause fire , burn , explosion of the battery , damage to your cable ."
    }
}