{
    "1b95835739cea8e1d94259dafd7cbd79": {
        "(6, 2)": {
            "AM2L": [
                7362
            ], 
            "AM2F": [
                3397
            ], 
            "WBF": [
                8887
            ], 
            "BM1F": [
                3717
            ], 
            "M1": [
                1358
            ], 
            "irrelevant_Adj": [
                0
            ], 
            "M2": [
                2681
            ], 
            "BM1L": [
                8756
            ], 
            "WBO": [
                3352
            ], 
            "WBL": [
                5458
            ], 
            "irrelevant_Noun": [
                0
            ], 
            "M1_ADJ": [
                0
            ]
        }, 
        "location1": [
            6
        ], 
        "location2": [
            2, 
            15
        ], 
        "(6, 15)": {
            "AM2L": [
                974
            ], 
            "AM2F": [
                4268
            ], 
            "WBF": [
                3397
            ], 
            "BM1F": [
                5458
            ], 
            "M1": [
                2681
            ], 
            "irrelevant_Adj": [
                0
            ], 
            "M2": [
                1358
            ], 
            "BM1L": [
                3352
            ], 
            "WBO": [
                7362, 
                8057, 
                1812, 
                7195, 
                2675
            ], 
            "WBL": [
                8812
            ], 
            "irrelevant_Noun": [
                0
            ], 
            "M1_ADJ": [
                1
            ]
        }, 
        "sentence": "we have car with full of electronic gadget so they consume significant electricity , even when car is being driven ."
    }, 
    "f01c9ad6ca1126ce4837b391b957ae4f": {
        "(9, 11)": {
            "WBFL": [
                3399
            ], 
            "BM1F": [
                5566
            ], 
            "M1": [
                2681
            ], 
            "irrelevant_Adj": [
                0
            ], 
            "M2": [
                1358
            ], 
            "BM1L": [
                5571
            ], 
            "irrelevant_Noun": [
                0
            ], 
            "M1_ADJ": [
                1
            ]
        }, 
        "location1": [
            9
        ], 
        "location2": [
            11
        ], 
        "sentence": "i will be buying another one for our other electronic gadgets-heavy car ."
    }
}