{
    "93177faec7bd6139a9ef43e94ddd0f61": {
        "(11, 12)": {
            "AM2L": [
                6577
            ], 
            "BM1F": [
                591
            ], 
            "M1": [
                2671
            ], 
            "irrelevant_Adj": [
                0
            ], 
            "M2": [
                2751
            ], 
            "BM1L": [
                5387
            ], 
            "WBNULL": [
                1
            ], 
            "irrelevant_Noun": [
                0
            ], 
            "AM2F": [
                3783
            ], 
            "M1_ADJ": [
                1
            ]
        }, 
        "(20, 12)": {
            "AM2F": [
                1547
            ], 
            "WBF": [
                3783
            ], 
            "BM1F": [
                2671
            ], 
            "M1": [
                2751
            ], 
            "irrelevant_Adj": [
                0
            ], 
            "M2": [
                2671
            ], 
            "BM1L": [
                591
            ], 
            "WBO": [
                6577, 
                4268, 
                8034, 
                2742
            ], 
            "WBL": [
                527
            ], 
            "irrelevant_Noun": [
                0
            ], 
            "M1_ADJ": [
                0
            ]
        }, 
        "location1": [
            11, 
            20
        ], 
        "location2": [
            12
        ], 
        "sentence": "for those that are n't aware ( and i 'm not an electrical engineer here ) , resistance is the enemy of all electrical circuts ."
    }
}