{
    "2f1c153afc9490c49135269df645e87c": {
        "(3, 4)": {
            "AM2L": [
                5547
            ], 
            "BM1F": [
                8162
            ], 
            "M1": [
                2671
            ], 
            "irrelevant_Adj": [
                0
            ], 
            "M2": [
                8047
            ], 
            "BM1L": [
                364
            ], 
            "WBNULL": [
                1
            ], 
            "irrelevant_Noun": [
                0
            ], 
            "AM2F": [
                4043
            ], 
            "M1_ADJ": [
                1
            ]
        }, 
        "location1": [
            3
        ], 
        "location2": [
            4
        ], 
        "sentence": "now , according to electrical theory in order for dc current to flow across long distance , you need thicker cable ."
    }
}