{
    "19828c65162c323f82ec6f02c235e679": {
        "(29, 30)": {
            "AM2L": [
                7598
            ], 
            "BM1F": [
                1382
            ], 
            "M1": [
                2767
            ], 
            "irrelevant_Adj": [
                0
            ], 
            "M2": [
                5979
            ], 
            "BM1L": [
                5245
            ], 
            "WBNULL": [
                1
            ], 
            "irrelevant_Noun": [
                0
            ], 
            "AM2F": [
                8162
            ], 
            "M1_ADJ": [
                1
            ]
        }, 
        "location1": [
            29
        ], 
        "location2": [
            30
        ], 
        "sentence": "yes , you can buy a $ 17 set of 10 foot , 18 gauge cable out there but if they ca n't reach between car or if they ca n't carry enough power to start your car , you might as well have been lugging a brick in your trunk all those year and you might as well have enjoyed a good lunch with the $ 17 for all the false confidence it gave you ."
    }
}