{
    "30703b1c7be7050aa1917659c8a04921": {
        "(24, 16)": {
            "AM2F": [
                3841
            ], 
            "WBF": [
                4268
            ], 
            "BM1F": [
                3841
            ], 
            "M1": [
                3771
            ], 
            "irrelevant_Adj": [
                1
            ], 
            "M2": [
                2787
            ], 
            "BM1L": [
                435
            ], 
            "WBO": [
                310, 
                7395, 
                5820, 
                7473
            ], 
            "WBL": [
                8034
            ], 
            "irrelevant_Noun": [
                0
            ], 
            "M1_ADJ": [
                0
            ]
        }, 
        "location1": [
            24
        ], 
        "location2": [
            16
        ], 
        "sentence": "spinning ball hitch for different size wo n't work in my case because the adjustable hitch height is a solid piece specific to the entire hitch ."
    }
}