{
    "e46cff3da4fd20b0ee6aef7d28a573be": {
        "(13, 3)": {
            "AM2L": [
                8987
            ], 
            "AM2F": [
                1358
            ], 
            "WBF": [
                5458
            ], 
            "BM1F": [
                310
            ], 
            "M1": [
                8212
            ], 
            "irrelevant_Adj": [
                1
            ], 
            "M2": [
                2787
            ], 
            "BM1L": [
                7913
            ], 
            "WBO": [
                4578, 
                8024, 
                104, 
                5062, 
                8162, 
                2577
            ], 
            "WBL": [
                591
            ], 
            "irrelevant_Noun": [
                0
            ], 
            "M1_ADJ": [
                0
            ]
        }, 
        "location1": [
            13
        ], 
        "location2": [
            3
        ], 
        "sentence": "it takes a total of less than 2 minute to dust off an entire car , yet the result makes your car look like you just washed it ."
    }
}