{
    "f1a0b41a47e8494cac2e10b7f80e3bb5": {
        "(15, 16)": {
            "AM2L": [
                5574
            ], 
            "BM1F": [
                8034
            ], 
            "M1": [
                2787
            ], 
            "irrelevant_Adj": [
                1
            ], 
            "M2": [
                5001
            ], 
            "BM1L": [
                6181
            ], 
            "WBNULL": [
                1
            ], 
            "irrelevant_Noun": [
                0
            ], 
            "AM2F": [
                6451
            ], 
            "M1_ADJ": [
                1
            ]
        }, 
        "location1": [
            15
        ], 
        "location2": [
            16
        ], 
        "sentence": "the magnet are very strong , when i lift these up for cleaning , i pull the entire metal register out of the floor ."
    }
}