{
    "8f51982075fb3ee10803aa5ca341e73b": {
        "(3, 4)": {
            "AM2L": [
                8887
            ], 
            "BM1F": [
                5232
            ], 
            "M1": [
                2787
            ], 
            "irrelevant_Adj": [
                1
            ], 
            "M2": [
                8324
            ], 
            "BM1L": [
                3717
            ], 
            "WBNULL": [
                1
            ], 
            "irrelevant_Noun": [
                0
            ], 
            "AM2F": [
                4641
            ], 
            "M1_ADJ": [
                1
            ]
        }, 
        "location1": [
            3
        ], 
        "location2": [
            4
        ], 
        "sentence": "i have my entire trunk lined with this stuff and all you can hear from the outside is true bass no rattling ."
    }
}