{
    "9186c28a3a592fb305b30f17556e9f96": {
        "location1": [
            20
        ], 
        "location2": [
            5
        ], 
        "(20, 5)": {
            "AM2L": [
                5543
            ], 
            "AM2F": [
                6954
            ], 
            "WBF": [
                5458
            ], 
            "BM1F": [
                4335
            ], 
            "M1": [
                5686
            ], 
            "irrelevant_Adj": [
                0
            ], 
            "M2": [
                2819
            ], 
            "BM1L": [
                8034
            ], 
            "WBO": [
                8034, 
                438, 
                1948, 
                310, 
                1564, 
                4335, 
                8049, 
                4268, 
                565, 
                310, 
                3120
            ], 
            "WBL": [
                5543
            ], 
            "irrelevant_Noun": [
                0
            ], 
            "M1_ADJ": [
                0
            ]
        }, 
        "sentence": "secondly , none of the ' jet ' part of the adjustment creates a clean jet , there is always a fine mist or errant second or third jet spraying in a different direction at the same time ."
    }
}