{
    "6eb9aa22b875aa176c356e0cceaccd99": {
        "(31, 59)": {
            "AM2L": [
                5164
            ], 
            "AM2F": [
                5543
            ], 
            "WBF": [
                6830
            ], 
            "BM1F": [
                8034
            ], 
            "M1": [
                2872
            ], 
            "irrelevant_Adj": [
                0
            ], 
            "M2": [
                1358
            ], 
            "BM1L": [
                8
            ], 
            "WBO": [
                1205, 
                644, 
                3962, 
                566, 
                6354, 
                8603, 
                3686, 
                8887, 
                8805, 
                3962, 
                5653, 
                3252, 
                8034, 
                1303, 
                2580, 
                599, 
                8931, 
                5387, 
                3791, 
                8162, 
                6390, 
                5503, 
                8162, 
                641
            ], 
            "WBL": [
                310
            ], 
            "irrelevant_Noun": [
                0
            ], 
            "M1_ADJ": [
                1
            ]
        }, 
        "location1": [
            31
        ], 
        "location2": [
            59
        ], 
        "sentence": "although the wood handle one look classier and probably feel nicer , the plastic handle one feel plenty sturdy , for the value oriented , get the plastic handle one since it 's the exact same brush anyway ! i am really very happy with what i paid for the calfornia duster and would not hesitate to recommend one to anyone with a car or motorcycle ."
    }
}