{
    "6ef87da626726f0838d1a8c37e364348": {
        "(3, 4)": {
            "BM1F": [
                591
            ], 
            "M1": [
                2880
            ], 
            "irrelevant_Adj": [
                0
            ], 
            "M2": [
                1445
            ], 
            "BM1L": [
                4268
            ], 
            "WBNULL": [
                1
            ], 
            "irrelevant_Noun": [
                0
            ], 
            "M1_ADJ": [
                1
            ]
        }, 
        "location1": [
            3
        ], 
        "location2": [
            4
        ], 
        "sentence": "this is an excellent chamois !"
    }
}