{
    "bce87c38d4dfd4ebc1dff566b70b9cc9": {
        "location1": [
            34
        ], 
        "location2": [
            3
        ], 
        "(34, 3)": {
            "WBF": [
                1286
            ], 
            "BM1F": [
                8997
            ], 
            "M1": [
                4369
            ], 
            "irrelevant_Adj": [
                0
            ], 
            "M2": [
                2917
            ], 
            "BM1L": [
                8986
            ], 
            "WBO": [
                7144, 
                1890, 
                1598, 
                8162, 
                720, 
                5191, 
                720, 
                8997, 
                7457, 
                8157, 
                945, 
                8028, 
                8, 
                8805, 
                8991, 
                5284, 
                4376, 
                4717, 
                8501, 
                8034, 
                1890, 
                5458, 
                1872, 
                5495, 
                8034, 
                4887, 
                8028
            ], 
            "WBL": [
                4268
            ], 
            "irrelevant_Noun": [
                0
            ], 
            "M1_ADJ": [
                0
            ]
        }, 
        "sentence": "and yes , your jumper cable should cost close to as much as your spare tire because that 's what you need -- - just look up the cost of copper on the market ( that stuff is expensive ) ."
    }
}