{
    "0567e4074c54d206c374e3bf96316912": {
        "location1": [
            25
        ], 
        "location2": [
            47
        ], 
        "(25, 47)": {
            "AM2L": [
                3537
            ], 
            "AM2F": [
                599
            ], 
            "WBF": [
                8811
            ], 
            "BM1F": [
                8997
            ], 
            "M1": [
                2917
            ], 
            "irrelevant_Adj": [
                0
            ], 
            "M2": [
                7347
            ], 
            "BM1L": [
                7614
            ], 
            "WBO": [
                1262, 
                8812, 
                8034, 
                8063, 
                6966, 
                8, 
                8034, 
                7615, 
                1286, 
                8939, 
                8105, 
                8034, 
                8810, 
                4283, 
                8893, 
                5245, 
                929, 
                7362
            ], 
            "WBL": [
                310
            ], 
            "irrelevant_Noun": [
                0
            ], 
            "M1_ADJ": [
                1
            ]
        }, 
        "sentence": "is not a eyesore , and seems well made , i highly recommend this to keep thief honest , it wont guarentee a determined thief wont steal your expensive wheel/tire , but when the thief see 's the steel cable wrapped through the wheel , it wo n't be so much a snatch and grab ."
    }
}