{
    "cdcca0dea71f5768cce894dfd8ee74ab": {
        "(3, 4)": {
            "AM2L": [
                2847
            ], 
            "BM1F": [
                5148
            ], 
            "M1": [
                2917
            ], 
            "irrelevant_Adj": [
                0
            ], 
            "M2": [
                1286
            ], 
            "BM1L": [
                688
            ], 
            "WBNULL": [
                1
            ], 
            "irrelevant_Noun": [
                0
            ], 
            "AM2F": [
                599
            ], 
            "M1_ADJ": [
                1
            ]
        }, 
        "location1": [
            3
        ], 
        "location2": [
            4, 
            11
        ], 
        "(3, 11)": {
            "WBF": [
                1286
            ], 
            "BM1F": [
                5148
            ], 
            "M1": [
                2917
            ], 
            "irrelevant_Adj": [
                0
            ], 
            "M2": [
                1286
            ], 
            "BM1L": [
                688
            ], 
            "WBO": [
                599, 
                2847, 
                5148, 
                7052
            ], 
            "WBL": [
                8531
            ], 
            "irrelevant_Noun": [
                0
            ], 
            "M1_ADJ": [
                1
            ]
        }, 
        "sentence": "there are more expensive cable and even more sever duty use cable ."
    }, 
    "bce87c38d4dfd4ebc1dff566b70b9cc9": {
        "location1": [
            34
        ], 
        "location2": [
            4
        ], 
        "(34, 4)": {
            "WBF": [
                7144
            ], 
            "BM1F": [
                4369
            ], 
            "M1": [
                1286
            ], 
            "irrelevant_Adj": [
                0
            ], 
            "M2": [
                2917
            ], 
            "BM1L": [
                8997
            ], 
            "WBO": [
                1890, 
                1598, 
                8162, 
                720, 
                5191, 
                720, 
                8997, 
                7457, 
                8157, 
                945, 
                8028, 
                8, 
                8805, 
                8991, 
                5284, 
                4376, 
                4717, 
                8501, 
                8034, 
                1890, 
                5458, 
                1872, 
                5495, 
                8034, 
                4887, 
                8028
            ], 
            "WBL": [
                4268
            ], 
            "irrelevant_Noun": [
                0
            ], 
            "M1_ADJ": [
                0
            ]
        }, 
        "sentence": "and yes , your jumper cable should cost close to as much as your spare tire because that 's what you need -- - just look up the cost of copper on the market ( that stuff is expensive ) ."
    }, 
    "0567e4074c54d206c374e3bf96316912": {
        "(25, 35)": {
            "AM2L": [
                8105
            ], 
            "AM2F": [
                8939
            ], 
            "WBF": [
                8811
            ], 
            "BM1F": [
                8997
            ], 
            "M1": [
                2917
            ], 
            "irrelevant_Adj": [
                0
            ], 
            "M2": [
                1286
            ], 
            "BM1L": [
                7614
            ], 
            "WBO": [
                1262, 
                8812, 
                8034, 
                8063, 
                6966, 
                8
            ], 
            "WBL": [
                7615
            ], 
            "irrelevant_Noun": [
                0
            ], 
            "M1_ADJ": [
                1
            ]
        }, 
        "location1": [
            25
        ], 
        "location2": [
            35
        ], 
        "sentence": "is not a eyesore , and seems well made , i highly recommend this to keep thief honest , it wont guarentee a determined thief wont steal your expensive wheel/tire , but when the thief see 's the steel cable wrapped through the wheel , it wo n't be so much a snatch and grab ."
    }
}