{
    "c582b3ab6720f5bb56dcfb95e05fcc72": {
        "(3, 5)": {
            "AM2L": [
                5488
            ], 
            "WBFL": [
                1358
            ], 
            "BM1F": [
                591
            ], 
            "M1": [
                2952
            ], 
            "irrelevant_Adj": [
                0
            ], 
            "M2": [
                921
            ], 
            "BM1L": [
                3717
            ], 
            "AM2F": [
                1462
            ], 
            "irrelevant_Noun": [
                0
            ], 
            "M1_ADJ": [
                1
            ]
        }, 
        "location1": [
            3
        ], 
        "location2": [
            5
        ], 
        "sentence": "i have an external car battery charger ( old ) ."
    }
}