{
    "5b2b6af2a671689865e7035fd3e68aa9": {
        "(10, 24)": {
            "AM2L": [
                7362
            ], 
            "AM2F": [
                7449
            ], 
            "WBF": [
                3248
            ], 
            "BM1F": [
                3085
            ], 
            "M1": [
                2953
            ], 
            "irrelevant_Adj": [
                1
            ], 
            "M2": [
                5683
            ], 
            "BM1L": [
                310
            ], 
            "WBO": [
                8812, 
                8330, 
                8162, 
                4367, 
                7598, 
                7408, 
                8, 
                1358, 
                5682, 
                4043
            ], 
            "WBL": [
                8129
            ], 
            "irrelevant_Noun": [
                0
            ], 
            "M1_ADJ": [
                1
            ]
        }, 
        "location1": [
            10
        ], 
        "location2": [
            24
        ], 
        "sentence": "but , the reality is that you always need a few extra foot when trying to jump start someone 's car parked in some tight parking space -- - so you 're back to the 25 ' and 2 gauge ."
    }
}