{
    "88234d3ab2256cfd81d46a960cc4d2d9": {
        "(7, 15)": {
            "WBF": [
                4570
            ], 
            "BM1F": [
                8034
            ], 
            "M1": [
                2953
            ], 
            "irrelevant_Adj": [
                1
            ], 
            "M2": [
                1286
            ], 
            "BM1L": [
                5284
            ], 
            "WBO": [
                8991, 
                5284, 
                8162, 
                1791
            ], 
            "WBL": [
                3426
            ], 
            "irrelevant_Noun": [
                0
            ], 
            "M1_ADJ": [
                1
            ]
        }, 
        "location1": [
            7
        ], 
        "location2": [
            15
        ], 
        "sentence": "but if you want or need the extra length , you need to consider heavy gauge cable ."
    }, 
    "36980c6d2983093a487eec2522fe77a4": {
        "location1": [
            19
        ], 
        "location2": [
            9
        ], 
        "(19, 9)": {
            "AM2L": [
                599
            ], 
            "AM2F": [
                4710
            ], 
            "WBF": [
                4043
            ], 
            "BM1F": [
                1119
            ], 
            "M1": [
                1286
            ], 
            "irrelevant_Adj": [
                1
            ], 
            "M2": [
                2953
            ], 
            "BM1L": [
                1472
            ], 
            "WBO": [
                310, 
                1177, 
                599, 
                5154, 
                7663, 
                8991
            ], 
            "WBL": [
                1269
            ], 
            "irrelevant_Noun": [
                0
            ], 
            "M1_ADJ": [
                0
            ]
        }, 
        "sentence": "for the price of a set of cheap booster/jumper cable in a brick and morter store , you can buy extra long and heavy duty jumper !"
    }
}