{
    "9eba1f4bc3a9501a7903eb8d4710165b": {
        "(2, 25)": {
            "AM2F": [
                4043
            ], 
            "WBF": [
                599
            ], 
            "BM1F": [
                8034
            ], 
            "M1": [
                2953
            ], 
            "irrelevant_Adj": [
                1
            ], 
            "M2": [
                4694
            ], 
            "BM1L": [
                7484
            ], 
            "WBO": [
                3459, 
                8034, 
                8958, 
                599, 
                5543, 
                8034, 
                3029, 
                8756, 
                5407, 
                8531, 
                1134, 
                3032, 
                3252, 
                4213, 
                7042, 
                599, 
                8034, 
                8956, 
                1074
            ], 
            "WBL": [
                3112
            ], 
            "irrelevant_Noun": [
                0
            ], 
            "M1_ADJ": [
                1
            ]
        }, 
        "location1": [
            2
        ], 
        "location2": [
            25
        ], 
        "sentence": "spend the extra $ $ $ and get the x-block and / or the fastaway ( we now use both , fastway for intiial set and the x block for final lock in )"
    }, 
    "1c8f1b4fa180afa1f09e9d61a92a8b0f": {
        "(13, 18)": {
            "AM2L": [
                3564
            ], 
            "AM2F": [
                8907
            ], 
            "WBF": [
                5062
            ], 
            "BM1F": [
                3085
            ], 
            "M1": [
                2953
            ], 
            "irrelevant_Adj": [
                1
            ], 
            "M2": [
                4694
            ], 
            "BM1L": [
                310
            ], 
            "WBO": [
                599
            ], 
            "WBL": [
                8034
            ], 
            "irrelevant_Noun": [
                0
            ], 
            "M1_ADJ": [
                1
            ]
        }, 
        "location1": [
            13
        ], 
        "location2": [
            18
        ], 
        "sentence": "but if you 're willing to do this , it just takes a few extra minute and then the lock work great on it ."
    }
}