{
    "d934eb1dfaf66ec52c5f4f3655f3e5bf": {
        "location1": [
            14
        ], 
        "location2": [
            2
        ], 
        "(14, 2)": {
            "AM2L": [
                319
            ], 
            "AM2F": [
                3590
            ], 
            "WBF": [
                5495
            ], 
            "BM1F": [
                3717
            ], 
            "M1": [
                6661
            ], 
            "irrelevant_Adj": [
                1
            ], 
            "M2": [
                2953
            ], 
            "BM1L": [
                8053
            ], 
            "WBO": [
                8034, 
                1140, 
                599, 
                8814, 
                4283, 
                1816, 
                8034, 
                8810
            ], 
            "WBL": [
                427
            ], 
            "irrelevant_Noun": [
                0
            ], 
            "M1_ADJ": [
                0
            ]
        }, 
        "sentence": "these have ridge on the bottom and where it contact the wheel , which adds extra gripping ability ."
    }
}