{
    "5b2b6af2a671689865e7035fd3e68aa9": {
        "location1": [
            10
        ], 
        "location2": [
            11
        ], 
        "(10, 11)": {
            "AM2L": [
                8330
            ], 
            "BM1F": [
                3085
            ], 
            "M1": [
                2953
            ], 
            "irrelevant_Adj": [
                1
            ], 
            "M2": [
                3248
            ], 
            "BM1L": [
                310
            ], 
            "WBNULL": [
                1
            ], 
            "irrelevant_Noun": [
                0
            ], 
            "AM2F": [
                8812
            ], 
            "M1_ADJ": [
                1
            ]
        }, 
        "sentence": "but , the reality is that you always need a few extra foot when trying to jump start someone 's car parked in some tight parking space -- - so you 're back to the 25 ' and 2 gauge ."
    }
}