{
    "d934eb1dfaf66ec52c5f4f3655f3e5bf": {
        "(14, 16)": {
            "WBFL": [
                3590
            ], 
            "BM1F": [
                427
            ], 
            "M1": [
                2953
            ], 
            "irrelevant_Adj": [
                1
            ], 
            "M2": [
                319
            ], 
            "BM1L": [
                8819
            ], 
            "irrelevant_Noun": [
                0
            ], 
            "M1_ADJ": [
                1
            ]
        }, 
        "location1": [
            14
        ], 
        "location2": [
            16
        ], 
        "sentence": "these have ridge on the bottom and where it contact the wheel , which adds extra gripping ability ."
    }
}