{
    "36980c6d2983093a487eec2522fe77a4": {
        "(19, 23)": {
            "AM2F": [
                4369
            ], 
            "WBF": [
                4710
            ], 
            "BM1F": [
                1269
            ], 
            "M1": [
                2953
            ], 
            "irrelevant_Adj": [
                1
            ], 
            "M2": [
                2583
            ], 
            "BM1L": [
                1323
            ], 
            "WBO": [
                599
            ], 
            "WBL": [
                3762
            ], 
            "irrelevant_Noun": [
                0
            ], 
            "M1_ADJ": [
                1
            ]
        }, 
        "location1": [
            19
        ], 
        "location2": [
            23
        ], 
        "sentence": "for the price of a set of cheap booster/jumper cable in a brick and morter store , you can buy extra long and heavy duty jumper !"
    }
}