{
    "aba1ea1a5e6bec74919eb998d133a6da": {
        "(28, 50)": {
            "AM2L": [
                4268
            ], 
            "AM2F": [
                1553
            ], 
            "WBF": [
                4710
            ], 
            "BM1F": [
                1209
            ], 
            "M1": [
                2953
            ], 
            "irrelevant_Adj": [
                1
            ], 
            "M2": [
                5685
            ], 
            "BM1L": [
                3638
            ], 
            "WBO": [
                760, 
                146, 
                5685, 
                1553, 
                688, 
                7707, 
                1262, 
                591, 
                813, 
                3638, 
                1323, 
                5522, 
                8041, 
                8887, 
                5503, 
                3661, 
                1872, 
                4131
            ], 
            "WBL": [
                8034
            ], 
            "irrelevant_Noun": [
                0
            ], 
            "M1_ADJ": [
                1
            ]
        }, 
        "location1": [
            28
        ], 
        "location2": [
            32, 
            50
        ], 
        "(28, 32)": {
            "AM2L": [
                688
            ], 
            "AM2F": [
                1553
            ], 
            "WBF": [
                4710
            ], 
            "BM1F": [
                1209
            ], 
            "M1": [
                2953
            ], 
            "irrelevant_Adj": [
                1
            ], 
            "M2": [
                5685
            ], 
            "BM1L": [
                3638
            ], 
            "WBO": [
                760
            ], 
            "WBL": [
                146
            ], 
            "irrelevant_Noun": [
                0
            ], 
            "M1_ADJ": [
                1
            ]
        }, 
        "sentence": "pro - i know i can jump start a semi with these ( more importantly , i can get a jump from a semi - truck driver are the good guy btw ) - extra long at 25 ' - parrot clamp are strong , but an average guy can open them with one hand - copper insert in the parrot clamp is nice - clamp are rated at 500amps - they 're friggin heavy at near 14 lbs , yes that 's a pro !"
    }
}