{
    "36980c6d2983093a487eec2522fe77a4": {
        "(19, 12)": {
            "AM2L": [
                599
            ], 
            "AM2F": [
                4710
            ], 
            "WBF": [
                599
            ], 
            "BM1F": [
                310
            ], 
            "M1": [
                1177
            ], 
            "irrelevant_Adj": [
                1
            ], 
            "M2": [
                2953
            ], 
            "BM1L": [
                4043
            ], 
            "WBO": [
                5154, 
                7663, 
                8991
            ], 
            "WBL": [
                1269
            ], 
            "irrelevant_Noun": [
                0
            ], 
            "M1_ADJ": [
                0
            ]
        }, 
        "location1": [
            19
        ], 
        "location2": [
            12
        ], 
        "sentence": "for the price of a set of cheap booster/jumper cable in a brick and morter store , you can buy extra long and heavy duty jumper !"
    }
}