{
    "d16f0cd923596df64944bcedfc3427cd": {
        "location1": [
            3
        ], 
        "location2": [
            15
        ], 
        "(3, 15)": {
            "AM2L": [
                24
            ], 
            "AM2F": [
                3338
            ], 
            "WBF": [
                6731
            ], 
            "BM1F": [
                5284
            ], 
            "M1": [
                2953
            ], 
            "irrelevant_Adj": [
                1
            ], 
            "M2": [
                6289
            ], 
            "BM1L": [
                8991
            ], 
            "WBO": [
                3252, 
                7665, 
                8073, 
                8044, 
                4268, 
                5756, 
                3252, 
                8991
            ], 
            "WBL": [
                7230
            ], 
            "irrelevant_Noun": [
                0
            ], 
            "M1_ADJ": [
                1
            ]
        }, 
        "sentence": "if you need extra room for storing this , then is perfect for you ; ball size range from 1 7/8 to 2 1/2 `` and change very easily with little effort ."
    }
}