{
    "d16f0cd923596df64944bcedfc3427cd": {
        "(3, 28)": {
            "WBF": [
                6731
            ], 
            "BM1F": [
                5284
            ], 
            "M1": [
                2953
            ], 
            "irrelevant_Adj": [
                1
            ], 
            "M2": [
                2653
            ], 
            "BM1L": [
                8991
            ], 
            "WBO": [
                3252, 
                7665, 
                8073, 
                8044, 
                4268, 
                5756, 
                3252, 
                8991, 
                879, 
                7230, 
                6289, 
                3338, 
                24, 
                273, 
                8162, 
                104, 
                29, 
                599, 
                1450, 
                8603, 
                2616
            ], 
            "WBL": [
                4671
            ], 
            "irrelevant_Noun": [
                0
            ], 
            "M1_ADJ": [
                1
            ]
        }, 
        "location1": [
            3
        ], 
        "location2": [
            28
        ], 
        "sentence": "if you need extra room for storing this , then is perfect for you ; ball size range from 1 7/8 to 2 1/2 `` and change very easily with little effort ."
    }
}