{
    "8168cd2eab4ae563e185899d76d388bd": {
        "(56, 18)": {
            "AM2L": [
                5458
            ], 
            "AM2F": [
                583
            ], 
            "WBF": [
                5458
            ], 
            "BM1F": [
                5322
            ], 
            "M1": [
                7622
            ], 
            "irrelevant_Adj": [
                0
            ], 
            "M2": [
                2990
            ], 
            "BM1L": [
                8034
            ], 
            "WBO": [
                5916, 
                599, 
                6490, 
                8073, 
                8227, 
                4268, 
                310, 
                3564, 
                8750, 
                8162, 
                2545, 
                8034, 
                1032, 
                8812, 
                4283, 
                8, 
                5296, 
                3911, 
                5379, 
                2545, 
                2767, 
                5458, 
                310, 
                2087, 
                3252, 
                8034, 
                1032, 
                8162, 
                2545, 
                5574, 
                5495, 
                4283, 
                8, 
                5624
            ], 
            "WBL": [
                310
            ], 
            "irrelevant_Noun": [
                0
            ], 
            "M1_ADJ": [
                0
            ]
        }, 
        "location1": [
            56
        ], 
        "location2": [
            18
        ], 
        "sentence": "so if i just hosed down the bike while cleaning and wanted to get on with the next step of polishing and relubing , this towel is a great way to dry the bike when it 's neither hot nor dry enough of a day for the bike to dry out on it 's own in a fair amount of time ."
    }
}