{
    "bf8cbf1ce349545bce65bbcd995e43cd": {
        "(2, 7)": {
            "AM2L": [
                5320
            ], 
            "AM2F": [
                3842
            ], 
            "WBF": [
                6055
            ], 
            "BM1F": [
                5320
            ], 
            "M1": [
                2990
            ], 
            "irrelevant_Adj": [
                0
            ], 
            "M2": [
                8250
            ], 
            "BM1L": [
                3518
            ], 
            "WBO": [
                3149
            ], 
            "WBL": [
                104
            ], 
            "irrelevant_Noun": [
                0
            ], 
            "M1_ADJ": [
                1
            ]
        }, 
        "location1": [
            2
        ], 
        "location2": [
            7
        ], 
        "sentence": "good news1 ) fair price2 ) fit curt 2 `` trailer hitchbad news1 ) key use a little tricky2 ) plastic keyhole cap cover does n't feel real snugpractice locking/unlocking with the key about 20 time before you start using this so you establish some ' muscle memory ' on how to turn the key and remove the locking hardware - it 's not like your house key ."
    }
}