{
    "8168cd2eab4ae563e185899d76d388bd": {
        "(56, 57)": {
            "AM2L": [
                8140
            ], 
            "BM1F": [
                310
            ], 
            "M1": [
                2990
            ], 
            "irrelevant_Adj": [
                0
            ], 
            "M2": [
                583
            ], 
            "BM1L": [
                4043
            ], 
            "WBNULL": [
                1
            ], 
            "irrelevant_Noun": [
                0
            ], 
            "AM2F": [
                5458
            ], 
            "M1_ADJ": [
                1
            ]
        }, 
        "location1": [
            56
        ], 
        "location2": [
            57
        ], 
        "sentence": "so if i just hosed down the bike while cleaning and wanted to get on with the next step of polishing and relubing , this towel is a great way to dry the bike when it 's neither hot nor dry enough of a day for the bike to dry out on it 's own in a fair amount of time ."
    }
}