{
    "bf8cbf1ce349545bce65bbcd995e43cd": {
        "(2, 58)": {
            "AM2F": [
                4409
            ], 
            "WBF": [
                6055
            ], 
            "BM1F": [
                5320
            ], 
            "M1": [
                2990
            ], 
            "irrelevant_Adj": [
                0
            ], 
            "M2": [
                3916
            ], 
            "BM1L": [
                3518
            ], 
            "WBO": [
                3149, 
                2021, 
                104, 
                8250, 
                3842, 
                5320, 
                4409, 
                8531, 
                310, 
                4671, 
                8302, 
                5862, 
                4414, 
                1339, 
                1914, 
                2445, 
                5245, 
                3066, 
                6344, 
                7361, 
                4698, 
                8887, 
                8034, 
                4409, 
                325, 
                113, 
                8140, 
                959, 
                8991, 
                7598, 
                8542, 
                8073, 
                7362, 
                8991, 
                2830, 
                7405, 
                5212, 
                4978, 
                5495, 
                3920, 
                8162, 
                8351, 
                8034, 
                4409, 
                599, 
                6510, 
                8034, 
                4697, 
                3691, 
                4283, 
                8, 
                5387
            ], 
            "WBL": [
                8997
            ], 
            "irrelevant_Noun": [
                0
            ], 
            "M1_ADJ": [
                1
            ]
        }, 
        "location1": [
            2
        ], 
        "location2": [
            58
        ], 
        "sentence": "good news1 ) fair price2 ) fit curt 2 `` trailer hitchbad news1 ) key use a little tricky2 ) plastic keyhole cap cover does n't feel real snugpractice locking/unlocking with the key about 20 time before you start using this so you establish some ' muscle memory ' on how to turn the key and remove the locking hardware - it 's not like your house key ."
    }
}