{
    "e5a4dfe045093bb933c64d6d76464f65": {
        "location1": [
            0
        ], 
        "location2": [
            2
        ], 
        "(0, 2)": {
            "AM2L": [
                4734
            ], 
            "WBFL": [
                1509
            ], 
            "M1": [
                2993
            ], 
            "irrelevant_Adj": [
                0
            ], 
            "M2": [
                5388
            ], 
            "AM2F": [
                8034
            ], 
            "irrelevant_Noun": [
                0
            ], 
            "M1_ADJ": [
                1
            ]
        }, 
        "sentence": "fairly-priced chinese-made not-junk ! the loss of a star is no reflection on china or the product ; just my disappointment that we do n't have a hose nozzle this good with a made in the usa sticker on it ."
    }
}