{
    "e5a4dfe045093bb933c64d6d76464f65": {
        "(0, 26)": {
            "WBF": [
                1509
            ], 
            "AM2L": [
                3518
            ], 
            "M1": [
                2993
            ], 
            "irrelevant_Adj": [
                0
            ], 
            "M2": [
                5410
            ], 
            "WBO": [
                5388, 
                8034, 
                4734, 
                5458, 
                310, 
                7587, 
                4268, 
                5344, 
                6437, 
                5495, 
                1507, 
                5543, 
                8034, 
                6103, 
                4376, 
                5232, 
                2367, 
                8028, 
                8756, 
                2436, 
                5245, 
                3717
            ], 
            "WBL": [
                3903
            ], 
            "irrelevant_Noun": [
                0
            ], 
            "AM2F": [
                8073
            ], 
            "M1_ADJ": [
                1
            ]
        }, 
        "location1": [
            0
        ], 
        "location2": [
            26
        ], 
        "sentence": "fairly-priced chinese-made not-junk ! the loss of a star is no reflection on china or the product ; just my disappointment that we do n't have a hose nozzle this good with a made in the usa sticker on it ."
    }
}