{
    "e5a4dfe045093bb933c64d6d76464f65": {
        "location1": [
            0
        ], 
        "location2": [
            10
        ], 
        "(0, 10)": {
            "WBF": [
                1509
            ], 
            "AM2L": [
                1507
            ], 
            "M1": [
                2993
            ], 
            "irrelevant_Adj": [
                0
            ], 
            "M2": [
                6437
            ], 
            "WBO": [
                5388, 
                8034, 
                4734, 
                5458, 
                310, 
                7587
            ], 
            "WBL": [
                5344
            ], 
            "irrelevant_Noun": [
                0
            ], 
            "AM2F": [
                5495
            ], 
            "M1_ADJ": [
                1
            ]
        }, 
        "sentence": "fairly-priced chinese-made not-junk ! the loss of a star is no reflection on china or the product ; just my disappointment that we do n't have a hose nozzle this good with a made in the usa sticker on it ."
    }
}