{
    "df2a1253d98a5f9fe06c54b79cf3d0f9": {
        "(20, 15)": {
            "AM2L": [
                8887
            ], 
            "AM2F": [
                5503
            ], 
            "WBF": [
                720
            ], 
            "BM1F": [
                8073
            ], 
            "M1": [
                5503
            ], 
            "irrelevant_Adj": [
                0
            ], 
            "M2": [
                3013
            ], 
            "BM1L": [
                4059
            ], 
            "WBO": [
                8789
            ], 
            "WBL": [
                310
            ], 
            "irrelevant_Noun": [
                0
            ], 
            "M1_ADJ": [
                0
            ]
        }, 
        "location1": [
            20
        ], 
        "location2": [
            15, 
            21
        ], 
        "(20, 21)": {
            "AM2L": [
                310
            ], 
            "BM1F": [
                310
            ], 
            "M1": [
                3013
            ], 
            "irrelevant_Adj": [
                0
            ], 
            "M2": [
                5503
            ], 
            "BM1L": [
                720
            ], 
            "WBNULL": [
                1
            ], 
            "irrelevant_Noun": [
                0
            ], 
            "AM2F": [
                8887
            ], 
            "M1_ADJ": [
                1
            ]
        }, 
        "sentence": "i have used many different kind , in fact my last purchase from amazon included this one as well as a fancy one with a waffle pattern design ."
    }
}