{
    "2b92e739d4cd9d4ebf2b21c3ffc84227": {
        "location1": [
            3
        ], 
        "location2": [
            25
        ], 
        "(3, 25)": {
            "AM2L": [
                8073
            ], 
            "AM2F": [
                5495
            ], 
            "WBF": [
                5095
            ], 
            "BM1F": [
                310
            ], 
            "M1": [
                3085
            ], 
            "irrelevant_Adj": [
                1
            ], 
            "M2": [
                1269
            ], 
            "BM1L": [
                4268
            ], 
            "WBO": [
                8, 
                7140, 
                8024, 
                8034, 
                4906, 
                599, 
                898, 
                1568, 
                5232, 
                2021, 
                3841, 
                3856, 
                7362, 
                8991, 
                4929, 
                8702, 
                8162, 
                8329
            ], 
            "WBL": [
                8991
            ], 
            "irrelevant_Noun": [
                0
            ], 
            "M1_ADJ": [
                1
            ]
        }, 
        "sentence": "it is a few mm 's shorter than the masterlock and barely clear my curt hitch hole , so you may want to try before you buy on this one ."
    }, 
    "0aa8acea419512585b32c5ce97914d32": {
        "(5, 3)": {
            "WBFL": [
                310
            ], 
            "BM1F": [
                599
            ], 
            "M1": [
                1269
            ], 
            "irrelevant_Adj": [
                1
            ], 
            "M2": [
                3085
            ], 
            "BM1L": [
                495
            ], 
            "irrelevant_Noun": [
                0
            ], 
            "M1_ADJ": [
                0
            ]
        }, 
        "location1": [
            5
        ], 
        "location2": [
            3
        ], 
        "sentence": "go ahead and buy a few ."
    }, 
    "13ebb96976a2ec68c9ec07d05af4d19e": {
        "(5, 3)": {
            "AM2L": [
                8851
            ], 
            "WBFL": [
                310
            ], 
            "BM1F": [
                3791
            ], 
            "M1": [
                1269
            ], 
            "irrelevant_Adj": [
                1
            ], 
            "M2": [
                3085
            ], 
            "BM1L": [
                5245
            ], 
            "AM2F": [
                8991
            ], 
            "irrelevant_Noun": [
                0
            ], 
            "M1_ADJ": [
                0
            ]
        }, 
        "location1": [
            5
        ], 
        "location2": [
            3
        ], 
        "sentence": "do n't hesitate , buy a few you will love them ."
    }
}