{
    "56613a32e85583238edbaddeb1ab649f": {
        "location1": [
            30
        ], 
        "location2": [
            16
        ], 
        "(30, 16)": {
            "AM2F": [
                2454
            ], 
            "WBF": [
                4043
            ], 
            "BM1F": [
                599
            ], 
            "M1": [
                5131
            ], 
            "irrelevant_Adj": [
                1
            ], 
            "M2": [
                3085
            ], 
            "BM1L": [
                8140
            ], 
            "WBO": [
                599, 
                4640, 
                4283, 
                8887, 
                6730, 
                7937, 
                3252, 
                7433, 
                2103, 
                8162
            ], 
            "WBL": [
                310
            ], 
            "irrelevant_Noun": [
                0
            ], 
            "M1_ADJ": [
                0
            ]
        }, 
        "sentence": "there is no way i would take my truck that ive put so much time and money in , and line it with roofing tar for sound deadening to save a few dollar ."
    }
}