{
    "a57bb7dd4404a3e03645bf621a3d6784": {
        "(13, 8)": {
            "AM2L": [
                8821
            ], 
            "AM2F": [
                2030
            ], 
            "WBF": [
                3729
            ], 
            "BM1F": [
                4283
            ], 
            "M1": [
                5485
            ], 
            "irrelevant_Adj": [
                1
            ], 
            "M2": [
                3085
            ], 
            "BM1L": [
                8531
            ], 
            "WBO": [
                5033
            ], 
            "WBL": [
                310
            ], 
            "irrelevant_Noun": [
                0
            ], 
            "M1_ADJ": [
                0
            ]
        }, 
        "location1": [
            13
        ], 
        "location2": [
            8
        ], 
        "sentence": "so ez even a caveman can use it ! ok , he might have a few cut while trying !"
    }
}