{
    "8d65e94a88eb0c689d0ad229cae99c5e": {
        "(3, 4)": {
            "AM2L": [
                4465
            ], 
            "BM1F": [
                310
            ], 
            "M1": [
                3085
            ], 
            "irrelevant_Adj": [
                1
            ], 
            "M2": [
                8065
            ], 
            "BM1L": [
                688
            ], 
            "WBNULL": [
                1
            ], 
            "irrelevant_Noun": [
                1
            ], 
            "AM2F": [
                8162
            ], 
            "M1_ADJ": [
                1
            ]
        }, 
        "location1": [
            3
        ], 
        "location2": [
            4
        ], 
        "sentence": "there are a few thing to know about the absorber to get the most out of them ."
    }
}