{
    "1e0db318342ec8f13e667592abaeb090": {
        "(16, 18)": {
            "AM2L": [
                8113
            ], 
            "WBFL": [
                3437
            ], 
            "BM1F": [
                310
            ], 
            "M1": [
                3085
            ], 
            "irrelevant_Adj": [
                1
            ], 
            "M2": [
                6768
            ], 
            "BM1L": [
                4465
            ], 
            "AM2F": [
                5458
            ], 
            "irrelevant_Noun": [
                0
            ], 
            "M1_ADJ": [
                1
            ]
        }, 
        "location1": [
            16
        ], 
        "location2": [
            18
        ], 
        "sentence": "i 'm not an electrican but i 've worked with it long enough to know a few general rule of thumb ."
    }
}