{
    "ff8384c6b77f8d41fccc8fc1ba948f07": {
        "(3, 17)": {
            "WBF": [
                6103
            ], 
            "BM1F": [
                8034
            ], 
            "M1": [
                3085
            ], 
            "irrelevant_Adj": [
                1
            ], 
            "M2": [
                3268
            ], 
            "BM1L": [
                5458
            ], 
            "WBO": [
                8028, 
                8907, 
                720, 
                7420, 
                720, 
                8377, 
                6209, 
                4283, 
                5495, 
                599
            ], 
            "WBL": [
                4509
            ], 
            "irrelevant_Noun": [
                0
            ], 
            "M1_ADJ": [
                1
            ]
        }, 
        "location1": [
            3
        ], 
        "location2": [
            17
        ], 
        "sentence": "one of the few product that work as soon as u put it on and shud last forever ."
    }
}