{
    "bb3d16ecc6b23fba32024fb816d507a7": {
        "(15, 16)": {
            "AM2L": [
                8991
            ], 
            "BM1F": [
                310
            ], 
            "M1": [
                3085
            ], 
            "irrelevant_Adj": [
                1
            ], 
            "M2": [
                5140
            ], 
            "BM1L": [
                475
            ], 
            "WBNULL": [
                1
            ], 
            "irrelevant_Noun": [
                0
            ], 
            "AM2F": [
                7362
            ], 
            "M1_ADJ": [
                1
            ]
        }, 
        "location1": [
            15
        ], 
        "location2": [
            16
        ], 
        "sentence": "my only complaint is that it gets rust buildup inside the lock mechanism after a few month , so you need to clean it periodically ."
    }, 
    "5f41199b46a723b8a3631efeac5c45bc": {
        "(1, 2)": {
            "AM2L": [
                5232
            ], 
            "BM1F": [
                310
            ], 
            "M1": [
                3085
            ], 
            "irrelevant_Adj": [
                1
            ], 
            "M2": [
                5140
            ], 
            "AM2F": [
                491
            ], 
            "irrelevant_Noun": [
                0
            ], 
            "WBNULL": [
                1
            ], 
            "M1_ADJ": [
                1
            ]
        }, 
        "location1": [
            1
        ], 
        "location2": [
            2
        ], 
        "sentence": "a few month ago my neibhgor came by and told me that i had a leak ."
    }, 
    "15ea4487004a7450b21f3ef3af0350a4": {
        "location1": [
            24
        ], 
        "location2": [
            25
        ], 
        "(24, 25)": {
            "BM1F": [
                2853
            ], 
            "M1": [
                3085
            ], 
            "irrelevant_Adj": [
                1
            ], 
            "M2": [
                5140
            ], 
            "BM1L": [
                8747
            ], 
            "WBNULL": [
                1
            ], 
            "irrelevant_Noun": [
                0
            ], 
            "M1_ADJ": [
                1
            ]
        }, 
        "sentence": "for best result , i recommend that you clay clean the car with a good car clay and wax it with s100 car wax every few month ."
    }
}