{
    "bb3d16ecc6b23fba32024fb816d507a7": {
        "(15, 8)": {
            "AM2L": [
                7362
            ], 
            "AM2F": [
                5140
            ], 
            "WBF": [
                4134
            ], 
            "BM1F": [
                6787
            ], 
            "M1": [
                1231
            ], 
            "irrelevant_Adj": [
                1
            ], 
            "M2": [
                3085
            ], 
            "BM1L": [
                3461
            ], 
            "WBO": [
                8034, 
                4694, 
                4954
            ], 
            "WBL": [
                310
            ], 
            "irrelevant_Noun": [
                0
            ], 
            "M1_ADJ": [
                0
            ]
        }, 
        "location1": [
            15
        ], 
        "location2": [
            8
        ], 
        "sentence": "my only complaint is that it gets rust buildup inside the lock mechanism after a few month , so you need to clean it periodically ."
    }
}