{
    "2f5a3a55652fdf18bce43517439b9027": {
        "(1, 2)": {
            "AM2L": [
                6390
            ], 
            "BM1F": [
                2853
            ], 
            "M1": [
                3085
            ], 
            "irrelevant_Adj": [
                1
            ], 
            "M2": [
                8719
            ], 
            "AM2F": [
                3962
            ], 
            "irrelevant_Noun": [
                0
            ], 
            "WBNULL": [
                1
            ], 
            "M1_ADJ": [
                1
            ]
        }, 
        "(1, 10)": {
            "AM2L": [
                7369
            ], 
            "AM2F": [
                5543
            ], 
            "WBF": [
                8719
            ], 
            "BM1F": [
                2853
            ], 
            "M1": [
                3085
            ], 
            "irrelevant_Adj": [
                1
            ], 
            "M2": [
                8719
            ], 
            "WBO": [
                3962, 
                6390, 
                8542, 
                7405, 
                1061
            ], 
            "WBL": [
                8034
            ], 
            "irrelevant_Noun": [
                0
            ], 
            "M1_ADJ": [
                1
            ]
        }, 
        "location1": [
            1
        ], 
        "location2": [
            2, 
            10
        ], 
        "sentence": "every few wash , i recommend using some bleach in the wash or soaking it with some bleach to help keep it like new ."
    }
}