{
    "35f3b854d70a95f46aee7524912fe761": {
        "location1": [
            1
        ], 
        "location2": [
            4
        ], 
        "(1, 4)": {
            "AM2L": [
                6976
            ], 
            "AM2F": [
                4283
            ], 
            "WBF": [
                8776
            ], 
            "BM1F": [
                310
            ], 
            "M1": [
                3085
            ], 
            "irrelevant_Adj": [
                1
            ], 
            "M2": [
                668
            ], 
            "WBO": [
                475
            ], 
            "WBL": [
                475
            ], 
            "irrelevant_Noun": [
                0
            ], 
            "M1_ADJ": [
                1
            ]
        }, 
        "sentence": "a few week after application it seems to be wearing off unevenly ."
    }
}