{
    "168b167844dd7efc62ca701d3702b5f5": {
        "location1": [
            6
        ], 
        "location2": [
            14
        ], 
        "(6, 14)": {
            "AM2L": [
                5232
            ], 
            "AM2F": [
                4043
            ], 
            "WBF": [
                7680
            ], 
            "BM1F": [
                310
            ], 
            "M1": [
                3085
            ], 
            "irrelevant_Adj": [
                1
            ], 
            "M2": [
                1286
            ], 
            "BM1L": [
                182
            ], 
            "WBO": [
                4043, 
                5683, 
                4737, 
                945
            ], 
            "WBL": [
                4401
            ], 
            "irrelevant_Noun": [
                0
            ], 
            "M1_ADJ": [
                1
            ]
        }, 
        "sentence": "i 've & # 34 ; rescued & # 34 ; a few stranger in parking lot because i keep cable in my car ."
    }
}