{
    "a57bb7dd4404a3e03645bf621a3d6784": {
        "(13, 14)": {
            "AM2L": [
                8330
            ], 
            "BM1F": [
                310
            ], 
            "M1": [
                3085
            ], 
            "irrelevant_Adj": [
                1
            ], 
            "M2": [
                2030
            ], 
            "BM1L": [
                3717
            ], 
            "WBNULL": [
                1
            ], 
            "irrelevant_Noun": [
                0
            ], 
            "AM2F": [
                8821
            ], 
            "M1_ADJ": [
                1
            ]
        }, 
        "location1": [
            13
        ], 
        "location2": [
            14
        ], 
        "sentence": "so ez even a caveman can use it ! ok , he might have a few cut while trying !"
    }
}