{
    "ff8384c6b77f8d41fccc8fc1ba948f07": {
        "(3, 4)": {
            "AM2L": [
                8907
            ], 
            "BM1F": [
                8034
            ], 
            "M1": [
                3085
            ], 
            "irrelevant_Adj": [
                1
            ], 
            "M2": [
                6103
            ], 
            "BM1L": [
                5458
            ], 
            "WBNULL": [
                1
            ], 
            "irrelevant_Noun": [
                0
            ], 
            "AM2F": [
                8028
            ], 
            "M1_ADJ": [
                1
            ]
        }, 
        "location1": [
            3
        ], 
        "location2": [
            4
        ], 
        "sentence": "one of the few product that work as soon as u put it on and shud last forever ."
    }
}