{
    "421b646afe71fddb7e029998d63c2b84": {
        "location1": [
            10
        ], 
        "location2": [
            30
        ], 
        "(10, 30)": {
            "AM2L": [
                956
            ], 
            "AM2F": [
                3705
            ], 
            "WBF": [
                8979
            ], 
            "BM1F": [
                4509
            ], 
            "M1": [
                3085
            ], 
            "irrelevant_Adj": [
                1
            ], 
            "M2": [
                574
            ], 
            "BM1L": [
                8034
            ], 
            "WBO": [
                1262, 
                8887, 
                310, 
                6372, 
                6195, 
                5458, 
                310, 
                1160, 
                5314, 
                135, 
                7738, 
                8969, 
                1986, 
                5232, 
                804, 
                8885
            ], 
            "WBL": [
                5495
            ], 
            "irrelevant_Noun": [
                0
            ], 
            "M1_ADJ": [
                1
            ]
        }, 
        "sentence": "i had gotten away from super-anal car care the last few year but with a recent purchase of a brand new 2014 subaru xv crosstrek , my automotive wishlist her on amazon has been growing and another california duster has been towards the top of the & # 34 ; really want & # 34 ; list ."
    }
}