{
    "421b646afe71fddb7e029998d63c2b84": {
        "(10, 49)": {
            "WBF": [
                8979
            ], 
            "BM1F": [
                4509
            ], 
            "M1": [
                3085
            ], 
            "irrelevant_Adj": [
                1
            ], 
            "M2": [
                4650
            ], 
            "BM1L": [
                8034
            ], 
            "WBO": [
                1262, 
                8887, 
                310, 
                6372, 
                6195, 
                5458, 
                310, 
                1160, 
                5314, 
                135, 
                7738, 
                8969, 
                1986, 
                5232, 
                804, 
                8885, 
                3781, 
                5495, 
                574, 
                3705, 
                956, 
                3602, 
                599, 
                620, 
                1305, 
                2580, 
                3705, 
                956, 
                8225, 
                8034, 
                8195, 
                5458, 
                8034, 
                182, 
                6354
            ], 
            "WBL": [
                182
            ], 
            "irrelevant_Noun": [
                0
            ], 
            "M1_ADJ": [
                1
            ]
        }, 
        "location1": [
            10
        ], 
        "location2": [
            49
        ], 
        "sentence": "i had gotten away from super-anal car care the last few year but with a recent purchase of a brand new 2014 subaru xv crosstrek , my automotive wishlist her on amazon has been growing and another california duster has been towards the top of the & # 34 ; really want & # 34 ; list ."
    }
}