{
    "cb3ebfe74642e76d06a44a29efb7c487": {
        "location1": [
            20
        ], 
        "location2": [
            6
        ], 
        "(20, 6)": {
            "AM2L": [
                8330
            ], 
            "AM2F": [
                8140
            ], 
            "WBF": [
                5458
            ], 
            "BM1F": [
                310
            ], 
            "M1": [
                1246
            ], 
            "irrelevant_Adj": [
                1
            ], 
            "M2": [
                3085
            ], 
            "BM1L": [
                4283
            ], 
            "WBO": [
                6354, 
                3518, 
                7072, 
                599, 
                8044, 
                6286, 
                5232, 
                3124, 
                8111, 
                8034
            ], 
            "WBL": [
                310
            ], 
            "irrelevant_Noun": [
                0
            ], 
            "M1_ADJ": [
                0
            ]
        }, 
        "sentence": "after that i gave it a bunch of really good shake and then ran my finger thru the fiber a few time trying to get out any of the lose one ."
    }
}