{
    "07c52fa0f8679ddfc46994e310ec7aab": {
        "(3, 4)": {
            "BM1F": [
                5458
            ], 
            "M1": [
                3112
            ], 
            "irrelevant_Adj": [
                0
            ], 
            "M2": [
                8082
            ], 
            "BM1L": [
                1907
            ], 
            "WBNULL": [
                1
            ], 
            "irrelevant_Noun": [
                0
            ], 
            "M1_ADJ": [
                1
            ]
        }, 
        "location1": [
            3
        ], 
        "location2": [
            4
        ], 
        "sentence": "a couple of final thought ."
    }
}