{
    "0341dd924f2afe50ddde310a998b18d9": {
        "location1": [
            13
        ], 
        "location2": [
            19
        ], 
        "(13, 19)": {
            "AM2L": [
                8718
            ], 
            "AM2F": [
                1262
            ], 
            "WBF": [
                8864
            ], 
            "BM1F": [
                4625
            ], 
            "M1": [
                3120
            ], 
            "irrelevant_Adj": [
                0
            ], 
            "M2": [
                486
            ], 
            "BM1L": [
                3564
            ], 
            "WBO": [
                4283, 
                3531
            ], 
            "WBL": [
                8887
            ], 
            "irrelevant_Noun": [
                0
            ], 
            "M1_ADJ": [
                1
            ]
        }, 
        "sentence": "i still have my old original california duster and it work great ( like fine wine , it got better with age ) but was mostly interested in this smaller one for the interior ."
    }
}