{
    "263a0ab7d43f3ec4610334dd08f2c616": {
        "(19, 16)": {
            "AM2L": [
                5232
            ], 
            "AM2F": [
                8887
            ], 
            "WBF": [
                8907
            ], 
            "BM1F": [
                5566
            ], 
            "M1": [
                5410
            ], 
            "irrelevant_Adj": [
                0
            ], 
            "M2": [
                3120
            ], 
            "BM1L": [
                5232
            ], 
            "WBO": [
                4376
            ], 
            "WBL": [
                4376
            ], 
            "irrelevant_Noun": [
                0
            ], 
            "M1_ADJ": [
                0
            ]
        }, 
        "location1": [
            19
        ], 
        "location2": [
            16
        ], 
        "sentence": "build quality is second to none , but i knocked it down a star because my other nozzle work just fine with my light duty hose ."
    }, 
    "02372f59de4e8c44d2f54d748122ae7a": {
        "(22, 27)": {
            "AM2L": [
                2445
            ], 
            "AM2F": [
                8028
            ], 
            "WBF": [
                3252
            ], 
            "BM1F": [
                8
            ], 
            "M1": [
                3120
            ], 
            "irrelevant_Adj": [
                0
            ], 
            "M2": [
                5410
            ], 
            "BM1L": [
                8028
            ], 
            "WBO": [
                3719
            ], 
            "WBL": [
                3362
            ], 
            "irrelevant_Noun": [
                0
            ], 
            "M1_ADJ": [
                1
            ]
        }, 
        "location1": [
            22
        ], 
        "location2": [
            27
        ], 
        "sentence": "the worst thing i can say about it is it 's tricky to fit under some car wheel well but that 's fine for having a functional nozzle that does what it is supposed to do year and year ."
    }
}