{
    "392ddf0c6dda70502cc84added6c6bd1": {
        "(2, 7)": {
            "AM2L": [
                1283
            ], 
            "AM2F": [
                351
            ], 
            "WBF": [
                5495
            ], 
            "BM1F": [
                3149
            ], 
            "M1": [
                3120
            ], 
            "irrelevant_Adj": [
                0
            ], 
            "M2": [
                7900
            ], 
            "BM1L": [
                4283
            ], 
            "WBO": [
                5232
            ], 
            "WBL": [
                8232
            ], 
            "irrelevant_Noun": [
                0
            ], 
            "M1_ADJ": [
                1
            ]
        }, 
        "location1": [
            2
        ], 
        "location2": [
            7
        ], 
        "sentence": "it fit fine on my 2012 toyota tacoma access cab ."
    }
}