{
    "3e32ea5fe7767307006695359d1af45a": {
        "(14, 4)": {
            "WBF": [
                8887
            ], 
            "BM1F": [
                8073
            ], 
            "M1": [
                694
            ], 
            "irrelevant_Adj": [
                0
            ], 
            "M2": [
                3120
            ], 
            "BM1L": [
                3646
            ], 
            "WBO": [
                5751, 
                959, 
                5232, 
                261, 
                1476, 
                7598
            ], 
            "WBL": [
                8320
            ], 
            "irrelevant_Noun": [
                0
            ], 
            "M1_ADJ": [
                0
            ]
        }, 
        "location1": [
            14
        ], 
        "location2": [
            4
        ], 
        "sentence": "i 've had this argument with people before : `` my 6ga cheapies start my truck fine . ``"
    }
}