{
    "263a0ab7d43f3ec4610334dd08f2c616": {
        "(19, 5)": {
            "AM2L": [
                5232
            ], 
            "AM2F": [
                8887
            ], 
            "WBF": [
                1262
            ], 
            "BM1F": [
                8162
            ], 
            "M1": [
                5363
            ], 
            "irrelevant_Adj": [
                0
            ], 
            "M2": [
                3120
            ], 
            "BM1L": [
                6954
            ], 
            "WBO": [
                3962, 
                4461, 
                4283, 
                2481, 
                310, 
                7587, 
                945, 
                5232, 
                5566, 
                5410
            ], 
            "WBL": [
                4376
            ], 
            "irrelevant_Noun": [
                0
            ], 
            "M1_ADJ": [
                0
            ]
        }, 
        "location1": [
            19
        ], 
        "location2": [
            5
        ], 
        "sentence": "build quality is second to none , but i knocked it down a star because my other nozzle work just fine with my light duty hose ."
    }, 
    "9186c28a3a592fb305b30f17556e9f96": {
        "location1": [
            17
        ], 
        "location2": [
            1
        ], 
        "(17, 1)": {
            "AM2L": [
                5543
            ], 
            "AM2F": [
                5076
            ], 
            "WBF": [
                5458
            ], 
            "BM1F": [
                6956
            ], 
            "M1": [
                5363
            ], 
            "irrelevant_Adj": [
                0
            ], 
            "M2": [
                3120
            ], 
            "WBO": [
                8034, 
                4335, 
                5686, 
                5458, 
                8034, 
                438, 
                1948, 
                310, 
                1564, 
                4335, 
                8049, 
                4268
            ], 
            "WBL": [
                310
            ], 
            "irrelevant_Noun": [
                0
            ], 
            "M1_ADJ": [
                0
            ]
        }, 
        "sentence": "secondly , none of the ' jet ' part of the adjustment creates a clean jet , there is always a fine mist or errant second or third jet spraying in a different direction at the same time ."
    }
}