{
    "1240aeb99b0efa15432488e1a5ff7284": {
        "location1": [
            9
        ], 
        "location2": [
            13
        ], 
        "(9, 13)": {
            "AM2L": [
                4431
            ], 
            "AM2F": [
                3903
            ], 
            "WBF": [
                7526
            ], 
            "BM1F": [
                310
            ], 
            "M1": [
                3120
            ], 
            "irrelevant_Adj": [
                0
            ], 
            "M2": [
                3133
            ], 
            "BM1L": [
                6099
            ], 
            "WBO": [
                599
            ], 
            "WBL": [
                310
            ], 
            "irrelevant_Noun": [
                0
            ], 
            "M1_ADJ": [
                1
            ]
        }, 
        "sentence": "sure , it has a unique ability to produce a fine spray and a fire hose kind of effect , but when switching between pattern it pass mostly through various stream of concentrated water that dench anything in its way ."
    }
}