{
    "89d913a800a8eae9a84ff49e6c3324d4": {
        "location1": [
            1
        ], 
        "location2": [
            4
        ], 
        "(1, 4)": {
            "AM2L": [
                3646
            ], 
            "AM2F": [
                3962
            ], 
            "WBF": [
                1305
            ], 
            "BM1F": [
                8034
            ], 
            "M1": [
                3142
            ], 
            "irrelevant_Adj": [
                1
            ], 
            "M2": [
                2580
            ], 
            "WBO": [
                1358
            ], 
            "WBL": [
                1358
            ], 
            "irrelevant_Noun": [
                0
            ], 
            "M1_ADJ": [
                1
            ]
        }, 
        "sentence": "the first california car duster i had recieved as a gift lasted 15 yrs ."
    }
}