{
    "fbf0ab2baa6a0eeb137852272e67895f": {
        "(2, 3)": {
            "AM2L": [
                2304
            ], 
            "BM1F": [
                5495
            ], 
            "M1": [
                3142
            ], 
            "irrelevant_Adj": [
                1
            ], 
            "M2": [
                8531
            ], 
            "BM1L": [
                3924
            ], 
            "WBNULL": [
                1
            ], 
            "irrelevant_Noun": [
                0
            ], 
            "AM2F": [
                4283
            ], 
            "M1_ADJ": [
                1
            ]
        }, 
        "location1": [
            2
        ], 
        "location2": [
            3
        ], 
        "sentence": "however , on first use it did a lot more for us than expected ."
    }, 
    "acf62fefbc3d4603c87a6486b24111b2": {
        "(13, 14)": {
            "BM1F": [
                959
            ], 
            "M1": [
                3142
            ], 
            "irrelevant_Adj": [
                1
            ], 
            "M2": [
                8531
            ], 
            "BM1L": [
                3915
            ], 
            "WBNULL": [
                1
            ], 
            "irrelevant_Noun": [
                0
            ], 
            "M1_ADJ": [
                1
            ]
        }, 
        "location1": [
            13
        ], 
        "location2": [
            14
        ], 
        "sentence": "important : follow the direction to place this on newspaper for 48 hour before first use ."
    }, 
    "b47b76fee619b4e2dbead2f3f3acbe79": {
        "(27, 28)": {
            "BM1F": [
                475
            ], 
            "M1": [
                3142
            ], 
            "irrelevant_Adj": [
                1
            ], 
            "M2": [
                8531
            ], 
            "BM1L": [
                4279
            ], 
            "WBNULL": [
                1
            ], 
            "irrelevant_Noun": [
                0
            ], 
            "M1_ADJ": [
                1
            ]
        }, 
        "location1": [
            27
        ], 
        "location2": [
            28
        ], 
        "sentence": "ca n't comment much on these since they have not yet been used ( i will come back and update my review is i find any issue after first use ) ."
    }, 
    "944e4b1e6b65890d673649f471d7a058": {
        "(1, 25)": {
            "AM2L": [
                8870
            ], 
            "AM2F": [
                8862
            ], 
            "WBF": [
                8140
            ], 
            "BM1F": [
                8034
            ], 
            "M1": [
                3142
            ], 
            "irrelevant_Adj": [
                1
            ], 
            "M2": [
                8531
            ], 
            "WBO": [
                4283, 
                6271, 
                475, 
                3962, 
                8534, 
                6274, 
                8718, 
                5495, 
                310, 
                1983, 
                8310, 
                4509, 
                8776, 
                599, 
                573, 
                4283, 
                546, 
                1715, 
                2688, 
                8034
            ], 
            "WBL": [
                8162
            ], 
            "irrelevant_Noun": [
                0
            ], 
            "M1_ADJ": [
                1
            ]
        }, 
        "location1": [
            1
        ], 
        "location2": [
            25
        ], 
        "sentence": "the first time it rained after i used rainx was on a cross-country trip last week , and amazingly it almost completely eliminated the need to use windshield wipe even during downpour ."
    }, 
    "195240abbbd59e26d9cdbd21fe256af3": {
        "(10, 9)": {
            "AM2L": [
                6673
            ], 
            "BM1F": [
                8162
            ], 
            "M1": [
                8531
            ], 
            "irrelevant_Adj": [
                1
            ], 
            "M2": [
                3142
            ], 
            "BM1L": [
                1054
            ], 
            "WBNULL": [
                1
            ], 
            "irrelevant_Noun": [
                0
            ], 
            "AM2F": [
                475
            ], 
            "M1_ADJ": [
                0
            ]
        }, 
        "location1": [
            10
        ], 
        "location2": [
            9
        ], 
        "sentence": "i would also recommend a soft water blade to use first after rinsing your vehicle to do the large area and window ."
    }, 
    "bc267bd47ec52fba432276c7095cd324": {
        "(1, 19)": {
            "AM2L": [
                310
            ], 
            "AM2F": [
                3252
            ], 
            "WBF": [
                772
            ], 
            "BM1F": [
                5232
            ], 
            "M1": [
                3142
            ], 
            "irrelevant_Adj": [
                1
            ], 
            "M2": [
                8531
            ], 
            "WBO": [
                8162, 
                8531, 
                4283, 
                8718, 
                8887, 
                310, 
                7308, 
                2301, 
                3903, 
                599, 
                8057, 
                688, 
                5387, 
                8034
            ], 
            "WBL": [
                8162
            ], 
            "irrelevant_Noun": [
                0
            ], 
            "M1_ADJ": [
                1
            ]
        }, 
        "location1": [
            1
        ], 
        "location2": [
            4, 
            19
        ], 
        "(1, 4)": {
            "AM2L": [
                8718
            ], 
            "AM2F": [
                4283
            ], 
            "WBF": [
                772
            ], 
            "BM1F": [
                5232
            ], 
            "M1": [
                3142
            ], 
            "irrelevant_Adj": [
                1
            ], 
            "M2": [
                8531
            ], 
            "WBO": [
                8162
            ], 
            "WBL": [
                8162
            ], 
            "irrelevant_Noun": [
                0
            ], 
            "M1_ADJ": [
                1
            ]
        }, 
        "sentence": "my first attempt to use it was with a small diameter hose and they are not the best to use for a nozzle that us a standard hose ."
    }
}