{
    "195240abbbd59e26d9cdbd21fe256af3": {
        "(10, 7)": {
            "AM2L": [
                6673
            ], 
            "AM2F": [
                475
            ], 
            "WBF": [
                8162
            ], 
            "BM1F": [
                8736
            ], 
            "M1": [
                1054
            ], 
            "irrelevant_Adj": [
                1
            ], 
            "M2": [
                3142
            ], 
            "BM1L": [
                7383
            ], 
            "WBO": [
                8531
            ], 
            "WBL": [
                8531
            ], 
            "irrelevant_Noun": [
                0
            ], 
            "M1_ADJ": [
                0
            ]
        }, 
        "location1": [
            10
        ], 
        "location2": [
            7
        ], 
        "sentence": "i would also recommend a soft water blade to use first after rinsing your vehicle to do the large area and window ."
    }
}