{
    "66805b6f23cd8773f811ca3d3d282c2c": {
        "(1, 2)": {
            "AM2L": [
                2304
            ], 
            "BM1F": [
                8034
            ], 
            "M1": [
                3142
            ], 
            "irrelevant_Adj": [
                1
            ], 
            "M2": [
                8065
            ], 
            "AM2F": [
                3962
            ], 
            "irrelevant_Noun": [
                1
            ], 
            "WBNULL": [
                1
            ], 
            "M1_ADJ": [
                1
            ]
        }, 
        "location1": [
            1
        ], 
        "location2": [
            2
        ], 
        "sentence": "the first thing i did [ i know it void any warranty ] is open it up and de-solder three wire from the short 12 `` cord and upgrade to a 14 gage 3 conductor cord of adequate single length ."
    }
}