{
    "66805b6f23cd8773f811ca3d3d282c2c": {
        "(1, 32)": {
            "AM2L": [
                431
            ], 
            "AM2F": [
                5458
            ], 
            "WBF": [
                8065
            ], 
            "BM1F": [
                8034
            ], 
            "M1": [
                3142
            ], 
            "irrelevant_Adj": [
                1
            ], 
            "M2": [
                1874
            ], 
            "WBO": [
                3962, 
                2304, 
                3962, 
                4465, 
                4283, 
                8652, 
                636, 
                8715, 
                4268, 
                5522, 
                4283, 
                8501, 
                599, 
                2098, 
                8092, 
                8874, 
                3338, 
                8034, 
                7138, 
                57, 
                1874, 
                599, 
                8507, 
                8162, 
                310, 
                70, 
                3402
            ], 
            "WBL": [
                1758
            ], 
            "irrelevant_Noun": [
                0
            ], 
            "M1_ADJ": [
                1
            ]
        }, 
        "(1, 23)": {
            "AM2L": [
                8507
            ], 
            "AM2F": [
                599
            ], 
            "WBF": [
                8065
            ], 
            "BM1F": [
                8034
            ], 
            "M1": [
                3142
            ], 
            "irrelevant_Adj": [
                1
            ], 
            "M2": [
                1874
            ], 
            "WBO": [
                3962, 
                2304, 
                3962, 
                4465, 
                4283, 
                8652, 
                636, 
                8715, 
                4268, 
                5522, 
                4283, 
                8501, 
                599, 
                2098, 
                8092, 
                8874, 
                3338, 
                8034
            ], 
            "WBL": [
                57
            ], 
            "irrelevant_Noun": [
                0
            ], 
            "M1_ADJ": [
                1
            ]
        }, 
        "location1": [
            1
        ], 
        "location2": [
            23, 
            32
        ], 
        "sentence": "the first thing i did [ i know it void any warranty ] is open it up and de-solder three wire from the short 12 `` cord and upgrade to a 14 gage 3 conductor cord of adequate single length ."
    }
}