{
    "1718171dc00fbc9b53207c88972e1934": {
        "location1": [
            3
        ], 
        "location2": [
            6
        ], 
        "(3, 6)": {
            "WBF": [
                6195
            ], 
            "BM1F": [
                5232
            ], 
            "M1": [
                3142
            ], 
            "irrelevant_Adj": [
                1
            ], 
            "M2": [
                6268
            ], 
            "BM1L": [
                4268
            ], 
            "WBO": [
                5458
            ], 
            "WBL": [
                5458
            ], 
            "irrelevant_Noun": [
                0
            ], 
            "M1_ADJ": [
                1
            ]
        }, 
        "sentence": "this is my first purchase of rain-x ."
    }
}