{
    "944e4b1e6b65890d673649f471d7a058": {
        "(1, 23)": {
            "AM2L": [
                8531
            ], 
            "AM2F": [
                8162
            ], 
            "WBF": [
                8140
            ], 
            "BM1F": [
                8034
            ], 
            "M1": [
                3142
            ], 
            "irrelevant_Adj": [
                1
            ], 
            "M2": [
                5284
            ], 
            "WBO": [
                4283, 
                6271, 
                475, 
                3962, 
                8534, 
                6274, 
                8718, 
                5495, 
                310, 
                1983, 
                8310, 
                4509, 
                8776, 
                599, 
                573, 
                4283, 
                546, 
                1715
            ], 
            "WBL": [
                8034
            ], 
            "irrelevant_Noun": [
                0
            ], 
            "M1_ADJ": [
                1
            ]
        }, 
        "location1": [
            1
        ], 
        "location2": [
            23
        ], 
        "sentence": "the first time it rained after i used rainx was on a cross-country trip last week , and amazingly it almost completely eliminated the need to use windshield wipe even during downpour ."
    }, 
    "65eebef8f787c8c1451684652ac33ed1": {
        "location1": [
            7
        ], 
        "location2": [
            10
        ], 
        "(7, 10)": {
            "AM2F": [
                4283
            ], 
            "WBF": [
                8140
            ], 
            "BM1F": [
                8034
            ], 
            "M1": [
                3142
            ], 
            "irrelevant_Adj": [
                1
            ], 
            "M2": [
                5284
            ], 
            "BM1L": [
                4290
            ], 
            "WBO": [
                8991
            ], 
            "WBL": [
                8991
            ], 
            "irrelevant_Noun": [
                0
            ], 
            "M1_ADJ": [
                1
            ]
        }, 
        "sentence": "but will easily pay for itself the first time you need it ."
    }, 
    "adeca544ec2511f80564173b41716811": {
        "location1": [
            0
        ], 
        "location2": [
            10
        ], 
        "(0, 10)": {
            "WBF": [
                5459
            ], 
            "AM2L": [
                729
            ], 
            "M1": [
                3142
            ], 
            "irrelevant_Adj": [
                1
            ], 
            "M2": [
                5284
            ], 
            "WBO": [
                2436, 
                5245, 
                929, 
                8034, 
                5777, 
                8028
            ], 
            "WBL": [
                5512
            ], 
            "irrelevant_Noun": [
                0
            ], 
            "AM2F": [
                8162
            ], 
            "M1_ADJ": [
                1
            ]
        }, 
        "sentence": "first off , do n't be the person that not only need to ask a kind passer-by for a `` jump `` but also if they have jumper cable ."
    }
}