{
    "abe5ffcc3dca16070b25a6d76b2aac0f": {
        "(9, 10)": {
            "AM2L": [
                7015
            ], 
            "BM1F": [
                5232
            ], 
            "M1": [
                3142
            ], 
            "irrelevant_Adj": [
                1
            ], 
            "M2": [
                5547
            ], 
            "BM1L": [
                5073
            ], 
            "WBNULL": [
                1
            ], 
            "irrelevant_Noun": [
                0
            ], 
            "AM2F": [
                574
            ], 
            "M1_ADJ": [
                1
            ]
        }, 
        "location1": [
            9
        ], 
        "location2": [
            10
        ], 
        "sentence": "also , the flag it comes with was missing my first order , amazon sent me a new one , but the flag is real cheap ."
    }
}