{
    "15eee247ae0692dfebcc09719c1765f3": {
        "(0, 5)": {
            "WBF": [
                5458
            ], 
            "AM2L": [
                6577
            ], 
            "M1": [
                3142
            ], 
            "irrelevant_Adj": [
                1
            ], 
            "M2": [
                2676
            ], 
            "WBO": [
                8034
            ], 
            "WBL": [
                5458
            ], 
            "irrelevant_Noun": [
                0
            ], 
            "AM2F": [
                4268
            ], 
            "M1_ADJ": [
                1
            ]
        }, 
        "location1": [
            0
        ], 
        "location2": [
            5
        ], 
        "sentence": "first of the enemy of electricty is resistance ."
    }
}