{
    "65c70f44f12bfd8a943f4661608c3eab": {
        "location1": [
            12
        ], 
        "location2": [
            16
        ], 
        "(12, 16)": {
            "WBF": [
                3200
            ], 
            "BM1F": [
                2787
            ], 
            "M1": [
                3142
            ], 
            "irrelevant_Adj": [
                1
            ], 
            "M2": [
                3916
            ], 
            "BM1L": [
                5232
            ], 
            "WBO": [
                5458
            ], 
            "WBL": [
                5232
            ], 
            "irrelevant_Noun": [
                0
            ], 
            "M1_ADJ": [
                1
            ]
        }, 
        "sentence": "afterwards i brought it inside and used it to dust my entire first floor of my house ."
    }
}