{
    "abe5ffcc3dca16070b25a6d76b2aac0f": {
        "(9, 2)": {
            "AM2L": [
                574
            ], 
            "AM2F": [
                5547
            ], 
            "WBF": [
                4283
            ], 
            "BM1F": [
                8034
            ], 
            "M1": [
                3163
            ], 
            "irrelevant_Adj": [
                1
            ], 
            "M2": [
                3142
            ], 
            "BM1L": [
                554
            ], 
            "WBO": [
                1668, 
                8887, 
                8718
            ], 
            "WBL": [
                5232
            ], 
            "irrelevant_Noun": [
                0
            ], 
            "M1_ADJ": [
                0
            ]
        }, 
        "location1": [
            9
        ], 
        "location2": [
            2, 
            19
        ], 
        "(9, 19)": {
            "AM2L": [
                6344
            ], 
            "AM2F": [
                4268
            ], 
            "WBF": [
                5547
            ], 
            "BM1F": [
                5232
            ], 
            "M1": [
                3142
            ], 
            "irrelevant_Adj": [
                1
            ], 
            "M2": [
                3163
            ], 
            "BM1L": [
                5073
            ], 
            "WBO": [
                574, 
                7015, 
                4940, 
                310, 
                5314, 
                5503
            ], 
            "WBL": [
                8034
            ], 
            "irrelevant_Noun": [
                0
            ], 
            "M1_ADJ": [
                1
            ]
        }, 
        "sentence": "also , the flag it comes with was missing my first order , amazon sent me a new one , but the flag is real cheap ."
    }
}