{
    "a4fd8ebed61aec796e81907d55599320": {
        "(14, 11)": {
            "AM2F": [
                668
            ], 
            "WBF": [
                475
            ], 
            "BM1F": [
                8034
            ], 
            "M1": [
                8862
            ], 
            "irrelevant_Adj": [
                1
            ], 
            "M2": [
                3142
            ], 
            "BM1L": [
                5495
            ], 
            "WBO": [
                8034
            ], 
            "WBL": [
                8034
            ], 
            "irrelevant_Noun": [
                0
            ], 
            "M1_ADJ": [
                0
            ]
        }, 
        "location1": [
            14
        ], 
        "location2": [
            11
        ], 
        "sentence": "also it was difficult to get a good buffing on the windshield after the first application ."
    }, 
    "944e4b1e6b65890d673649f471d7a058": {
        "location1": [
            1
        ], 
        "location2": [
            26
        ], 
        "(1, 26)": {
            "AM2L": [
                2847
            ], 
            "AM2F": [
                8870
            ], 
            "WBF": [
                8140
            ], 
            "BM1F": [
                8034
            ], 
            "M1": [
                3142
            ], 
            "irrelevant_Adj": [
                1
            ], 
            "M2": [
                8862
            ], 
            "WBO": [
                4283, 
                6271, 
                475, 
                3962, 
                8534, 
                6274, 
                8718, 
                5495, 
                310, 
                1983, 
                8310, 
                4509, 
                8776, 
                599, 
                573, 
                4283, 
                546, 
                1715, 
                2688, 
                8034, 
                5284
            ], 
            "WBL": [
                8531
            ], 
            "irrelevant_Noun": [
                0
            ], 
            "M1_ADJ": [
                1
            ]
        }, 
        "sentence": "the first time it rained after i used rainx was on a cross-country trip last week , and amazingly it almost completely eliminated the need to use windshield wipe even during downpour ."
    }
}