{
    "195240abbbd59e26d9cdbd21fe256af3": {
        "location1": [
            10
        ], 
        "location2": [
            19
        ], 
        "(10, 19)": {
            "AM2L": [
                8860
            ], 
            "AM2F": [
                599
            ], 
            "WBF": [
                475
            ], 
            "BM1F": [
                8531
            ], 
            "M1": [
                3142
            ], 
            "irrelevant_Adj": [
                1
            ], 
            "M2": [
                689
            ], 
            "BM1L": [
                8162
            ], 
            "WBO": [
                6673, 
                8997, 
                8587, 
                8162, 
                2436
            ], 
            "WBL": [
                4501
            ], 
            "irrelevant_Noun": [
                0
            ], 
            "M1_ADJ": [
                1
            ]
        }, 
        "sentence": "i would also recommend a soft water blade to use first after rinsing your vehicle to do the large area and window ."
    }
}