{
    "9e79214f6b888a0e09ed12e3b426de50": {
        "(4, 5)": {
            "AM2L": [
                5543
            ], 
            "BM1F": [
                310
            ], 
            "M1": [
                3159
            ], 
            "irrelevant_Adj": [
                0
            ], 
            "M2": [
                5416
            ], 
            "BM1L": [
                4268
            ], 
            "WBNULL": [
                1
            ], 
            "irrelevant_Noun": [
                0
            ], 
            "AM2F": [
                5148
            ], 
            "M1_ADJ": [
                1
            ]
        }, 
        "location1": [
            4
        ], 
        "location2": [
            5
        ], 
        "sentence": "the voltage is a fixed number ( more or less ) so amperage is determined by the size of the engine your trying to start ."
    }
}