{
    "488bd812fef85152df3ebeed5406917c": {
        "(18, 1)": {
            "AM2L": [
                5458
            ], 
            "AM2F": [
                2547
            ], 
            "WBF": [
                3855
            ], 
            "BM1F": [
                8073
            ], 
            "M1": [
                8065
            ], 
            "irrelevant_Adj": [
                0
            ], 
            "M2": [
                3312
            ], 
            "WBO": [
                591, 
                757, 
                583, 
                5458, 
                8736, 
                3252, 
                4289, 
                7230, 
                599, 
                8781, 
                599, 
                4268, 
                2880
            ], 
            "WBL": [
                7688
            ], 
            "irrelevant_Noun": [
                1
            ], 
            "M1_ADJ": [
                0
            ]
        }, 
        "location1": [
            18
        ], 
        "location2": [
            1
        ], 
        "sentence": "this thing holds an astounding amount of water for its size and weight and is excellent at streak free drying of automotive surface ."
    }
}