{
    "26ffef41f1a84e69e5d0d5a804533ece": {
        "(23, 28)": {
            "AM2L": [
                4043
            ], 
            "AM2F": [
                5574
            ], 
            "WBF": [
                1244
            ], 
            "BM1F": [
                8034
            ], 
            "M1": [
                3339
            ], 
            "irrelevant_Adj": [
                0
            ], 
            "M2": [
                8821
            ], 
            "BM1L": [
                969
            ], 
            "WBO": [
                8162
            ], 
            "WBL": [
                8501
            ], 
            "irrelevant_Noun": [
                0
            ], 
            "M1_ADJ": [
                1
            ]
        }, 
        "location1": [
            23
        ], 
        "location2": [
            28
        ], 
        "sentence": "i mounted it securely under the hood next to the battery itself and have a heavy duty plug hanging down -- just behind the front bumper -- to connect up while out in the driveway ."
    }, 
    "39ffc4dca6f7d76c5ccc92bb72ed6103": {
        "(28, 8)": {
            "AM2L": [
                8034
            ], 
            "AM2F": [
                5458
            ], 
            "WBF": [
                5407
            ], 
            "BM1F": [
                310
            ], 
            "M1": [
                8821
            ], 
            "irrelevant_Adj": [
                0
            ], 
            "M2": [
                3339
            ], 
            "BM1L": [
                3252
            ], 
            "WBO": [
                599, 
                3117, 
                4283, 
                4268, 
                7771, 
                8162, 
                3851, 
                310, 
                3518, 
                7230, 
                8190, 
                1149, 
                5495, 
                8810, 
                4043, 
                5846
            ], 
            "WBL": [
                8034
            ], 
            "irrelevant_Noun": [
                0
            ], 
            "M1_ADJ": [
                0
            ]
        }, 
        "location1": [
            28
        ], 
        "location2": [
            8
        ], 
        "sentence": "update 05/22/13 : ok been using for a while now , and find it is suffice to hold a good size tool box on wheel in place at the front of the box ."
    }
}