{
    "87a325bc88d63bf4618bbc207c950406": {
        "(20, 13)": {
            "AM2L": [
                8567
            ], 
            "AM2F": [
                4756
            ], 
            "WBF": [
                8874
            ], 
            "BM1F": [
                5566
            ], 
            "M1": [
                2981
            ], 
            "irrelevant_Adj": [
                0
            ], 
            "M2": [
                3339
            ], 
            "BM1L": [
                8034
            ], 
            "WBO": [
                599, 
                6286, 
                4283
            ], 
            "WBL": [
                8034
            ], 
            "irrelevant_Noun": [
                0
            ], 
            "M1_ADJ": [
                0
            ]
        }, 
        "location1": [
            20
        ], 
        "location2": [
            13
        ], 
        "sentence": "i routed and zip-tied it to blend in with all of the other factory wire and ran it to the front lower valance [ bumper ] where i fabricated a simple aluminum bracket with grommet pull-through opening and terminated at a plug ."
    }
}