{
    "5fbbcc9625d6c205a1dfd2947537ef5b": {
        "(9, 24)": {
            "AM2L": [
                619
            ], 
            "AM2F": [
                4625
            ], 
            "WBF": [
                5410
            ], 
            "BM1F": [
                574
            ], 
            "M1": [
                3339
            ], 
            "irrelevant_Adj": [
                0
            ], 
            "M2": [
                4717
            ], 
            "BM1L": [
                760
            ], 
            "WBO": [
                4268, 
                7569, 
                5495, 
                1134, 
                5458, 
                5047, 
                1262, 
                8034, 
                1651, 
                1098, 
                8224
            ], 
            "WBL": [
                6359
            ], 
            "irrelevant_Noun": [
                0
            ], 
            "M1_ADJ": [
                1
            ]
        }, 
        "location1": [
            9
        ], 
        "location2": [
            24
        ], 
        "sentence": "whoop , just noticed in the pic here at amazon , front nozzle is stainless on both of mine but the colored body toward the rear look like anodized aluminum on both of mine ."
    }
}