{
    "87a325bc88d63bf4618bbc207c950406": {
        "location1": [
            20
        ], 
        "location2": [
            22
        ], 
        "(20, 22)": {
            "AM2L": [
                8814
            ], 
            "WBFL": [
                4756
            ], 
            "BM1F": [
                8034
            ], 
            "M1": [
                3339
            ], 
            "irrelevant_Adj": [
                0
            ], 
            "M2": [
                8567
            ], 
            "BM1L": [
                8162
            ], 
            "AM2F": [
                1244
            ], 
            "irrelevant_Noun": [
                0
            ], 
            "M1_ADJ": [
                1
            ]
        }, 
        "sentence": "i routed and zip-tied it to blend in with all of the other factory wire and ran it to the front lower valance [ bumper ] where i fabricated a simple aluminum bracket with grommet pull-through opening and terminated at a plug ."
    }
}