{
    "a01af467ce9d5b53fe29220f1435ea7e": {
        "(21, 39)": {
            "AM2L": [
                8034
            ], 
            "AM2F": [
                8162
            ], 
            "WBF": [
                5458
            ], 
            "BM1F": [
                4043
            ], 
            "M1": [
                3339
            ], 
            "irrelevant_Adj": [
                0
            ], 
            "M2": [
                8860
            ], 
            "BM1L": [
                8587
            ], 
            "WBO": [
                8991, 
                8073, 
                2445, 
                310, 
                3564, 
                4344, 
                5458, 
                4403, 
                8034, 
                933, 
                5181, 
                8501, 
                599, 
                5459
            ], 
            "WBL": [
                8034
            ], 
            "irrelevant_Noun": [
                0
            ], 
            "M1_ADJ": [
                1
            ]
        }, 
        "location1": [
            21
        ], 
        "location2": [
            39
        ], 
        "sentence": "during light rain or when the road are wet and mist is kicked up from the tire on the vehicle in front of you , this does a great job of keeping the beading moving up and off of the window to the point that you do n't really even need your wiper ."
    }
}