{
    "a01af467ce9d5b53fe29220f1435ea7e": {
        "(21, 19)": {
            "AM2L": [
                8991
            ], 
            "WBFL": [
                4043
            ], 
            "BM1F": [
                8034
            ], 
            "M1": [
                8587
            ], 
            "irrelevant_Adj": [
                0
            ], 
            "M2": [
                3339
            ], 
            "BM1L": [
                5495
            ], 
            "AM2F": [
                5458
            ], 
            "irrelevant_Noun": [
                0
            ], 
            "M1_ADJ": [
                0
            ]
        }, 
        "location1": [
            21
        ], 
        "location2": [
            19
        ], 
        "sentence": "during light rain or when the road are wet and mist is kicked up from the tire on the vehicle in front of you , this does a great job of keeping the beading moving up and off of the window to the point that you do n't really even need your wiper ."
    }, 
    "1058c8828602910244f2efb4c696fcb8": {
        "(14, 3)": {
            "WBF": [
                4268
            ], 
            "BM1F": [
                8040
            ], 
            "M1": [
                8587
            ], 
            "irrelevant_Adj": [
                0
            ], 
            "M2": [
                3339
            ], 
            "BM1L": [
                3985
            ], 
            "WBO": [
                8034, 
                7140, 
                5458, 
                8034, 
                8368, 
                8057, 
                1899
            ], 
            "WBL": [
                4043
            ], 
            "irrelevant_Noun": [
                0
            ], 
            "M1_ADJ": [
                0
            ]
        }, 
        "location1": [
            14
        ], 
        "location2": [
            3
        ], 
        "sentence": "or if their vehicle is the shorter of the two , they could pull in front ."
    }
}