{
    "bf07282d0099928893a58f268fdb87ed": {
        "location1": [
            12
        ], 
        "location2": [
            16
        ], 
        "(12, 16)": {
            "AM2L": [
                4268
            ], 
            "AM2F": [
                4290
            ], 
            "WBF": [
                5583
            ], 
            "BM1F": [
                8034
            ], 
            "M1": [
                3339
            ], 
            "irrelevant_Adj": [
                0
            ], 
            "M2": [
                1057
            ], 
            "BM1L": [
                3338
            ], 
            "WBO": [
                599
            ], 
            "WBL": [
                8034
            ], 
            "irrelevant_Noun": [
                0
            ], 
            "M1_ADJ": [
                1
            ]
        }, 
        "sentence": "the cord is long enough to reach the back seat from the front outlet and the blanket itself is big enough for two people ."
    }
}