{
    "664d8d0a63ae2e29fdcad89851351001": {
        "(30, 29)": {
            "AM2L": [
                4401
            ], 
            "BM1F": [
                8034
            ], 
            "M1": [
                8212
            ], 
            "irrelevant_Adj": [
                0
            ], 
            "M2": [
                3342
            ], 
            "BM1L": [
                5458
            ], 
            "WBNULL": [
                1
            ], 
            "irrelevant_Noun": [
                0
            ], 
            "AM2F": [
                7826
            ], 
            "M1_ADJ": [
                0
            ]
        }, 
        "location1": [
            30
        ], 
        "location2": [
            29
        ], 
        "sentence": "i applied this to all accessible ( front face ) surface , and only the spot where there was not a decal or other item present , probably less than 30 % of the total frontal surface ( keep in mind 50 % is the evaporator and blower vent ) , and the available space on the front cover ."
    }
}