{
    "664d8d0a63ae2e29fdcad89851351001": {
        "(30, 21)": {
            "AM2L": [
                4401
            ], 
            "AM2F": [
                7826
            ], 
            "WBF": [
                6025
            ], 
            "BM1F": [
                5566
            ], 
            "M1": [
                4286
            ], 
            "irrelevant_Adj": [
                0
            ], 
            "M2": [
                3342
            ], 
            "BM1L": [
                5543
            ], 
            "WBO": [
                6087, 
                4578, 
                8024, 
                170, 
                5458
            ], 
            "WBL": [
                8212
            ], 
            "irrelevant_Noun": [
                0
            ], 
            "M1_ADJ": [
                0
            ]
        }, 
        "location1": [
            30
        ], 
        "location2": [
            21
        ], 
        "sentence": "i applied this to all accessible ( front face ) surface , and only the spot where there was not a decal or other item present , probably less than 30 % of the total frontal surface ( keep in mind 50 % is the evaporator and blower vent ) , and the available space on the front cover ."
    }
}