{
    "f1720bf93944105228e052fa1732e9ab": {
        "(5, 6)": {
            "AM2L": [
                8034
            ], 
            "BM1F": [
                8034
            ], 
            "M1": [
                3339
            ], 
            "irrelevant_Adj": [
                0
            ], 
            "M2": [
                1591
            ], 
            "BM1L": [
                8404
            ], 
            "WBNULL": [
                1
            ], 
            "irrelevant_Noun": [
                0
            ], 
            "AM2F": [
                599
            ], 
            "M1_ADJ": [
                1
            ]
        }, 
        "location1": [
            5
        ], 
        "location2": [
            6
        ], 
        "sentence": "then you can unclip the front clip , and the lid flip up ."
    }
}