{
    "dabeba57e954c60be405f9282c9e8826": {
        "location1": [
            13
        ], 
        "location2": [
            5
        ], 
        "(13, 5)": {
            "WBF": [
                1275
            ], 
            "BM1F": [
                5458
            ], 
            "M1": [
                8736
            ], 
            "irrelevant_Adj": [
                0
            ], 
            "M2": [
                3339
            ], 
            "BM1L": [
                3205
            ], 
            "WBO": [
                8354, 
                8034, 
                7526, 
                3730
            ], 
            "WBL": [
                8034
            ], 
            "irrelevant_Noun": [
                0
            ], 
            "M1_ADJ": [
                0
            ]
        }, 
        "sentence": "you adjust the flow of water by turning the spray head at the front ."
    }
}