{
    "26ffef41f1a84e69e5d0d5a804533ece": {
        "(23, 10)": {
            "AM2L": [
                8162
            ], 
            "AM2F": [
                1244
            ], 
            "WBF": [
                4290
            ], 
            "BM1F": [
                8034
            ], 
            "M1": [
                921
            ], 
            "irrelevant_Adj": [
                0
            ], 
            "M2": [
                3339
            ], 
            "BM1L": [
                8162
            ], 
            "WBO": [
                599, 
                3717, 
                310, 
                3762, 
                2583, 
                5887, 
                3675, 
                2481, 
                4376
            ], 
            "WBL": [
                8034
            ], 
            "irrelevant_Noun": [
                0
            ], 
            "M1_ADJ": [
                0
            ]
        }, 
        "location1": [
            23
        ], 
        "location2": [
            10
        ], 
        "sentence": "i mounted it securely under the hood next to the battery itself and have a heavy duty plug hanging down -- just behind the front bumper -- to connect up while out in the driveway ."
    }
}