{
    "b747ba11482910b10228e42ae3236603": {
        "location1": [
            19
        ], 
        "location2": [
            3
        ], 
        "(19, 3)": {
            "AM2L": [
                4268
            ], 
            "AM2F": [
                8976
            ], 
            "WBF": [
                4376
            ], 
            "BM1F": [
                6372
            ], 
            "M1": [
                8907
            ], 
            "irrelevant_Adj": [
                0
            ], 
            "M2": [
                3339
            ], 
            "BM1L": [
                5158
            ], 
            "WBO": [
                4625, 
                8034, 
                5488, 
                5503, 
                599, 
                5495, 
                4578, 
                6038, 
                945, 
                8034, 
                3142, 
                3903
            ], 
            "WBL": [
                4043
            ], 
            "irrelevant_Noun": [
                0
            ], 
            "M1_ADJ": [
                0
            ]
        }, 
        "sentence": "the most recent work just like the old one and on less pressure because the first hose bibb in front yard is ahead of the pressure valve all home have ."
    }, 
    "040c2af1a6b555d378b141c2bcf8809a": {
        "(11, 7)": {
            "AM2L": [
                5378
            ], 
            "AM2F": [
                2467
            ], 
            "WBF": [
                5495
            ], 
            "BM1F": [
                8931
            ], 
            "M1": [
                8907
            ], 
            "irrelevant_Adj": [
                0
            ], 
            "M2": [
                3339
            ], 
            "BM1L": [
                6718
            ], 
            "WBO": [
                310
            ], 
            "WBL": [
                2970
            ], 
            "irrelevant_Noun": [
                0
            ], 
            "M1_ADJ": [
                0
            ]
        }, 
        "location1": [
            11
        ], 
        "location2": [
            7
        ], 
        "sentence": "i ended up thinking one roll would work on a f250 front door , nope ."
    }
}