{
    "ec7f63d4e2741970d2e2ff9f983da5f5": {
        "(6, 9)": {
            "WBF": [
                5458
            ], 
            "BM1F": [
                4043
            ], 
            "M1": [
                3339
            ], 
            "irrelevant_Adj": [
                0
            ], 
            "M2": [
                3008
            ], 
            "BM1L": [
                5047
            ], 
            "WBO": [
                310
            ], 
            "WBL": [
                310
            ], 
            "irrelevant_Noun": [
                0
            ], 
            "M1_ADJ": [
                1
            ]
        }, 
        "location1": [
            6
        ], 
        "location2": [
            9
        ], 
        "sentence": "let dry , i sit mine in front of a fan ."
    }
}