{
    "697a6017eac41b2f9c0e96450d3c5c61": {
        "location1": [
            11
        ], 
        "location2": [
            13
        ], 
        "(11, 13)": {
            "WBFL": [
                1358
            ], 
            "BM1F": [
                310
            ], 
            "M1": [
                3352
            ], 
            "irrelevant_Adj": [
                1
            ], 
            "M2": [
                8719
            ], 
            "BM1L": [
                4940
            ], 
            "irrelevant_Noun": [
                0
            ], 
            "M1_ADJ": [
                1
            ]
        }, 
        "sentence": "sometimes i get lazy and the car duster save me a full car wash ."
    }
}