{
    "e1e90cc5c719ce5aee7b46ed722a1251": {
        "(8, 3)": {
            "AM2L": [
                8162
            ], 
            "AM2F": [
                7369
            ], 
            "WBF": [
                5458
            ], 
            "BM1F": [
                310
            ], 
            "M1": [
                8580
            ], 
            "irrelevant_Adj": [
                1
            ], 
            "M2": [
                3352
            ], 
            "BM1L": [
                3705
            ], 
            "WBO": [
                8736
            ], 
            "WBL": [
                3338
            ], 
            "irrelevant_Noun": [
                0
            ], 
            "M1_ADJ": [
                0
            ]
        }, 
        "location1": [
            8
        ], 
        "location2": [
            3
        ], 
        "sentence": "it has a variety of water pattern from full soaking to hard steady stream ."
    }
}