{
    "b7e6c4c2dd042d642c99bdce78a99aa4": {
        "(14, 4)": {
            "AM2F": [
                7694
            ], 
            "WBF": [
                688
            ], 
            "BM1F": [
                8073
            ], 
            "M1": [
                5104
            ], 
            "irrelevant_Adj": [
                1
            ], 
            "M2": [
                3352
            ], 
            "BM1L": [
                5495
            ], 
            "WBO": [
                8603, 
                5325, 
                599, 
                4283, 
                4401, 
                5232
            ], 
            "WBL": [
                760
            ], 
            "irrelevant_Noun": [
                0
            ], 
            "M1_ADJ": [
                0
            ]
        }, 
        "location1": [
            14
        ], 
        "location2": [
            4
        ], 
        "sentence": "the lights/indicators on this model are very nice and it keep my battery at full strength ."
    }
}