{
    "a2654fbad7e53faad87d8853b15fb7bd": {
        "(17, 5)": {
            "AM2L": [
                8073
            ], 
            "AM2F": [
                452
            ], 
            "WBF": [
                599
            ], 
            "BM1F": [
                3808
            ], 
            "M1": [
                8657
            ], 
            "irrelevant_Adj": [
                1
            ], 
            "M2": [
                3352
            ], 
            "BM1L": [
                3705
            ], 
            "WBO": [
                3518, 
                8736, 
                6038, 
                8991, 
                4929, 
                5387, 
                929, 
                320
            ], 
            "WBL": [
                7910
            ], 
            "irrelevant_Noun": [
                0
            ], 
            "M1_ADJ": [
                0
            ]
        }, 
        "location1": [
            17
        ], 
        "location2": [
            5
        ], 
        "sentence": "unless your system has high volume , and good water pressure , you may not be able to take full advantage this nozzle ."
    }
}