{
    "b7e6c4c2dd042d642c99bdce78a99aa4": {
        "location1": [
            14
        ], 
        "location2": [
            15
        ], 
        "(14, 15)": {
            "BM1F": [
                760
            ], 
            "M1": [
                3352
            ], 
            "irrelevant_Adj": [
                1
            ], 
            "M2": [
                7694
            ], 
            "BM1L": [
                921
            ], 
            "WBNULL": [
                1
            ], 
            "irrelevant_Noun": [
                0
            ], 
            "M1_ADJ": [
                1
            ]
        }, 
        "sentence": "the lights/indicators on this model are very nice and it keep my battery at full strength ."
    }
}