{
    "a3018d484f3cd67ed0ba40eca28efc67": {
        "location1": [
            11
        ], 
        "location2": [
            3
        ], 
        "(11, 3)": {
            "AM2L": [
                8456
            ], 
            "AM2F": [
                8104
            ], 
            "WBF": [
                8162
            ], 
            "BM1F": [
                2911
            ], 
            "M1": [
                8736
            ], 
            "irrelevant_Adj": [
                1
            ], 
            "M2": [
                3352
            ], 
            "BM1L": [
                1323
            ], 
            "WBO": [
                1663, 
                5574, 
                5458, 
                8034
            ], 
            "WBL": [
                310
            ], 
            "irrelevant_Noun": [
                0
            ], 
            "M1_ADJ": [
                0
            ]
        }, 
        "sentence": "you can expect water to come out of the hose a full throttle unless you reduce it manually ."
    }, 
    "e1e90cc5c719ce5aee7b46ed722a1251": {
        "(8, 5)": {
            "AM2L": [
                8162
            ], 
            "AM2F": [
                7369
            ], 
            "WBF": [
                5714
            ], 
            "BM1F": [
                5458
            ], 
            "M1": [
                8736
            ], 
            "irrelevant_Adj": [
                1
            ], 
            "M2": [
                3352
            ], 
            "BM1L": [
                8580
            ], 
            "WBO": [
                3338
            ], 
            "WBL": [
                3338
            ], 
            "irrelevant_Noun": [
                0
            ], 
            "M1_ADJ": [
                0
            ]
        }, 
        "location1": [
            8
        ], 
        "location2": [
            5
        ], 
        "sentence": "it has a variety of water pattern from full soaking to hard steady stream ."
    }, 
    "a2654fbad7e53faad87d8853b15fb7bd": {
        "location1": [
            17
        ], 
        "location2": [
            8
        ], 
        "(17, 8)": {
            "AM2L": [
                8073
            ], 
            "AM2F": [
                452
            ], 
            "WBF": [
                6038
            ], 
            "BM1F": [
                3518
            ], 
            "M1": [
                8736
            ], 
            "irrelevant_Adj": [
                1
            ], 
            "M2": [
                3352
            ], 
            "BM1L": [
                599
            ], 
            "WBO": [
                8991, 
                4929, 
                5387, 
                929, 
                320
            ], 
            "WBL": [
                7910
            ], 
            "irrelevant_Noun": [
                0
            ], 
            "M1_ADJ": [
                0
            ]
        }, 
        "sentence": "unless your system has high volume , and good water pressure , you may not be able to take full advantage this nozzle ."
    }
}