{
    "894de8b5638acc34c0b4a2ec6a232c36": {
        "(3, 7)": {
            "AM2L": [
                8048
            ], 
            "AM2F": [
                5458
            ], 
            "WBF": [
                4884
            ], 
            "BM1F": [
                3479
            ], 
            "M1": [
                3352
            ], 
            "irrelevant_Adj": [
                1
            ], 
            "M2": [
                6219
            ], 
            "BM1L": [
                8851
            ], 
            "WBO": [
                3252
            ], 
            "WBL": [
                8034
            ], 
            "irrelevant_Noun": [
                0
            ], 
            "M1_ADJ": [
                1
            ]
        }, 
        "location1": [
            3
        ], 
        "location2": [
            7
        ], 
        "sentence": "i will give full mark for the quality of thephysical device otherwise ."
    }
}