{
    "02372f59de4e8c44d2f54d748122ae7a": {
        "(26, 16)": {
            "AM2L": [
                8028
            ], 
            "AM2F": [
                5410
            ], 
            "WBF": [
                8810
            ], 
            "BM1F": [
                7405
            ], 
            "M1": [
                1358
            ], 
            "irrelevant_Adj": [
                0
            ], 
            "M2": [
                3362
            ], 
            "BM1L": [
                8410
            ], 
            "WBO": [
                8789, 
                1262, 
                8028, 
                8, 
                3120, 
                3252
            ], 
            "WBL": [
                310
            ], 
            "irrelevant_Noun": [
                0
            ], 
            "M1_ADJ": [
                0
            ]
        }, 
        "location1": [
            26
        ], 
        "location2": [
            16
        ], 
        "sentence": "the worst thing i can say about it is it 's tricky to fit under some car wheel well but that 's fine for having a functional nozzle that does what it is supposed to do year and year ."
    }
}