{
    "53785af5f2140fccc8d7763b7e92d6c3": {
        "(13, 9)": {
            "AM2L": [
                5782
            ], 
            "AM2F": [
                7038
            ], 
            "WBF": [
                7362
            ], 
            "BM1F": [
                4165
            ], 
            "M1": [
                1149
            ], 
            "irrelevant_Adj": [
                0
            ], 
            "M2": [
                3384
            ], 
            "BM1L": [
                503
            ], 
            "WBO": [
                8028
            ], 
            "WBL": [
                3889
            ], 
            "irrelevant_Noun": [
                0
            ], 
            "M1_ADJ": [
                0
            ]
        }, 
        "location1": [
            13
        ], 
        "location2": [
            9
        ], 
        "sentence": "there 's a decal to add to air intake box so that hopefully future service personnel ( jiffy lube and the like ) wo n't keep trying to change the filter for you ."
    }
}