{
    "4c6acdef23675a5d898f42e51fcf2413": {
        "location1": [
            41
        ], 
        "location2": [
            32
        ], 
        "(41, 32)": {
            "AM2L": [
                1515
            ], 
            "AM2F": [
                8810
            ], 
            "WBF": [
                4929
            ], 
            "BM1F": [
                228
            ], 
            "M1": [
                4243
            ], 
            "irrelevant_Adj": [
                0
            ], 
            "M2": [
                3410
            ], 
            "BM1L": [
                5232
            ], 
            "WBO": [
                929, 
                1014, 
                7037, 
                8887, 
                310
            ], 
            "WBL": [
                2583
            ], 
            "irrelevant_Noun": [
                0
            ], 
            "M1_ADJ": [
                0
            ]
        }, 
        "sentence": "one day i forgot to remove it when pulling out and it seems to take very little pressure moving forward to flatten it like a pan cake so i though my 50,000 investment may be better served with a heavy duty galvanized wheel chock that wont give in and even let me move over it by mistake and let me know its holding solid if i ever did again roll forward over it ."
    }
}