{
    "ca11d17a98039216ccd4d0854902b81f": {
        "(8, 6)": {
            "AM2L": [
                8028
            ], 
            "WBFL": [
                7663
            ], 
            "BM1F": [
                636
            ], 
            "M1": [
                3691
            ], 
            "irrelevant_Adj": [
                0
            ], 
            "M2": [
                3442
            ], 
            "BM1L": [
                3294
            ], 
            "AM2F": [
                4914
            ], 
            "irrelevant_Noun": [
                0
            ], 
            "M1_ADJ": [
                0
            ]
        }, 
        "location1": [
            8
        ], 
        "location2": [
            6
        ], 
        "sentence": "overall i have n't found any hardware store generic material that is as good as dynamat xtreme for sound damping on large panel ."
    }
}