{
    "ca11d17a98039216ccd4d0854902b81f": {
        "location1": [
            8
        ], 
        "location2": [
            22
        ], 
        "(8, 22)": {
            "WBF": [
                4914
            ], 
            "BM1F": [
                7663
            ], 
            "M1": [
                3442
            ], 
            "irrelevant_Adj": [
                0
            ], 
            "M2": [
                5666
            ], 
            "BM1L": [
                3691
            ], 
            "WBO": [
                8028, 
                4268, 
                720, 
                3518, 
                720, 
                2590, 
                8968, 
                3252, 
                7433, 
                2062
            ], 
            "WBL": [
                4501
            ], 
            "irrelevant_Noun": [
                0
            ], 
            "M1_ADJ": [
                1
            ]
        }, 
        "sentence": "overall i have n't found any hardware store generic material that is as good as dynamat xtreme for sound damping on large panel ."
    }
}