{
    "d8cb3f74d3cfc84acffc1c3deba4d9e8": {
        "(3, 19)": {
            "AM2L": [
                969
            ], 
            "AM2F": [
                2536
            ], 
            "WBF": [
                5495
            ], 
            "BM1F": [
                4268
            ], 
            "M1": [
                3450
            ], 
            "irrelevant_Adj": [
                0
            ], 
            "M2": [
                1040
            ], 
            "BM1L": [
                1205
            ], 
            "WBO": [
                8034, 
                1568, 
                1621, 
                1262, 
                4283, 
                2445, 
                7864, 
                8034, 
                2577, 
                823, 
                4556, 
                8736
            ], 
            "WBL": [
                599
            ], 
            "irrelevant_Noun": [
                0
            ], 
            "M1_ADJ": [
                1
            ]
        }, 
        "location1": [
            3
        ], 
        "location2": [
            19
        ], 
        "sentence": "the brush is gentle on the clear coat but it does sweep the dust away , leaving water and and bird droppings behind ."
    }
}