{
    "aec2d58c0b77e34cbddcbe6c7a412990": {
        "(4, 5)": {
            "AM2L": [
                310
            ], 
            "BM1F": [
                5495
            ], 
            "M1": [
                3450
            ], 
            "irrelevant_Adj": [
                0
            ], 
            "M2": [
                2034
            ], 
            "BM1L": [
                4283
            ], 
            "WBNULL": [
                1
            ], 
            "irrelevant_Noun": [
                0
            ], 
            "AM2F": [
                8887
            ], 
            "M1_ADJ": [
                1
            ]
        }, 
        "location1": [
            4
        ], 
        "location2": [
            5
        ], 
        "sentence": "i wash it on gentle cycle with a little distilled vinegar then air dry ."
    }
}