{
    "0014d57be7df41ecb129b0234ad7bf86": {
        "(19, 1)": {
            "AM2L": [
                182
            ], 
            "AM2F": [
                7366
            ], 
            "WBF": [
                4465
            ], 
            "BM1F": [
                3962
            ], 
            "M1": [
                2463
            ], 
            "irrelevant_Adj": [
                0
            ], 
            "M2": [
                3450
            ], 
            "WBO": [
                3920, 
                5477, 
                3993, 
                8531, 
                4283, 
                4930, 
                3252, 
                5870, 
                8887, 
                5232, 
                7414, 
                1262, 
                3962, 
                4625
            ], 
            "WBL": [
                182
            ], 
            "irrelevant_Noun": [
                0
            ], 
            "M1_ADJ": [
                0
            ]
        }, 
        "location1": [
            19
        ], 
        "location2": [
            1
        ], 
        "sentence": "i dont know how often ill use it , maybe for playing with my son , but i like the & # 34 ; gentle soak & # 34 ; spray ."
    }
}