{
    "397f3bc0bc504facf77bebbe00e6ddd1": {
        "location1": [
            21
        ], 
        "location2": [
            8
        ], 
        "(21, 8)": {
            "AM2L": [
                8162
            ], 
            "AM2F": [
                7533
            ], 
            "WBF": [
                5458
            ], 
            "BM1F": [
                2660
            ], 
            "M1": [
                2730
            ], 
            "irrelevant_Adj": [
                0
            ], 
            "M2": [
                3450
            ], 
            "BM1L": [
                760
            ], 
            "WBO": [
                8034, 
                6289, 
                720, 
                8034, 
                3205, 
                5714, 
                3508, 
                3338, 
                5459
            ], 
            "WBL": [
                310
            ], 
            "irrelevant_Noun": [
                0
            ], 
            "M1_ADJ": [
                0
            ]
        }, 
        "sentence": "water flow can be cut off at either end of the range , as the flow pattern goes from off , to a gentle sprinkle , to wide spray , and then narrowing into a beam , and then off again ."
    }
}