{
    "be0e736e9f91f703cbe08ee038215902": {
        "(55, 13)": {
            "AM2F": [
                7826
            ], 
            "WBF": [
                4625
            ], 
            "BM1F": [
                5458
            ], 
            "M1": [
                5116
            ], 
            "irrelevant_Adj": [
                0
            ], 
            "M2": [
                3486
            ], 
            "BM1L": [
                4431
            ], 
            "WBO": [
                1262, 
                2548, 
                7383, 
                4625, 
                1262, 
                4283, 
                1668, 
                5459, 
                5325, 
                8044, 
                3962, 
                3233, 
                8887, 
                159, 
                2545, 
                1605, 
                8162, 
                4829, 
                7824, 
                4289, 
                1719, 
                5459, 
                599, 
                7116, 
                599, 
                4283, 
                2445, 
                1663, 
                5459, 
                2617, 
                599, 
                4283, 
                2445, 
                1564, 
                3128, 
                8501, 
                4556, 
                310
            ], 
            "WBL": [
                7116
            ], 
            "irrelevant_Noun": [
                0
            ], 
            "M1_ADJ": [
                0
            ]
        }, 
        "location1": [
            55
        ], 
        "location2": [
            13
        ], 
        "sentence": "1st off it does go on easy , once on its stay kind of moist like but drys soft like but it comes off nice , then i follow with 2nd dry cloth to make sure its completly off and shiny and it does come off easy and it does clean finish up leaving a nice shiny glazed surface ."
    }
}