{
    "be0e736e9f91f703cbe08ee038215902": {
        "(55, 30)": {
            "AM2F": [
                7826
            ], 
            "WBF": [
                8162
            ], 
            "BM1F": [
                2545
            ], 
            "M1": [
                1605
            ], 
            "irrelevant_Adj": [
                0
            ], 
            "M2": [
                3486
            ], 
            "BM1L": [
                159
            ], 
            "WBO": [
                4829, 
                7824, 
                4289, 
                1719, 
                5459, 
                599, 
                7116, 
                599, 
                4283, 
                2445, 
                1663, 
                5459, 
                2617, 
                599, 
                4283, 
                2445, 
                1564, 
                3128, 
                8501, 
                4556, 
                310
            ], 
            "WBL": [
                7116
            ], 
            "irrelevant_Noun": [
                0
            ], 
            "M1_ADJ": [
                0
            ]
        }, 
        "location1": [
            55
        ], 
        "location2": [
            30
        ], 
        "sentence": "1st off it does go on easy , once on its stay kind of moist like but drys soft like but it comes off nice , then i follow with 2nd dry cloth to make sure its completly off and shiny and it does come off easy and it does clean finish up leaving a nice shiny glazed surface ."
    }
}