{
    "43f1c7b43bb3f92d0eb8be1764da6972": {
        "location1": [
            6
        ], 
        "location2": [
            8
        ], 
        "(6, 8)": {
            "AM2L": [
                8034
            ], 
            "WBFL": [
                5543
            ], 
            "BM1F": [
                8
            ], 
            "M1": [
                3518
            ], 
            "irrelevant_Adj": [
                0
            ], 
            "M2": [
                8912
            ], 
            "BM1L": [
                4283
            ], 
            "AM2F": [
                8456
            ], 
            "irrelevant_Noun": [
                0
            ], 
            "M1_ADJ": [
                1
            ]
        }, 
        "sentence": "so hard to say it 's good or working , unless the car is really accidentally slipped back and blocked by this wheel chock ."
    }
}