{
    "16fbbdc76d87fc89dae7b95a4d386bce": {
        "location1": [
            14
        ], 
        "location2": [
            1
        ], 
        "(14, 1)": {
            "AM2L": [
                3252
            ], 
            "AM2F": [
                2274
            ], 
            "WBF": [
                688
            ], 
            "BM1F": [
                8335
            ], 
            "M1": [
                4694
            ], 
            "irrelevant_Adj": [
                0
            ], 
            "M2": [
                3518
            ], 
            "WBO": [
                5387, 
                5232, 
                3041, 
                1262, 
                5602, 
                8073, 
                2286, 
                6976, 
                4625
            ], 
            "WBL": [
                6042
            ], 
            "irrelevant_Noun": [
                0
            ], 
            "M1_ADJ": [
                0
            ]
        }, 
        "sentence": "tubular lock are not my favorite , but overall this device seems like a pretty good deterrent for the casual thief ."
    }
}