{
    "1107fef5a389e7df2ef9a4b8a67eed70": {
        "(6, 48)": {
            "AM2F": [
                5410
            ], 
            "WBF": [
                3985
            ], 
            "BM1F": [
                929
            ], 
            "M1": [
                3518
            ], 
            "irrelevant_Adj": [
                0
            ], 
            "M2": [
                3903
            ], 
            "BM1L": [
                4929
            ], 
            "WBO": [
                8991, 
                7, 
                3854, 
                4283, 
                3252, 
                310, 
                4710, 
                5766, 
                5458, 
                8140, 
                8739, 
                8997, 
                3419, 
                5543, 
                7409, 
                4625, 
                8028, 
                1262, 
                3252, 
                8724, 
                8997, 
                1358, 
                8812, 
                8991, 
                5512, 
                8351, 
                8034, 
                8736, 
                5495, 
                5767, 
                4283, 
                2445, 
                5245, 
                8907, 
                720, 
                8789, 
                720, 
                310
            ], 
            "WBL": [
                8374
            ], 
            "irrelevant_Noun": [
                0
            ], 
            "M1_ADJ": [
                1
            ]
        }, 
        "location1": [
            6
        ], 
        "location2": [
            48
        ], 
        "sentence": "this type of nozzle may be good if you 're holding it for a long period of time watering your garden or something like that , but for washing your car when you only turn the water on periodically , it does n't work as well as a trigger type hose nozzle ."
    }, 
    "a6f4168d2e16bdf07319df1b16a45e58": {
        "(15, 16)": {
            "BM1F": [
                310
            ], 
            "M1": [
                3518
            ], 
            "irrelevant_Adj": [
                0
            ], 
            "M2": [
                3903
            ], 
            "BM1L": [
                599
            ], 
            "WBNULL": [
                1
            ], 
            "irrelevant_Noun": [
                0
            ], 
            "M1_ADJ": [
                1
            ]
        }, 
        "location1": [
            15
        ], 
        "location2": [
            16
        ], 
        "sentence": "this is a must have for those with excellent water pressure and volume and a good hose ."
    }, 
    "55c41a6cbb70fd89bddb6ee8c3b254a8": {
        "location1": [
            89
        ], 
        "location2": [
            16
        ], 
        "(89, 16)": {
            "WBF": [
                7335
            ], 
            "BM1F": [
                8
            ], 
            "M1": [
                3903
            ], 
            "irrelevant_Adj": [
                0
            ], 
            "M2": [
                3518
            ], 
            "BM1L": [
                3135
            ], 
            "WBO": [
                2982, 
                3338, 
                1599, 
                8162, 
                7368, 
                8162, 
                6267, 
                8162, 
                3008, 
                8162, 
                4335, 
                8887, 
                310, 
                7208, 
                8364, 
                2617, 
                8162, 
                8907, 
                8887, 
                8803, 
                3669, 
                5364, 
                3962, 
                8851, 
                7979, 
                8991, 
                8028, 
                8034, 
                4335, 
                5495, 
                8073, 
                5410, 
                4268, 
                5503, 
                5458, 
                8034, 
                1005, 
                3962, 
                10, 
                6977, 
                1262, 
                3962, 
                5, 
                5387, 
                3510, 
                8162, 
                1696, 
                8073, 
                8162, 
                310, 
                6038, 
                8723, 
                3962, 
                3717, 
                5503, 
                599, 
                5392, 
                1696, 
                8162, 
                310, 
                6038, 
                8723, 
                1262, 
                8034, 
                4335, 
                5103, 
                5458, 
                8073, 
                4268
            ], 
            "WBL": [
                2074
            ], 
            "irrelevant_Noun": [
                0
            ], 
            "M1_ADJ": [
                0
            ]
        }, 
        "sentence": "pro - very solid construction , either aluminum or steel - padded with thick rubber - look like fireman 's hose - smoothly fade from closed to soaker to rain to fan to jet with a simple twist - easy to work with wet handscons - nonenow i will tell you that the jet on this nozzle is one of the best i 've seen but i 'm not going to compare this to a pressure washer , i have one and nothing compare to a pressure washer , but the jet mode of this is pretty darn good ."
    }, 
    "e5a4dfe045093bb933c64d6d76464f65": {
        "(28, 25)": {
            "AM2L": [
                310
            ], 
            "AM2F": [
                8887
            ], 
            "WBF": [
                5410
            ], 
            "BM1F": [
                310
            ], 
            "M1": [
                3903
            ], 
            "irrelevant_Adj": [
                0
            ], 
            "M2": [
                3518
            ], 
            "BM1L": [
                3717
            ], 
            "WBO": [
                8073
            ], 
            "WBL": [
                8073
            ], 
            "irrelevant_Noun": [
                0
            ], 
            "M1_ADJ": [
                0
            ]
        }, 
        "location1": [
            28
        ], 
        "location2": [
            25
        ], 
        "sentence": "fairly-priced chinese-made not-junk ! the loss of a star is no reflection on china or the product ; just my disappointment that we do n't have a hose nozzle this good with a made in the usa sticker on it ."
    }
}