{
    "761116a6651dd7b2e3b88957b372a3b1": {
        "(9, 10)": {
            "AM2L": [
                5131
            ], 
            "BM1F": [
                310
            ], 
            "M1": [
                3518
            ], 
            "irrelevant_Adj": [
                0
            ], 
            "M2": [
                2107
            ], 
            "BM1L": [
                5653
            ], 
            "WBNULL": [
                1
            ], 
            "irrelevant_Noun": [
                0
            ], 
            "AM2F": [
                5458
            ], 
            "M1_ADJ": [
                1
            ]
        }, 
        "location1": [
            9
        ], 
        "location2": [
            10
        ], 
        "sentence": "it is a quiet variety that we paid a good deal of money for , due to that claim ."
    }
}