{
    "aba1ea1a5e6bec74919eb998d133a6da": {
        "(25, 26)": {
            "AM2L": [
                2953
            ], 
            "BM1F": [
                8034
            ], 
            "M1": [
                3518
            ], 
            "irrelevant_Adj": [
                0
            ], 
            "M2": [
                3638
            ], 
            "BM1L": [
                688
            ], 
            "WBNULL": [
                1
            ], 
            "irrelevant_Noun": [
                0
            ], 
            "AM2F": [
                1209
            ], 
            "M1_ADJ": [
                1
            ]
        }, 
        "(25, 39)": {
            "AM2L": [
                5522
            ], 
            "AM2F": [
                1323
            ], 
            "WBF": [
                3638
            ], 
            "BM1F": [
                8034
            ], 
            "M1": [
                3518
            ], 
            "irrelevant_Adj": [
                0
            ], 
            "M2": [
                3638
            ], 
            "BM1L": [
                688
            ], 
            "WBO": [
                1209, 
                2953, 
                4710, 
                760, 
                146, 
                5685, 
                1553, 
                688, 
                7707, 
                1262
            ], 
            "WBL": [
                813
            ], 
            "irrelevant_Noun": [
                0
            ], 
            "M1_ADJ": [
                1
            ]
        }, 
        "location1": [
            25
        ], 
        "location2": [
            26, 
            39
        ], 
        "sentence": "pro - i know i can jump start a semi with these ( more importantly , i can get a jump from a semi - truck driver are the good guy btw ) - extra long at 25 ' - parrot clamp are strong , but an average guy can open them with one hand - copper insert in the parrot clamp is nice - clamp are rated at 500amps - they 're friggin heavy at near 14 lbs , yes that 's a pro !"
    }, 
    "591c7490ce9e32cd951ff4f37b60f74f": {
        "location1": [
            71
        ], 
        "location2": [
            40
        ], 
        "(71, 40)": {
            "AM2L": [
                5574
            ], 
            "AM2F": [
                8942
            ], 
            "WBF": [
                8678
            ], 
            "BM1F": [
                1489
            ], 
            "M1": [
                3638
            ], 
            "irrelevant_Adj": [
                0
            ], 
            "M2": [
                3518
            ], 
            "BM1L": [
                8034
            ], 
            "WBO": [
                5015, 
                3089, 
                1605, 
                599, 
                4283, 
                8718, 
                825, 
                1262, 
                8812, 
                8991, 
                3502, 
                8162, 
                8942, 
                4283, 
                5574, 
                8034, 
                7093, 
                7230, 
                146, 
                182, 
                8962, 
                182, 
                4800, 
                4283, 
                8603, 
                3688, 
                8162
            ], 
            "WBL": [
                310
            ], 
            "irrelevant_Noun": [
                0
            ], 
            "M1_ADJ": [
                0
            ]
        }, 
        "sentence": "i used this product and was blown away buy how well it absorbed and better yet the wring out was so easy ,3 fold and a twist and 90 % of the water was out ! i bought one of the chemical guy waffle micro fiber cloth and it was awesome , but when you go to wring it out the shear size ( 25 & # 34 ; x36 & # 34 ; ) made it very hard to get a good wring out ."
    }
}