{
    "0ec3dbffb5da4b3f80541e4a5246f826": {
        "(4, 15)": {
            "AM2L": [
                3851
            ], 
            "AM2F": [
                6484
            ], 
            "WBF": [
                4344
            ], 
            "BM1F": [
                310
            ], 
            "M1": [
                3518
            ], 
            "irrelevant_Adj": [
                0
            ], 
            "M2": [
                4808
            ], 
            "BM1L": [
                2445
            ], 
            "WBO": [
                5269, 
                8034, 
                503, 
                4043, 
                8034, 
                2352, 
                2244
            ], 
            "WBL": [
                8034
            ], 
            "irrelevant_Noun": [
                0
            ], 
            "M1_ADJ": [
                1
            ]
        }, 
        "location1": [
            4
        ], 
        "location2": [
            15
        ], 
        "sentence": "the deflector does a good job navigating the air in the direction desired and the magnet reliably hold it in place on a vertical vent in a wall ."
    }
}