{
    "55c41a6cbb70fd89bddb6ee8c3b254a8": {
        "(89, 5)": {
            "WBF": [
                5543
            ], 
            "BM1F": [
                2660
            ], 
            "M1": [
                563
            ], 
            "irrelevant_Adj": [
                0
            ], 
            "M2": [
                3518
            ], 
            "BM1L": [
                1811
            ], 
            "WBO": [
                7615, 
                5648, 
                8887, 
                8058, 
                6757, 
                4717, 
                4625, 
                3135, 
                8, 
                3903, 
                7335, 
                2982, 
                3338, 
                1599, 
                8162, 
                7368, 
                8162, 
                6267, 
                8162, 
                3008, 
                8162, 
                4335, 
                8887, 
                310, 
                7208, 
                8364, 
                2617, 
                8162, 
                8907, 
                8887, 
                8803, 
                3669, 
                5364, 
                3962, 
                8851, 
                7979, 
                8991, 
                8028, 
                8034, 
                4335, 
                5495, 
                8073, 
                5410, 
                4268, 
                5503, 
                5458, 
                8034, 
                1005, 
                3962, 
                10, 
                6977, 
                1262, 
                3962, 
                5, 
                5387, 
                3510, 
                8162, 
                1696, 
                8073, 
                8162, 
                310, 
                6038, 
                8723, 
                3962, 
                3717, 
                5503, 
                599, 
                5392, 
                1696, 
                8162, 
                310, 
                6038, 
                8723, 
                1262, 
                8034, 
                4335, 
                5103, 
                5458, 
                8073, 
                4268
            ], 
            "WBL": [
                2074
            ], 
            "irrelevant_Noun": [
                0
            ], 
            "M1_ADJ": [
                0
            ]
        }, 
        "location1": [
            89
        ], 
        "location2": [
            5
        ], 
        "sentence": "pro - very solid construction , either aluminum or steel - padded with thick rubber - look like fireman 's hose - smoothly fade from closed to soaker to rain to fan to jet with a simple twist - easy to work with wet handscons - nonenow i will tell you that the jet on this nozzle is one of the best i 've seen but i 'm not going to compare this to a pressure washer , i have one and nothing compare to a pressure washer , but the jet mode of this is pretty darn good ."
    }
}