{
    "1c81fabb3bfc9cc2630671fe607b2ddd": {
        "(59, 39)": {
            "AM2L": [
                5495
            ], 
            "AM2F": [
                3976
            ], 
            "WBF": [
                8869
            ], 
            "BM1F": [
                1637
            ], 
            "M1": [
                3995
            ], 
            "irrelevant_Adj": [
                0
            ], 
            "M2": [
                3518
            ], 
            "BM1L": [
                2576
            ], 
            "WBO": [
                599, 
                5232, 
                8320, 
                8819, 
                565, 
                4268, 
                5589, 
                2445, 
                5387, 
                3149, 
                4043, 
                3416, 
                599, 
                8082, 
                4283, 
                8931
            ], 
            "WBL": [
                310
            ], 
            "irrelevant_Noun": [
                0
            ], 
            "M1_ADJ": [
                0
            ]
        }, 
        "location1": [
            59
        ], 
        "location2": [
            39
        ], 
        "sentence": "i ordered four to start , one for dad [ has a truck he rarely drive ] , one for car i `` baby-sit `` , one of wife 's jeep it sometimes does not get driven for day which is only a concern during cold illinois winter , and my truck which always is outside [ does not fit in garage ] and thought it would be a good idea on those super cold night when i also plug in my battery blanket and oil heater ."
    }
}