{
    "3ac1ca92a1337aab2c618bbd7fb29bc5": {
        "location1": [
            10
        ], 
        "location2": [
            16
        ], 
        "(10, 16)": {
            "AM2L": [
                6531
            ], 
            "AM2F": [
                4283
            ], 
            "WBF": [
                720
            ], 
            "BM1F": [
                720
            ], 
            "M1": [
                3518
            ], 
            "irrelevant_Adj": [
                0
            ], 
            "M2": [
                5104
            ], 
            "BM1L": [
                4376
            ], 
            "WBO": [
                5232, 
                34
            ], 
            "WBL": [
                5488
            ], 
            "irrelevant_Noun": [
                0
            ], 
            "M1_ADJ": [
                1
            ]
        }, 
        "sentence": "people were complaining about streak but this work just as good as my 10 year old model it replaced ."
    }
}