{
    "ca11d17a98039216ccd4d0854902b81f": {
        "(13, 22)": {
            "WBF": [
                720
            ], 
            "BM1F": [
                720
            ], 
            "M1": [
                3518
            ], 
            "irrelevant_Adj": [
                0
            ], 
            "M2": [
                5666
            ], 
            "BM1L": [
                4268
            ], 
            "WBO": [
                2590, 
                8968, 
                3252, 
                7433, 
                2062
            ], 
            "WBL": [
                4501
            ], 
            "irrelevant_Noun": [
                0
            ], 
            "M1_ADJ": [
                1
            ]
        }, 
        "location1": [
            13
        ], 
        "location2": [
            22
        ], 
        "sentence": "overall i have n't found any hardware store generic material that is as good as dynamat xtreme for sound damping on large panel ."
    }
}