{
    "0976b9b71e36efe0d7fd4d2c2dcb04d6": {
        "(1, 10)": {
            "WBF": [
                8081
            ], 
            "BM1F": [
                8907
            ], 
            "M1": [
                3518
            ], 
            "irrelevant_Adj": [
                0
            ], 
            "M2": [
                7481
            ], 
            "WBO": [
                3985, 
                5512, 
                3510, 
                7138, 
                2418
            ], 
            "WBL": [
                5106
            ], 
            "irrelevant_Noun": [
                0
            ], 
            "M1_ADJ": [
                1
            ]
        }, 
        "location1": [
            1
        ], 
        "location2": [
            10
        ], 
        "sentence": "work good though if only going short distance and moderate speed ."
    }
}