{
    "d10340d26e34c5747f5f33f23cb292f0": {
        "location1": [
            5
        ], 
        "location2": [
            22
        ], 
        "(5, 22)": {
            "WBF": [
                3962
            ], 
            "BM1F": [
                6042
            ], 
            "M1": [
                3518
            ], 
            "irrelevant_Adj": [
                0
            ], 
            "M2": [
                4439
            ], 
            "BM1L": [
                4268
            ], 
            "WBO": [
                1307, 
                703, 
                8162, 
                7405, 
                4689, 
                6606, 
                599, 
                8057, 
                8703, 
                546, 
                8362, 
                720, 
                5191
            ], 
            "WBL": [
                8073
            ], 
            "irrelevant_Noun": [
                0
            ], 
            "M1_ADJ": [
                1
            ]
        }, 
        "sentence": "the price here is pretty good - i called around to some local retailer and they wanted almost twice as much for this kit ."
    }
}