{
    "19828c65162c323f82ec6f02c235e679": {
        "(58, 11)": {
            "AM2L": [
                8887
            ], 
            "AM2F": [
                4777
            ], 
            "WBF": [
                1286
            ], 
            "BM1F": [
                83
            ], 
            "M1": [
                3426
            ], 
            "irrelevant_Adj": [
                0
            ], 
            "M2": [
                3518
            ], 
            "BM1L": [
                3248
            ], 
            "WBO": [
                5574, 
                8049, 
                1262, 
                3985, 
                8057, 
                1282, 
                5245, 
                6335, 
                1016, 
                1358, 
                5543, 
                3985, 
                8057, 
                1282, 
                5245, 
                1382, 
                2767, 
                5979, 
                8162, 
                7598, 
                8997, 
                1358, 
                8991, 
                5033, 
                720, 
                8789, 
                3717, 
                956, 
                4773, 
                310, 
                1177, 
                4043, 
                8997, 
                8324, 
                527, 
                8080, 
                8979, 
                599, 
                8991, 
                5033, 
                720, 
                8789, 
                3717
            ], 
            "WBL": [
                310
            ], 
            "irrelevant_Noun": [
                0
            ], 
            "M1_ADJ": [
                0
            ]
        }, 
        "location1": [
            58
        ], 
        "location2": [
            11
        ], 
        "sentence": "yes , you can buy a $ 17 set of 10 foot , 18 gauge cable out there but if they ca n't reach between car or if they ca n't carry enough power to start your car , you might as well have been lugging a brick in your trunk all those year and you might as well have enjoyed a good lunch with the $ 17 for all the false confidence it gave you ."
    }
}