{
    "cd49676df77451ed83bc6742b14b6420": {
        "(8, 9)": {
            "AM2L": [
                798
            ], 
            "BM1F": [
                310
            ], 
            "M1": [
                3518
            ], 
            "irrelevant_Adj": [
                0
            ], 
            "M2": [
                8421
            ], 
            "BM1L": [
                6560
            ], 
            "WBNULL": [
                1
            ], 
            "irrelevant_Noun": [
                0
            ], 
            "AM2F": [
                5458
            ], 
            "M1_ADJ": [
                1
            ]
        }, 
        "location1": [
            8
        ], 
        "location2": [
            9
        ], 
        "sentence": "repairing your car based on thesecodes requires a good understanding of auto repair ."
    }
}