{
    "cd49676df77451ed83bc6742b14b6420": {
        "(8, 12)": {
            "WBF": [
                8421
            ], 
            "BM1F": [
                310
            ], 
            "M1": [
                3518
            ], 
            "irrelevant_Adj": [
                0
            ], 
            "M2": [
                6519
            ], 
            "BM1L": [
                6560
            ], 
            "WBO": [
                5458
            ], 
            "WBL": [
                798
            ], 
            "irrelevant_Noun": [
                0
            ], 
            "M1_ADJ": [
                1
            ]
        }, 
        "location1": [
            8
        ], 
        "location2": [
            12
        ], 
        "sentence": "repairing your car based on thesecodes requires a good understanding of auto repair ."
    }
}