{
    "591c7490ce9e32cd951ff4f37b60f74f": {
        "(71, 44)": {
            "AM2L": [
                5574
            ], 
            "AM2F": [
                8942
            ], 
            "WBF": [
                599
            ], 
            "BM1F": [
                3089
            ], 
            "M1": [
                1605
            ], 
            "irrelevant_Adj": [
                0
            ], 
            "M2": [
                3518
            ], 
            "BM1L": [
                5015
            ], 
            "WBO": [
                4283, 
                8718, 
                825, 
                1262, 
                8812, 
                8991, 
                3502, 
                8162, 
                8942, 
                4283, 
                5574, 
                8034, 
                7093, 
                7230, 
                146, 
                182, 
                8962, 
                182, 
                4800, 
                4283, 
                8603, 
                3688, 
                8162
            ], 
            "WBL": [
                310
            ], 
            "irrelevant_Noun": [
                0
            ], 
            "M1_ADJ": [
                0
            ]
        }, 
        "location1": [
            71
        ], 
        "location2": [
            44
        ], 
        "sentence": "i used this product and was blown away buy how well it absorbed and better yet the wring out was so easy ,3 fold and a twist and 90 % of the water was out ! i bought one of the chemical guy waffle micro fiber cloth and it was awesome , but when you go to wring it out the shear size ( 25 & # 34 ; x36 & # 34 ; ) made it very hard to get a good wring out ."
    }
}