{
    "55c41a6cbb70fd89bddb6ee8c3b254a8": {
        "(89, 26)": {
            "WBF": [
                8162
            ], 
            "BM1F": [
                8162
            ], 
            "M1": [
                3008
            ], 
            "irrelevant_Adj": [
                0
            ], 
            "M2": [
                3518
            ], 
            "BM1L": [
                6267
            ], 
            "WBO": [
                4335, 
                8887, 
                310, 
                7208, 
                8364, 
                2617, 
                8162, 
                8907, 
                8887, 
                8803, 
                3669, 
                5364, 
                3962, 
                8851, 
                7979, 
                8991, 
                8028, 
                8034, 
                4335, 
                5495, 
                8073, 
                5410, 
                4268, 
                5503, 
                5458, 
                8034, 
                1005, 
                3962, 
                10, 
                6977, 
                1262, 
                3962, 
                5, 
                5387, 
                3510, 
                8162, 
                1696, 
                8073, 
                8162, 
                310, 
                6038, 
                8723, 
                3962, 
                3717, 
                5503, 
                599, 
                5392, 
                1696, 
                8162, 
                310, 
                6038, 
                8723, 
                1262, 
                8034, 
                4335, 
                5103, 
                5458, 
                8073, 
                4268
            ], 
            "WBL": [
                2074
            ], 
            "irrelevant_Noun": [
                0
            ], 
            "M1_ADJ": [
                0
            ]
        }, 
        "location1": [
            89
        ], 
        "location2": [
            26
        ], 
        "sentence": "pro - very solid construction , either aluminum or steel - padded with thick rubber - look like fireman 's hose - smoothly fade from closed to soaker to rain to fan to jet with a simple twist - easy to work with wet handscons - nonenow i will tell you that the jet on this nozzle is one of the best i 've seen but i 'm not going to compare this to a pressure washer , i have one and nothing compare to a pressure washer , but the jet mode of this is pretty darn good ."
    }, 
    "107d9831a252ade511dd6a71529f6e2d": {
        "(3, 16)": {
            "AM2L": [
                310
            ], 
            "AM2F": [
                2183
            ], 
            "WBF": [
                583
            ], 
            "BM1F": [
                310
            ], 
            "M1": [
                3518
            ], 
            "irrelevant_Adj": [
                0
            ], 
            "M2": [
                3008
            ], 
            "BM1L": [
                543
            ], 
            "WBO": [
                5458, 
                1845, 
                5458, 
                8034, 
                8736, 
                7526, 
                5714, 
                6290, 
                3338
            ], 
            "WBL": [
                8835
            ], 
            "irrelevant_Noun": [
                0
            ], 
            "M1_ADJ": [
                1
            ]
        }, 
        "location1": [
            3
        ], 
        "location2": [
            16
        ], 
        "sentence": "it allows a good amount of control of the water spray pattern , ranging from a wide fan delivering a low pressure water stream , through to a high pressure , narrow stream ."
    }, 
    "88869021694e54972af582242fa562ee": {
        "location1": [
            2
        ], 
        "location2": [
            9
        ], 
        "(2, 9)": {
            "AM2L": [
                5458
            ], 
            "AM2F": [
                2730
            ], 
            "WBF": [
                3252
            ], 
            "BM1F": [
                8
            ], 
            "M1": [
                3518
            ], 
            "irrelevant_Adj": [
                0
            ], 
            "M2": [
                3008
            ], 
            "BM1L": [
                4283
            ], 
            "WBO": [
                8739, 
                5860, 
                8188
            ], 
            "WBL": [
                8034
            ], 
            "irrelevant_Noun": [
                0
            ], 
            "M1_ADJ": [
                1
            ]
        }, 
        "sentence": "it 's good for watering plant too , using the fan end of the selector range ."
    }
}