{
    "ce5f8d2f72ef043748e5341bf6d6a392": {
        "(9, 10)": {
            "BM1F": [
                5595
            ], 
            "M1": [
                3518
            ], 
            "irrelevant_Adj": [
                0
            ], 
            "M2": [
                6153
            ], 
            "BM1L": [
                8140
            ], 
            "WBNULL": [
                1
            ], 
            "irrelevant_Noun": [
                0
            ], 
            "M1_ADJ": [
                1
            ]
        }, 
        "location1": [
            9
        ], 
        "location2": [
            10
        ], 
        "sentence": "enough to do my 18 ' boat several time over ... . good protection ..."
    }
}