{
    "1107fef5a389e7df2ef9a4b8a67eed70": {
        "(6, 35)": {
            "AM2L": [
                5767
            ], 
            "AM2F": [
                5495
            ], 
            "WBF": [
                3985
            ], 
            "BM1F": [
                929
            ], 
            "M1": [
                3518
            ], 
            "irrelevant_Adj": [
                0
            ], 
            "M2": [
                8736
            ], 
            "BM1L": [
                4929
            ], 
            "WBO": [
                8991, 
                7, 
                3854, 
                4283, 
                3252, 
                310, 
                4710, 
                5766, 
                5458, 
                8140, 
                8739, 
                8997, 
                3419, 
                5543, 
                7409, 
                4625, 
                8028, 
                1262, 
                3252, 
                8724, 
                8997, 
                1358, 
                8812, 
                8991, 
                5512
            ], 
            "WBL": [
                8034
            ], 
            "irrelevant_Noun": [
                0
            ], 
            "M1_ADJ": [
                1
            ]
        }, 
        "location1": [
            6
        ], 
        "location2": [
            35
        ], 
        "sentence": "this type of nozzle may be good if you 're holding it for a long period of time watering your garden or something like that , but for washing your car when you only turn the water on periodically , it does n't work as well as a trigger type hose nozzle ."
    }, 
    "e31de14617101b24e4aeb15bf06ae12e": {
        "(7, 3)": {
            "AM2L": [
                3502
            ], 
            "AM2F": [
                8162
            ], 
            "WBF": [
                599
            ], 
            "BM1F": [
                5495
            ], 
            "M1": [
                8736
            ], 
            "irrelevant_Adj": [
                0
            ], 
            "M2": [
                3518
            ], 
            "BM1L": [
                4283
            ], 
            "WBO": [
                4283
            ], 
            "WBL": [
                4268
            ], 
            "irrelevant_Noun": [
                0
            ], 
            "M1_ADJ": [
                0
            ]
        }, 
        "location1": [
            7
        ], 
        "location2": [
            3
        ], 
        "sentence": "( dip it on water and it is good to go again ) ."
    }, 
    "42b4f05fd73153bb55f8f2ec08fb1798": {
        "(25, 12)": {
            "AM2L": [
                8162
            ], 
            "AM2F": [
                8065
            ], 
            "WBF": [
                5543
            ], 
            "BM1F": [
                3688
            ], 
            "M1": [
                8736
            ], 
            "irrelevant_Adj": [
                0
            ], 
            "M2": [
                3518
            ], 
            "BM1L": [
                3717
            ], 
            "WBO": [
                3985, 
                8991, 
                688, 
                5004, 
                325, 
                8997, 
                1358, 
                4283, 
                4929
            ], 
            "WBL": [
                310
            ], 
            "irrelevant_Noun": [
                0
            ], 
            "M1_ADJ": [
                0
            ]
        }, 
        "location1": [
            25
        ], 
        "location2": [
            12, 
            46
        ], 
        "(25, 46)": {
            "AM2L": [
                599
            ], 
            "AM2F": [
                5459
            ], 
            "WBF": [
                8065
            ], 
            "BM1F": [
                310
            ], 
            "M1": [
                3518
            ], 
            "irrelevant_Adj": [
                0
            ], 
            "M2": [
                8736
            ], 
            "BM1L": [
                929
            ], 
            "WBO": [
                8162, 
                6772, 
                310, 
                5018, 
                8227, 
                5595, 
                8034, 
                1358, 
                475, 
                8991, 
                8531, 
                8034, 
                337, 
                8162, 
                3459, 
                8034, 
                6594
            ], 
            "WBL": [
                8034
            ], 
            "irrelevant_Noun": [
                0
            ], 
            "M1_ADJ": [
                1
            ]
        }, 
        "sentence": "if the car is in the sun or if you have hard water or if you are meticulous about your car , it may be a good thing to run a microfiber towel over the car after you use the absorber to get the rest of the water off and to ensure no spots/streaks get left behind ."
    }, 
    "a6f4168d2e16bdf07319df1b16a45e58": {
        "(15, 9)": {
            "AM2F": [
                3903
            ], 
            "WBF": [
                6038
            ], 
            "BM1F": [
                2880
            ], 
            "M1": [
                8736
            ], 
            "irrelevant_Adj": [
                0
            ], 
            "M2": [
                3518
            ], 
            "BM1L": [
                8887
            ], 
            "WBO": [
                599, 
                8657
            ], 
            "WBL": [
                310
            ], 
            "irrelevant_Noun": [
                0
            ], 
            "M1_ADJ": [
                0
            ]
        }, 
        "location1": [
            15
        ], 
        "location2": [
            9
        ], 
        "sentence": "this is a must have for those with excellent water pressure and volume and a good hose ."
    }, 
    "2f122d99f366bcd758bd0a03260a0a97": {
        "(18, 27)": {
            "AM2L": [
                8065
            ], 
            "AM2F": [
                8073
            ], 
            "WBF": [
                8719
            ], 
            "BM1F": [
                310
            ], 
            "M1": [
                3518
            ], 
            "irrelevant_Adj": [
                0
            ], 
            "M2": [
                8736
            ], 
            "BM1L": [
                475
            ], 
            "WBO": [
                8991, 
                8851, 
                929, 
                7830, 
                1275
            ], 
            "WBL": [
                5191
            ], 
            "irrelevant_Noun": [
                0
            ], 
            "M1_ADJ": [
                1
            ]
        }, 
        "location1": [
            18
        ], 
        "location2": [
            27
        ], 
        "sentence": "i know these have many many us but i just use it to dry my car after a good wash . you will be surprised by how much water this thing will hold ."
    }, 
    "107d9831a252ade511dd6a71529f6e2d": {
        "(3, 21)": {
            "AM2L": [
                8105
            ], 
            "AM2F": [
                7690
            ], 
            "WBF": [
                583
            ], 
            "BM1F": [
                310
            ], 
            "M1": [
                3518
            ], 
            "irrelevant_Adj": [
                0
            ], 
            "M2": [
                8736
            ], 
            "BM1L": [
                543
            ], 
            "WBO": [
                5458, 
                1845, 
                5458, 
                8034, 
                8736, 
                7526, 
                5714, 
                6290, 
                3338, 
                310, 
                8835, 
                3008, 
                2183, 
                310
            ], 
            "WBL": [
                6038
            ], 
            "irrelevant_Noun": [
                0
            ], 
            "M1_ADJ": [
                1
            ]
        }, 
        "location1": [
            3
        ], 
        "location2": [
            9, 
            21
        ], 
        "(3, 9)": {
            "AM2L": [
                5714
            ], 
            "AM2F": [
                7526
            ], 
            "WBF": [
                583
            ], 
            "BM1F": [
                310
            ], 
            "M1": [
                3518
            ], 
            "irrelevant_Adj": [
                0
            ], 
            "M2": [
                8736
            ], 
            "BM1L": [
                543
            ], 
            "WBO": [
                5458, 
                1845
            ], 
            "WBL": [
                8034
            ], 
            "irrelevant_Noun": [
                0
            ], 
            "M1_ADJ": [
                1
            ]
        }, 
        "sentence": "it allows a good amount of control of the water spray pattern , ranging from a wide fan delivering a low pressure water stream , through to a high pressure , narrow stream ."
    }, 
    "3e162b1a76f4d8042ac9100d28dd844d": {
        "(4, 11)": {
            "AM2L": [
                4268
            ], 
            "AM2F": [
                7522
            ], 
            "WBF": [
                599
            ], 
            "BM1F": [
                6042
            ], 
            "M1": [
                3518
            ], 
            "irrelevant_Adj": [
                0
            ], 
            "M2": [
                8736
            ], 
            "BM1L": [
                8028
            ], 
            "WBO": [
                5232, 
                3505, 
                5458
            ], 
            "WBL": [
                3719
            ], 
            "irrelevant_Noun": [
                0
            ], 
            "M1_ADJ": [
                1
            ]
        }, 
        "location1": [
            4
        ], 
        "location2": [
            11
        ], 
        "sentence": "i consider that pretty good and my goal of not having water spot is met so i 'm a happy camper ."
    }, 
    "591c7490ce9e32cd951ff4f37b60f74f": {
        "(71, 31)": {
            "AM2L": [
                5574
            ], 
            "AM2F": [
                8942
            ], 
            "WBF": [
                8718
            ], 
            "BM1F": [
                8034
            ], 
            "M1": [
                8736
            ], 
            "irrelevant_Adj": [
                0
            ], 
            "M2": [
                3518
            ], 
            "BM1L": [
                5458
            ], 
            "WBO": [
                5574, 
                3962, 
                1141, 
                5503, 
                5458, 
                8034, 
                1489, 
                3638, 
                8678, 
                5015, 
                3089, 
                1605, 
                599, 
                4283, 
                8718, 
                825, 
                1262, 
                8812, 
                8991, 
                3502, 
                8162, 
                8942, 
                4283, 
                5574, 
                8034, 
                7093, 
                7230, 
                146, 
                182, 
                8962, 
                182, 
                4800, 
                4283, 
                8603, 
                3688, 
                8162
            ], 
            "WBL": [
                310
            ], 
            "irrelevant_Noun": [
                0
            ], 
            "M1_ADJ": [
                0
            ]
        }, 
        "location1": [
            71
        ], 
        "location2": [
            31
        ], 
        "sentence": "i used this product and was blown away buy how well it absorbed and better yet the wring out was so easy ,3 fold and a twist and 90 % of the water was out ! i bought one of the chemical guy waffle micro fiber cloth and it was awesome , but when you go to wring it out the shear size ( 25 & # 34 ; x36 & # 34 ; ) made it very hard to get a good wring out ."
    }, 
    "a2654fbad7e53faad87d8853b15fb7bd": {
        "(7, 8)": {
            "AM2L": [
                8991
            ], 
            "BM1F": [
                599
            ], 
            "M1": [
                3518
            ], 
            "irrelevant_Adj": [
                0
            ], 
            "M2": [
                8736
            ], 
            "BM1L": [
                8657
            ], 
            "WBNULL": [
                1
            ], 
            "irrelevant_Noun": [
                0
            ], 
            "AM2F": [
                6038
            ], 
            "M1_ADJ": [
                1
            ]
        }, 
        "location1": [
            7
        ], 
        "location2": [
            8
        ], 
        "sentence": "unless your system has high volume , and good water pressure , you may not be able to take full advantage this nozzle ."
    }
}