{
    "aff314622e0dfc73b9e71c091d69115d": {
        "(5, 6)": {
            "AM2L": [
                8034
            ], 
            "BM1F": [
                310
            ], 
            "M1": [
                3518
            ], 
            "irrelevant_Adj": [
                0
            ], 
            "M2": [
                4344
            ], 
            "BM1L": [
                2445
            ], 
            "WBNULL": [
                1
            ], 
            "irrelevant_Noun": [
                0
            ], 
            "AM2F": [
                8284
            ], 
            "M1_ADJ": [
                1
            ]
        }, 
        "location1": [
            5
        ], 
        "location2": [
            6
        ], 
        "sentence": "although the treatment does a good job treating the window , i have found that removal is not that easy ."
    }, 
    "19b32e74ad59cdfe1e64882268d23774": {
        "(3, 4)": {
            "AM2L": [
                5387
            ], 
            "BM1F": [
                310
            ], 
            "M1": [
                3518
            ], 
            "irrelevant_Adj": [
                0
            ], 
            "M2": [
                4344
            ], 
            "BM1L": [
                2445
            ], 
            "WBNULL": [
                1
            ], 
            "irrelevant_Noun": [
                0
            ], 
            "AM2F": [
                1262
            ], 
            "M1_ADJ": [
                1
            ]
        }, 
        "location1": [
            3
        ], 
        "location2": [
            4
        ], 
        "sentence": "it does a good job , but not that much better than the various cheapo nozzle and spray gun ."
    }, 
    "0ec3dbffb5da4b3f80541e4a5246f826": {
        "(4, 5)": {
            "AM2L": [
                8034
            ], 
            "BM1F": [
                310
            ], 
            "M1": [
                3518
            ], 
            "irrelevant_Adj": [
                0
            ], 
            "M2": [
                4344
            ], 
            "BM1L": [
                2445
            ], 
            "WBNULL": [
                1
            ], 
            "irrelevant_Noun": [
                0
            ], 
            "AM2F": [
                5269
            ], 
            "M1_ADJ": [
                1
            ]
        }, 
        "location1": [
            4
        ], 
        "location2": [
            5
        ], 
        "sentence": "the deflector does a good job navigating the air in the direction desired and the magnet reliably hold it in place on a vertical vent in a wall ."
    }, 
    "4a7eed4d57cd9ce746012a282fbe1c2c": {
        "location1": [
            21
        ], 
        "location2": [
            24
        ], 
        "(21, 24)": {
            "AM2L": [
                310
            ], 
            "AM2F": [
                720
            ], 
            "WBF": [
                5458
            ], 
            "BM1F": [
                720
            ], 
            "M1": [
                3518
            ], 
            "irrelevant_Adj": [
                0
            ], 
            "M2": [
                4344
            ], 
            "BM1L": [
                4376
            ], 
            "WBO": [
                310
            ], 
            "WBL": [
                310
            ], 
            "irrelevant_Noun": [
                0
            ], 
            "M1_ADJ": [
                1
            ]
        }, 
        "sentence": "let 's just say that this outperformed that other one and i am confident in saying that this does just as good of a job as a leather one , without the process of breaking it in ."
    }, 
    "ca5d90a3b5c2fccdd86095fc1d2fca1c": {
        "(12, 13)": {
            "AM2L": [
                8531
            ], 
            "BM1F": [
                310
            ], 
            "M1": [
                3518
            ], 
            "irrelevant_Adj": [
                0
            ], 
            "M2": [
                4344
            ], 
            "BM1L": [
                2452
            ], 
            "WBNULL": [
                1
            ], 
            "irrelevant_Noun": [
                0
            ], 
            "AM2F": [
                599
            ], 
            "M1_ADJ": [
                1
            ]
        }, 
        "location1": [
            12
        ], 
        "location2": [
            13
        ], 
        "sentence": "i bought a new one 5 yrs ago its still doing a good job and use that for my work truck ."
    }
}