{
    "f4dd8df94c0975e8a6b9f3e5355f5950": {
        "location1": [
            3
        ], 
        "location2": [
            14
        ], 
        "(3, 14)": {
            "WBF": [
                4570
            ], 
            "BM1F": [
                310
            ], 
            "M1": [
                3518
            ], 
            "irrelevant_Adj": [
                0
            ], 
            "M2": [
                5164
            ], 
            "BM1L": [
                4268
            ], 
            "WBO": [
                599, 
                5467, 
                591, 
                2617, 
                8190, 
                3252, 
                8531
            ], 
            "WBL": [
                5232
            ], 
            "irrelevant_Noun": [
                0
            ], 
            "M1_ADJ": [
                1
            ]
        }, 
        "sentence": "it is a good length and offered an easy tool for use with my motorcycle ."
    }, 
    "4c714419eddee9c3e634586ba14429ff": {
        "(4, 17)": {
            "AM2L": [
                5483
            ], 
            "AM2F": [
                8262
            ], 
            "WBF": [
                8527
            ], 
            "BM1F": [
                7405
            ], 
            "M1": [
                3518
            ], 
            "irrelevant_Adj": [
                0
            ], 
            "M2": [
                5164
            ], 
            "BM1L": [
                3717
            ], 
            "WBO": [
                8081, 
                720, 
                4283, 
                4268, 
                4376, 
                8034, 
                6667, 
                7230, 
                8162
            ], 
            "WBL": [
                5232
            ], 
            "irrelevant_Noun": [
                0
            ], 
            "M1_ADJ": [
                1
            ]
        }, 
        "location1": [
            4
        ], 
        "location2": [
            17
        ], 
        "sentence": "it does have some good us though , as it is just the right size to fill my motorcycle transmission oil ."
    }
}