{
    "1c81fabb3bfc9cc2630671fe607b2ddd": {
        "(59, 50)": {
            "AM2L": [
                5495
            ], 
            "AM2F": [
                3976
            ], 
            "WBF": [
                4043
            ], 
            "BM1F": [
                5387
            ], 
            "M1": [
                3149
            ], 
            "irrelevant_Adj": [
                0
            ], 
            "M2": [
                3518
            ], 
            "BM1L": [
                2445
            ], 
            "WBO": [
                3416, 
                599, 
                8082, 
                4283, 
                8931
            ], 
            "WBL": [
                310
            ], 
            "irrelevant_Noun": [
                0
            ], 
            "M1_ADJ": [
                0
            ]
        }, 
        "location1": [
            59
        ], 
        "location2": [
            50
        ], 
        "sentence": "i ordered four to start , one for dad [ has a truck he rarely drive ] , one for car i `` baby-sit `` , one of wife 's jeep it sometimes does not get driven for day which is only a concern during cold illinois winter , and my truck which always is outside [ does not fit in garage ] and thought it would be a good idea on those super cold night when i also plug in my battery blanket and oil heater ."
    }, 
    "de24d2fe8ce8b4a016b07b0a24a8c50d": {
        "(11, 12)": {
            "AM2L": [
                3128
            ], 
            "BM1F": [
                599
            ], 
            "M1": [
                3518
            ], 
            "irrelevant_Adj": [
                0
            ], 
            "M2": [
                3149
            ], 
            "BM1L": [
                5686
            ], 
            "WBNULL": [
                1
            ], 
            "irrelevant_Noun": [
                0
            ], 
            "AM2F": [
                599
            ], 
            "M1_ADJ": [
                1
            ]
        }, 
        "location1": [
            11
        ], 
        "location2": [
            12
        ], 
        "sentence": "this thing is put together very well , with quality part and good fit and finish ."
    }, 
    "bf8cbf1ce349545bce65bbcd995e43cd": {
        "(0, 4)": {
            "WBF": [
                5320
            ], 
            "AM2L": [
                104
            ], 
            "M1": [
                3518
            ], 
            "irrelevant_Adj": [
                0
            ], 
            "M2": [
                3149
            ], 
            "WBO": [
                2990
            ], 
            "WBL": [
                6055
            ], 
            "irrelevant_Noun": [
                0
            ], 
            "AM2F": [
                2021
            ], 
            "M1_ADJ": [
                1
            ]
        }, 
        "location1": [
            0
        ], 
        "location2": [
            4
        ], 
        "sentence": "good news1 ) fair price2 ) fit curt 2 `` trailer hitchbad news1 ) key use a little tricky2 ) plastic keyhole cap cover does n't feel real snugpractice locking/unlocking with the key about 20 time before you start using this so you establish some ' muscle memory ' on how to turn the key and remove the locking hardware - it 's not like your house key ."
    }
}