{
    "699edfbce2fe449f13c4e2dc6a5a8319": {
        "(0, 1)": {
            "M1": [
                3518
            ], 
            "irrelevant_Adj": [
                0
            ], 
            "M2": [
                6103
            ], 
            "WBNULL": [
                1
            ], 
            "irrelevant_Noun": [
                0
            ], 
            "M1_ADJ": [
                1
            ]
        }, 
        "location1": [
            0
        ], 
        "location2": [
            1
        ], 
        "sentence": "good product ."
    }, 
    "02776761b19cb9f296088d390a828466": {
        "(0, 1)": {
            "AM2L": [
                4800
            ], 
            "M1": [
                3518
            ], 
            "irrelevant_Adj": [
                0
            ], 
            "M2": [
                6103
            ], 
            "WBNULL": [
                1
            ], 
            "irrelevant_Noun": [
                0
            ], 
            "AM2F": [
                8789
            ], 
            "M1_ADJ": [
                1
            ]
        }, 
        "(7, 1)": {
            "AM2L": [
                3252
            ], 
            "AM2F": [
                1623
            ], 
            "WBF": [
                8789
            ], 
            "BM1F": [
                3518
            ], 
            "M1": [
                6103
            ], 
            "irrelevant_Adj": [
                0
            ], 
            "M2": [
                3518
            ], 
            "WBO": [
                4800, 
                599
            ], 
            "WBL": [
                8887
            ], 
            "irrelevant_Noun": [
                0
            ], 
            "M1_ADJ": [
                0
            ]
        }, 
        "location1": [
            0, 
            7
        ], 
        "location2": [
            1
        ], 
        "sentence": "good product , well made and painted with good coating for corrosion resistance ."
    }, 
    "33f3f6fb31905309e34b51ef1374afb5": {
        "(9, 5)": {
            "WBF": [
                3438
            ], 
            "BM1F": [
                4964
            ], 
            "M1": [
                6103
            ], 
            "irrelevant_Adj": [
                0
            ], 
            "M2": [
                3518
            ], 
            "BM1L": [
                8028
            ], 
            "WBO": [
                688
            ], 
            "WBL": [
                6241
            ], 
            "irrelevant_Noun": [
                0
            ], 
            "M1_ADJ": [
                0
            ]
        }, 
        "location1": [
            9
        ], 
        "location2": [
            5
        ], 
        "sentence": "i have found that meguiar product generally are quite good ."
    }, 
    "e5a4dfe045093bb933c64d6d76464f65": {
        "(28, 15)": {
            "AM2L": [
                310
            ], 
            "AM2F": [
                8887
            ], 
            "WBF": [
                4376
            ], 
            "BM1F": [
                8034
            ], 
            "M1": [
                6103
            ], 
            "irrelevant_Adj": [
                0
            ], 
            "M2": [
                3518
            ], 
            "BM1L": [
                5543
            ], 
            "WBO": [
                5232, 
                2367, 
                8028, 
                8756, 
                2436, 
                5245, 
                3717, 
                310, 
                3903
            ], 
            "WBL": [
                8073
            ], 
            "irrelevant_Noun": [
                0
            ], 
            "M1_ADJ": [
                0
            ]
        }, 
        "location1": [
            28
        ], 
        "location2": [
            15
        ], 
        "sentence": "fairly-priced chinese-made not-junk ! the loss of a star is no reflection on china or the product ; just my disappointment that we do n't have a hose nozzle this good with a made in the usa sticker on it ."
    }, 
    "3357b99e51e4e42a9c9e239717e7e250": {
        "(12, 13)": {
            "AM2L": [
                8034
            ], 
            "BM1F": [
                310
            ], 
            "M1": [
                3518
            ], 
            "irrelevant_Adj": [
                0
            ], 
            "M2": [
                6103
            ], 
            "BM1L": [
                4268
            ], 
            "WBNULL": [
                1
            ], 
            "irrelevant_Noun": [
                0
            ], 
            "AM2F": [
                1262
            ], 
            "M1_ADJ": [
                1
            ]
        }, 
        "location1": [
            12
        ], 
        "location2": [
            13
        ], 
        "sentence": "i use mine for fuel additive such as seafoam , which is a good product but the container is difficult to pour into most car/truck fuel tank ."
    }, 
    "3fd540f206d78a50b90edaaeb375c332": {
        "location1": [
            1
        ], 
        "location2": [
            9
        ], 
        "(1, 9)": {
            "WBF": [
                3128
            ], 
            "BM1F": [
                8603
            ], 
            "M1": [
                3518
            ], 
            "irrelevant_Adj": [
                0
            ], 
            "M2": [
                6103
            ], 
            "WBO": [
                8195, 
                1890, 
                5543, 
                3090
            ], 
            "WBL": [
                4881
            ], 
            "irrelevant_Noun": [
                0
            ], 
            "M1_ADJ": [
                1
            ]
        }, 
        "sentence": "very good finish top cost or fiberglass rv & marine product ."
    }, 
    "591c7490ce9e32cd951ff4f37b60f74f": {
        "(71, 3)": {
            "AM2L": [
                5574
            ], 
            "AM2F": [
                8942
            ], 
            "WBF": [
                599
            ], 
            "BM1F": [
                8073
            ], 
            "M1": [
                6103
            ], 
            "irrelevant_Adj": [
                0
            ], 
            "M2": [
                3518
            ], 
            "BM1L": [
                8534
            ], 
            "WBO": [
                8718, 
                1086, 
                823, 
                1269, 
                3920, 
                8789, 
                4283, 
                335, 
                599, 
                1014, 
                8987, 
                8034, 
                8942, 
                5574, 
                8718, 
                7362, 
                2617, 
                161, 
                3229, 
                599, 
                310, 
                8364, 
                599, 
                300, 
                5458, 
                8034, 
                8736, 
                8718, 
                5574, 
                3962, 
                1141, 
                5503, 
                5458, 
                8034, 
                1489, 
                3638, 
                8678, 
                5015, 
                3089, 
                1605, 
                599, 
                4283, 
                8718, 
                825, 
                1262, 
                8812, 
                8991, 
                3502, 
                8162, 
                8942, 
                4283, 
                5574, 
                8034, 
                7093, 
                7230, 
                146, 
                182, 
                8962, 
                182, 
                4800, 
                4283, 
                8603, 
                3688, 
                8162
            ], 
            "WBL": [
                310
            ], 
            "irrelevant_Noun": [
                0
            ], 
            "M1_ADJ": [
                0
            ]
        }, 
        "location1": [
            71
        ], 
        "location2": [
            3
        ], 
        "sentence": "i used this product and was blown away buy how well it absorbed and better yet the wring out was so easy ,3 fold and a twist and 90 % of the water was out ! i bought one of the chemical guy waffle micro fiber cloth and it was awesome , but when you go to wring it out the shear size ( 25 & # 34 ; x36 & # 34 ; ) made it very hard to get a good wring out ."
    }
}