{
    "497d7d22c630c2842f830a220958658c": {
        "location1": [
            13
        ], 
        "location2": [
            4
        ], 
        "(13, 4)": {
            "AM2L": [
                7690
            ], 
            "AM2F": [
                7613
            ], 
            "WBF": [
                5495
            ], 
            "BM1F": [
                8034
            ], 
            "M1": [
                7492
            ], 
            "irrelevant_Adj": [
                0
            ], 
            "M2": [
                3518
            ], 
            "BM1L": [
                8353
            ], 
            "WBO": [
                527, 
                8034, 
                8750, 
                3962, 
                1899
            ], 
            "WBL": [
                310
            ], 
            "irrelevant_Noun": [
                0
            ], 
            "M1_ADJ": [
                0
            ]
        }, 
        "sentence": "when i turned the spigot on all the way , i could get a good steady stream over 20 foot no problem at all ."
    }
}