{
    "97f99acfbcfbfe96e904c976841d3956": {
        "(5, 13)": {
            "AM2L": [
                8044
            ], 
            "AM2F": [
                3247
            ], 
            "WBF": [
                2767
            ], 
            "BM1F": [
                8718
            ], 
            "M1": [
                3518
            ], 
            "irrelevant_Adj": [
                0
            ], 
            "M2": [
                1510
            ], 
            "BM1L": [
                8073
            ], 
            "WBO": [
                3252, 
                8034, 
                4434, 
                5458
            ], 
            "WBL": [
                1358
            ], 
            "irrelevant_Noun": [
                0
            ], 
            "M1_ADJ": [
                1
            ]
        }, 
        "(20, 13)": {
            "AM2L": [
                3252
            ], 
            "AM2F": [
                2767
            ], 
            "WBF": [
                3247
            ], 
            "BM1F": [
                1358
            ], 
            "M1": [
                1510
            ], 
            "irrelevant_Adj": [
                0
            ], 
            "M2": [
                3518
            ], 
            "BM1L": [
                1865
            ], 
            "WBO": [
                8044, 
                4283, 
                8931
            ], 
            "WBL": [
                929
            ], 
            "irrelevant_Noun": [
                0
            ], 
            "M1_ADJ": [
                0
            ]
        }, 
        "location1": [
            5, 
            20
        ], 
        "location2": [
            13
        ], 
        "sentence": "i figured if this was good enough for the `` king of cool car `` chip foose , then it would probably be good enough for me ."
    }
}