{
    "bf8cbf1ce349545bce65bbcd995e43cd": {
        "location1": [
            0
        ], 
        "location2": [
            14
        ], 
        "(0, 14)": {
            "WBF": [
                5320
            ], 
            "AM2L": [
                4414
            ], 
            "M1": [
                3518
            ], 
            "irrelevant_Adj": [
                0
            ], 
            "M2": [
                8302
            ], 
            "WBO": [
                2990, 
                6055, 
                3149, 
                2021, 
                104, 
                8250, 
                3842, 
                5320, 
                4409, 
                8531
            ], 
            "WBL": [
                4671
            ], 
            "irrelevant_Noun": [
                0
            ], 
            "AM2F": [
                5862
            ], 
            "M1_ADJ": [
                1
            ]
        }, 
        "sentence": "good news1 ) fair price2 ) fit curt 2 `` trailer hitchbad news1 ) key use a little tricky2 ) plastic keyhole cap cover does n't feel real snugpractice locking/unlocking with the key about 20 time before you start using this so you establish some ' muscle memory ' on how to turn the key and remove the locking hardware - it 's not like your house key ."
    }
}