{
    "d10340d26e34c5747f5f33f23cb292f0": {
        "(5, 12)": {
            "AM2L": [
                8057
            ], 
            "AM2F": [
                599
            ], 
            "WBF": [
                3962
            ], 
            "BM1F": [
                6042
            ], 
            "M1": [
                3518
            ], 
            "irrelevant_Adj": [
                0
            ], 
            "M2": [
                6606
            ], 
            "BM1L": [
                4268
            ], 
            "WBO": [
                1307, 
                703, 
                8162
            ], 
            "WBL": [
                4689
            ], 
            "irrelevant_Noun": [
                0
            ], 
            "M1_ADJ": [
                1
            ]
        }, 
        "location1": [
            5
        ], 
        "location2": [
            12
        ], 
        "sentence": "the price here is pretty good - i called around to some local retailer and they wanted almost twice as much for this kit ."
    }
}