{
    "42b4f05fd73153bb55f8f2ec08fb1798": {
        "(25, 39)": {
            "AM2L": [
                3459
            ], 
            "AM2F": [
                8162
            ], 
            "WBF": [
                8065
            ], 
            "BM1F": [
                310
            ], 
            "M1": [
                3518
            ], 
            "irrelevant_Adj": [
                0
            ], 
            "M2": [
                337
            ], 
            "BM1L": [
                929
            ], 
            "WBO": [
                8162, 
                6772, 
                310, 
                5018, 
                8227, 
                5595, 
                8034, 
                1358, 
                475, 
                8991
            ], 
            "WBL": [
                8034
            ], 
            "irrelevant_Noun": [
                0
            ], 
            "M1_ADJ": [
                1
            ]
        }, 
        "location1": [
            25
        ], 
        "location2": [
            39
        ], 
        "sentence": "if the car is in the sun or if you have hard water or if you are meticulous about your car , it may be a good thing to run a microfiber towel over the car after you use the absorber to get the rest of the water off and to ensure no spots/streaks get left behind ."
    }
}