{
    "457d5e79df566670edc73bb9e0f33319": {
        "location1": [
            4
        ], 
        "location2": [
            12
        ], 
        "(4, 12)": {
            "WBF": [
                760
            ], 
            "BM1F": [
                5387
            ], 
            "M1": [
                3518
            ], 
            "irrelevant_Adj": [
                0
            ], 
            "M2": [
                8870
            ], 
            "BM1L": [
                4376
            ], 
            "WBO": [
                2547, 
                8034, 
                1358, 
                3252
            ], 
            "WBL": [
                3112
            ], 
            "irrelevant_Noun": [
                0
            ], 
            "M1_ADJ": [
                1
            ]
        }, 
        "sentence": "it is just not good at drying the car for the final wipe ."
    }, 
    "4ee27eb7615dee65b92894fa7714c89f": {
        "location1": [
            12
        ], 
        "location2": [
            17
        ], 
        "(12, 17)": {
            "AM2F": [
                8887
            ], 
            "WBF": [
                3252
            ], 
            "BM1F": [
                5387
            ], 
            "M1": [
                3518
            ], 
            "irrelevant_Adj": [
                0
            ], 
            "M2": [
                8870
            ], 
            "BM1L": [
                4268
            ], 
            "WBO": [
                8997
            ], 
            "WBL": [
                8162
            ], 
            "irrelevant_Noun": [
                0
            ], 
            "M1_ADJ": [
                1
            ]
        }, 
        "sentence": "this one seems to collect a lot of dirt which is not good for your car to wipe with ."
    }
}