{
    "3357b99e51e4e42a9c9e239717e7e250": {
        "(12, 5)": {
            "AM2L": [
                1262
            ], 
            "AM2F": [
                6103
            ], 
            "WBF": [
                7760
            ], 
            "BM1F": [
                3349
            ], 
            "M1": [
                422
            ], 
            "irrelevant_Adj": [
                0
            ], 
            "M2": [
                3518
            ], 
            "BM1L": [
                3252
            ], 
            "WBO": [
                720, 
                6935, 
                8819
            ], 
            "WBL": [
                310
            ], 
            "irrelevant_Noun": [
                0
            ], 
            "M1_ADJ": [
                0
            ]
        }, 
        "location1": [
            12
        ], 
        "location2": [
            5
        ], 
        "sentence": "i use mine for fuel additive such as seafoam , which is a good product but the container is difficult to pour into most car/truck fuel tank ."
    }
}