{
    "b1c07ba6a5e7fe3f1f930add5c75d93c": {
        "(2, 7)": {
            "AM2L": [
                2847
            ], 
            "AM2F": [
                599
            ], 
            "WBF": [
                3252
            ], 
            "BM1F": [
                4268
            ], 
            "M1": [
                3518
            ], 
            "irrelevant_Adj": [
                0
            ], 
            "M2": [
                7357
            ], 
            "BM1L": [
                4283
            ], 
            "WBO": [
                6267
            ], 
            "WBL": [
                599
            ], 
            "irrelevant_Noun": [
                0
            ], 
            "M1_ADJ": [
                1
            ]
        }, 
        "location1": [
            2
        ], 
        "location2": [
            7
        ], 
        "sentence": "it is good for rain , sleet and snow and even reduces the amount of bug that will stick to your window ."
    }
}