{
    "a4fd8ebed61aec796e81907d55599320": {
        "location1": [
            7
        ], 
        "location2": [
            11
        ], 
        "(7, 11)": {
            "AM2L": [
                8034
            ], 
            "AM2F": [
                475
            ], 
            "WBF": [
                1223
            ], 
            "BM1F": [
                310
            ], 
            "M1": [
                3518
            ], 
            "irrelevant_Adj": [
                0
            ], 
            "M2": [
                8862
            ], 
            "BM1L": [
                3459
            ], 
            "WBO": [
                5495
            ], 
            "WBL": [
                8034
            ], 
            "irrelevant_Noun": [
                0
            ], 
            "M1_ADJ": [
                1
            ]
        }, 
        "sentence": "also it was difficult to get a good buffing on the windshield after the first application ."
    }
}