{
    "4a1131f52de3292cd7b7fff80c6c2ba8": {
        "(0, 6)": {
            "WBF": [
                8750
            ], 
            "AM2L": [
                5232
            ], 
            "M1": [
                3518
            ], 
            "irrelevant_Adj": [
                0
            ], 
            "M2": [
                1785
            ], 
            "WBO": [
                8162, 
                1914
            ], 
            "WBL": [
                8665
            ], 
            "irrelevant_Noun": [
                0
            ], 
            "AM2F": [
                3252
            ], 
            "M1_ADJ": [
                1
            ]
        }, 
        "location1": [
            0
        ], 
        "location2": [
            6
        ], 
        "sentence": "good way to cover those vulnerable connector for my trailer ."
    }
}