{
    "cb3ebfe74642e76d06a44a29efb7c487": {
        "(9, 10)": {
            "AM2L": [
                8044
            ], 
            "BM1F": [
                6354
            ], 
            "M1": [
                3518
            ], 
            "irrelevant_Adj": [
                0
            ], 
            "M2": [
                7072
            ], 
            "BM1L": [
                5458
            ], 
            "WBNULL": [
                1
            ], 
            "irrelevant_Noun": [
                0
            ], 
            "AM2F": [
                599
            ], 
            "M1_ADJ": [
                1
            ]
        }, 
        "location1": [
            9
        ], 
        "location2": [
            10
        ], 
        "sentence": "after that i gave it a bunch of really good shake and then ran my finger thru the fiber a few time trying to get out any of the lose one ."
    }
}