{
    "1107fef5a389e7df2ef9a4b8a67eed70": {
        "location1": [
            6
        ], 
        "location2": [
            46
        ], 
        "(6, 46)": {
            "AM2L": [
                3903
            ], 
            "AM2F": [
                8374
            ], 
            "WBF": [
                3985
            ], 
            "BM1F": [
                929
            ], 
            "M1": [
                3518
            ], 
            "irrelevant_Adj": [
                0
            ], 
            "M2": [
                8305
            ], 
            "BM1L": [
                4929
            ], 
            "WBO": [
                8991, 
                7, 
                3854, 
                4283, 
                3252, 
                310, 
                4710, 
                5766, 
                5458, 
                8140, 
                8739, 
                8997, 
                3419, 
                5543, 
                7409, 
                4625, 
                8028, 
                1262, 
                3252, 
                8724, 
                8997, 
                1358, 
                8812, 
                8991, 
                5512, 
                8351, 
                8034, 
                8736, 
                5495, 
                5767, 
                4283, 
                2445, 
                5245, 
                8907, 
                720, 
                8789
            ], 
            "WBL": [
                310
            ], 
            "irrelevant_Noun": [
                0
            ], 
            "M1_ADJ": [
                1
            ]
        }, 
        "sentence": "this type of nozzle may be good if you 're holding it for a long period of time watering your garden or something like that , but for washing your car when you only turn the water on periodically , it does n't work as well as a trigger type hose nozzle ."
    }
}