{
    "ca11d17a98039216ccd4d0854902b81f": {
        "(13, 9)": {
            "AM2L": [
                2590
            ], 
            "AM2F": [
                720
            ], 
            "WBF": [
                8028
            ], 
            "BM1F": [
                3442
            ], 
            "M1": [
                4914
            ], 
            "irrelevant_Adj": [
                0
            ], 
            "M2": [
                3518
            ], 
            "BM1L": [
                7663
            ], 
            "WBO": [
                4268
            ], 
            "WBL": [
                720
            ], 
            "irrelevant_Noun": [
                0
            ], 
            "M1_ADJ": [
                0
            ]
        }, 
        "location1": [
            13
        ], 
        "location2": [
            9
        ], 
        "sentence": "overall i have n't found any hardware store generic material that is as good as dynamat xtreme for sound damping on large panel ."
    }, 
    "7af616fdf7351bdc0334f0551729351d": {
        "location1": [
            11
        ], 
        "location2": [
            13
        ], 
        "(11, 13)": {
            "WBFL": [
                6219
            ], 
            "BM1F": [
                3338
            ], 
            "M1": [
                3518
            ], 
            "irrelevant_Adj": [
                0
            ], 
            "M2": [
                4914
            ], 
            "BM1L": [
                4800
            ], 
            "irrelevant_Noun": [
                0
            ], 
            "M1_ADJ": [
                1
            ]
        }, 
        "sentence": "so far i think it will last a while , made from good quality material"
    }
}