{
    "1de9d7b8054d96d5ccc0bbe06cd3edaf": {
        "(14, 5)": {
            "AM2L": [
                599
            ], 
            "AM2F": [
                6637
            ], 
            "WBF": [
                1286
            ], 
            "BM1F": [
                5458
            ], 
            "M1": [
                4369
            ], 
            "irrelevant_Adj": [
                0
            ], 
            "M2": [
                3518
            ], 
            "BM1L": [
                7042
            ], 
            "WBO": [
                3252, 
                5232, 
                5314, 
                1358, 
                599
            ], 
            "WBL": [
                3646
            ], 
            "irrelevant_Noun": [
                0
            ], 
            "M1_ADJ": [
                0
            ]
        }, 
        "location1": [
            14, 
            20
        ], 
        "location2": [
            5
        ], 
        "(20, 5)": {
            "AM2F": [
                6054
            ], 
            "WBF": [
                1286
            ], 
            "BM1F": [
                5458
            ], 
            "M1": [
                4369
            ], 
            "irrelevant_Adj": [
                0
            ], 
            "M2": [
                3518
            ], 
            "BM1L": [
                7042
            ], 
            "WBO": [
                3252, 
                5232, 
                5314, 
                1358, 
                599, 
                8053, 
                3646, 
                3518, 
                6637, 
                599, 
                8800
            ], 
            "WBL": [
                310
            ], 
            "irrelevant_Noun": [
                0
            ], 
            "M1_ADJ": [
                0
            ]
        }, 
        "sentence": "i needed a set of jumper cable for my new car and these had good review and were at a good price ."
    }, 
    "e8e070a58b9f557349427b6fe44b9bdc": {
        "location1": [
            3, 
            20
        ], 
        "location2": [
            6
        ], 
        "(20, 6)": {
            "AM2F": [
                6829
            ], 
            "WBF": [
                1286
            ], 
            "BM1F": [
                8080
            ], 
            "M1": [
                4369
            ], 
            "irrelevant_Adj": [
                0
            ], 
            "M2": [
                3518
            ], 
            "BM1L": [
                3985
            ], 
            "WBO": [
                688, 
                4710, 
                7362, 
                8028, 
                8057, 
                1323, 
                2616, 
                6335, 
                8034, 
                921
            ], 
            "WBL": [
                310
            ], 
            "irrelevant_Noun": [
                0
            ], 
            "M1_ADJ": [
                0
            ]
        }, 
        "(3, 6)": {
            "AM2L": [
                688
            ], 
            "AM2F": [
                1286
            ], 
            "WBF": [
                3985
            ], 
            "BM1F": [
                2475
            ], 
            "M1": [
                3518
            ], 
            "irrelevant_Adj": [
                0
            ], 
            "M2": [
                4369
            ], 
            "BM1L": [
                8
            ], 
            "WBO": [
                8080
            ], 
            "WBL": [
                8080
            ], 
            "irrelevant_Noun": [
                0
            ], 
            "M1_ADJ": [
                1
            ]
        }, 
        "sentence": "it 's double good if those jumper cable are long so that they can easily reach the battery of a good samaritan ."
    }
}