{
    "1c81fabb3bfc9cc2630671fe607b2ddd": {
        "(59, 72)": {
            "AM2L": [
                599
            ], 
            "AM2F": [
                1057
            ], 
            "WBF": [
                3976
            ], 
            "BM1F": [
                310
            ], 
            "M1": [
                3518
            ], 
            "irrelevant_Adj": [
                0
            ], 
            "M2": [
                921
            ], 
            "BM1L": [
                929
            ], 
            "WBO": [
                5495, 
                8080, 
                7795, 
                1637, 
                5333, 
                8812, 
                3962, 
                554, 
                5887
            ], 
            "WBL": [
                5232
            ], 
            "irrelevant_Noun": [
                0
            ], 
            "M1_ADJ": [
                1
            ]
        }, 
        "location1": [
            59
        ], 
        "location2": [
            72
        ], 
        "sentence": "i ordered four to start , one for dad [ has a truck he rarely drive ] , one for car i `` baby-sit `` , one of wife 's jeep it sometimes does not get driven for day which is only a concern during cold illinois winter , and my truck which always is outside [ does not fit in garage ] and thought it would be a good idea on those super cold night when i also plug in my battery blanket and oil heater ."
    }, 
    "e8e070a58b9f557349427b6fe44b9bdc": {
        "(3, 17)": {
            "AM2L": [
                310
            ], 
            "AM2F": [
                5458
            ], 
            "WBF": [
                3985
            ], 
            "BM1F": [
                2475
            ], 
            "M1": [
                3518
            ], 
            "irrelevant_Adj": [
                0
            ], 
            "M2": [
                921
            ], 
            "BM1L": [
                8
            ], 
            "WBO": [
                8080, 
                4369, 
                1286, 
                688, 
                4710, 
                7362, 
                8028, 
                8057, 
                1323, 
                2616
            ], 
            "WBL": [
                8034
            ], 
            "irrelevant_Noun": [
                0
            ], 
            "M1_ADJ": [
                1
            ]
        }, 
        "location1": [
            3, 
            20
        ], 
        "location2": [
            17
        ], 
        "(20, 17)": {
            "AM2F": [
                6829
            ], 
            "WBF": [
                5458
            ], 
            "BM1F": [
                8034
            ], 
            "M1": [
                921
            ], 
            "irrelevant_Adj": [
                0
            ], 
            "M2": [
                3518
            ], 
            "BM1L": [
                6335
            ], 
            "WBO": [
                310
            ], 
            "WBL": [
                310
            ], 
            "irrelevant_Noun": [
                0
            ], 
            "M1_ADJ": [
                0
            ]
        }, 
        "sentence": "it 's double good if those jumper cable are long so that they can easily reach the battery of a good samaritan ."
    }
}