{
    "a2654fbad7e53faad87d8853b15fb7bd": {
        "location1": [
            7
        ], 
        "location2": [
            18
        ], 
        "(7, 18)": {
            "AM2L": [
                5410
            ], 
            "AM2F": [
                8073
            ], 
            "WBF": [
                8736
            ], 
            "BM1F": [
                599
            ], 
            "M1": [
                3518
            ], 
            "irrelevant_Adj": [
                0
            ], 
            "M2": [
                452
            ], 
            "BM1L": [
                8657
            ], 
            "WBO": [
                6038, 
                8991, 
                4929, 
                5387, 
                929, 
                320, 
                8162
            ], 
            "WBL": [
                3352
            ], 
            "irrelevant_Noun": [
                0
            ], 
            "M1_ADJ": [
                1
            ]
        }, 
        "sentence": "unless your system has high volume , and good water pressure , you may not be able to take full advantage this nozzle ."
    }
}