{
    "e5a4dfe045093bb933c64d6d76464f65": {
        "(28, 12)": {
            "AM2L": [
                310
            ], 
            "AM2F": [
                8887
            ], 
            "WBF": [
                5543
            ], 
            "BM1F": [
                5495
            ], 
            "M1": [
                1507
            ], 
            "irrelevant_Adj": [
                0
            ], 
            "M2": [
                3518
            ], 
            "BM1L": [
                6437
            ], 
            "WBO": [
                8034, 
                6103, 
                4376, 
                5232, 
                2367, 
                8028, 
                8756, 
                2436, 
                5245, 
                3717, 
                310, 
                3903
            ], 
            "WBL": [
                8073
            ], 
            "irrelevant_Noun": [
                0
            ], 
            "M1_ADJ": [
                0
            ]
        }, 
        "location1": [
            28
        ], 
        "location2": [
            12
        ], 
        "sentence": "fairly-priced chinese-made not-junk ! the loss of a star is no reflection on china or the product ; just my disappointment that we do n't have a hose nozzle this good with a made in the usa sticker on it ."
    }
}