{
    "4c714419eddee9c3e634586ba14429ff": {
        "location1": [
            4
        ], 
        "location2": [
            13
        ], 
        "(4, 13)": {
            "AM2L": [
                3101
            ], 
            "AM2F": [
                8162
            ], 
            "WBF": [
                8527
            ], 
            "BM1F": [
                7405
            ], 
            "M1": [
                3518
            ], 
            "irrelevant_Adj": [
                0
            ], 
            "M2": [
                7230
            ], 
            "BM1L": [
                3717
            ], 
            "WBO": [
                8081, 
                720, 
                4283, 
                4268, 
                4376
            ], 
            "WBL": [
                6667
            ], 
            "irrelevant_Noun": [
                0
            ], 
            "M1_ADJ": [
                1
            ]
        }, 
        "sentence": "it does have some good us though , as it is just the right size to fill my motorcycle transmission oil ."
    }, 
    "591c7490ce9e32cd951ff4f37b60f74f": {
        "(71, 59)": {
            "AM2L": [
                5574
            ], 
            "AM2F": [
                8942
            ], 
            "WBF": [
                146
            ], 
            "BM1F": [
                7093
            ], 
            "M1": [
                7230
            ], 
            "irrelevant_Adj": [
                0
            ], 
            "M2": [
                3518
            ], 
            "BM1L": [
                8034
            ], 
            "WBO": [
                182, 
                8962, 
                182, 
                4800, 
                4283, 
                8603, 
                3688, 
                8162
            ], 
            "WBL": [
                310
            ], 
            "irrelevant_Noun": [
                0
            ], 
            "M1_ADJ": [
                0
            ]
        }, 
        "location1": [
            71
        ], 
        "location2": [
            59
        ], 
        "sentence": "i used this product and was blown away buy how well it absorbed and better yet the wring out was so easy ,3 fold and a twist and 90 % of the water was out ! i bought one of the chemical guy waffle micro fiber cloth and it was awesome , but when you go to wring it out the shear size ( 25 & # 34 ; x36 & # 34 ; ) made it very hard to get a good wring out ."
    }, 
    "39ffc4dca6f7d76c5ccc92bb72ed6103": {
        "location1": [
            18
        ], 
        "location2": [
            19
        ], 
        "(18, 19)": {
            "AM2L": [
                1149
            ], 
            "BM1F": [
                310
            ], 
            "M1": [
                3518
            ], 
            "irrelevant_Adj": [
                0
            ], 
            "M2": [
                7230
            ], 
            "BM1L": [
                3851
            ], 
            "WBNULL": [
                1
            ], 
            "irrelevant_Noun": [
                0
            ], 
            "AM2F": [
                8190
            ], 
            "M1_ADJ": [
                1
            ]
        }, 
        "sentence": "update 05/22/13 : ok been using for a while now , and find it is suffice to hold a good size tool box on wheel in place at the front of the box ."
    }
}