{
    "5f6f0ae2c8e46202f1f4c8cf45c6bfe1": {
        "location1": [
            10
        ], 
        "location2": [
            11
        ], 
        "(10, 11)": {
            "AM2L": [
                8842
            ], 
            "BM1F": [
                310
            ], 
            "M1": [
                3518
            ], 
            "irrelevant_Adj": [
                0
            ], 
            "M2": [
                4570
            ], 
            "BM1L": [
                8
            ], 
            "WBNULL": [
                1
            ], 
            "irrelevant_Noun": [
                0
            ], 
            "AM2F": [
                599
            ], 
            "M1_ADJ": [
                1
            ]
        }, 
        "sentence": "hard to complain , it 's a funnel , it 's a good length and width for awkwardly located fill ."
    }, 
    "f4dd8df94c0975e8a6b9f3e5355f5950": {
        "(3, 4)": {
            "AM2L": [
                5467
            ], 
            "BM1F": [
                310
            ], 
            "M1": [
                3518
            ], 
            "irrelevant_Adj": [
                0
            ], 
            "M2": [
                4570
            ], 
            "BM1L": [
                4268
            ], 
            "WBNULL": [
                1
            ], 
            "irrelevant_Noun": [
                0
            ], 
            "AM2F": [
                599
            ], 
            "M1_ADJ": [
                1
            ]
        }, 
        "location1": [
            3
        ], 
        "location2": [
            4
        ], 
        "sentence": "it is a good length and offered an easy tool for use with my motorcycle ."
    }
}