{
    "1f77ac895c636338d8cb935c32b303ce": {
        "(2, 13)": {
            "AM2L": [
                3962
            ], 
            "AM2F": [
                7362
            ], 
            "WBF": [
                2107
            ], 
            "BM1F": [
                310
            ], 
            "M1": [
                3564
            ], 
            "irrelevant_Adj": [
                0
            ], 
            "M2": [
                4954
            ], 
            "BM1L": [
                8503
            ], 
            "WBO": [
                5458, 
                2356, 
                3705, 
                3294, 
                4289, 
                8750, 
                4216
            ], 
            "WBL": [
                4694
            ], 
            "irrelevant_Noun": [
                0
            ], 
            "M1_ADJ": [
                1
            ]
        }, 
        "location1": [
            2
        ], 
        "location2": [
            13
        ], 
        "sentence": "update : a great deal of dirt has found its way into the lock mechanism so i guess the fit is not secure like it should be ."
    }
}