{
    "1c8f1b4fa180afa1f09e9d61a92a8b0f": {
        "location1": [
            20
        ], 
        "location2": [
            18
        ], 
        "(20, 18)": {
            "AM2L": [
                4283
            ], 
            "WBFL": [
                8907
            ], 
            "BM1F": [
                8034
            ], 
            "M1": [
                4694
            ], 
            "irrelevant_Adj": [
                0
            ], 
            "M2": [
                3564
            ], 
            "BM1L": [
                8044
            ], 
            "AM2F": [
                5495
            ], 
            "irrelevant_Noun": [
                0
            ], 
            "M1_ADJ": [
                0
            ]
        }, 
        "sentence": "but if you 're willing to do this , it just takes a few extra minute and then the lock work great on it ."
    }, 
    "1f77ac895c636338d8cb935c32b303ce": {
        "(2, 12)": {
            "AM2L": [
                7362
            ], 
            "AM2F": [
                4954
            ], 
            "WBF": [
                2107
            ], 
            "BM1F": [
                310
            ], 
            "M1": [
                3564
            ], 
            "irrelevant_Adj": [
                0
            ], 
            "M2": [
                4694
            ], 
            "BM1L": [
                8503
            ], 
            "WBO": [
                5458, 
                2356, 
                3705, 
                3294, 
                4289, 
                8750
            ], 
            "WBL": [
                8034
            ], 
            "irrelevant_Noun": [
                0
            ], 
            "M1_ADJ": [
                1
            ]
        }, 
        "location1": [
            2
        ], 
        "location2": [
            12
        ], 
        "sentence": "update : a great deal of dirt has found its way into the lock mechanism so i guess the fit is not secure like it should be ."
    }
}