{
    "8168cd2eab4ae563e185899d76d388bd": {
        "(27, 7)": {
            "AM2L": [
                8162
            ], 
            "AM2F": [
                8750
            ], 
            "WBF": [
                8821
            ], 
            "BM1F": [
                8034
            ], 
            "M1": [
                1032
            ], 
            "irrelevant_Adj": [
                0
            ], 
            "M2": [
                3564
            ], 
            "BM1L": [
                2481
            ], 
            "WBO": [
                1567, 
                599, 
                8703, 
                8162, 
                3459, 
                5495, 
                8887, 
                8034, 
                5322, 
                7622, 
                5458, 
                5916, 
                599, 
                6490, 
                8073, 
                8227
            ], 
            "WBL": [
                310
            ], 
            "irrelevant_Noun": [
                0
            ], 
            "M1_ADJ": [
                0
            ]
        }, 
        "sentence": "so if i just hosed down the bike while cleaning and wanted to get on with the next step of polishing and relubing , this towel is a great way to dry the bike when it 's neither hot nor dry enough of a day for the bike to dry out on it 's own in a fair amount of time .", 
        "location2": [
            7, 
            32, 
            46
        ], 
        "location1": [
            27
        ], 
        "(27, 32)": {
            "AM2L": [
                4283
            ], 
            "AM2F": [
                8812
            ], 
            "WBF": [
                8750
            ], 
            "BM1F": [
                310
            ], 
            "M1": [
                3564
            ], 
            "irrelevant_Adj": [
                0
            ], 
            "M2": [
                1032
            ], 
            "BM1L": [
                4268
            ], 
            "WBO": [
                8162
            ], 
            "WBL": [
                8034
            ], 
            "irrelevant_Noun": [
                0
            ], 
            "M1_ADJ": [
                1
            ]
        }, 
        "(27, 46)": {
            "AM2L": [
                2545
            ], 
            "AM2F": [
                8162
            ], 
            "WBF": [
                8750
            ], 
            "BM1F": [
                310
            ], 
            "M1": [
                3564
            ], 
            "irrelevant_Adj": [
                0
            ], 
            "M2": [
                1032
            ], 
            "BM1L": [
                4268
            ], 
            "WBO": [
                8162, 
                2545, 
                8034, 
                1032, 
                8812, 
                4283, 
                8, 
                5296, 
                3911, 
                5379, 
                2545, 
                2767, 
                5458, 
                310, 
                2087
            ], 
            "WBL": [
                8034
            ], 
            "irrelevant_Noun": [
                0
            ], 
            "M1_ADJ": [
                1
            ]
        }
    }
}