{
    "a689067ee47c6ebd8c416c285d1a2af5": {
        "(6, 2)": {
            "AM2L": [
                3962
            ], 
            "AM2F": [
                720
            ], 
            "WBF": [
                8718
            ], 
            "BM1F": [
                8034
            ], 
            "M1": [
                7690
            ], 
            "irrelevant_Adj": [
                0
            ], 
            "M2": [
                3564
            ], 
            "BM1L": [
                8821
            ], 
            "WBO": [
                5387
            ], 
            "WBL": [
                310
            ], 
            "irrelevant_Noun": [
                0
            ], 
            "M1_ADJ": [
                0
            ]
        }, 
        "location1": [
            6
        ], 
        "location2": [
            2
        ], 
        "sentence": "while the stream was not a great as i would like it at least got there thusly making this nozzle super for getting at the upper window ."
    }
}