{
    "7323f9f3dc0afd63f33fa074617b521f": {
        "location1": [
            11
        ], 
        "location2": [
            15
        ], 
        "(11, 15)": {
            "AM2L": [
                3461
            ], 
            "AM2F": [
                4283
            ], 
            "WBF": [
                5344
            ], 
            "BM1F": [
                8907
            ], 
            "M1": [
                3564
            ], 
            "irrelevant_Adj": [
                0
            ], 
            "M2": [
                2358
            ], 
            "BM1L": [
                599
            ], 
            "WBO": [
                4920
            ], 
            "WBL": [
                3920
            ], 
            "irrelevant_Noun": [
                0
            ], 
            "M1_ADJ": [
                1
            ]
        }, 
        "sentence": "this is easy to clean ( just shake it out ) and work great no matter how dirty it gets ."
    }, 
    "0fc544b1a650ebfd3bb93221f8bb00da": {
        "location1": [
            23
        ], 
        "location2": [
            14
        ], 
        "(23, 14)": {
            "AM2F": [
                7081
            ], 
            "WBF": [
                599
            ], 
            "BM1F": [
                1044
            ], 
            "M1": [
                2358
            ], 
            "irrelevant_Adj": [
                0
            ], 
            "M2": [
                3564
            ], 
            "BM1L": [
                310
            ], 
            "WBO": [
                6932, 
                3338, 
                8531, 
                8057, 
                688
            ], 
            "WBL": [
                4043
            ], 
            "irrelevant_Noun": [
                0
            ], 
            "M1_ADJ": [
                0
            ]
        }, 
        "sentence": "they have been used probably 80 to 100 time now and , while a bit dirty and scuffed from use , they are still in great shape ."
    }
}