{
    "5dba5979b5db41decb760633dbf85734": {
        "location1": [
            4
        ], 
        "location2": [
            12
        ], 
        "(4, 12)": {
            "AM2L": [
                1882
            ], 
            "AM2F": [
                1275
            ], 
            "WBF": [
                4344
            ], 
            "BM1F": [
                310
            ], 
            "M1": [
                3564
            ], 
            "irrelevant_Adj": [
                0
            ], 
            "M2": [
                3864
            ], 
            "BM1L": [
                2304
            ], 
            "WBO": [
                5458, 
                878, 
                8034, 
                7985
            ], 
            "WBL": [
                5232
            ], 
            "irrelevant_Noun": [
                0
            ], 
            "M1_ADJ": [
                1
            ]
        }, 
        "sentence": "this product did a great job of balancing the temperature throughout my home by correcting the direction of the air flow ."
    }
}