{
    "537cca086410626d29ae952bce7bc0bf": {
        "location1": [
            8
        ], 
        "location2": [
            17
        ], 
        "(8, 17)": {
            "AM2L": [
                5245
            ], 
            "AM2F": [
                4268
            ], 
            "WBF": [
                4344
            ], 
            "BM1F": [
                310
            ], 
            "M1": [
                3564
            ], 
            "irrelevant_Adj": [
                0
            ], 
            "M2": [
                8641
            ], 
            "BM1L": [
                2445
            ], 
            "WBO": [
                5458, 
                4403, 
                8034, 
                8736, 
                932
            ], 
            "WBL": [
                7362
            ], 
            "irrelevant_Noun": [
                0
            ], 
            "M1_ADJ": [
                1
            ]
        }, 
        "sentence": "in moderate or heavy rain , it does a great job of keeping the water beaded up so vision is n't as reduced as it is on untreated window ."
    }
}