{
    "0f5eb41bd03e069de666792ab292c44f": {
        "(24, 43)": {
            "AM2F": [
                3252
            ], 
            "WBF": [
                3252
            ], 
            "BM1F": [
                8909
            ], 
            "M1": [
                3564
            ], 
            "irrelevant_Adj": [
                0
            ], 
            "M2": [
                1214
            ], 
            "BM1L": [
                4283
            ], 
            "WBO": [
                4940, 
                599, 
                720, 
                5458, 
                5407, 
                3962, 
                3717, 
                310, 
                3564, 
                4671, 
                2580, 
                8028, 
                3962, 
                5653, 
                4578
            ], 
            "WBL": [
                216
            ], 
            "irrelevant_Noun": [
                0
            ], 
            "M1_ADJ": [
                1
            ]
        }, 
        "location1": [
            24, 
            34
        ], 
        "location2": [
            43
        ], 
        "(34, 43)": {
            "AM2F": [
                3252
            ], 
            "WBF": [
                4671
            ], 
            "BM1F": [
                310
            ], 
            "M1": [
                3564
            ], 
            "irrelevant_Adj": [
                0
            ], 
            "M2": [
                1214
            ], 
            "BM1L": [
                3717
            ], 
            "WBO": [
                2580, 
                8028, 
                3962, 
                5653, 
                4578
            ], 
            "WBL": [
                216
            ], 
            "irrelevant_Noun": [
                0
            ], 
            "M1_ADJ": [
                1
            ]
        }, 
        "sentence": "for anyone having other issue like red fiber all over the place , i 'd recommend following the step i did listed above , it worked great for me and as of now i have a great little duster that i paid less then 5 buck for ."
    }
}