{
    "e520e0bfdfa578464d3d59c14ed42ac8": {
        "(21, 30)": {
            "WBF": [
                4344
            ], 
            "BM1F": [
                310
            ], 
            "M1": [
                3564
            ], 
            "irrelevant_Adj": [
                0
            ], 
            "M2": [
                5080
            ], 
            "BM1L": [
                2445
            ], 
            "WBO": [
                5458, 
                1572, 
                8997, 
                8863, 
                5458
            ], 
            "WBL": [
                599
            ], 
            "irrelevant_Noun": [
                0
            ], 
            "M1_ADJ": [
                1
            ]
        }, 
        "location1": [
            21
        ], 
        "location2": [
            30
        ], 
        "sentence": "have used this in the past on all of my vehicle ( 3 over the last 16 year ) and it does a great job of clearing your windshield/windows of rain and misting ."
    }
}