{
    "4be508492e3b1960eccb9dbc37f4c47b": {
        "location1": [
            5
        ], 
        "location2": [
            17
        ], 
        "(5, 17)": {
            "AM2L": [
                310
            ], 
            "AM2F": [
                4216
            ], 
            "WBF": [
                6103
            ], 
            "BM1F": [
                310
            ], 
            "M1": [
                3564
            ], 
            "irrelevant_Adj": [
                0
            ], 
            "M2": [
                7465
            ], 
            "BM1L": [
                4268
            ], 
            "WBO": [
                8028, 
                3776, 
                8991, 
                8162, 
                2687, 
                6310, 
                8812, 
                8991
            ], 
            "WBL": [
                4147
            ], 
            "irrelevant_Noun": [
                0
            ], 
            "M1_ADJ": [
                1
            ]
        }, 
        "sentence": "hi , this product is a great product that help you to eliminate rattles/vibrations when you are installing speaker into a vehicle 's car door , rear panel , deck , etc ."
    }
}