{
    "1f77ac895c636338d8cb935c32b303ce": {
        "(2, 0)": {
            "AM2L": [
                5458
            ], 
            "WBFL": [
                310
            ], 
            "M1": [
                8503
            ], 
            "irrelevant_Adj": [
                0
            ], 
            "M2": [
                3564
            ], 
            "AM2F": [
                2107
            ], 
            "irrelevant_Noun": [
                0
            ], 
            "M1_ADJ": [
                0
            ]
        }, 
        "location1": [
            2
        ], 
        "location2": [
            0
        ], 
        "sentence": "update : a great deal of dirt has found its way into the lock mechanism so i guess the fit is not secure like it should be ."
    }
}