{
    "c1a5c768f173c7b327c0c03f81ec97ea": {
        "location1": [
            4
        ], 
        "location2": [
            12
        ], 
        "(4, 12)": {
            "AM2L": [
                4146
            ], 
            "AM2F": [
                599
            ], 
            "WBF": [
                6637
            ], 
            "BM1F": [
                8034
            ], 
            "M1": [
                3564
            ], 
            "irrelevant_Adj": [
                0
            ], 
            "M2": [
                1462
            ], 
            "BM1L": [
                527
            ], 
            "WBO": [
                3962, 
                1141, 
                5503, 
                5458
            ], 
            "WBL": [
                5496
            ], 
            "irrelevant_Noun": [
                0
            ], 
            "M1_ADJ": [
                1
            ]
        }, 
        "sentence": "after reading all the great review , i bought one of these on-board charger and installed in one of the car that frequently dy ( even with new battery ) ."
    }
}