{
    "f517d6c48f3062f232ad0041e7221e29": {
        "(3, 10)": {
            "AM2L": [
                527
            ], 
            "AM2F": [
                599
            ], 
            "WBF": [
                3962
            ], 
            "BM1F": [
                4268
            ], 
            "M1": [
                3564
            ], 
            "irrelevant_Adj": [
                0
            ], 
            "M2": [
                7098
            ], 
            "BM1L": [
                6103
            ], 
            "WBO": [
                5512, 
                1141, 
                5503
            ], 
            "WBL": [
                8034
            ], 
            "irrelevant_Noun": [
                0
            ], 
            "M1_ADJ": [
                1
            ]
        }, 
        "location1": [
            3
        ], 
        "location2": [
            10
        ], 
        "sentence": "this product is great , i only bought one of the sheet and all you have to do is fill the open hole in you trunk ."
    }
}