{
    "7e65a8712def487be11f3cbf7438e325": {
        "(19, 54)": {
            "WBF": [
                3252
            ], 
            "BM1F": [
                4283
            ], 
            "M1": [
                3564
            ], 
            "irrelevant_Adj": [
                0
            ], 
            "M2": [
                1365
            ], 
            "BM1L": [
                4831
            ], 
            "WBO": [
                8034, 
                4440, 
                8195, 
                7219, 
                599, 
                918, 
                8907, 
                3564, 
                3252, 
                4440, 
                7494, 
                808, 
                546, 
                2860, 
                1473, 
                8024, 
                1447, 
                8991, 
                3717, 
                8162, 
                7663, 
                4283, 
                5116, 
                4043, 
                8034, 
                1331, 
                5543, 
                4283, 
                8851, 
                2545, 
                7635
            ], 
            "WBL": [
                310
            ], 
            "irrelevant_Noun": [
                0
            ], 
            "M1_ADJ": [
                1
            ]
        }, 
        "location1": [
            19, 
            28
        ], 
        "location2": [
            54
        ], 
        "(28, 54)": {
            "WBF": [
                3252
            ], 
            "BM1F": [
                8907
            ], 
            "M1": [
                3564
            ], 
            "irrelevant_Adj": [
                0
            ], 
            "M2": [
                1365
            ], 
            "BM1L": [
                918
            ], 
            "WBO": [
                4440, 
                7494, 
                808, 
                546, 
                2860, 
                1473, 
                8024, 
                1447, 
                8991, 
                3717, 
                8162, 
                7663, 
                4283, 
                5116, 
                4043, 
                8034, 
                1331, 
                5543, 
                4283, 
                8851, 
                2545, 
                7635
            ], 
            "WBL": [
                310
            ], 
            "irrelevant_Noun": [
                0
            ], 
            "M1_ADJ": [
                1
            ]
        }, 
        "sentence": "- does not produce streak when drying car - spot free ! - i cut it to half and quarter size - makes it great for the kitchen top , sink and bathroom - work great for kitchen spill - available almost everywhere - cheaper than chamoiscons : - you have to store it moist in the canister or it will dry stiff as a cardboard ."
    }
}