{
    "db11e559d15a272afb1f623c9e0f543f": {
        "(3, 17)": {
            "AM2L": [
                3252
            ], 
            "AM2F": [
                1262
            ], 
            "WBF": [
                3252
            ], 
            "BM1F": [
                929
            ], 
            "M1": [
                3564
            ], 
            "irrelevant_Adj": [
                0
            ], 
            "M2": [
                6922
            ], 
            "BM1L": [
                8931
            ], 
            "WBO": [
                8724, 
                310, 
                1358, 
                5543, 
                1026, 
                4344, 
                4625, 
                3905, 
                2481, 
                310
            ], 
            "WBL": [
                5543
            ], 
            "irrelevant_Noun": [
                0
            ], 
            "M1_ADJ": [
                1
            ]
        }, 
        "location1": [
            3
        ], 
        "location2": [
            17
        ], 
        "sentence": "this would be great for washing a car or big job like hosing down a pool or screen , but for watering potted plant and tree , this nozzle put too much water down and creates splashing ."
    }
}