{
    "80f0fc34a99fbbf7cc8e0537d4537d9f": {
        "location1": [
            9
        ], 
        "location2": [
            4
        ], 
        "(9, 4)": {
            "AM2L": [
                8073
            ], 
            "AM2F": [
                5495
            ], 
            "WBF": [
                599
            ], 
            "BM1F": [
                8034
            ], 
            "M1": [
                337
            ], 
            "irrelevant_Adj": [
                0
            ], 
            "M2": [
                3564
            ], 
            "BM1L": [
                385
            ], 
            "WBO": [
                8034
            ], 
            "WBL": [
                8906
            ], 
            "irrelevant_Noun": [
                0
            ], 
            "M1_ADJ": [
                0
            ]
        }, 
        "sentence": "i ran across the absorber , and the review wore great on this product ."
    }
}