{
    "0fc544b1a650ebfd3bb93221f8bb00da": {
        "(23, 16)": {
            "AM2F": [
                7081
            ], 
            "WBF": [
                3338
            ], 
            "BM1F": [
                599
            ], 
            "M1": [
                6932
            ], 
            "irrelevant_Adj": [
                0
            ], 
            "M2": [
                3564
            ], 
            "BM1L": [
                2358
            ], 
            "WBO": [
                8531, 
                8057, 
                688
            ], 
            "WBL": [
                4043
            ], 
            "irrelevant_Noun": [
                0
            ], 
            "M1_ADJ": [
                0
            ]
        }, 
        "location1": [
            23
        ], 
        "location2": [
            16
        ], 
        "sentence": "they have been used probably 80 to 100 time now and , while a bit dirty and scuffed from use , they are still in great shape ."
    }
}