{
    "94aef053c12b9b9e13727aafd87c6d64": {
        "location1": [
            0
        ], 
        "location2": [
            2
        ], 
        "(0, 2)": {
            "AM2L": [
                5260
            ], 
            "WBFL": [
                4671
            ], 
            "M1": [
                3564
            ], 
            "irrelevant_Adj": [
                0
            ], 
            "M2": [
                3372
            ], 
            "AM2F": [
                4710
            ], 
            "irrelevant_Noun": [
                0
            ], 
            "M1_ADJ": [
                1
            ]
        }, 
        "sentence": "great little funnel , long narrow output is good for transmission fluid or other stuff similar with a small opening not easy to get to ."
    }, 
    "32d1605b8a5ae8a10b6354a299ed11eb": {
        "(3, 4)": {
            "AM2L": [
                8805
            ], 
            "BM1F": [
                310
            ], 
            "M1": [
                3564
            ], 
            "irrelevant_Adj": [
                0
            ], 
            "M2": [
                3372
            ], 
            "BM1L": [
                4268
            ], 
            "WBNULL": [
                1
            ], 
            "irrelevant_Noun": [
                0
            ], 
            "AM2F": [
                3252
            ], 
            "M1_ADJ": [
                1
            ]
        }, 
        "location1": [
            3
        ], 
        "location2": [
            4
        ], 
        "sentence": "this is a great funnel for what it is desinged to do ."
    }, 
    "34d93b8f0c1c77503d8cbb7a7dd67b64": {
        "location1": [
            1
        ], 
        "location2": [
            27
        ], 
        "(1, 27)": {
            "WBF": [
                4043
            ], 
            "BM1F": [
                8907
            ], 
            "M1": [
                3564
            ], 
            "irrelevant_Adj": [
                0
            ], 
            "M2": [
                3372
            ], 
            "WBO": [
                6435, 
                5483, 
                4043, 
                5232, 
                3441, 
                599, 
                4528, 
                4283, 
                2847, 
                3705, 
                310, 
                4647, 
                5495, 
                8034, 
                8195, 
                7362, 
                8034, 
                5483, 
                8893, 
                5245, 
                3502, 
                5574
            ], 
            "WBL": [
                8034
            ], 
            "irrelevant_Noun": [
                0
            ], 
            "M1_ADJ": [
                1
            ]
        }, 
        "sentence": "work great in refilling oil in my generator and lawnmower ! it even has a lip on the top so the oil wo n't go out of the funnel ."
    }
}