{
    "a01af467ce9d5b53fe29220f1435ea7e": {
        "location1": [
            27
        ], 
        "location2": [
            6
        ], 
        "(27, 6)": {
            "AM2L": [
                5458
            ], 
            "AM2F": [
                4344
            ], 
            "WBF": [
                688
            ], 
            "BM1F": [
                8034
            ], 
            "M1": [
                6685
            ], 
            "irrelevant_Adj": [
                0
            ], 
            "M2": [
                3564
            ], 
            "BM1L": [
                8812
            ], 
            "WBO": [
                8803, 
                599, 
                5076, 
                4268, 
                4418, 
                8501, 
                3338, 
                8034, 
                8157, 
                5495, 
                8034, 
                8587, 
                4043, 
                3339, 
                5458, 
                8991, 
                8073
            ], 
            "WBL": [
                310
            ], 
            "irrelevant_Noun": [
                0
            ], 
            "M1_ADJ": [
                0
            ]
        }, 
        "sentence": "during light rain or when the road are wet and mist is kicked up from the tire on the vehicle in front of you , this does a great job of keeping the beading moving up and off of the window to the point that you do n't really even need your wiper ."
    }
}