{
    "8168cd2eab4ae563e185899d76d388bd": {
        "(27, 59)": {
            "WBF": [
                8750
            ], 
            "BM1F": [
                310
            ], 
            "M1": [
                3564
            ], 
            "irrelevant_Adj": [
                0
            ], 
            "M2": [
                8140
            ], 
            "BM1L": [
                4268
            ], 
            "WBO": [
                8162, 
                2545, 
                8034, 
                1032, 
                8812, 
                4283, 
                8, 
                5296, 
                3911, 
                5379, 
                2545, 
                2767, 
                5458, 
                310, 
                2087, 
                3252, 
                8034, 
                1032, 
                8162, 
                2545, 
                5574, 
                5495, 
                4283, 
                8, 
                5624, 
                4043, 
                310, 
                2990
            ], 
            "WBL": [
                5458
            ], 
            "irrelevant_Noun": [
                1
            ], 
            "M1_ADJ": [
                1
            ]
        }, 
        "location1": [
            27
        ], 
        "location2": [
            59
        ], 
        "sentence": "so if i just hosed down the bike while cleaning and wanted to get on with the next step of polishing and relubing , this towel is a great way to dry the bike when it 's neither hot nor dry enough of a day for the bike to dry out on it 's own in a fair amount of time ."
    }, 
    "0fc544b1a650ebfd3bb93221f8bb00da": {
        "(23, 8)": {
            "AM2F": [
                7081
            ], 
            "WBF": [
                5407
            ], 
            "BM1F": [
                42
            ], 
            "M1": [
                8140
            ], 
            "irrelevant_Adj": [
                0
            ], 
            "M2": [
                3564
            ], 
            "BM1L": [
                8162
            ], 
            "WBO": [
                599, 
                8821, 
                310, 
                1044, 
                2358, 
                599, 
                6932, 
                3338, 
                8531, 
                8057, 
                688
            ], 
            "WBL": [
                4043
            ], 
            "irrelevant_Noun": [
                1
            ], 
            "M1_ADJ": [
                0
            ]
        }, 
        "location1": [
            23
        ], 
        "location2": [
            8
        ], 
        "sentence": "they have been used probably 80 to 100 time now and , while a bit dirty and scuffed from use , they are still in great shape ."
    }
}