{
    "42b4f05fd73153bb55f8f2ec08fb1798": {
        "(11, 6)": {
            "AM2L": [
                5543
            ], 
            "AM2F": [
                8736
            ], 
            "WBF": [
                5543
            ], 
            "BM1F": [
                8034
            ], 
            "M1": [
                7791
            ], 
            "irrelevant_Adj": [
                0
            ], 
            "M2": [
                3688
            ], 
            "BM1L": [
                4043
            ], 
            "WBO": [
                3985
            ], 
            "WBL": [
                3717
            ], 
            "irrelevant_Noun": [
                0
            ], 
            "M1_ADJ": [
                0
            ]
        }, 
        "location1": [
            11
        ], 
        "location2": [
            6
        ], 
        "sentence": "if the car is in the sun or if you have hard water or if you are meticulous about your car , it may be a good thing to run a microfiber towel over the car after you use the absorber to get the rest of the water off and to ensure no spots/streaks get left behind ."
    }
}