{
    "5453a5d7ecc9b3e43a97cc85580f14aa": {
        "(6, 10)": {
            "AM2L": [
                8991
            ], 
            "AM2F": [
                1262
            ], 
            "WBF": [
                8736
            ], 
            "BM1F": [
                3338
            ], 
            "M1": [
                3688
            ], 
            "irrelevant_Adj": [
                0
            ], 
            "M2": [
                2216
            ], 
            "BM1L": [
                2577
            ], 
            "WBO": [
                599
            ], 
            "WBL": [
                6267
            ], 
            "irrelevant_Noun": [
                0
            ], 
            "M1_ADJ": [
                1
            ]
        }, 
        "location1": [
            6
        ], 
        "location2": [
            10
        ], 
        "sentence": "it will remove the dust from hard water and rain deposit , but you 'll still see the mark if you look carefully ."
    }
}