{
    "591c7490ce9e32cd951ff4f37b60f74f": {
        "location1": [
            67
        ], 
        "location2": [
            26
        ], 
        "(67, 26)": {
            "AM2L": [
                3459
            ], 
            "AM2F": [
                8162
            ], 
            "WBF": [
                599
            ], 
            "BM1F": [
                310
            ], 
            "M1": [
                8364
            ], 
            "irrelevant_Adj": [
                0
            ], 
            "M2": [
                3688
            ], 
            "BM1L": [
                599
            ], 
            "WBO": [
                300, 
                5458, 
                8034, 
                8736, 
                8718, 
                5574, 
                3962, 
                1141, 
                5503, 
                5458, 
                8034, 
                1489, 
                3638, 
                8678, 
                5015, 
                3089, 
                1605, 
                599, 
                4283, 
                8718, 
                825, 
                1262, 
                8812, 
                8991, 
                3502, 
                8162, 
                8942, 
                4283, 
                5574, 
                8034, 
                7093, 
                7230, 
                146, 
                182, 
                8962, 
                182, 
                4800
            ], 
            "WBL": [
                8603
            ], 
            "irrelevant_Noun": [
                0
            ], 
            "M1_ADJ": [
                0
            ]
        }, 
        "sentence": "i used this product and was blown away buy how well it absorbed and better yet the wring out was so easy ,3 fold and a twist and 90 % of the water was out ! i bought one of the chemical guy waffle micro fiber cloth and it was awesome , but when you go to wring it out the shear size ( 25 & # 34 ; x36 & # 34 ; ) made it very hard to get a good wring out ."
    }
}