{
    "be168a2167f0f295d36a9a258709960c": {
        "(2, 13)": {
            "AM2L": [
                825
            ], 
            "AM2F": [
                4268
            ], 
            "WBF": [
                8162
            ], 
            "BM1F": [
                8
            ], 
            "M1": [
                3688
            ], 
            "irrelevant_Adj": [
                0
            ], 
            "M2": [
                8065
            ], 
            "BM1L": [
                4283
            ], 
            "WBO": [
                4003, 
                974, 
                2891, 
                325, 
                310, 
                3903, 
                5410
            ], 
            "WBL": [
                8073
            ], 
            "irrelevant_Noun": [
                1
            ], 
            "M1_ADJ": [
                1
            ]
        }, 
        "location1": [
            2
        ], 
        "location2": [
            13
        ], 
        "sentence": "it 's hard to imagine being excited about a hose nozzle but this thing is awesome ."
    }, 
    "42b4f05fd73153bb55f8f2ec08fb1798": {
        "(11, 26)": {
            "AM2L": [
                6772
            ], 
            "AM2F": [
                8162
            ], 
            "WBF": [
                8736
            ], 
            "BM1F": [
                3717
            ], 
            "M1": [
                3688
            ], 
            "irrelevant_Adj": [
                0
            ], 
            "M2": [
                8065
            ], 
            "BM1L": [
                8991
            ], 
            "WBO": [
                5543, 
                3985, 
                8991, 
                688, 
                5004, 
                325, 
                8997, 
                1358, 
                4283, 
                4929, 
                929
            ], 
            "WBL": [
                3518
            ], 
            "irrelevant_Noun": [
                1
            ], 
            "M1_ADJ": [
                1
            ]
        }, 
        "location1": [
            11
        ], 
        "location2": [
            26
        ], 
        "sentence": "if the car is in the sun or if you have hard water or if you are meticulous about your car , it may be a good thing to run a microfiber towel over the car after you use the absorber to get the rest of the water off and to ensure no spots/streaks get left behind ."
    }, 
    "9605f47fba0fbcec8151bd21e296c9e8": {
        "(12, 2)": {
            "AM2L": [
                3228
            ], 
            "AM2F": [
                1394
            ], 
            "WBF": [
                3962
            ], 
            "BM1F": [
                1602
            ], 
            "M1": [
                8065
            ], 
            "irrelevant_Adj": [
                0
            ], 
            "M2": [
                3688
            ], 
            "BM1L": [
                8034
            ], 
            "WBO": [
                3717, 
                1663, 
                385, 
                8028, 
                6570, 
                2590
            ], 
            "WBL": [
                4268
            ], 
            "irrelevant_Noun": [
                1
            ], 
            "M1_ADJ": [
                0
            ]
        }, 
        "location1": [
            12
        ], 
        "location2": [
            2
        ], 
        "sentence": "the closest thing i have come across that resembles dynamat xtreme is hard cast foil grip 1402 , a specialty tape sold to contractor for hvac duct sealing ."
    }, 
    "2747869ac3f243e69240e96d873154c5": {
        "(47, 14)": {
            "WBF": [
                3985
            ], 
            "BM1F": [
                8931
            ], 
            "M1": [
                8065
            ], 
            "irrelevant_Adj": [
                0
            ], 
            "M2": [
                3688
            ], 
            "BM1L": [
                3962
            ], 
            "WBO": [
                8057, 
                6354, 
                8702, 
                4283, 
                3962, 
                5, 
                7824, 
                8057, 
                1323, 
                3459, 
                4283, 
                5574, 
                8073, 
                4376, 
                4831, 
                4283, 
                310, 
                4671, 
                3689, 
                599, 
                3985, 
                8991, 
                4144, 
                8368, 
                8057, 
                8851, 
                3717, 
                8162, 
                8907
            ], 
            "WBL": [
                720
            ], 
            "irrelevant_Noun": [
                1
            ], 
            "M1_ADJ": [
                0
            ]
        }, 
        "location1": [
            47
        ], 
        "location2": [
            14
        ], 
        "sentence": "i just took one of the bolt out and put this in , i would thing if they really want it i 'm sure they can get it out , this just makes it a little harder and if you install two they will have to work twice as hard ."
    }
}