{
    "56d7634f362a6450a24315cae8602819": {
        "location1": [
            2
        ], 
        "location2": [
            9
        ], 
        "(2, 9)": {
            "WBF": [
                8162
            ], 
            "BM1F": [
                4268
            ], 
            "M1": [
                3688
            ], 
            "irrelevant_Adj": [
                0
            ], 
            "M2": [
                1286
            ], 
            "BM1L": [
                4283
            ], 
            "WBO": [
                3117, 
                6199, 
                1872
            ], 
            "WBL": [
                4369
            ], 
            "irrelevant_Noun": [
                0
            ], 
            "M1_ADJ": [
                1
            ]
        }, 
        "sentence": "it is hard to find pure copper cabled jumper cable ."
    }, 
    "db1d3fa3cd3672ea83a8d3cec64b1cf7": {
        "(8, 15)": {
            "AM2L": [
                3962
            ], 
            "AM2F": [
                7362
            ], 
            "WBF": [
                1553
            ], 
            "BM1F": [
                1026
            ], 
            "M1": [
                3688
            ], 
            "irrelevant_Adj": [
                0
            ], 
            "M2": [
                1286
            ], 
            "BM1L": [
                8218
            ], 
            "WBO": [
                599, 
                4746, 
                3719
            ], 
            "WBL": [
                4710
            ], 
            "irrelevant_Noun": [
                0
            ], 
            "M1_ADJ": [
                1
            ]
        }, 
        "location1": [
            8
        ], 
        "location2": [
            15
        ], 
        "sentence": "but they are built solid , nice tough big hard clamp and love having a long cable so i never have to move car around or anything if needed ."
    }
}