{
    "5453a5d7ecc9b3e43a97cc85580f14aa": {
        "(6, 17)": {
            "AM2L": [
                8991
            ], 
            "AM2F": [
                3985
            ], 
            "WBF": [
                8736
            ], 
            "BM1F": [
                3338
            ], 
            "M1": [
                3688
            ], 
            "irrelevant_Adj": [
                0
            ], 
            "M2": [
                4884
            ], 
            "BM1L": [
                2577
            ], 
            "WBO": [
                599, 
                6267, 
                2216, 
                1262, 
                8991, 
                4, 
                7640
            ], 
            "WBL": [
                8034
            ], 
            "irrelevant_Noun": [
                0
            ], 
            "M1_ADJ": [
                1
            ]
        }, 
        "location1": [
            6
        ], 
        "location2": [
            17
        ], 
        "sentence": "it will remove the dust from hard water and rain deposit , but you 'll still see the mark if you look carefully ."
    }
}