{
    "fa9c571c17b329afb2a7548c86e3cefa": {
        "location1": [
            8
        ], 
        "location2": [
            17
        ], 
        "(8, 17)": {
            "WBF": [
                6267
            ], 
            "BM1F": [
                8034
            ], 
            "M1": [
                3759
            ], 
            "irrelevant_Adj": [
                0
            ], 
            "M2": [
                8872
            ], 
            "BM1L": [
                8028
            ], 
            "WBO": [
                4376, 
                7268, 
                6667, 
                5459, 
                8889
            ], 
            "WBL": [
                8997
            ], 
            "irrelevant_Noun": [
                0
            ], 
            "M1_ADJ": [
                1
            ]
        }, 
        "sentence": "your windshield glass is so slick that the heaviest rain just slide right off without using your wiper ."
    }
}