{
    "9edbcf6545a01ae1f84907d3f40f309f": {
        "(3, 1)": {
            "AM2L": [
                3426
            ], 
            "WBFL": [
                4268
            ], 
            "BM1F": [
                8034
            ], 
            "M1": [
                8334
            ], 
            "irrelevant_Adj": [
                0
            ], 
            "M2": [
                3762
            ], 
            "AM2F": [
                2767
            ], 
            "irrelevant_Noun": [
                0
            ], 
            "M1_ADJ": [
                0
            ]
        }, 
        "location1": [
            3
        ], 
        "location2": [
            1
        ], 
        "sentence": "the tubing is heavy enough gauge to support the rated load with no flexing ."
    }
}