{
    "4c6acdef23675a5d898f42e51fcf2413": {
        "location1": [
            39
        ], 
        "location2": [
            26
        ], 
        "(39, 26)": {
            "AM2L": [
                3410
            ], 
            "AM2F": [
                2583
            ], 
            "WBF": [
                7362
            ], 
            "BM1F": [
                5663
            ], 
            "M1": [
                1297
            ], 
            "irrelevant_Adj": [
                0
            ], 
            "M2": [
                3762
            ], 
            "BM1L": [
                310
            ], 
            "WBO": [
                3962, 
                8081, 
                5232, 
                228, 
                4243, 
                4929, 
                929, 
                1014, 
                7037
            ], 
            "WBL": [
                310
            ], 
            "irrelevant_Noun": [
                0
            ], 
            "M1_ADJ": [
                0
            ]
        }, 
        "sentence": "one day i forgot to remove it when pulling out and it seems to take very little pressure moving forward to flatten it like a pan cake so i though my 50,000 investment may be better served with a heavy duty galvanized wheel chock that wont give in and even let me move over it by mistake and let me know its holding solid if i ever did again roll forward over it ."
    }
}