{
    "bd1adf5acbf15da1a299b9d44e2ff635": {
        "(22, 24)": {
            "AM2L": [
                8997
            ], 
            "WBFL": [
                4855
            ], 
            "BM1F": [
                8034
            ], 
            "M1": [
                3762
            ], 
            "irrelevant_Adj": [
                0
            ], 
            "M2": [
                4993
            ], 
            "BM1L": [
                8208
            ], 
            "AM2F": [
                4216
            ], 
            "irrelevant_Noun": [
                0
            ], 
            "M1_ADJ": [
                1
            ]
        }, 
        "location1": [
            22
        ], 
        "location2": [
            24
        ], 
        "sentence": "advice , after you get a jump do n't waste time rolling these thing up in some dark parking lot -- just toss the heavy mangled mess into your trunk and get home ."
    }
}