{
    "eb3f6687de75d7269d5e1f1510fb1ee7": {
        "(6, 18)": {
            "AM2L": [
                8250
            ], 
            "AM2F": [
                2723
            ], 
            "WBF": [
                3539
            ], 
            "BM1F": [
                688
            ], 
            "M1": [
                3762
            ], 
            "irrelevant_Adj": [
                0
            ], 
            "M2": [
                8960
            ], 
            "BM1L": [
                1515
            ], 
            "WBO": [
                4120, 
                5119, 
                5862, 
                599, 
                8907, 
                8789, 
                8162, 
                6960
            ], 
            "WBL": [
                216
            ], 
            "irrelevant_Noun": [
                0
            ], 
            "M1_ADJ": [
                1
            ]
        }, 
        "location1": [
            6
        ], 
        "location2": [
            18
        ], 
        "sentence": "these camco rv wheel chock are heavy grade injection molded plastic and work well to secure my 5 ' x10 ' enclosed trailer in place ."
    }
}