{
    "26ffef41f1a84e69e5d0d5a804533ece": {
        "location1": [
            15
        ], 
        "location2": [
            32
        ], 
        "(15, 32)": {
            "WBF": [
                2583
            ], 
            "BM1F": [
                310
            ], 
            "M1": [
                3762
            ], 
            "irrelevant_Adj": [
                0
            ], 
            "M2": [
                2527
            ], 
            "BM1L": [
                3717
            ], 
            "WBO": [
                5887, 
                3675, 
                2481, 
                4376, 
                969, 
                8034, 
                3339, 
                1244, 
                8162, 
                1780, 
                8501, 
                8821, 
                5574
            ], 
            "WBL": [
                8034
            ], 
            "irrelevant_Noun": [
                0
            ], 
            "M1_ADJ": [
                1
            ]
        }, 
        "sentence": "i mounted it securely under the hood next to the battery itself and have a heavy duty plug hanging down -- just behind the front bumper -- to connect up while out in the driveway ."
    }
}