{
    "bb1968b4b2098ffde4bb50948722a610": {
        "location1": [
            4
        ], 
        "location2": [
            6
        ], 
        "(4, 6)": {
            "AM2L": [
                4268
            ], 
            "WBFL": [
                2583
            ], 
            "BM1F": [
                7395
            ], 
            "M1": [
                3762
            ], 
            "irrelevant_Adj": [
                0
            ], 
            "M2": [
                2286
            ], 
            "BM1L": [
                310
            ], 
            "AM2F": [
                599
            ], 
            "irrelevant_Noun": [
                0
            ], 
            "M1_ADJ": [
                1
            ]
        }, 
        "sentence": "this is a solid heavy duty device and is no toy ."
    }
}