{
    "17b598d69c2ddf0ba3acbe68b69b911e": {
        "(0, 1)": {
            "AM2L": [
                4501
            ], 
            "M1": [
                3762
            ], 
            "irrelevant_Adj": [
                0
            ], 
            "M2": [
                2583
            ], 
            "WBNULL": [
                1
            ], 
            "irrelevant_Noun": [
                0
            ], 
            "AM2F": [
                5862
            ], 
            "M1_ADJ": [
                1
            ]
        }, 
        "location1": [
            0
        ], 
        "location2": [
            1
        ], 
        "sentence": "heavy duty plastic , large strong magnet on the side and they work perfectly ."
    }, 
    "36980c6d2983093a487eec2522fe77a4": {
        "location1": [
            22
        ], 
        "location2": [
            23
        ], 
        "(22, 23)": {
            "BM1F": [
                599
            ], 
            "M1": [
                3762
            ], 
            "irrelevant_Adj": [
                0
            ], 
            "M2": [
                2583
            ], 
            "BM1L": [
                4710
            ], 
            "WBNULL": [
                1
            ], 
            "irrelevant_Noun": [
                0
            ], 
            "AM2F": [
                4369
            ], 
            "M1_ADJ": [
                1
            ]
        }, 
        "sentence": "for the price of a set of cheap booster/jumper cable in a brick and morter store , you can buy extra long and heavy duty jumper !"
    }, 
    "56c2ff599a32914338ba4f5567ae4b23": {
        "(7, 8)": {
            "AM2L": [
                7036
            ], 
            "BM1F": [
                7795
            ], 
            "M1": [
                3762
            ], 
            "irrelevant_Adj": [
                0
            ], 
            "M2": [
                2583
            ], 
            "BM1L": [
                5387
            ], 
            "WBNULL": [
                1
            ], 
            "irrelevant_Noun": [
                0
            ], 
            "AM2F": [
                1262
            ], 
            "M1_ADJ": [
                1
            ]
        }, 
        "location1": [
            7
        ], 
        "location2": [
            8
        ], 
        "sentence": "about what you would expect , not super heavy duty but serve their purpose ."
    }, 
    "684f77eb02a739ac415fc52baa0f205e": {
        "(4, 5)": {
            "AM2L": [
                2617
            ], 
            "BM1F": [
                688
            ], 
            "M1": [
                3762
            ], 
            "irrelevant_Adj": [
                0
            ], 
            "M2": [
                2583
            ], 
            "BM1L": [
                1286
            ], 
            "WBNULL": [
                1
            ], 
            "irrelevant_Noun": [
                0
            ], 
            "AM2F": [
                8987
            ], 
            "M1_ADJ": [
                1
            ]
        }, 
        "location1": [
            4
        ], 
        "location2": [
            5
        ], 
        "sentence": "these jumper cable are heavy duty , yet easy to store ."
    }, 
    "9a170ed254fd773f7757fad6e0d9cb69": {
        "(4, 5)": {
            "AM2L": [
                1515
            ], 
            "BM1F": [
                8034
            ], 
            "M1": [
                3762
            ], 
            "irrelevant_Adj": [
                0
            ], 
            "M2": [
                2583
            ], 
            "BM1L": [
                5387
            ], 
            "WBNULL": [
                1
            ], 
            "irrelevant_Noun": [
                0
            ], 
            "AM2F": [
                8810
            ], 
            "M1_ADJ": [
                1
            ]
        }, 
        "location1": [
            4
        ], 
        "location2": [
            5
        ], 
        "sentence": "this is not the heavy duty wheel chock that camco also sellscamco 44492 rv super wheel chocki bought this not paying very close attention to the detail ."
    }, 
    "26ffef41f1a84e69e5d0d5a804533ece": {
        "(15, 16)": {
            "AM2L": [
                3675
            ], 
            "BM1F": [
                310
            ], 
            "M1": [
                3762
            ], 
            "irrelevant_Adj": [
                0
            ], 
            "M2": [
                2583
            ], 
            "BM1L": [
                3717
            ], 
            "WBNULL": [
                1
            ], 
            "irrelevant_Noun": [
                0
            ], 
            "AM2F": [
                5887
            ], 
            "M1_ADJ": [
                1
            ]
        }, 
        "location1": [
            15
        ], 
        "location2": [
            16
        ], 
        "sentence": "i mounted it securely under the hood next to the battery itself and have a heavy duty plug hanging down -- just behind the front bumper -- to connect up while out in the driveway ."
    }, 
    "4c6acdef23675a5d898f42e51fcf2413": {
        "(39, 40)": {
            "AM2L": [
                8810
            ], 
            "BM1F": [
                310
            ], 
            "M1": [
                3762
            ], 
            "irrelevant_Adj": [
                0
            ], 
            "M2": [
                2583
            ], 
            "BM1L": [
                8887
            ], 
            "WBNULL": [
                1
            ], 
            "irrelevant_Noun": [
                0
            ], 
            "AM2F": [
                3410
            ], 
            "M1_ADJ": [
                1
            ]
        }, 
        "location1": [
            39
        ], 
        "location2": [
            40
        ], 
        "sentence": "one day i forgot to remove it when pulling out and it seems to take very little pressure moving forward to flatten it like a pan cake so i though my 50,000 investment may be better served with a heavy duty galvanized wheel chock that wont give in and even let me move over it by mistake and let me know its holding solid if i ever did again roll forward over it ."
    }, 
    "b7ca5c565d5f5fc3fc5e652bd6f90d8a": {
        "(5, 6)": {
            "BM1F": [
                599
            ], 
            "M1": [
                3762
            ], 
            "irrelevant_Adj": [
                0
            ], 
            "M2": [
                2583
            ], 
            "BM1L": [
                113
            ], 
            "WBNULL": [
                1
            ], 
            "irrelevant_Noun": [
                0
            ], 
            "AM2F": [
                3067
            ], 
            "M1_ADJ": [
                1
            ]
        }, 
        "location1": [
            5
        ], 
        "location2": [
            6
        ], 
        "sentence": "these are long ( 20 ' ) and heavy duty feeling ."
    }, 
    "bb1968b4b2098ffde4bb50948722a610": {
        "(4, 5)": {
            "AM2L": [
                599
            ], 
            "BM1F": [
                7395
            ], 
            "M1": [
                3762
            ], 
            "irrelevant_Adj": [
                0
            ], 
            "M2": [
                2583
            ], 
            "BM1L": [
                310
            ], 
            "WBNULL": [
                1
            ], 
            "irrelevant_Noun": [
                0
            ], 
            "AM2F": [
                2286
            ], 
            "M1_ADJ": [
                1
            ]
        }, 
        "location1": [
            4
        ], 
        "location2": [
            5
        ], 
        "sentence": "this is a solid heavy duty device and is no toy ."
    }
}