{
    "9fa945e23906e4ce7246e7175251e995": {
        "(1, 5)": {
            "AM2L": [
                246
            ], 
            "AM2F": [
                1515
            ], 
            "WBF": [
                6757
            ], 
            "BM1F": [
                8034
            ], 
            "M1": [
                3762
            ], 
            "irrelevant_Adj": [
                0
            ], 
            "M2": [
                8810
            ], 
            "WBO": [
                1270
            ], 
            "WBL": [
                6757
            ], 
            "irrelevant_Noun": [
                0
            ], 
            "M1_ADJ": [
                1
            ]
        }, 
        "location1": [
            1
        ], 
        "location2": [
            5
        ], 
        "sentence": "the heavy rubber buyer rubber wheel chock - 5in ."
    }, 
    "eb3f6687de75d7269d5e1f1510fb1ee7": {
        "(6, 3)": {
            "AM2L": [
                4120
            ], 
            "AM2F": [
                3539
            ], 
            "WBF": [
                1515
            ], 
            "BM1F": [
                6793
            ], 
            "M1": [
                8810
            ], 
            "irrelevant_Adj": [
                0
            ], 
            "M2": [
                3762
            ], 
            "BM1L": [
                1312
            ], 
            "WBO": [
                688
            ], 
            "WBL": [
                688
            ], 
            "irrelevant_Noun": [
                0
            ], 
            "M1_ADJ": [
                0
            ]
        }, 
        "location1": [
            6
        ], 
        "location2": [
            3
        ], 
        "sentence": "these camco rv wheel chock are heavy grade injection molded plastic and work well to secure my 5 ' x10 ' enclosed trailer in place ."
    }, 
    "4c6acdef23675a5d898f42e51fcf2413": {
        "(39, 42)": {
            "AM2L": [
                8028
            ], 
            "AM2F": [
                1515
            ], 
            "WBF": [
                2583
            ], 
            "BM1F": [
                310
            ], 
            "M1": [
                3762
            ], 
            "irrelevant_Adj": [
                0
            ], 
            "M2": [
                8810
            ], 
            "BM1L": [
                8887
            ], 
            "WBO": [
                3410
            ], 
            "WBL": [
                3410
            ], 
            "irrelevant_Noun": [
                0
            ], 
            "M1_ADJ": [
                1
            ]
        }, 
        "location1": [
            39
        ], 
        "location2": [
            42
        ], 
        "sentence": "one day i forgot to remove it when pulling out and it seems to take very little pressure moving forward to flatten it like a pan cake so i though my 50,000 investment may be better served with a heavy duty galvanized wheel chock that wont give in and even let me move over it by mistake and let me know its holding solid if i ever did again roll forward over it ."
    }, 
    "9a170ed254fd773f7757fad6e0d9cb69": {
        "(4, 15)": {
            "AM2L": [
                1141
            ], 
            "AM2F": [
                1516
            ], 
            "WBF": [
                2583
            ], 
            "BM1F": [
                8034
            ], 
            "M1": [
                3762
            ], 
            "irrelevant_Adj": [
                0
            ], 
            "M2": [
                8810
            ], 
            "BM1L": [
                5387
            ], 
            "WBO": [
                8810, 
                1515, 
                8028, 
                1312, 
                554, 
                6996, 
                201
            ], 
            "WBL": [
                7795
            ], 
            "irrelevant_Noun": [
                0
            ], 
            "M1_ADJ": [
                1
            ]
        }, 
        "location1": [
            4
        ], 
        "location2": [
            6, 
            15
        ], 
        "(4, 6)": {
            "AM2L": [
                8028
            ], 
            "WBFL": [
                2583
            ], 
            "BM1F": [
                8034
            ], 
            "M1": [
                3762
            ], 
            "irrelevant_Adj": [
                0
            ], 
            "M2": [
                8810
            ], 
            "BM1L": [
                5387
            ], 
            "AM2F": [
                1515
            ], 
            "irrelevant_Noun": [
                0
            ], 
            "M1_ADJ": [
                1
            ]
        }, 
        "sentence": "this is not the heavy duty wheel chock that camco also sellscamco 44492 rv super wheel chocki bought this not paying very close attention to the detail ."
    }
}