{
    "a813303fe42a028f86188e06d5335a01": {
        "(5, 6)": {
            "AM2L": [
                8736
            ], 
            "BM1F": [
                310
            ], 
            "M1": [
                3815
            ], 
            "irrelevant_Adj": [
                0
            ], 
            "M2": [
                8657
            ], 
            "BM1L": [
                2181
            ], 
            "WBNULL": [
                1
            ], 
            "irrelevant_Noun": [
                0
            ], 
            "AM2F": [
                5458
            ], 
            "M1_ADJ": [
                1
            ]
        }, 
        "location1": [
            5
        ], 
        "location2": [
            6
        ], 
        "sentence": "although it can deliver a higher volume of water , the assertion that it is the `` ultimate `` is perhaps an overstatement ."
    }
}