{
    "3a8288b0500baffcbf42eec5cab67997": {
        "(7, 8)": {
            "BM1F": [
                599
            ], 
            "M1": [
                3810
            ], 
            "irrelevant_Adj": [
                0
            ], 
            "M2": [
                5410
            ], 
            "BM1L": [
                3136
            ], 
            "WBNULL": [
                1
            ], 
            "irrelevant_Noun": [
                0
            ], 
            "M1_ADJ": [
                1
            ]
        }, 
        "location1": [
            7
        ], 
        "location2": [
            8
        ], 
        "sentence": "i really like these high-quality , `` fireman-type `` , and high-output nozzle ."
    }
}