{
    "62b16f2a952bb4cd35305d24ec79ea39": {
        "(7, 16)": {
            "WBF": [
                6200
            ], 
            "BM1F": [
                310
            ], 
            "M1": [
                3808
            ], 
            "irrelevant_Adj": [
                0
            ], 
            "M2": [
                1758
            ], 
            "BM1L": [
                4553
            ], 
            "WBO": [
                5088, 
                5458, 
                1872, 
                4043, 
                8073
            ], 
            "WBL": [
                5458
            ], 
            "irrelevant_Noun": [
                0
            ], 
            "M1_ADJ": [
                1
            ]
        }, 
        "location1": [
            7
        ], 
        "location2": [
            16
        ], 
        "sentence": "you want pure or at least a high purity mix of copper in this type of conductor ."
    }, 
    "79bd8011099a16892c545730027c63ef": {
        "location1": [
            8
        ], 
        "location2": [
            0
        ], 
        "(8, 0)": {
            "WBF": [
                7144
            ], 
            "AM2L": [
                5088
            ], 
            "M1": [
                1758
            ], 
            "irrelevant_Adj": [
                0
            ], 
            "M2": [
                3808
            ], 
            "WBO": [
                929, 
                1872, 
                5543, 
                760
            ], 
            "WBL": [
                310
            ], 
            "irrelevant_Noun": [
                0
            ], 
            "AM2F": [
                6200
            ], 
            "M1_ADJ": [
                0
            ]
        }, 
        "sentence": "conductor should be copper , or at least a high purity mix of copper ."
    }
}