{
    "abef82d16a753ccb9f7fe9c3151b7971": {
        "(5, 6)": {
            "AM2L": [
                8887
            ], 
            "BM1F": [
                5458
            ], 
            "M1": [
                3808
            ], 
            "irrelevant_Adj": [
                0
            ], 
            "M2": [
                6219
            ], 
            "BM1L": [
                929
            ], 
            "WBNULL": [
                1
            ], 
            "irrelevant_Noun": [
                0
            ], 
            "AM2F": [
                1811
            ], 
            "M1_ADJ": [
                1
            ]
        }, 
        "location1": [
            5
        ], 
        "location2": [
            6
        ], 
        "sentence": "it appears to be of high quality construction ( with a bit if weight to it ) and this design prevents any rattling on bumpy road ."
    }, 
    "b87dbc5582a9a7cc38b52ffb8ef85cab": {
        "(0, 1)": {
            "AM2L": [
                4376
            ], 
            "M1": [
                3808
            ], 
            "irrelevant_Adj": [
                0
            ], 
            "M2": [
                6219
            ], 
            "WBNULL": [
                1
            ], 
            "irrelevant_Noun": [
                0
            ], 
            "AM2F": [
                3109
            ], 
            "M1_ADJ": [
                1
            ]
        }, 
        "location1": [
            0
        ], 
        "location2": [
            1
        ], 
        "sentence": "high quality filter , just like the numerous k & n ; filter i 've purchased over the year ."
    }, 
    "318a549db29ad40229e9e65e9b309e8a": {
        "(2, 3)": {
            "BM1F": [
                688
            ], 
            "M1": [
                3808
            ], 
            "irrelevant_Adj": [
                0
            ], 
            "M2": [
                6219
            ], 
            "BM1L": [
                8057
            ], 
            "WBNULL": [
                1
            ], 
            "irrelevant_Noun": [
                0
            ], 
            "M1_ADJ": [
                1
            ]
        }, 
        "location1": [
            2
        ], 
        "location2": [
            3
        ], 
        "sentence": "they are high quality ."
    }, 
    "dc1496d0148c3f5482e3c0b9db73fff3": {
        "(2, 3)": {
            "AM2L": [
                1286
            ], 
            "BM1F": [
                688
            ], 
            "M1": [
                3808
            ], 
            "irrelevant_Adj": [
                0
            ], 
            "M2": [
                6219
            ], 
            "BM1L": [
                8053
            ], 
            "WBNULL": [
                1
            ], 
            "irrelevant_Noun": [
                0
            ], 
            "AM2F": [
                4710
            ], 
            "M1_ADJ": [
                1
            ]
        }, 
        "location1": [
            2, 
            7
        ], 
        "location2": [
            3
        ], 
        "(7, 3)": {
            "AM2L": [
                4914
            ], 
            "AM2F": [
                3539
            ], 
            "WBF": [
                4710
            ], 
            "BM1F": [
                3808
            ], 
            "M1": [
                6219
            ], 
            "irrelevant_Adj": [
                0
            ], 
            "M2": [
                3808
            ], 
            "BM1L": [
                688
            ], 
            "WBO": [
                1286
            ], 
            "WBL": [
                5458
            ], 
            "irrelevant_Noun": [
                0
            ], 
            "M1_ADJ": [
                0
            ]
        }, 
        "sentence": "these are high quality long cable of high grade material and i believe worth the price i paid for them ."
    }
}