{
    "a2654fbad7e53faad87d8853b15fb7bd": {
        "(4, 2)": {
            "AM2L": [
                599
            ], 
            "WBFL": [
                3705
            ], 
            "BM1F": [
                8997
            ], 
            "M1": [
                7888
            ], 
            "irrelevant_Adj": [
                0
            ], 
            "M2": [
                3808
            ], 
            "BM1L": [
                8456
            ], 
            "AM2F": [
                8657
            ], 
            "irrelevant_Noun": [
                0
            ], 
            "M1_ADJ": [
                0
            ]
        }, 
        "location1": [
            4
        ], 
        "location2": [
            2
        ], 
        "sentence": "unless your system has high volume , and good water pressure , you may not be able to take full advantage this nozzle ."
    }
}