{
    "0c4918492cc1c417924af3afcb6fb372": {
        "(10, 7)": {
            "AM2L": [
                7044
            ], 
            "AM2F": [
                6038
            ], 
            "WBF": [
                5495
            ], 
            "BM1F": [
                5148
            ], 
            "M1": [
                5979
            ], 
            "irrelevant_Adj": [
                0
            ], 
            "M2": [
                3808
            ], 
            "BM1L": [
                4671
            ], 
            "WBO": [
                8034
            ], 
            "WBL": [
                8034
            ], 
            "irrelevant_Noun": [
                0
            ], 
            "M1_ADJ": [
                0
            ]
        }, 
        "location1": [
            10
        ], 
        "location2": [
            7
        ], 
        "sentence": "i had hoped for a little more power on the high pressure setting but cant really expect much i guess ."
    }
}