{
    "62b16f2a952bb4cd35305d24ec79ea39": {
        "(7, 8)": {
            "AM2L": [
                5458
            ], 
            "BM1F": [
                310
            ], 
            "M1": [
                3808
            ], 
            "irrelevant_Adj": [
                0
            ], 
            "M2": [
                6200
            ], 
            "BM1L": [
                4553
            ], 
            "WBNULL": [
                1
            ], 
            "irrelevant_Noun": [
                0
            ], 
            "AM2F": [
                5088
            ], 
            "M1_ADJ": [
                1
            ]
        }, 
        "location1": [
            7
        ], 
        "location2": [
            8
        ], 
        "sentence": "you want pure or at least a high purity mix of copper in this type of conductor ."
    }, 
    "79bd8011099a16892c545730027c63ef": {
        "(8, 9)": {
            "AM2L": [
                5458
            ], 
            "BM1F": [
                310
            ], 
            "M1": [
                3808
            ], 
            "irrelevant_Adj": [
                0
            ], 
            "M2": [
                6200
            ], 
            "BM1L": [
                4553
            ], 
            "WBNULL": [
                1
            ], 
            "irrelevant_Noun": [
                0
            ], 
            "AM2F": [
                5088
            ], 
            "M1_ADJ": [
                1
            ]
        }, 
        "location1": [
            8
        ], 
        "location2": [
            9
        ], 
        "sentence": "conductor should be copper , or at least a high purity mix of copper ."
    }
}