{
    "6278bd0491dec24c2966fd35205a8ec2": {
        "(23, 6)": {
            "AM2L": [
                7526
            ], 
            "AM2F": [
                6038
            ], 
            "WBF": [
                3008
            ], 
            "BM1F": [
                310
            ], 
            "M1": [
                4960
            ], 
            "irrelevant_Adj": [
                0
            ], 
            "M2": [
                3808
            ], 
            "BM1L": [
                8542
            ], 
            "WBO": [
                5458, 
                8736, 
                8162, 
                3459, 
                8034, 
                1358, 
                8803, 
                599, 
                8162, 
                6671, 
                5459, 
                8034, 
                7370
            ], 
            "WBL": [
                310
            ], 
            "irrelevant_Noun": [
                0
            ], 
            "M1_ADJ": [
                0
            ]
        }, 
        "location1": [
            23
        ], 
        "location2": [
            6
        ], 
        "sentence": "perfect for cleaning car ( using a medium fan of water to get the car wet and to rinse off the soap , and a high pressure spray to remove road grime from the wheel and underside ) ."
    }
}