{
    "54a67b14845c77e5108faf4fbec3e9ee": {
        "(8, 3)": {
            "WBF": [
                4283
            ], 
            "BM1F": [
                310
            ], 
            "M1": [
                6361
            ], 
            "irrelevant_Adj": [
                0
            ], 
            "M2": [
                3808
            ], 
            "BM1L": [
                8
            ], 
            "WBO": [
                8
            ], 
            "WBL": [
                7362
            ], 
            "irrelevant_Noun": [
                0
            ], 
            "M1_ADJ": [
                0
            ]
        }, 
        "location1": [
            8
        ], 
        "location2": [
            3
        ], 
        "sentence": "there 's a reason it 's rated so high ."
    }
}