{
    "a2654fbad7e53faad87d8853b15fb7bd": {
        "(4, 20)": {
            "WBF": [
                8657
            ], 
            "BM1F": [
                3705
            ], 
            "M1": [
                3808
            ], 
            "irrelevant_Adj": [
                0
            ], 
            "M2": [
                5410
            ], 
            "BM1L": [
                7888
            ], 
            "WBO": [
                599, 
                3518, 
                8736, 
                6038, 
                8991, 
                4929, 
                5387, 
                929, 
                320, 
                8162, 
                7910, 
                3352
            ], 
            "WBL": [
                8073
            ], 
            "irrelevant_Noun": [
                0
            ], 
            "M1_ADJ": [
                1
            ]
        }, 
        "location1": [
            4
        ], 
        "location2": [
            20
        ], 
        "sentence": "unless your system has high volume , and good water pressure , you may not be able to take full advantage this nozzle ."
    }, 
    "7c0fa156d443c0eef14764e39adcb57a": {
        "(5, 13)": {
            "AM2L": [
                3962
            ], 
            "AM2F": [
                5568
            ], 
            "WBF": [
                8736
            ], 
            "BM1F": [
                8702
            ], 
            "M1": [
                3808
            ], 
            "irrelevant_Adj": [
                0
            ], 
            "M2": [
                5410
            ], 
            "BM1L": [
                5245
            ], 
            "WBO": [
                5586, 
                8044, 
                2436, 
                5245
            ], 
            "WBL": [
                8073
            ], 
            "irrelevant_Noun": [
                0
            ], 
            "M1_ADJ": [
                1
            ]
        }, 
        "location1": [
            5
        ], 
        "location2": [
            13, 
            31
        ], 
        "(5, 31)": {
            "WBF": [
                8736
            ], 
            "BM1F": [
                8702
            ], 
            "M1": [
                3808
            ], 
            "irrelevant_Adj": [
                0
            ], 
            "M2": [
                5410
            ], 
            "BM1L": [
                5245
            ], 
            "WBO": [
                5586, 
                8044, 
                2436, 
                5245, 
                3459, 
                8073, 
                5410, 
                5568, 
                3962, 
                8931, 
                3819, 
                6390, 
                7485, 
                5148, 
                5131, 
                8162, 
                3459, 
                5503, 
                5458, 
                8053, 
                6303, 
                8024
            ], 
            "WBL": [
                1473
            ], 
            "irrelevant_Noun": [
                0
            ], 
            "M1_ADJ": [
                1
            ]
        }, 
        "sentence": "if you do n't want high water output , then do n't get this nozzle , otherwise , i would highly recommend spending more money to get one of these rather than the cheaper nozzle ."
    }, 
    "351895a80aa95262007bfafecb73ba15": {
        "location1": [
            2
        ], 
        "location2": [
            11
        ], 
        "(2, 11)": {
            "AM2L": [
                808
            ], 
            "AM2F": [
                8718
            ], 
            "WBF": [
                6304
            ], 
            "BM1F": [
                7245
            ], 
            "M1": [
                3808
            ], 
            "irrelevant_Adj": [
                0
            ], 
            "M2": [
                5410
            ], 
            "BM1L": [
                8034
            ], 
            "WBO": [
                4222, 
                4940, 
                7362, 
                8812, 
                8034
            ], 
            "WBL": [
                8387
            ], 
            "irrelevant_Noun": [
                0
            ], 
            "M1_ADJ": [
                1
            ]
        }, 
        "sentence": "the sky high rating intrigued me , so when the bon-aire `` ultimate `` nozzle was available as a lightning deal , i bought one to see if it lived up to the hype ."
    }
}