{
    "107d9831a252ade511dd6a71529f6e2d": {
        "location1": [
            26
        ], 
        "location2": [
            4
        ], 
        "(26, 4)": {
            "AM2L": [
                5260
            ], 
            "AM2F": [
                6038
            ], 
            "WBF": [
                5458
            ], 
            "BM1F": [
                3518
            ], 
            "M1": [
                583
            ], 
            "irrelevant_Adj": [
                0
            ], 
            "M2": [
                3808
            ], 
            "BM1L": [
                310
            ], 
            "WBO": [
                1845, 
                5458, 
                8034, 
                8736, 
                7526, 
                5714, 
                6290, 
                3338, 
                310, 
                8835, 
                3008, 
                2183, 
                310, 
                4752, 
                6038, 
                8736, 
                7690, 
                8105
            ], 
            "WBL": [
                310
            ], 
            "irrelevant_Noun": [
                0
            ], 
            "M1_ADJ": [
                0
            ]
        }, 
        "sentence": "it allows a good amount of control of the water spray pattern , ranging from a wide fan delivering a low pressure water stream , through to a high pressure , narrow stream ."
    }
}