{
    "7a5c3b5ee792bf7029a081c12620342a": {
        "location1": [
            1
        ], 
        "location2": [
            12
        ], 
        "(1, 12)": {
            "AM2L": [
                8889
            ], 
            "AM2F": [
                8874
            ], 
            "WBF": [
                8034
            ], 
            "BM1F": [
                8034
            ], 
            "M1": [
                3815
            ], 
            "irrelevant_Adj": [
                0
            ], 
            "M2": [
                3426
            ], 
            "WBO": [
                8656, 
                8034, 
                4713, 
                4283, 
                1323, 
                6772, 
                5495
            ], 
            "WBL": [
                3480
            ], 
            "irrelevant_Noun": [
                0
            ], 
            "M1_ADJ": [
                1
            ]
        }, 
        "sentence": "the higher the voltage , the longer it can run on a given gauge wire without encountering too much voltage drop ."
    }, 
    "2e8312c17c82e5eeb9cf74784b6569ae": {
        "(1, 18)": {
            "WBF": [
                8034
            ], 
            "BM1F": [
                8034
            ], 
            "M1": [
                3815
            ], 
            "irrelevant_Adj": [
                0
            ], 
            "M2": [
                3426
            ], 
            "WBO": [
                8656, 
                8034, 
                4713, 
                4283, 
                1323, 
                6772, 
                8887, 
                348, 
                4587, 
                5458, 
                8656, 
                2532, 
                5595
            ], 
            "WBL": [
                5692
            ], 
            "irrelevant_Noun": [
                0
            ], 
            "AM2F": [
                8874
            ], 
            "M1_ADJ": [
                1
            ]
        }, 
        "location1": [
            1
        ], 
        "location2": [
            18
        ], 
        "sentence": "the higher the voltage , the longer it can run with acceptable level of voltage drop over a particular gauge wire ."
    }
}