{
    "1b723e80c36cddcd493c13335841d25f": {
        "(13, 8)": {
            "WBF": [
                8800
            ], 
            "BM1F": [
                5232
            ], 
            "M1": [
                2912
            ], 
            "irrelevant_Adj": [
                0
            ], 
            "M2": [
                3808
            ], 
            "BM1L": [
                3783
            ], 
            "WBO": [
                6087
            ], 
            "WBL": [
                8188
            ], 
            "irrelevant_Noun": [
                0
            ], 
            "M1_ADJ": [
                0
            ]
        }, 
        "location1": [
            13
        ], 
        "location2": [
            8
        ], 
        "sentence": "after reading many of the review here , my expectation were probably set too high ."
    }
}