{
    "107d9831a252ade511dd6a71529f6e2d": {
        "(26, 20)": {
            "AM2L": [
                5260
            ], 
            "AM2F": [
                6038
            ], 
            "WBF": [
                8736
            ], 
            "BM1F": [
                4752
            ], 
            "M1": [
                6038
            ], 
            "irrelevant_Adj": [
                0
            ], 
            "M2": [
                3808
            ], 
            "BM1L": [
                310
            ], 
            "WBO": [
                7690, 
                8105
            ], 
            "WBL": [
                310
            ], 
            "irrelevant_Noun": [
                0
            ], 
            "M1_ADJ": [
                0
            ]
        }, 
        "location1": [
            26
        ], 
        "location2": [
            20, 
            27
        ], 
        "(26, 27)": {
            "AM2L": [
                7690
            ], 
            "BM1F": [
                310
            ], 
            "M1": [
                3808
            ], 
            "irrelevant_Adj": [
                0
            ], 
            "M2": [
                6038
            ], 
            "BM1L": [
                8162
            ], 
            "WBNULL": [
                1
            ], 
            "irrelevant_Noun": [
                0
            ], 
            "AM2F": [
                5260
            ], 
            "M1_ADJ": [
                1
            ]
        }, 
        "sentence": "it allows a good amount of control of the water spray pattern , ranging from a wide fan delivering a low pressure water stream , through to a high pressure , narrow stream ."
    }, 
    "6278bd0491dec24c2966fd35205a8ec2": {
        "(23, 24)": {
            "AM2L": [
                8162
            ], 
            "BM1F": [
                310
            ], 
            "M1": [
                3808
            ], 
            "irrelevant_Adj": [
                0
            ], 
            "M2": [
                6038
            ], 
            "BM1L": [
                599
            ], 
            "WBNULL": [
                1
            ], 
            "irrelevant_Noun": [
                0
            ], 
            "AM2F": [
                7526
            ], 
            "M1_ADJ": [
                1
            ]
        }, 
        "location1": [
            23
        ], 
        "location2": [
            24
        ], 
        "sentence": "perfect for cleaning car ( using a medium fan of water to get the car wet and to rinse off the soap , and a high pressure spray to remove road grime from the wheel and underside ) ."
    }, 
    "5554a97cd0820d91858a44a2145c6c46": {
        "location1": [
            10
        ], 
        "location2": [
            11
        ], 
        "(10, 11)": {
            "BM1F": [
                3717
            ], 
            "M1": [
                3808
            ], 
            "irrelevant_Adj": [
                0
            ], 
            "M2": [
                6038
            ], 
            "BM1L": [
                8028
            ], 
            "WBNULL": [
                1
            ], 
            "irrelevant_Noun": [
                0
            ], 
            "M1_ADJ": [
                1
            ]
        }, 
        "sentence": "maybe it work like a charm with home that have high pressure ."
    }, 
    "0c4918492cc1c417924af3afcb6fb372": {
        "location1": [
            10
        ], 
        "location2": [
            11
        ], 
        "(10, 11)": {
            "AM2L": [
                1262
            ], 
            "BM1F": [
                8034
            ], 
            "M1": [
                3808
            ], 
            "irrelevant_Adj": [
                0
            ], 
            "M2": [
                6038
            ], 
            "BM1L": [
                5495
            ], 
            "WBNULL": [
                1
            ], 
            "irrelevant_Noun": [
                0
            ], 
            "AM2F": [
                7044
            ], 
            "M1_ADJ": [
                1
            ]
        }, 
        "sentence": "i had hoped for a little more power on the high pressure setting but cant really expect much i guess ."
    }, 
    "a2654fbad7e53faad87d8853b15fb7bd": {
        "(4, 9)": {
            "AM2L": [
                4929
            ], 
            "AM2F": [
                8991
            ], 
            "WBF": [
                8657
            ], 
            "BM1F": [
                3705
            ], 
            "M1": [
                3808
            ], 
            "irrelevant_Adj": [
                0
            ], 
            "M2": [
                6038
            ], 
            "BM1L": [
                7888
            ], 
            "WBO": [
                599
            ], 
            "WBL": [
                8736
            ], 
            "irrelevant_Noun": [
                0
            ], 
            "M1_ADJ": [
                1
            ]
        }, 
        "location1": [
            4
        ], 
        "location2": [
            9
        ], 
        "sentence": "unless your system has high volume , and good water pressure , you may not be able to take full advantage this nozzle ."
    }
}