{
    "a7069d64b9ddd3b74916f252b3275849": {
        "(7, 8)": {
            "BM1F": [
                4401
            ], 
            "M1": [
                3874
            ], 
            "irrelevant_Adj": [
                0
            ], 
            "M2": [
                5751
            ], 
            "BM1L": [
                8162
            ], 
            "WBNULL": [
                1
            ], 
            "irrelevant_Noun": [
                1
            ], 
            "AM2F": [
                3874
            ], 
            "M1_ADJ": [
                1
            ]
        }, 
        "(9, 8)": {
            "BM1F": [
                3874
            ], 
            "M1": [
                5751
            ], 
            "irrelevant_Adj": [
                0
            ], 
            "M2": [
                3874
            ], 
            "BM1L": [
                4401
            ], 
            "WBNULL": [
                1
            ], 
            "irrelevant_Noun": [
                1
            ], 
            "M1_ADJ": [
                0
            ]
        }, 
        "location1": [
            7, 
            9
        ], 
        "location2": [
            8
        ], 
        "sentence": "this lock will only suffice to keep honest people honest ."
    }
}