{
    "a7069d64b9ddd3b74916f252b3275849": {
        "(7, 1)": {
            "AM2L": [
                3874
            ], 
            "AM2F": [
                5751
            ], 
            "WBF": [
                8851
            ], 
            "BM1F": [
                8073
            ], 
            "M1": [
                4694
            ], 
            "irrelevant_Adj": [
                0
            ], 
            "M2": [
                3874
            ], 
            "WBO": [
                5512, 
                7771
            ], 
            "WBL": [
                4401
            ], 
            "irrelevant_Noun": [
                0
            ], 
            "M1_ADJ": [
                0
            ]
        }, 
        "location1": [
            7, 
            9
        ], 
        "location2": [
            1
        ], 
        "(9, 1)": {
            "WBF": [
                8851
            ], 
            "BM1F": [
                8073
            ], 
            "M1": [
                4694
            ], 
            "irrelevant_Adj": [
                0
            ], 
            "M2": [
                3874
            ], 
            "WBO": [
                5512, 
                7771, 
                8162, 
                4401
            ], 
            "WBL": [
                5751
            ], 
            "irrelevant_Noun": [
                0
            ], 
            "M1_ADJ": [
                0
            ]
        }, 
        "sentence": "this lock will only suffice to keep honest people honest ."
    }
}