{
    "44c6812f1fd2834470a31667769ab88f": {
        "location1": [
            3
        ], 
        "location2": [
            15
        ], 
        "(3, 15)": {
            "AM2F": [
                8746
            ], 
            "WBF": [
                8736
            ], 
            "BM1F": [
                8531
            ], 
            "M1": [
                3911
            ], 
            "irrelevant_Adj": [
                0
            ], 
            "M2": [
                4717
            ], 
            "BM1L": [
                5387
            ], 
            "WBO": [
                720, 
                4283, 
                1323, 
                7161, 
                8034, 
                1895, 
                3089, 
                4834
            ], 
            "WBL": [
                3109
            ], 
            "irrelevant_Noun": [
                0
            ], 
            "M1_ADJ": [
                1
            ]
        }, 
        "sentence": "do not use hot water as it can shrink the cotton fiber making the filter look wavy ."
    }
}