{
    "694e85fc78a8100c307341748de5ffc4": {
        "(2, 16)": {
            "AM2L": [
                8028
            ], 
            "AM2F": [
                599
            ], 
            "WBF": [
                7985
            ], 
            "BM1F": [
                8034
            ], 
            "M1": [
                3911
            ], 
            "irrelevant_Adj": [
                0
            ], 
            "M2": [
                1286
            ], 
            "BM1L": [
                1795
            ], 
            "WBO": [
                5589, 
                8034, 
                2979, 
                8028, 
                4283, 
                8, 
                67, 
                599, 
                8756, 
                5284
            ], 
            "WBL": [
                4710
            ], 
            "irrelevant_Noun": [
                0
            ], 
            "M1_ADJ": [
                1
            ]
        }, 
        "location1": [
            2
        ], 
        "location2": [
            16, 
            37
        ], 
        "(2, 37)": {
            "AM2L": [
                1899
            ], 
            "AM2F": [
                3962
            ], 
            "WBF": [
                7985
            ], 
            "BM1F": [
                8034
            ], 
            "M1": [
                3911
            ], 
            "irrelevant_Adj": [
                0
            ], 
            "M2": [
                1286
            ], 
            "BM1L": [
                1795
            ], 
            "WBO": [
                5589, 
                8034, 
                2979, 
                8028, 
                4283, 
                8, 
                67, 
                599, 
                8756, 
                5284, 
                310, 
                4710, 
                1286, 
                599, 
                8028, 
                8756, 
                7, 
                8330, 
                8162, 
                7598, 
                310, 
                1358, 
                2750, 
                8819, 
                7913, 
                310, 
                4737, 
                5458, 
                5979, 
                8053, 
                688
            ], 
            "WBL": [
                5512
            ], 
            "irrelevant_Noun": [
                0
            ], 
            "M1_ADJ": [
                1
            ]
        }, 
        "sentence": "considering the hot temperature outside , the fact that it 's 12vdc and we need a long cable , and that we 're trying to start a car engine ( which takes a lot of power ) these are the only cable i could reccomend for anyone driving a small car up to a light truck ."
    }
}