{
    "44c6812f1fd2834470a31667769ab88f": {
        "(3, 11)": {
            "AM2L": [
                8034
            ], 
            "AM2F": [
                4834
            ], 
            "WBF": [
                8736
            ], 
            "BM1F": [
                8531
            ], 
            "M1": [
                3911
            ], 
            "irrelevant_Adj": [
                0
            ], 
            "M2": [
                3089
            ], 
            "BM1L": [
                5387
            ], 
            "WBO": [
                720, 
                4283, 
                1323, 
                7161
            ], 
            "WBL": [
                1895
            ], 
            "irrelevant_Noun": [
                0
            ], 
            "M1_ADJ": [
                1
            ]
        }, 
        "location1": [
            3
        ], 
        "location2": [
            11
        ], 
        "sentence": "do not use hot water as it can shrink the cotton fiber making the filter look wavy ."
    }
}