{
    "7a96befdd569e496ee6ff864c2d8b390": {
        "(7, 16)": {
            "AM2L": [
                1275
            ], 
            "AM2F": [
                4376
            ], 
            "WBF": [
                3901
            ], 
            "BM1F": [
                8991
            ], 
            "M1": [
                3931
            ], 
            "irrelevant_Adj": [
                0
            ], 
            "M2": [
                3403
            ], 
            "BM1L": [
                3479
            ], 
            "WBO": [
                3403, 
                4283, 
                5033, 
                3479, 
                8991
            ], 
            "WBL": [
                5184
            ], 
            "irrelevant_Noun": [
                0
            ], 
            "M1_ADJ": [
                1
            ]
        }, 
        "location1": [
            7
        ], 
        "location2": [
            9, 
            16
        ], 
        "(7, 9)": {
            "AM2L": [
                5033
            ], 
            "WBFL": [
                3901
            ], 
            "BM1F": [
                8991
            ], 
            "M1": [
                3931
            ], 
            "irrelevant_Adj": [
                0
            ], 
            "M2": [
                3403
            ], 
            "BM1L": [
                3479
            ], 
            "AM2F": [
                4283
            ], 
            "irrelevant_Noun": [
                0
            ], 
            "M1_ADJ": [
                1
            ]
        }, 
        "sentence": "first , this filter will not give you huge horsepower gain , it might give you minimal mpg gain just by replacing the filter from a dirty , clogged one , but that will come with any filter ."
    }
}