{
    "ebecd465cc12e4e67f71f2b9caaf55e6": {
        "(6, 7)": {
            "AM2L": [
                3776
            ], 
            "BM1F": [
                4043
            ], 
            "M1": [
                4056
            ], 
            "irrelevant_Adj": [
                0
            ], 
            "M2": [
                8767
            ], 
            "BM1L": [
                6812
            ], 
            "WBNULL": [
                1
            ], 
            "irrelevant_Noun": [
                0
            ], 
            "AM2F": [
                599
            ], 
            "M1_ADJ": [
                1
            ]
        }, 
        "location1": [
            6
        ], 
        "location2": [
            7
        ], 
        "sentence": "it improves your driving safety in inclement weather and help to keep your family and you safer ."
    }
}