{
    "f63ac1d76f4cbd8da81c72fa80d30455": {
        "location1": [
            5
        ], 
        "location2": [
            11
        ], 
        "(5, 11)": {
            "AM2L": [
                4921
            ], 
            "AM2F": [
                3220
            ], 
            "WBF": [
                7433
            ], 
            "BM1F": [
                591
            ], 
            "M1": [
                4069
            ], 
            "irrelevant_Adj": [
                0
            ], 
            "M2": [
                4978
            ], 
            "BM1L": [
                3294
            ], 
            "WBO": [
                2101, 
                3962
            ], 
            "WBL": [
                310
            ], 
            "irrelevant_Noun": [
                0
            ], 
            "M1_ADJ": [
                1
            ]
        }, 
        "sentence": "the tip : ive found an incredible sound deadener , i had a `` memory foam `` mattress topper laying around ."
    }
}