{
    "75112fc8e8041713103c9a8a318d5e6c": {
        "location1": [
            1
        ], 
        "location2": [
            7
        ], 
        "(1, 7)": {
            "AM2L": [
                8034
            ], 
            "AM2F": [
                8024
            ], 
            "WBF": [
                7678
            ], 
            "BM1F": [
                8034
            ], 
            "M1": [
                4084
            ], 
            "irrelevant_Adj": [
                0
            ], 
            "M2": [
                3426
            ], 
            "WBO": [
                4268, 
                5458
            ], 
            "WBL": [
                8060
            ], 
            "irrelevant_Noun": [
                0
            ], 
            "M1_ADJ": [
                1
            ]
        }, 
        "sentence": "the individual stranding is of a thicker gauge than the other model so i 'm guessing that 's why the thickness is n't much more ."
    }
}