{
    "4d5d6c7194289246fd90ca1eca51d794": {
        "(4, 7)": {
            "AM2L": [
                546
            ], 
            "AM2F": [
                7913
            ], 
            "WBF": [
                3634
            ], 
            "BM1F": [
                8034
            ], 
            "M1": [
                4117
            ], 
            "irrelevant_Adj": [
                0
            ], 
            "M2": [
                8736
            ], 
            "BM1L": [
                5410
            ], 
            "WBO": [
                5458
            ], 
            "WBL": [
                5458
            ], 
            "irrelevant_Noun": [
                0
            ], 
            "M1_ADJ": [
                1
            ]
        }, 
        "location1": [
            4
        ], 
        "location2": [
            7
        ], 
        "sentence": "with this nozzle , the initial gush of water takes almost all of the soap away leaving them squeaky clean ."
    }
}