{
    "ba7efb330a6c490dcfd2c3c2de132d13": {
        "(21, 10)": {
            "AM2F": [
                1867
            ], 
            "WBF": [
                8162
            ], 
            "BM1F": [
                4344
            ], 
            "M1": [
                7224
            ], 
            "irrelevant_Adj": [
                0
            ], 
            "M2": [
                4150
            ], 
            "BM1L": [
                5495
            ], 
            "WBO": [
                4401, 
                1865, 
                4376, 
                2345, 
                4283, 
                4043, 
                1637
            ], 
            "WBL": [
                599
            ], 
            "irrelevant_Noun": [
                0
            ], 
            "M1_ADJ": [
                0
            ]
        }, 
        "location1": [
            21
        ], 
        "location2": [
            10
        ], 
        "sentence": "they last for many year , i use them on job site to keep cool , just dip it in cold water and instant cooling ."
    }
}