{
    "5d6da5beec63c1bbc0583decb96bf383": {
        "location1": [
            20
        ], 
        "location2": [
            21
        ], 
        "(20, 21)": {
            "AM2L": [
                310
            ], 
            "BM1F": [
                4648
            ], 
            "M1": [
                4150
            ], 
            "irrelevant_Adj": [
                0
            ], 
            "M2": [
                2259
            ], 
            "BM1L": [
                7405
            ], 
            "WBNULL": [
                1
            ], 
            "irrelevant_Noun": [
                0
            ], 
            "AM2F": [
                599
            ], 
            "M1_ADJ": [
                1
            ]
        }, 
        "sentence": "he just dust it every morning before he back out of his garage , and if needed he us some liquid instant detailer and a microfiber cloth after dusting if he feel like it ."
    }, 
    "8a1a3974534ab450e23f13f11cea8672": {
        "(37, 38)": {
            "BM1F": [
                591
            ], 
            "M1": [
                4150
            ], 
            "irrelevant_Adj": [
                0
            ], 
            "M2": [
                2259
            ], 
            "BM1L": [
                8887
            ], 
            "WBNULL": [
                1
            ], 
            "irrelevant_Noun": [
                0
            ], 
            "M1_ADJ": [
                1
            ]
        }, 
        "location1": [
            37
        ], 
        "location2": [
            38
        ], 
        "sentence": "if i wash , clay bar , and wax my car i can go two month or perhaps more without washing it again , as long as i keep it covered , dust daily , and wipe it down weekly with an instant detailer ."
    }
}