{
    "5d6da5beec63c1bbc0583decb96bf383": {
        "(20, 25)": {
            "AM2L": [
                2581
            ], 
            "AM2F": [
                475
            ], 
            "WBF": [
                2259
            ], 
            "BM1F": [
                4648
            ], 
            "M1": [
                4150
            ], 
            "irrelevant_Adj": [
                0
            ], 
            "M2": [
                1605
            ], 
            "BM1L": [
                7405
            ], 
            "WBO": [
                599
            ], 
            "WBL": [
                5018
            ], 
            "irrelevant_Noun": [
                0
            ], 
            "M1_ADJ": [
                1
            ]
        }, 
        "location1": [
            20
        ], 
        "location2": [
            25
        ], 
        "sentence": "he just dust it every morning before he back out of his garage , and if needed he us some liquid instant detailer and a microfiber cloth after dusting if he feel like it ."
    }
}