{
    "5d6da5beec63c1bbc0583decb96bf383": {
        "(20, 12)": {
            "AM2L": [
                599
            ], 
            "AM2F": [
                2259
            ], 
            "WBF": [
                599
            ], 
            "BM1F": [
                3835
            ], 
            "M1": [
                3416
            ], 
            "irrelevant_Adj": [
                0
            ], 
            "M2": [
                4150
            ], 
            "BM1L": [
                5458
            ], 
            "WBO": [
                3985, 
                5285, 
                3729, 
                8527
            ], 
            "WBL": [
                4648
            ], 
            "irrelevant_Noun": [
                0
            ], 
            "M1_ADJ": [
                0
            ]
        }, 
        "location1": [
            20
        ], 
        "location2": [
            12
        ], 
        "sentence": "he just dust it every morning before he back out of his garage , and if needed he us some liquid instant detailer and a microfiber cloth after dusting if he feel like it ."
    }
}