{
    "c68a83c5c356e97f7ef8f8601af43114": {
        "location1": [
            18
        ], 
        "location2": [
            10, 
            19
        ], 
        "(18, 10)": {
            "AM2L": [
                760
            ], 
            "AM2F": [
                8736
            ], 
            "WBF": [
                8353
            ], 
            "BM1F": [
                3903
            ], 
            "M1": [
                8736
            ], 
            "irrelevant_Adj": [
                0
            ], 
            "M2": [
                4150
            ], 
            "BM1L": [
                5232
            ], 
            "WBO": [
                5495, 
                7362, 
                8028, 
                3962
            ], 
            "WBL": [
                3717
            ], 
            "irrelevant_Noun": [
                0
            ], 
            "M1_ADJ": [
                0
            ]
        }, 
        "(18, 19)": {
            "AM2L": [
                8034
            ], 
            "BM1F": [
                3717
            ], 
            "M1": [
                4150
            ], 
            "irrelevant_Adj": [
                0
            ], 
            "M2": [
                8736
            ], 
            "BM1L": [
                1323
            ], 
            "WBNULL": [
                1
            ], 
            "irrelevant_Noun": [
                0
            ], 
            "AM2F": [
                760
            ], 
            "M1_ADJ": [
                1
            ]
        }, 
        "sentence": "i have the bad habit of sometimes leaving my hose water turned on so that i can have instant water at the nozzle ."
    }, 
    "ba7efb330a6c490dcfd2c3c2de132d13": {
        "(21, 19)": {
            "WBFL": [
                599
            ], 
            "BM1F": [
                1637
            ], 
            "M1": [
                8736
            ], 
            "irrelevant_Adj": [
                0
            ], 
            "M2": [
                4150
            ], 
            "BM1L": [
                4043
            ], 
            "AM2F": [
                1867
            ], 
            "irrelevant_Noun": [
                0
            ], 
            "M1_ADJ": [
                0
            ]
        }, 
        "location1": [
            21
        ], 
        "location2": [
            19
        ], 
        "sentence": "they last for many year , i use them on job site to keep cool , just dip it in cold water and instant cooling ."
    }
}