{
    "8a1a3974534ab450e23f13f11cea8672": {
        "(37, 4)": {
            "AM2F": [
                2259
            ], 
            "WBF": [
                599
            ], 
            "BM1F": [
                1563
            ], 
            "M1": [
                892
            ], 
            "irrelevant_Adj": [
                0
            ], 
            "M2": [
                4150
            ], 
            "BM1L": [
                8719
            ], 
            "WBO": [
                8747, 
                5232, 
                1358, 
                3962, 
                1323, 
                3502, 
                8368, 
                5140, 
                5543, 
                5764, 
                5148, 
                8889, 
                8724, 
                4283, 
                481, 
                720, 
                4710, 
                720, 
                3962, 
                4401, 
                4283, 
                1917, 
                2577, 
                2049, 
                599, 
                8870, 
                4283, 
                2481, 
                8778
            ], 
            "WBL": [
                591
            ], 
            "irrelevant_Noun": [
                0
            ], 
            "M1_ADJ": [
                0
            ]
        }, 
        "location1": [
            37
        ], 
        "location2": [
            4
        ], 
        "sentence": "if i wash , clay bar , and wax my car i can go two month or perhaps more without washing it again , as long as i keep it covered , dust daily , and wipe it down weekly with an instant detailer ."
    }
}