{
    "31b3ca0770f16687bb106b47456eb917": {
        "(5, 18)": {
            "AM2F": [
                5352
            ], 
            "WBF": [
                8693
            ], 
            "BM1F": [
                8034
            ], 
            "M1": [
                4197
            ], 
            "irrelevant_Adj": [
                0
            ], 
            "M2": [
                1084
            ], 
            "BM1L": [
                5495
            ], 
            "WBO": [
                5458, 
                8034, 
                503, 
                1444, 
                5458, 
                5232, 
                3137, 
                4131, 
                8162
            ], 
            "WBL": [
                8034
            ], 
            "irrelevant_Noun": [
                0
            ], 
            "M1_ADJ": [
                1
            ]
        }, 
        "location1": [
            5
        ], 
        "location2": [
            18
        ], 
        "sentence": "i used this on the interior wall of the air chamber of my fireplace insert to absorb the blower noise ."
    }
}