{
    "6f895168900b1766f912d5634be2a455": {
        "(17, 13)": {
            "AM2L": [
                4283
            ], 
            "AM2F": [
                5815
            ], 
            "WBF": [
                5458
            ], 
            "BM1F": [
                8429
            ], 
            "M1": [
                7826
            ], 
            "irrelevant_Adj": [
                0
            ], 
            "M2": [
                4197
            ], 
            "BM1L": [
                8034
            ], 
            "WBO": [
                8034
            ], 
            "WBL": [
                1358
            ], 
            "irrelevant_Noun": [
                0
            ], 
            "M1_ADJ": [
                0
            ]
        }, 
        "location1": [
            17
        ], 
        "location2": [
            13
        ], 
        "sentence": "this pick up the dust and the soft fiber float over the uneven surface of the car interior , picking it all up in one swipe ."
    }
}