{
    "b20f3f2c9b8d933a07bc4bc6e932d3d2": {
        "(3, 18)": {
            "AM2L": [
                1792
            ], 
            "AM2F": [
                5352
            ], 
            "WBF": [
                8693
            ], 
            "BM1F": [
                8034
            ], 
            "M1": [
                4197
            ], 
            "irrelevant_Adj": [
                0
            ], 
            "M2": [
                6770
            ], 
            "BM1L": [
                1917
            ], 
            "WBO": [
                5458, 
                5232, 
                2546, 
                3962, 
                5964, 
                310, 
                5802, 
                326, 
                599, 
                4283, 
                6422
            ], 
            "WBL": [
                4752
            ], 
            "irrelevant_Noun": [
                0
            ], 
            "M1_ADJ": [
                1
            ]
        }, 
        "location1": [
            3
        ], 
        "location2": [
            18
        ], 
        "sentence": "i covered the interior wall of my dryer ( i posted a photo above ) and it reduced the low rumbling noise considerably ."
    }
}