{
    "809c5a7a20ca2565a5abd1c18e38896e": {
        "location1": [
            25
        ], 
        "location2": [
            6
        ], 
        "(25, 6)": {
            "WBF": [
                5458
            ], 
            "BM1F": [
                5232
            ], 
            "M1": [
                1140
            ], 
            "irrelevant_Adj": [
                0
            ], 
            "M2": [
                4197
            ], 
            "BM1L": [
                2436
            ], 
            "WBO": [
                5232, 
                8324, 
                599, 
                5232, 
                4134, 
                3138, 
                599, 
                3962, 
                4465, 
                5232, 
                1358, 
                8851, 
                546, 
                7433, 
                2669
            ], 
            "WBL": [
                8034
            ], 
            "irrelevant_Noun": [
                0
            ], 
            "M1_ADJ": [
                0
            ]
        }, 
        "sentence": "i am about to do my bottom of my trunk and my inside firewall and i know my car will almost sound electric from the interior ! ! !"
    }
}