{
    "b20f3f2c9b8d933a07bc4bc6e932d3d2": {
        "(3, 7)": {
            "AM2L": [
                5964
            ], 
            "AM2F": [
                3962
            ], 
            "WBF": [
                8693
            ], 
            "BM1F": [
                8034
            ], 
            "M1": [
                4197
            ], 
            "irrelevant_Adj": [
                0
            ], 
            "M2": [
                2546
            ], 
            "BM1L": [
                1917
            ], 
            "WBO": [
                5458
            ], 
            "WBL": [
                5232
            ], 
            "irrelevant_Noun": [
                0
            ], 
            "M1_ADJ": [
                1
            ]
        }, 
        "location1": [
            3
        ], 
        "location2": [
            7
        ], 
        "sentence": "i covered the interior wall of my dryer ( i posted a photo above ) and it reduced the low rumbling noise considerably ."
    }
}