{
    "31debb1488e88acfbd1d68948a89af26": {
        "location1": [
            9
        ], 
        "location2": [
            1
        ], 
        "(9, 1)": {
            "AM2L": [
                1358
            ], 
            "AM2F": [
                5458
            ], 
            "WBF": [
                2580
            ], 
            "BM1F": [
                8034
            ], 
            "M1": [
                1305
            ], 
            "irrelevant_Adj": [
                0
            ], 
            "M2": [
                4197
            ], 
            "WBO": [
                4268, 
                1947, 
                3252, 
                2660
            ], 
            "WBL": [
                5543
            ], 
            "irrelevant_Noun": [
                0
            ], 
            "M1_ADJ": [
                0
            ]
        }, 
        "sentence": "the california duster is created for either exterior or interior of car and is impregnated with paraffin wax ."
    }, 
    "0341dd924f2afe50ddde310a998b18d9": {
        "location1": [
            30
        ], 
        "location2": [
            6
        ], 
        "(30, 6)": {
            "WBF": [
                2580
            ], 
            "BM1F": [
                5559
            ], 
            "M1": [
                1305
            ], 
            "irrelevant_Adj": [
                0
            ], 
            "M2": [
                4197
            ], 
            "BM1L": [
                5488
            ], 
            "WBO": [
                599, 
                4283, 
                8907, 
                3564, 
                4625, 
                3120, 
                8864, 
                4283, 
                3531, 
                1014, 
                8887, 
                486, 
                1262, 
                8718, 
                5159, 
                4190, 
                4043, 
                8073, 
                7311, 
                5503
            ], 
            "WBL": [
                8034
            ], 
            "irrelevant_Noun": [
                0
            ], 
            "M1_ADJ": [
                0
            ]
        }, 
        "sentence": "i still have my old original california duster and it work great ( like fine wine , it got better with age ) but was mostly interested in this smaller one for the interior ."
    }, 
    "d2563339719dab65361037e20847db2c": {
        "location1": [
            15
        ], 
        "location2": [
            6
        ], 
        "(15, 6)": {
            "AM2F": [
                2580
            ], 
            "WBF": [
                2580
            ], 
            "BM1F": [
                7232
            ], 
            "M1": [
                1305
            ], 
            "irrelevant_Adj": [
                0
            ], 
            "M2": [
                4197
            ], 
            "BM1L": [
                3352
            ], 
            "WBO": [
                3252, 
                2951, 
                2581, 
                599, 
                8034
            ], 
            "WBL": [
                7230
            ], 
            "irrelevant_Noun": [
                0
            ], 
            "M1_ADJ": [
                0
            ]
        }, 
        "sentence": "i do own the full sized california duster for exterior dusting and the full size interior duster ."
    }
}