{
    "d2563339719dab65361037e20847db2c": {
        "(15, 14)": {
            "BM1F": [
                3352
            ], 
            "M1": [
                7230
            ], 
            "irrelevant_Adj": [
                0
            ], 
            "M2": [
                4197
            ], 
            "BM1L": [
                8034
            ], 
            "WBNULL": [
                1
            ], 
            "irrelevant_Noun": [
                0
            ], 
            "AM2F": [
                2580
            ], 
            "M1_ADJ": [
                0
            ]
        }, 
        "location1": [
            15
        ], 
        "location2": [
            14
        ], 
        "sentence": "i do own the full sized california duster for exterior dusting and the full size interior duster ."
    }
}