{
    "9eba1f4bc3a9501a7903eb8d4710165b": {
        "(17, 25)": {
            "AM2F": [
                4043
            ], 
            "WBF": [
                7042
            ], 
            "BM1F": [
                3252
            ], 
            "M1": [
                4213
            ], 
            "irrelevant_Adj": [
                0
            ], 
            "M2": [
                4694
            ], 
            "BM1L": [
                3032
            ], 
            "WBO": [
                599, 
                8034, 
                8956, 
                1074
            ], 
            "WBL": [
                3112
            ], 
            "irrelevant_Noun": [
                0
            ], 
            "M1_ADJ": [
                1
            ]
        }, 
        "location1": [
            17
        ], 
        "location2": [
            25
        ], 
        "sentence": "spend the extra $ $ $ and get the x-block and / or the fastaway ( we now use both , fastway for intiial set and the x block for final lock in )"
    }
}