{
    "9eba1f4bc3a9501a7903eb8d4710165b": {
        "location1": [
            17
        ], 
        "location2": [
            15
        ], 
        "(17, 15)": {
            "AM2L": [
                599
            ], 
            "WBFL": [
                3252
            ], 
            "BM1F": [
                1134
            ], 
            "M1": [
                3032
            ], 
            "irrelevant_Adj": [
                0
            ], 
            "M2": [
                4213
            ], 
            "BM1L": [
                8531
            ], 
            "AM2F": [
                7042
            ], 
            "irrelevant_Noun": [
                0
            ], 
            "M1_ADJ": [
                0
            ]
        }, 
        "sentence": "spend the extra $ $ $ and get the x-block and / or the fastaway ( we now use both , fastway for intiial set and the x block for final lock in )"
    }
}