{
    "f63ac1d76f4cbd8da81c72fa80d30455": {
        "(2, 12)": {
            "AM2L": [
                8200
            ], 
            "AM2F": [
                4921
            ], 
            "WBF": [
                3294
            ], 
            "BM1F": [
                8153
            ], 
            "M1": [
                4293
            ], 
            "irrelevant_Adj": [
                0
            ], 
            "M2": [
                3220
            ], 
            "BM1L": [
                8034
            ], 
            "WBO": [
                591, 
                4069, 
                7433, 
                2101, 
                3962, 
                3646
            ], 
            "WBL": [
                4978
            ], 
            "irrelevant_Noun": [
                0
            ], 
            "M1_ADJ": [
                1
            ]
        }, 
        "location1": [
            2
        ], 
        "location2": [
            12
        ], 
        "sentence": "the tip : ive found an incredible sound deadener , i had a `` memory foam `` mattress topper laying around ."
    }
}