{
    "f63ac1d76f4cbd8da81c72fa80d30455": {
        "(2, 7)": {
            "AM2L": [
                3646
            ], 
            "AM2F": [
                3962
            ], 
            "WBF": [
                3294
            ], 
            "BM1F": [
                8153
            ], 
            "M1": [
                4293
            ], 
            "irrelevant_Adj": [
                0
            ], 
            "M2": [
                2101
            ], 
            "BM1L": [
                8034
            ], 
            "WBO": [
                591
            ], 
            "WBL": [
                7433
            ], 
            "irrelevant_Noun": [
                0
            ], 
            "M1_ADJ": [
                1
            ]
        }, 
        "location1": [
            2
        ], 
        "location2": [
            7
        ], 
        "sentence": "the tip : ive found an incredible sound deadener , i had a `` memory foam `` mattress topper laying around ."
    }
}