{
    "1344c236d27aaf422545e1e95a1fe11d": {
        "(19, 23)": {
            "AM2L": [
                8140
            ], 
            "AM2F": [
                5458
            ], 
            "WBF": [
                2534
            ], 
            "BM1F": [
                599
            ], 
            "M1": [
                4293
            ], 
            "irrelevant_Adj": [
                0
            ], 
            "M2": [
                1907
            ], 
            "BM1L": [
                4509
            ], 
            "WBO": [
                4283
            ], 
            "WBL": [
                310
            ], 
            "irrelevant_Noun": [
                0
            ], 
            "M1_ADJ": [
                1
            ]
        }, 
        "location1": [
            19
        ], 
        "location2": [
            23
        ], 
        "sentence": "does not leak while in use and it seems solid in my hand , i think this will last and ive dropped it a couple of time already ."
    }
}