{
    "f63ac1d76f4cbd8da81c72fa80d30455": {
        "location1": [
            2
        ], 
        "location2": [
            1
        ], 
        "(2, 1)": {
            "AM2L": [
                591
            ], 
            "BM1F": [
                8034
            ], 
            "M1": [
                8153
            ], 
            "irrelevant_Adj": [
                0
            ], 
            "M2": [
                4293
            ], 
            "AM2F": [
                3294
            ], 
            "irrelevant_Noun": [
                0
            ], 
            "WBNULL": [
                1
            ], 
            "M1_ADJ": [
                0
            ]
        }, 
        "sentence": "the tip : ive found an incredible sound deadener , i had a `` memory foam `` mattress topper laying around ."
    }
}