{
    "56613a32e85583238edbaddeb1ab649f": {
        "location1": [
            10
        ], 
        "location2": [
            19
        ], 
        "(10, 19)": {
            "AM2L": [
                8887
            ], 
            "AM2F": [
                4283
            ], 
            "WBF": [
                6209
            ], 
            "BM1F": [
                8028
            ], 
            "M1": [
                4293
            ], 
            "irrelevant_Adj": [
                0
            ], 
            "M2": [
                4640
            ], 
            "BM1L": [
                8320
            ], 
            "WBO": [
                7362, 
                5191, 
                8140, 
                599, 
                5131
            ], 
            "WBL": [
                599
            ], 
            "irrelevant_Noun": [
                0
            ], 
            "M1_ADJ": [
                1
            ]
        }, 
        "sentence": "there is no way i would take my truck that ive put so much time and money in , and line it with roofing tar for sound deadening to save a few dollar ."
    }
}