{
    "c9d60d5edb810bd9f7bfbfe540dde48a": {
        "(5, 12)": {
            "WBF": [
                689
            ], 
            "BM1F": [
                8034
            ], 
            "M1": [
                4409
            ], 
            "irrelevant_Adj": [
                0
            ], 
            "M2": [
                4954
            ], 
            "BM1L": [
                3252
            ], 
            "WBO": [
                4401, 
                2356, 
                823
            ], 
            "WBL": [
                4694
            ], 
            "irrelevant_Noun": [
                0
            ], 
            "M1_ADJ": [
                1
            ]
        }, 
        "location1": [
            5
        ], 
        "location2": [
            12
        ], 
        "sentence": "! the rubber cover for the key area keep dirt away from lock mechanism ."
    }, 
    "fa36982282bcc4a35c85bc957b720a79": {
        "(9, 7)": {
            "AM2L": [
                5387
            ], 
            "WBFL": [
                8034
            ], 
            "BM1F": [
                4694
            ], 
            "M1": [
                4954
            ], 
            "irrelevant_Adj": [
                0
            ], 
            "M2": [
                4409
            ], 
            "BM1L": [
                8034
            ], 
            "AM2F": [
                8851
            ], 
            "irrelevant_Noun": [
                0
            ], 
            "M1_ADJ": [
                0
            ]
        }, 
        "location1": [
            9
        ], 
        "location2": [
            7
        ], 
        "sentence": "dirt and water gets into the lock mechanism , the key will not go in and you will not get it off with out a cutting torch ."
    }
}