{
    "01220a7cbf92169585ee2f0ae7f1dcb6": {
        "(11, 7)": {
            "AM2L": [
                3705
            ], 
            "AM2F": [
                7289
            ], 
            "WBF": [
                1914
            ], 
            "BM1F": [
                8034
            ], 
            "M1": [
                6757
            ], 
            "irrelevant_Adj": [
                0
            ], 
            "M2": [
                4409
            ], 
            "BM1L": [
                8140
            ], 
            "WBO": [
                5595
            ], 
            "WBL": [
                8034
            ], 
            "irrelevant_Noun": [
                0
            ], 
            "M1_ADJ": [
                0
            ]
        }, 
        "location1": [
            11
        ], 
        "location2": [
            7
        ], 
        "sentence": "i 've notice a few time the rubber cover over the key slot has come off ."
    }, 
    "0160f1084e85eb7bc13afacf945c1e00": {
        "(5, 1)": {
            "AM2L": [
                1899
            ], 
            "AM2F": [
                3856
            ], 
            "WBF": [
                1339
            ], 
            "BM1F": [
                8034
            ], 
            "M1": [
                6757
            ], 
            "irrelevant_Adj": [
                0
            ], 
            "M2": [
                4409
            ], 
            "WBO": [
                1918
            ], 
            "WBL": [
                8034
            ], 
            "irrelevant_Noun": [
                0
            ], 
            "M1_ADJ": [
                0
            ]
        }, 
        "location1": [
            5
        ], 
        "location2": [
            1
        ], 
        "sentence": "the rubber cap covering the key hole could be a better design to fit more securely but i 'd buy it again ."
    }, 
    "c9d60d5edb810bd9f7bfbfe540dde48a": {
        "(5, 1)": {
            "AM2L": [
                4401
            ], 
            "AM2F": [
                689
            ], 
            "WBF": [
                1914
            ], 
            "BM1F": [
                8034
            ], 
            "M1": [
                6757
            ], 
            "irrelevant_Adj": [
                0
            ], 
            "M2": [
                4409
            ], 
            "WBO": [
                3252
            ], 
            "WBL": [
                8034
            ], 
            "irrelevant_Noun": [
                0
            ], 
            "M1_ADJ": [
                0
            ]
        }, 
        "location1": [
            5
        ], 
        "location2": [
            1
        ], 
        "sentence": "! the rubber cover for the key area keep dirt away from lock mechanism ."
    }, 
    "47c6d9f3432e8c3e949b765b66efb491": {
        "location1": [
            7
        ], 
        "location2": [
            2
        ], 
        "(7, 2)": {
            "AM2L": [
                3149
            ], 
            "AM2F": [
                2792
            ], 
            "WBF": [
                1339
            ], 
            "BM1F": [
                6154
            ], 
            "M1": [
                6757
            ], 
            "irrelevant_Adj": [
                0
            ], 
            "M2": [
                4409
            ], 
            "BM1L": [
                8034
            ], 
            "WBO": [
                8028
            ], 
            "WBL": [
                8034
            ], 
            "irrelevant_Noun": [
                0
            ], 
            "M1_ADJ": [
                0
            ]
        }, 
        "sentence": "the protective rubber cap that cover the key entry , fit loosely ."
    }
}