{
    "b83d25fb2eee53278c253f218d06f02d": {
        "(17, 27)": {
            "AM2F": [
                6163
            ], 
            "WBF": [
                8162
            ], 
            "BM1F": [
                8034
            ], 
            "M1": [
                4409
            ], 
            "irrelevant_Adj": [
                0
            ], 
            "M2": [
                4156
            ], 
            "BM1L": [
                5062
            ], 
            "WBO": [
                8542, 
                8034, 
                2580, 
                4268, 
                8162, 
                3233
            ], 
            "WBL": [
                1568
            ], 
            "irrelevant_Noun": [
                0
            ], 
            "M1_ADJ": [
                1
            ]
        }, 
        "location1": [
            17
        ], 
        "location2": [
            27
        ], 
        "sentence": "how many thing out there can give you a spiffy shine in a couple of minute ? the key to using the duster is to follow the clear instruction provided ."
    }
}