{
    "e16c02ab969804787d12932c048f9d77": {
        "(13, 1)": {
            "AM2L": [
                6509
            ], 
            "AM2F": [
                3252
            ], 
            "WBF": [
                688
            ], 
            "BM1F": [
                8034
            ], 
            "M1": [
                4914
            ], 
            "irrelevant_Adj": [
                0
            ], 
            "M2": [
                4409
            ], 
            "WBO": [
                8195, 
                5389, 
                599, 
                4283, 
                4268, 
                2617, 
                8162, 
                351
            ], 
            "WBL": [
                8034
            ], 
            "irrelevant_Noun": [
                0
            ], 
            "M1_ADJ": [
                0
            ]
        }, 
        "location1": [
            13
        ], 
        "location2": [
            1
        ], 
        "sentence": "the material are top notch , and it is easy to access with the key for removal and installation ."
    }
}