{
    "c9d60d5edb810bd9f7bfbfe540dde48a": {
        "(5, 6)": {
            "AM2L": [
                2356
            ], 
            "BM1F": [
                8034
            ], 
            "M1": [
                4409
            ], 
            "irrelevant_Adj": [
                0
            ], 
            "M2": [
                689
            ], 
            "BM1L": [
                3252
            ], 
            "WBNULL": [
                1
            ], 
            "irrelevant_Noun": [
                0
            ], 
            "AM2F": [
                4401
            ], 
            "M1_ADJ": [
                1
            ]
        }, 
        "location1": [
            5
        ], 
        "location2": [
            6
        ], 
        "sentence": "! the rubber cover for the key area keep dirt away from lock mechanism ."
    }
}