{
    "17b598d69c2ddf0ba3acbe68b69b911e": {
        "(3, 5)": {
            "AM2L": [
                8034
            ], 
            "WBFL": [
                7707
            ], 
            "BM1F": [
                5862
            ], 
            "M1": [
                4501
            ], 
            "irrelevant_Adj": [
                0
            ], 
            "M2": [
                4808
            ], 
            "BM1L": [
                2583
            ], 
            "AM2F": [
                5495
            ], 
            "irrelevant_Noun": [
                0
            ], 
            "M1_ADJ": [
                1
            ]
        }, 
        "location1": [
            3
        ], 
        "location2": [
            5
        ], 
        "sentence": "heavy duty plastic , large strong magnet on the side and they work perfectly ."
    }
}