{
    "7dc8a85ef5b3920cd42c4afd3838307c": {
        "(9, 11)": {
            "AM2L": [
                3338
            ], 
            "WBFL": [
                3426
            ], 
            "BM1F": [
                5325
            ], 
            "M1": [
                4501
            ], 
            "irrelevant_Adj": [
                0
            ], 
            "M2": [
                8874
            ], 
            "BM1L": [
                8073
            ], 
            "AM2F": [
                1781
            ], 
            "irrelevant_Noun": [
                0
            ], 
            "M1_ADJ": [
                1
            ]
        }, 
        "location1": [
            9
        ], 
        "location2": [
            11
        ], 
        "sentence": "running the truck for 30-45 minute with this nice large gauge wire connected from my battery tot he trailer battery will give me a bit of a charge if ever in a pinch and i have no shore power , solar , or generator to recharge ."
    }, 
    "ad393054d1eb2e0da2c3363e6842cca1": {
        "(6, 4)": {
            "AM2L": [
                8851
            ], 
            "WBFL": [
                310
            ], 
            "BM1F": [
                7308
            ], 
            "M1": [
                8874
            ], 
            "irrelevant_Adj": [
                0
            ], 
            "M2": [
                4501
            ], 
            "BM1L": [
                310
            ], 
            "AM2F": [
                4688
            ], 
            "irrelevant_Noun": [
                0
            ], 
            "M1_ADJ": [
                0
            ]
        }, 
        "location1": [
            6
        ], 
        "location2": [
            4
        ], 
        "sentence": "basically on a small wire , a large load will generate a lot of heat and one of two thing will happen ."
    }
}