{
    "044892f6216025c51e9094142350867b": {
        "(15, 1)": {
            "AM2L": [
                599
            ], 
            "AM2F": [
                7230
            ], 
            "WBF": [
                3962
            ], 
            "BM1F": [
                1140
            ], 
            "M1": [
                4640
            ], 
            "irrelevant_Adj": [
                0
            ], 
            "M2": [
                4501
            ], 
            "WBO": [
                6390, 
                8073, 
                5692, 
                4829, 
                599, 
                5104, 
                5595, 
                5567, 
                7210, 
                907
            ], 
            "WBL": [
                8034
            ], 
            "irrelevant_Noun": [
                0
            ], 
            "M1_ADJ": [
                0
            ]
        }, 
        "location1": [
            15
        ], 
        "location2": [
            1
        ], 
        "sentence": "bottom line : i recommend this particular make and model over others simply based on the large size and the thickness of the towel ."
    }
}