{
    "195240abbbd59e26d9cdbd21fe256af3": {
        "location1": [
            18
        ], 
        "location2": [
            21
        ], 
        "(18, 21)": {
            "WBF": [
                689
            ], 
            "BM1F": [
                8034
            ], 
            "M1": [
                4501
            ], 
            "irrelevant_Adj": [
                0
            ], 
            "M2": [
                8860
            ], 
            "BM1L": [
                2436
            ], 
            "WBO": [
                599
            ], 
            "WBL": [
                599
            ], 
            "irrelevant_Noun": [
                0
            ], 
            "M1_ADJ": [
                1
            ]
        }, 
        "sentence": "i would also recommend a soft water blade to use first after rinsing your vehicle to do the large area and window ."
    }
}