{
    "1d59b64e5d2480e4101abed98c5373e0": {
        "location1": [
            16
        ], 
        "location2": [
            12
        ], 
        "(16, 12)": {
            "AM2L": [
                4283
            ], 
            "AM2F": [
                1821
            ], 
            "WBF": [
                1262
            ], 
            "BM1F": [
                4216
            ], 
            "M1": [
                7409
            ], 
            "irrelevant_Adj": [
                0
            ], 
            "M2": [
                4504
            ], 
            "BM1L": [
                4648
            ], 
            "WBO": [
                3252
            ], 
            "WBL": [
                636
            ], 
            "irrelevant_Noun": [
                0
            ], 
            "M1_ADJ": [
                0
            ]
        }, 
        "sentence": "it would work to put a quart container of a liquid into something but for any larger container it is going to be worthless ."
    }
}