{
    "ca11d17a98039216ccd4d0854902b81f": {
        "(21, 22)": {
            "BM1F": [
                5495
            ], 
            "M1": [
                4501
            ], 
            "irrelevant_Adj": [
                0
            ], 
            "M2": [
                5666
            ], 
            "BM1L": [
                2062
            ], 
            "WBNULL": [
                1
            ], 
            "irrelevant_Noun": [
                0
            ], 
            "M1_ADJ": [
                1
            ]
        }, 
        "location1": [
            21
        ], 
        "location2": [
            22
        ], 
        "sentence": "overall i have n't found any hardware store generic material that is as good as dynamat xtreme for sound damping on large panel ."
    }
}