{
    "089bb87b2124eab69dec7ae84461e67f": {
        "(11, 12)": {
            "AM2L": [
                1916
            ], 
            "BM1F": [
                310
            ], 
            "M1": [
                4504
            ], 
            "irrelevant_Adj": [
                0
            ], 
            "M2": [
                689
            ], 
            "BM1L": [
                3705
            ], 
            "WBNULL": [
                1
            ], 
            "irrelevant_Noun": [
                0
            ], 
            "AM2F": [
                5458
            ], 
            "M1_ADJ": [
                1
            ]
        }, 
        "sentence": "because of the larger sized head , the `` ultimate `` nozzle has a larger area of coverage , and can deliver a larger volume of water .", 
        "location2": [
            12
        ], 
        "location1": [
            3, 
            11, 
            19
        ], 
        "(3, 12)": {
            "AM2L": [
                1916
            ], 
            "AM2F": [
                5458
            ], 
            "WBF": [
                7232
            ], 
            "BM1F": [
                8034
            ], 
            "M1": [
                4504
            ], 
            "irrelevant_Adj": [
                0
            ], 
            "M2": [
                689
            ], 
            "BM1L": [
                5458
            ], 
            "WBO": [
                3730, 
                8034, 
                8387, 
                5410, 
                3705
            ], 
            "WBL": [
                4504
            ], 
            "irrelevant_Noun": [
                0
            ], 
            "M1_ADJ": [
                1
            ]
        }, 
        "(19, 12)": {
            "AM2L": [
                5458
            ], 
            "AM2F": [
                8657
            ], 
            "WBF": [
                5458
            ], 
            "BM1F": [
                4504
            ], 
            "M1": [
                689
            ], 
            "irrelevant_Adj": [
                0
            ], 
            "M2": [
                4504
            ], 
            "BM1L": [
                310
            ], 
            "WBO": [
                1916, 
                599, 
                1323
            ], 
            "WBL": [
                310
            ], 
            "irrelevant_Noun": [
                0
            ], 
            "M1_ADJ": [
                0
            ]
        }
    }
}