{
    "7dc8a85ef5b3920cd42c4afd3838307c": {
        "location1": [
            9
        ], 
        "location2": [
            15, 
            19
        ], 
        "(9, 15)": {
            "AM2L": [
                3729
            ], 
            "AM2F": [
                8211
            ], 
            "WBF": [
                3426
            ], 
            "BM1F": [
                5325
            ], 
            "M1": [
                4501
            ], 
            "irrelevant_Adj": [
                0
            ], 
            "M2": [
                921
            ], 
            "BM1L": [
                8073
            ], 
            "WBO": [
                8874, 
                1781
            ], 
            "WBL": [
                5232
            ], 
            "irrelevant_Noun": [
                0
            ], 
            "M1_ADJ": [
                1
            ]
        }, 
        "(9, 19)": {
            "AM2L": [
                3479
            ], 
            "AM2F": [
                8851
            ], 
            "WBF": [
                3426
            ], 
            "BM1F": [
                5325
            ], 
            "M1": [
                4501
            ], 
            "irrelevant_Adj": [
                0
            ], 
            "M2": [
                921
            ], 
            "BM1L": [
                8073
            ], 
            "WBO": [
                8874, 
                1781, 
                3338, 
                5232, 
                921, 
                8211
            ], 
            "WBL": [
                8250
            ], 
            "irrelevant_Noun": [
                0
            ], 
            "M1_ADJ": [
                1
            ]
        }, 
        "sentence": "running the truck for 30-45 minute with this nice large gauge wire connected from my battery tot he trailer battery will give me a bit of a charge if ever in a pinch and i have no shore power , solar , or generator to recharge ."
    }
}