{
    "9ec64287056accc9fbf72de2c969417f": {
        "(9, 0)": {
            "WBF": [
                760
            ], 
            "AM2L": [
                2313
            ], 
            "M1": [
                4717
            ], 
            "irrelevant_Adj": [
                0
            ], 
            "M2": [
                4504
            ], 
            "WBO": [
                8034, 
                5818, 
                3252, 
                5566, 
                668
            ], 
            "WBL": [
                310
            ], 
            "irrelevant_Noun": [
                0
            ], 
            "AM2F": [
                5543
            ], 
            "M1_ADJ": [
                0
            ]
        }, 
        "location1": [
            9
        ], 
        "location2": [
            0
        ], 
        "sentence": "( look at the picture ) for other application , maybe a larger or different style funnel is better ."
    }
}