{
    "cd5e12966a2994028c6073ca18598c39": {
        "(7, 8)": {
            "AM2L": [
                1564
            ], 
            "BM1F": [
                7053
            ], 
            "M1": [
                4501
            ], 
            "irrelevant_Adj": [
                0
            ], 
            "M2": [
                8227
            ], 
            "BM1L": [
                7910
            ], 
            "WBNULL": [
                1
            ], 
            "irrelevant_Noun": [
                0
            ], 
            "AM2F": [
                8162
            ], 
            "M1_ADJ": [
                1
            ]
        }, 
        "location1": [
            7
        ], 
        "location2": [
            8
        ], 
        "sentence": "before purchasing this , it would take several large towel to clean off and dry ."
    }, 
    "044892f6216025c51e9094142350867b": {
        "location1": [
            15
        ], 
        "location2": [
            22
        ], 
        "(15, 22)": {
            "WBF": [
                7230
            ], 
            "BM1F": [
                8034
            ], 
            "M1": [
                4501
            ], 
            "irrelevant_Adj": [
                0
            ], 
            "M2": [
                8227
            ], 
            "BM1L": [
                5495
            ], 
            "WBO": [
                599, 
                8034, 
                8062
            ], 
            "WBL": [
                8034
            ], 
            "irrelevant_Noun": [
                0
            ], 
            "M1_ADJ": [
                1
            ]
        }, 
        "sentence": "bottom line : i recommend this particular make and model over others simply based on the large size and the thickness of the towel ."
    }
}