{
    "ba7efb330a6c490dcfd2c3c2de132d13": {
        "(1, 22)": {
            "WBF": [
                3252
            ], 
            "BM1F": [
                8057
            ], 
            "M1": [
                4509
            ], 
            "irrelevant_Adj": [
                0
            ], 
            "M2": [
                1867
            ], 
            "WBO": [
                4873, 
                8979, 
                3962, 
                8531, 
                8041, 
                5495, 
                4344, 
                7224, 
                8162, 
                4401, 
                1865, 
                4376, 
                2345, 
                4283, 
                4043, 
                1637, 
                8736
            ], 
            "WBL": [
                4150
            ], 
            "irrelevant_Noun": [
                0
            ], 
            "M1_ADJ": [
                1
            ]
        }, 
        "location1": [
            1
        ], 
        "location2": [
            22
        ], 
        "sentence": "they last for many year , i use them on job site to keep cool , just dip it in cold water and instant cooling ."
    }
}