{
    "dd2e325192c68f039f54d8414d36dc19": {
        "location1": [
            9
        ], 
        "location2": [
            1
        ], 
        "(9, 1)": {
            "AM2L": [
                3338
            ], 
            "AM2F": [
                3268
            ], 
            "WBF": [
                4268
            ], 
            "BM1F": [
                8073
            ], 
            "M1": [
                5410
            ], 
            "irrelevant_Adj": [
                0
            ], 
            "M2": [
                4509
            ], 
            "WBO": [
                1232, 
                4625, 
                310, 
                7930
            ], 
            "WBL": [
                8851
            ], 
            "irrelevant_Noun": [
                0
            ], 
            "M1_ADJ": [
                0
            ]
        }, 
        "sentence": "this nozzle is built like a tank and will last forever from the look of it and from the 10 year old my neighbor has ."
    }
}