{
    "73c2d6fb0b9f209bec707bc7613699ce": {
        "location1": [
            3
        ], 
        "location2": [
            13
        ], 
        "(3, 13)": {
            "AM2L": [
                4283
            ], 
            "AM2F": [
                3795
            ], 
            "WBF": [
                3268
            ], 
            "BM1F": [
                4929
            ], 
            "M1": [
                4509
            ], 
            "irrelevant_Adj": [
                0
            ], 
            "M2": [
                8979
            ], 
            "BM1L": [
                4283
            ], 
            "WBO": [
                1262, 
                3962, 
                1269, 
                310, 
                5314, 
                5503
            ], 
            "WBL": [
                310
            ], 
            "irrelevant_Noun": [
                0
            ], 
            "M1_ADJ": [
                1
            ]
        }, 
        "sentence": "ya , it may last forever , but i buy a new one once a year - hey it 's pretty inexpensive ."
    }, 
    "2b5edbd911c000c75b2386640fc3ceb4": {
        "location1": [
            7
        ], 
        "location2": [
            9
        ], 
        "(7, 9)": {
            "AM2L": [
                4268
            ], 
            "WBFL": [
                216
            ], 
            "BM1F": [
                8034
            ], 
            "M1": [
                4509
            ], 
            "irrelevant_Adj": [
                0
            ], 
            "M2": [
                8979
            ], 
            "BM1L": [
                3252
            ], 
            "AM2F": [
                599
            ], 
            "irrelevant_Noun": [
                0
            ], 
            "M1_ADJ": [
                1
            ]
        }, 
        "sentence": "i used one of these for the last 5 year and is the best i 've used to dry my car ."
    }, 
    "5b9bb7025bd8d6b810e4cc368adbbe01": {
        "(3, 5)": {
            "AM2L": [
                4559
            ], 
            "WBFL": [
                3252
            ], 
            "BM1F": [
                554
            ], 
            "M1": [
                4509
            ], 
            "irrelevant_Adj": [
                0
            ], 
            "M2": [
                8979
            ], 
            "BM1L": [
                8851
            ], 
            "AM2F": [
                3985
            ], 
            "irrelevant_Noun": [
                0
            ], 
            "M1_ADJ": [
                1
            ]
        }, 
        "location1": [
            3
        ], 
        "location2": [
            5
        ], 
        "sentence": "it will also last for year if left damp and stored in the plastic container , ( nope do n't dry it ) ."
    }, 
    "e520e0bfdfa578464d3d59c14ed42ac8": {
        "(14, 16)": {
            "AM2L": [
                4283
            ], 
            "WBFL": [
                78
            ], 
            "BM1F": [
                8034
            ], 
            "M1": [
                4509
            ], 
            "irrelevant_Adj": [
                0
            ], 
            "M2": [
                8979
            ], 
            "BM1L": [
                5595
            ], 
            "AM2F": [
                599
            ], 
            "irrelevant_Noun": [
                0
            ], 
            "M1_ADJ": [
                1
            ]
        }, 
        "location1": [
            14
        ], 
        "location2": [
            16
        ], 
        "sentence": "have used this in the past on all of my vehicle ( 3 over the last 16 year ) and it does a great job of clearing your windshield/windows of rain and misting ."
    }, 
    "78167b970e31c9ec11259698353bef51": {
        "(10, 12)": {
            "WBFL": [
                3252
            ], 
            "BM1F": [
                8851
            ], 
            "M1": [
                4509
            ], 
            "irrelevant_Adj": [
                0
            ], 
            "M2": [
                8979
            ], 
            "BM1L": [
                599
            ], 
            "irrelevant_Noun": [
                0
            ], 
            "M1_ADJ": [
                1
            ]
        }, 
        "location1": [
            10
        ], 
        "location2": [
            12
        ], 
        "sentence": "the rubber coated aluminum design is very sturdy and will last for year ."
    }, 
    "d8dbe49f10b7c97de8afc986e4464f59": {
        "location1": [
            6
        ], 
        "location2": [
            8
        ], 
        "(6, 8)": {
            "WBFL": [
                4873
            ], 
            "BM1F": [
                7144
            ], 
            "M1": [
                4509
            ], 
            "irrelevant_Adj": [
                0
            ], 
            "M2": [
                8979
            ], 
            "BM1L": [
                599
            ], 
            "irrelevant_Noun": [
                0
            ], 
            "M1_ADJ": [
                1
            ]
        }, 
        "sentence": "it is well made and should last many year ."
    }, 
    "421b646afe71fddb7e029998d63c2b84": {
        "(9, 11)": {
            "AM2L": [
                8887
            ], 
            "WBFL": [
                3085
            ], 
            "BM1F": [
                8034
            ], 
            "M1": [
                4509
            ], 
            "irrelevant_Adj": [
                0
            ], 
            "M2": [
                8979
            ], 
            "BM1L": [
                1368
            ], 
            "AM2F": [
                1262
            ], 
            "irrelevant_Noun": [
                0
            ], 
            "M1_ADJ": [
                1
            ]
        }, 
        "location1": [
            9
        ], 
        "location2": [
            11
        ], 
        "sentence": "i had gotten away from super-anal car care the last few year but with a recent purchase of a brand new 2014 subaru xv crosstrek , my automotive wishlist her on amazon has been growing and another california duster has been towards the top of the & # 34 ; really want & # 34 ; list ."
    }, 
    "ba7efb330a6c490dcfd2c3c2de132d13": {
        "location1": [
            1
        ], 
        "location2": [
            4
        ], 
        "(1, 4)": {
            "AM2L": [
                8531
            ], 
            "AM2F": [
                3962
            ], 
            "WBF": [
                3252
            ], 
            "BM1F": [
                8057
            ], 
            "M1": [
                4509
            ], 
            "irrelevant_Adj": [
                0
            ], 
            "M2": [
                8979
            ], 
            "WBO": [
                4873
            ], 
            "WBL": [
                4873
            ], 
            "irrelevant_Noun": [
                0
            ], 
            "M1_ADJ": [
                1
            ]
        }, 
        "sentence": "they last for many year , i use them on job site to keep cool , just dip it in cold water and instant cooling ."
    }, 
    "dd2e325192c68f039f54d8414d36dc19": {
        "(9, 20)": {
            "AM2L": [
                5232
            ], 
            "AM2F": [
                5488
            ], 
            "WBF": [
                3268
            ], 
            "BM1F": [
                8851
            ], 
            "M1": [
                4509
            ], 
            "irrelevant_Adj": [
                0
            ], 
            "M2": [
                8979
            ], 
            "BM1L": [
                599
            ], 
            "WBO": [
                3338, 
                8034, 
                4717, 
                5458, 
                4283, 
                599, 
                3338
            ], 
            "WBL": [
                34
            ], 
            "irrelevant_Noun": [
                0
            ], 
            "M1_ADJ": [
                1
            ]
        }, 
        "location1": [
            9
        ], 
        "location2": [
            20
        ], 
        "sentence": "this nozzle is built like a tank and will last forever from the look of it and from the 10 year old my neighbor has ."
    }, 
    "5d685643c168364382e32de17f8824b6": {
        "location1": [
            9
        ], 
        "location2": [
            12
        ], 
        "(9, 12)": {
            "WBF": [
                3252
            ], 
            "BM1F": [
                7144
            ], 
            "M1": [
                4509
            ], 
            "irrelevant_Adj": [
                0
            ], 
            "M2": [
                8979
            ], 
            "BM1L": [
                4283
            ], 
            "WBO": [
                4873
            ], 
            "WBL": [
                4873
            ], 
            "irrelevant_Noun": [
                0
            ], 
            "M1_ADJ": [
                1
            ]
        }, 
        "sentence": "if you take care of it then it should last for many year ."
    }
}