{
    "78167b970e31c9ec11259698353bef51": {
        "(10, 3)": {
            "AM2L": [
                8979
            ], 
            "AM2F": [
                3252
            ], 
            "WBF": [
                2239
            ], 
            "BM1F": [
                1622
            ], 
            "M1": [
                563
            ], 
            "irrelevant_Adj": [
                0
            ], 
            "M2": [
                4509
            ], 
            "BM1L": [
                6757
            ], 
            "WBO": [
                4268, 
                8603, 
                7733
            ], 
            "WBL": [
                8851
            ], 
            "irrelevant_Noun": [
                0
            ], 
            "M1_ADJ": [
                0
            ]
        }, 
        "location1": [
            10
        ], 
        "location2": [
            3
        ], 
        "sentence": "the rubber coated aluminum design is very sturdy and will last for year ."
    }, 
    "f5c42def75741c98777fd8a237911b6b": {
        "(48, 32)": {
            "AM2L": [
                5043
            ], 
            "AM2F": [
                310
            ], 
            "WBF": [
                8874
            ], 
            "BM1F": [
                310
            ], 
            "M1": [
                563
            ], 
            "irrelevant_Adj": [
                0
            ], 
            "M2": [
                4509
            ], 
            "BM1L": [
                8887
            ], 
            "WBO": [
                4991, 
                7835, 
                1275, 
                3661, 
                5975, 
                8521, 
                8057, 
                4942, 
                4283, 
                8812, 
                8057, 
                6857
            ], 
            "WBL": [
                8851
            ], 
            "irrelevant_Noun": [
                0
            ], 
            "M1_ADJ": [
                0
            ]
        }, 
        "location1": [
            48
        ], 
        "location2": [
            32
        ], 
        "sentence": "however i never off road , and for highway and street use , this filter is king in term of economy and durability ( it is made of 4-5 layer of cotton encased with a aluminum wire mesh surrounded by hand poured urethane ) , they mean it when they say it will last a million mile ."
    }
}