{
    "718377d4af99ca7994cf8414caf6f2a7": {
        "(20, 16)": {
            "WBF": [
                5410
            ], 
            "BM1F": [
                310
            ], 
            "M1": [
                2512
            ], 
            "irrelevant_Adj": [
                0
            ], 
            "M2": [
                4553
            ], 
            "BM1L": [
                4283
            ], 
            "WBO": [
                4043
            ], 
            "WBL": [
                8034
            ], 
            "irrelevant_Noun": [
                0
            ], 
            "M1_ADJ": [
                0
            ]
        }, 
        "location1": [
            20
        ], 
        "location2": [
            16
        ], 
        "sentence": "there is a use for it for sure , but i certainly would not consider it a `` dream `` nozzle in the least ."
    }
}