{
    "b042107adaa0a45a3268235a5758bdf5": {
        "location1": [
            24
        ], 
        "location2": [
            15
        ], 
        "(24, 15)": {
            "AM2L": [
                8979
            ], 
            "AM2F": [
                3154
            ], 
            "WBF": [
                8028
            ], 
            "BM1F": [
                8034
            ], 
            "M1": [
                2979
            ], 
            "irrelevant_Adj": [
                0
            ], 
            "M2": [
                4553
            ], 
            "BM1L": [
                3252
            ], 
            "WBO": [
                3962, 
                10, 
                3646, 
                8073, 
                5410
            ], 
            "WBL": [
                760
            ], 
            "irrelevant_Noun": [
                0
            ], 
            "M1_ADJ": [
                0
            ]
        }, 
        "sentence": "as such , i may not have a lot of information to add , except for the fact that i 've had this nozzle for at least five year ."
    }
}