{
    "a689067ee47c6ebd8c416c285d1a2af5": {
        "location1": [
            13
        ], 
        "location2": [
            26
        ], 
        "(13, 26)": {
            "WBF": [
                3531
            ], 
            "BM1F": [
                760
            ], 
            "M1": [
                4553
            ], 
            "irrelevant_Adj": [
                0
            ], 
            "M2": [
                8860
            ], 
            "BM1L": [
                4283
            ], 
            "WBO": [
                8049, 
                8118, 
                4834, 
                8073, 
                5410, 
                7795, 
                3252, 
                3463, 
                760
            ], 
            "WBL": [
                8512
            ], 
            "irrelevant_Noun": [
                0
            ], 
            "M1_ADJ": [
                1
            ]
        }, 
        "sentence": "while the stream was not a great as i would like it at least got there thusly making this nozzle super for getting at the upper window ."
    }
}