{
    "b042107adaa0a45a3268235a5758bdf5": {
        "(24, 21)": {
            "AM2L": [
                8979
            ], 
            "AM2F": [
                3154
            ], 
            "WBF": [
                3252
            ], 
            "BM1F": [
                8073
            ], 
            "M1": [
                5410
            ], 
            "irrelevant_Adj": [
                0
            ], 
            "M2": [
                4553
            ], 
            "BM1L": [
                3646
            ], 
            "WBO": [
                760
            ], 
            "WBL": [
                760
            ], 
            "irrelevant_Noun": [
                0
            ], 
            "M1_ADJ": [
                0
            ]
        }, 
        "location1": [
            24
        ], 
        "location2": [
            21
        ], 
        "sentence": "as such , i may not have a lot of information to add , except for the fact that i 've had this nozzle for at least five year ."
    }, 
    "718377d4af99ca7994cf8414caf6f2a7": {
        "(20, 17)": {
            "WBF": [
                4043
            ], 
            "BM1F": [
                2512
            ], 
            "M1": [
                5410
            ], 
            "irrelevant_Adj": [
                0
            ], 
            "M2": [
                4553
            ], 
            "BM1L": [
                310
            ], 
            "WBO": [
                8034
            ], 
            "WBL": [
                8034
            ], 
            "irrelevant_Noun": [
                0
            ], 
            "M1_ADJ": [
                0
            ]
        }, 
        "location1": [
            20
        ], 
        "location2": [
            17
        ], 
        "sentence": "there is a use for it for sure , but i certainly would not consider it a `` dream `` nozzle in the least ."
    }, 
    "a689067ee47c6ebd8c416c285d1a2af5": {
        "location1": [
            13
        ], 
        "location2": [
            19
        ], 
        "(13, 19)": {
            "AM2L": [
                3252
            ], 
            "AM2F": [
                7795
            ], 
            "WBF": [
                3531
            ], 
            "BM1F": [
                760
            ], 
            "M1": [
                4553
            ], 
            "irrelevant_Adj": [
                0
            ], 
            "M2": [
                5410
            ], 
            "BM1L": [
                4283
            ], 
            "WBO": [
                8049, 
                8118
            ], 
            "WBL": [
                8073
            ], 
            "irrelevant_Noun": [
                0
            ], 
            "M1_ADJ": [
                1
            ]
        }, 
        "sentence": "while the stream was not a great as i would like it at least got there thusly making this nozzle super for getting at the upper window ."
    }
}