{
    "a689067ee47c6ebd8c416c285d1a2af5": {
        "location1": [
            13
        ], 
        "location2": [
            20
        ], 
        "(13, 20)": {
            "AM2L": [
                3463
            ], 
            "AM2F": [
                3252
            ], 
            "WBF": [
                3531
            ], 
            "BM1F": [
                760
            ], 
            "M1": [
                4553
            ], 
            "irrelevant_Adj": [
                0
            ], 
            "M2": [
                7795
            ], 
            "BM1L": [
                4283
            ], 
            "WBO": [
                8049, 
                8118, 
                4834
            ], 
            "WBL": [
                5410
            ], 
            "irrelevant_Noun": [
                0
            ], 
            "M1_ADJ": [
                1
            ]
        }, 
        "sentence": "while the stream was not a great as i would like it at least got there thusly making this nozzle super for getting at the upper window ."
    }
}