{
    "3973e710fe7b4431bb8b84f523ae32d8": {
        "(10, 14)": {
            "WBF": [
                8140
            ], 
            "BM1F": [
                4043
            ], 
            "M1": [
                4578
            ], 
            "irrelevant_Adj": [
                0
            ], 
            "M2": [
                8747
            ], 
            "BM1L": [
                6793
            ], 
            "WBO": [
                8044
            ], 
            "WBL": [
                3165
            ], 
            "irrelevant_Noun": [
                0
            ], 
            "M1_ADJ": [
                1
            ]
        }, 
        "location1": [
            10
        ], 
        "location2": [
            14
        ], 
        "sentence": "making it far easier to do a big rv in less time then flagship wax ."
    }
}