{
    "94d96c710115153938d2da3011f49afc": {
        "(11, 27)": {
            "WBF": [
                5692
            ], 
            "BM1F": [
                688
            ], 
            "M1": [
                4578
            ], 
            "irrelevant_Adj": [
                0
            ], 
            "M2": [
                5062
            ], 
            "BM1L": [
                8991
            ], 
            "WBO": [
                3962, 
                3618, 
                8991, 
                1899, 
                8208, 
                4283, 
                4043, 
                599, 
                929, 
                8501, 
                599, 
                6776
            ], 
            "WBL": [
                34
            ], 
            "irrelevant_Noun": [
                0
            ], 
            "M1_ADJ": [
                1
            ]
        }, 
        "location1": [
            11
        ], 
        "location2": [
            27
        ], 
        "sentence": "total time about an hour and a half , if you are less particular i guess you could toss it in and be up and running in 10 minute ."
    }, 
    "5547f20596e24842dc68d8c1671a8c3d": {
        "(14, 17)": {
            "AM2L": [
                720
            ], 
            "AM2F": [
                8907
            ], 
            "WBF": [
                8024
            ], 
            "BM1F": [
                7913
            ], 
            "M1": [
                4578
            ], 
            "irrelevant_Adj": [
                0
            ], 
            "M2": [
                5062
            ], 
            "BM1L": [
                4144
            ], 
            "WBO": [
                216
            ], 
            "WBL": [
                216
            ], 
            "irrelevant_Noun": [
                0
            ], 
            "M1_ADJ": [
                1
            ]
        }, 
        "location1": [
            14
        ], 
        "location2": [
            17
        ], 
        "sentence": "package arrived a bit ragged but it was all there , easy to install , takes less than 5 minute , work as described ."
    }, 
    "e46cff3da4fd20b0ee6aef7d28a573be": {
        "location1": [
            5
        ], 
        "location2": [
            8
        ], 
        "(5, 8)": {
            "AM2L": [
                2577
            ], 
            "AM2F": [
                8162
            ], 
            "WBF": [
                8024
            ], 
            "BM1F": [
                5458
            ], 
            "M1": [
                4578
            ], 
            "irrelevant_Adj": [
                0
            ], 
            "M2": [
                5062
            ], 
            "BM1L": [
                8212
            ], 
            "WBO": [
                104
            ], 
            "WBL": [
                104
            ], 
            "irrelevant_Noun": [
                0
            ], 
            "M1_ADJ": [
                1
            ]
        }, 
        "sentence": "it takes a total of less than 2 minute to dust off an entire car , yet the result makes your car look like you just washed it ."
    }
}