{
    "0f5eb41bd03e069de666792ab292c44f": {
        "(40, 4)": {
            "AM2L": [
                216
            ], 
            "AM2F": [
                8044
            ], 
            "WBF": [
                4625
            ], 
            "BM1F": [
                5566
            ], 
            "M1": [
                4279
            ], 
            "irrelevant_Adj": [
                0
            ], 
            "M2": [
                4578
            ], 
            "BM1L": [
                3719
            ], 
            "WBO": [
                6413, 
                3089, 
                527, 
                5595, 
                8034, 
                5846, 
                3962, 
                2, 
                6390, 
                3237, 
                8034, 
                7622, 
                3962, 
                2304, 
                4651, 
                326, 
                4283, 
                8909, 
                3564, 
                3252, 
                4940, 
                599, 
                720, 
                5458, 
                5407, 
                3962, 
                3717, 
                310, 
                3564, 
                4671, 
                2580, 
                8028
            ], 
            "WBL": [
                5653
            ], 
            "irrelevant_Noun": [
                0
            ], 
            "M1_ADJ": [
                0
            ]
        }, 
        "location1": [
            40
        ], 
        "location2": [
            4
        ], 
        "sentence": "for anyone having other issue like red fiber all over the place , i 'd recommend following the step i did listed above , it worked great for me and as of now i have a great little duster that i paid less then 5 buck for ."
    }
}