{
    "694e85fc78a8100c307341748de5ffc4": {
        "(50, 16)": {
            "AM2F": [
                8320
            ], 
            "WBF": [
                599
            ], 
            "BM1F": [
                4710
            ], 
            "M1": [
                1286
            ], 
            "irrelevant_Adj": [
                0
            ], 
            "M2": [
                4616
            ], 
            "BM1L": [
                310
            ], 
            "WBO": [
                8028, 
                8756, 
                7, 
                8330, 
                8162, 
                7598, 
                310, 
                1358, 
                2750, 
                8819, 
                7913, 
                310, 
                4737, 
                5458, 
                5979, 
                8053, 
                688, 
                8034, 
                5512, 
                1286, 
                3962, 
                1899, 
                6365, 
                3252, 
                641, 
                2528, 
                310, 
                7308, 
                1358, 
                8501
            ], 
            "WBL": [
                310
            ], 
            "irrelevant_Noun": [
                0
            ], 
            "M1_ADJ": [
                0
            ]
        }, 
        "(50, 37)": {
            "AM2F": [
                8320
            ], 
            "WBF": [
                3962
            ], 
            "BM1F": [
                5512
            ], 
            "M1": [
                1286
            ], 
            "irrelevant_Adj": [
                0
            ], 
            "M2": [
                4616
            ], 
            "BM1L": [
                8034
            ], 
            "WBO": [
                1899, 
                6365, 
                3252, 
                641, 
                2528, 
                310, 
                7308, 
                1358, 
                8501
            ], 
            "WBL": [
                310
            ], 
            "irrelevant_Noun": [
                0
            ], 
            "M1_ADJ": [
                0
            ]
        }, 
        "location1": [
            50
        ], 
        "location2": [
            16, 
            37
        ], 
        "sentence": "considering the hot temperature outside , the fact that it 's 12vdc and we need a long cable , and that we 're trying to start a car engine ( which takes a lot of power ) these are the only cable i could reccomend for anyone driving a small car up to a light truck ."
    }, 
    "ae77aef2c73b86795c13676dbe8761cd": {
        "location1": [
            6
        ], 
        "location2": [
            8
        ], 
        "(6, 8)": {
            "AM2L": [
                599
            ], 
            "WBFL": [
                2583
            ], 
            "BM1F": [
                6977
            ], 
            "M1": [
                4616
            ], 
            "irrelevant_Adj": [
                0
            ], 
            "M2": [
                1286
            ], 
            "BM1L": [
                5781
            ], 
            "AM2F": [
                4971
            ], 
            "irrelevant_Noun": [
                0
            ], 
            "M1_ADJ": [
                1
            ]
        }, 
        "sentence": "that said i 've personally seen light duty cable melt and smoke from starting an engine too big for them ."
    }
}