{
    "e84625e2e8af915f6913dcb3c8d3b3b1": {
        "(11, 12)": {
            "AM2L": [
                8991
            ], 
            "BM1F": [
                8228
            ], 
            "M1": [
                4616
            ], 
            "irrelevant_Adj": [
                0
            ], 
            "M2": [
                3700
            ], 
            "BM1L": [
                8997
            ], 
            "WBNULL": [
                1
            ], 
            "irrelevant_Noun": [
                0
            ], 
            "AM2F": [
                5543
            ], 
            "M1_ADJ": [
                1
            ]
        }, 
        "(11, 16)": {
            "AM2L": [
                5284
            ], 
            "AM2F": [
                8991
            ], 
            "WBF": [
                3700
            ], 
            "BM1F": [
                8228
            ], 
            "M1": [
                4616
            ], 
            "irrelevant_Adj": [
                0
            ], 
            "M2": [
                3700
            ], 
            "BM1L": [
                8997
            ], 
            "WBO": [
                5543
            ], 
            "WBL": [
                8320
            ], 
            "irrelevant_Noun": [
                0
            ], 
            "M1_ADJ": [
                1
            ]
        }, 
        "location1": [
            11
        ], 
        "location2": [
            12, 
            16
        ], 
        "sentence": "if you want to get the most out of your towing light harness or you truck harness you need these cover ."
    }
}