{
    "ef73052d9a44ba729ec90e341361815f": {
        "location1": [
            12
        ], 
        "location2": [
            31
        ], 
        "(12, 31)": {
            "AM2F": [
                5495
            ], 
            "WBF": [
                3125
            ], 
            "BM1F": [
                8034
            ], 
            "M1": [
                4616
            ], 
            "irrelevant_Adj": [
                0
            ], 
            "M2": [
                3661
            ], 
            "BM1L": [
                527
            ], 
            "WBO": [
                4084, 
                5574, 
                8049, 
                6343, 
                8162, 
                4612, 
                8997, 
                921, 
                6140, 
                7930, 
                599, 
                8806, 
                2692, 
                8057, 
                1323
            ], 
            "WBL": [
                8040
            ], 
            "irrelevant_Noun": [
                0
            ], 
            "M1_ADJ": [
                1
            ]
        }, 
        "sentence": "this work perfectly and set my mind at ease with all the light fingered individual out there ready to lift your battery , propane tank and whatever else they can get their hand on ."
    }
}