{
    "b67cbc58536c48779adfd377df7cc9a1": {
        "(12, 11)": {
            "AM2L": [
                3502
            ], 
            "BM1F": [
                1480
            ], 
            "M1": [
                2750
            ], 
            "irrelevant_Adj": [
                0
            ], 
            "M2": [
                4616
            ], 
            "BM1L": [
                8034
            ], 
            "WBNULL": [
                1
            ], 
            "irrelevant_Noun": [
                0
            ], 
            "AM2F": [
                8162
            ], 
            "M1_ADJ": [
                0
            ]
        }, 
        "location1": [
            12
        ], 
        "location2": [
            11
        ], 
        "sentence": "i had a cracked air intake hose that caused the `` check engine `` light to go on , but a couple day after i fixed it ."
    }, 
    "694e85fc78a8100c307341748de5ffc4": {
        "(50, 26)": {
            "AM2F": [
                8320
            ], 
            "WBF": [
                8819
            ], 
            "BM1F": [
                1358
            ], 
            "M1": [
                2750
            ], 
            "irrelevant_Adj": [
                0
            ], 
            "M2": [
                4616
            ], 
            "BM1L": [
                310
            ], 
            "WBO": [
                7913, 
                310, 
                4737, 
                5458, 
                5979, 
                8053, 
                688, 
                8034, 
                5512, 
                1286, 
                3962, 
                1899, 
                6365, 
                3252, 
                641, 
                2528, 
                310, 
                7308, 
                1358, 
                8501
            ], 
            "WBL": [
                310
            ], 
            "irrelevant_Noun": [
                0
            ], 
            "M1_ADJ": [
                0
            ]
        }, 
        "location1": [
            50
        ], 
        "location2": [
            26
        ], 
        "sentence": "considering the hot temperature outside , the fact that it 's 12vdc and we need a long cable , and that we 're trying to start a car engine ( which takes a lot of power ) these are the only cable i could reccomend for anyone driving a small car up to a light truck ."
    }, 
    "ae77aef2c73b86795c13676dbe8761cd": {
        "location1": [
            6
        ], 
        "location2": [
            15
        ], 
        "(6, 15)": {
            "AM2L": [
                1026
            ], 
            "AM2F": [
                8188
            ], 
            "WBF": [
                2583
            ], 
            "BM1F": [
                6977
            ], 
            "M1": [
                4616
            ], 
            "irrelevant_Adj": [
                0
            ], 
            "M2": [
                2750
            ], 
            "BM1L": [
                5781
            ], 
            "WBO": [
                1286, 
                4971, 
                599, 
                7328, 
                3338
            ], 
            "WBL": [
                591
            ], 
            "irrelevant_Noun": [
                0
            ], 
            "M1_ADJ": [
                1
            ]
        }, 
        "sentence": "that said i 've personally seen light duty cable melt and smoke from starting an engine too big for them ."
    }, 
    "5a964db9687e7c85b0b34b6401d71217": {
        "(23, 22)": {
            "AM2L": [
                1663
            ], 
            "BM1F": [
                1480
            ], 
            "M1": [
                2750
            ], 
            "irrelevant_Adj": [
                0
            ], 
            "M2": [
                4616
            ], 
            "BM1L": [
                8034
            ], 
            "WBNULL": [
                1
            ], 
            "irrelevant_Noun": [
                0
            ], 
            "AM2F": [
                3705
            ], 
            "M1_ADJ": [
                0
            ]
        }, 
        "location1": [
            23
        ], 
        "location2": [
            22
        ], 
        "sentence": "it might be able to predict the future and track flying monkey but it can tell you very quickly why the `` check engine `` light has come on ."
    }
}