{
    "6078b83dd0180a3bb3770394bcde5387": {
        "(8, 14)": {
            "AM2L": [
                8162
            ], 
            "AM2F": [
                6976
            ], 
            "WBF": [
                2529
            ], 
            "BM1F": [
                310
            ], 
            "M1": [
                4616
            ], 
            "irrelevant_Adj": [
                0
            ], 
            "M2": [
                8736
            ], 
            "BM1L": [
                4043
            ], 
            "WBO": [
                5543, 
                5076
            ], 
            "WBL": [
                8034
            ], 
            "irrelevant_Noun": [
                0
            ], 
            "M1_ADJ": [
                1
            ]
        }, 
        "location1": [
            8
        ], 
        "location2": [
            14
        ], 
        "sentence": "i really appreciate the rain x in a light drizzle or mist , when the water seems to disperse by itself with minimal windshield wiper use ."
    }
}