{
    "263a0ab7d43f3ec4610334dd08f2c616": {
        "(22, 5)": {
            "AM2L": [
                3903
            ], 
            "AM2F": [
                2583
            ], 
            "WBF": [
                1262
            ], 
            "BM1F": [
                8162
            ], 
            "M1": [
                5363
            ], 
            "irrelevant_Adj": [
                0
            ], 
            "M2": [
                4616
            ], 
            "BM1L": [
                6954
            ], 
            "WBO": [
                3962, 
                4461, 
                4283, 
                2481, 
                310, 
                7587, 
                945, 
                5232, 
                5566, 
                5410, 
                8907, 
                4376, 
                3120
            ], 
            "WBL": [
                5232
            ], 
            "irrelevant_Noun": [
                0
            ], 
            "M1_ADJ": [
                0
            ]
        }, 
        "location1": [
            22
        ], 
        "location2": [
            5
        ], 
        "sentence": "build quality is second to none , but i knocked it down a star because my other nozzle work just fine with my light duty hose ."
    }
}