{
    "6078b83dd0180a3bb3770394bcde5387": {
        "(8, 24)": {
            "WBF": [
                2529
            ], 
            "BM1F": [
                310
            ], 
            "M1": [
                4616
            ], 
            "irrelevant_Adj": [
                0
            ], 
            "M2": [
                8531
            ], 
            "BM1L": [
                4043
            ], 
            "WBO": [
                5543, 
                5076, 
                8812, 
                8034, 
                8736, 
                6976, 
                8162, 
                2404, 
                1275, 
                4290, 
                8887, 
                5050
            ], 
            "WBL": [
                8872
            ], 
            "irrelevant_Noun": [
                0
            ], 
            "M1_ADJ": [
                1
            ]
        }, 
        "location1": [
            8
        ], 
        "location2": [
            24
        ], 
        "sentence": "i really appreciate the rain x in a light drizzle or mist , when the water seems to disperse by itself with minimal windshield wiper use ."
    }, 
    "ab6cf00dbbff825caec26194960e0182": {
        "(4, 2)": {
            "AM2L": [
                5901
            ], 
            "WBFL": [
                310
            ], 
            "BM1F": [
                8376
            ], 
            "M1": [
                8531
            ], 
            "irrelevant_Adj": [
                0
            ], 
            "M2": [
                4616
            ], 
            "BM1L": [
                3962
            ], 
            "AM2F": [
                2583
            ], 
            "irrelevant_Noun": [
                0
            ], 
            "M1_ADJ": [
                0
            ]
        }, 
        "location1": [
            4
        ], 
        "location2": [
            2
        ], 
        "sentence": "i typically use a light duty pocket hose to wash my car since it 's easier to tote around , but it does n't flow nearly enough pressure for this nozzle ."
    }
}