{
    "ef73052d9a44ba729ec90e341361815f": {
        "(12, 8)": {
            "AM2L": [
                4084
            ], 
            "AM2F": [
                3125
            ], 
            "WBF": [
                8887
            ], 
            "BM1F": [
                760
            ], 
            "M1": [
                2613
            ], 
            "irrelevant_Adj": [
                0
            ], 
            "M2": [
                4616
            ], 
            "BM1L": [
                5046
            ], 
            "WBO": [
                527
            ], 
            "WBL": [
                8034
            ], 
            "irrelevant_Noun": [
                0
            ], 
            "M1_ADJ": [
                0
            ]
        }, 
        "location1": [
            12
        ], 
        "location2": [
            8
        ], 
        "sentence": "this work perfectly and set my mind at ease with all the light fingered individual out there ready to lift your battery , propane tank and whatever else they can get their hand on ."
    }
}