{
    "e84625e2e8af915f6913dcb3c8d3b3b1": {
        "(11, 20)": {
            "WBF": [
                3700
            ], 
            "BM1F": [
                8228
            ], 
            "M1": [
                4616
            ], 
            "irrelevant_Adj": [
                0
            ], 
            "M2": [
                1914
            ], 
            "BM1L": [
                8997
            ], 
            "WBO": [
                5543, 
                8991, 
                8320, 
                3700, 
                8991
            ], 
            "WBL": [
                8053
            ], 
            "irrelevant_Noun": [
                0
            ], 
            "M1_ADJ": [
                1
            ]
        }, 
        "location1": [
            11
        ], 
        "location2": [
            20
        ], 
        "sentence": "if you want to get the most out of your towing light harness or you truck harness you need these cover ."
    }
}