{
    "bcd8824643798118e337959dc34ed9c9": {
        "location1": [
            2
        ], 
        "location2": [
            11
        ], 
        "(2, 11)": {
            "WBF": [
                8781
            ], 
            "BM1F": [
                688
            ], 
            "M1": [
                4616
            ], 
            "irrelevant_Adj": [
                0
            ], 
            "M2": [
                1700
            ], 
            "BM1L": [
                8053
            ], 
            "WBO": [
                1690, 
                599, 
                2616, 
                7664, 
                4043
            ], 
            "WBL": [
                908
            ], 
            "irrelevant_Noun": [
                0
            ], 
            "M1_ADJ": [
                1
            ]
        }, 
        "sentence": "these are light weight , compact , and easily stored in the basement compartment"
    }
}