{
    "ae77aef2c73b86795c13676dbe8761cd": {
        "(6, 9)": {
            "AM2L": [
                7328
            ], 
            "AM2F": [
                599
            ], 
            "WBF": [
                2583
            ], 
            "BM1F": [
                6977
            ], 
            "M1": [
                4616
            ], 
            "irrelevant_Adj": [
                0
            ], 
            "M2": [
                4971
            ], 
            "BM1L": [
                5781
            ], 
            "WBO": [
                1286
            ], 
            "WBL": [
                1286
            ], 
            "irrelevant_Noun": [
                0
            ], 
            "M1_ADJ": [
                1
            ]
        }, 
        "location1": [
            6
        ], 
        "location2": [
            9
        ], 
        "sentence": "that said i 've personally seen light duty cable melt and smoke from starting an engine too big for them ."
    }
}