{
    "ac1cdf3f2bd4d6906d5ddb23c37bfc27": {
        "(42, 37)": {
            "WBF": [
                1323
            ], 
            "BM1F": [
                599
            ], 
            "M1": [
                733
            ], 
            "irrelevant_Adj": [
                0
            ], 
            "M2": [
                4648
            ], 
            "BM1L": [
                3133
            ], 
            "WBO": [
                5521
            ], 
            "WBL": [
                310
            ], 
            "irrelevant_Noun": [
                0
            ], 
            "M1_ADJ": [
                0
            ]
        }, 
        "location1": [
            42
        ], 
        "location2": [
            37
        ], 
        "sentence": "however that stuff will smell bad when it heat up ( whereas butyl does n't have such odor ) and it does n't have an aluminum layer so it 's more dangerous if it were to catch fire , and asphalt can ooze into a liquid ."
    }
}