{
    "469b32a0af4ec5615caf50c6a6221777": {
        "(19, 7)": {
            "AM2L": [
                3081
            ], 
            "AM2F": [
                8775
            ], 
            "WBF": [
                5458
            ], 
            "BM1F": [
                8034
            ], 
            "M1": [
                3339
            ], 
            "irrelevant_Adj": [
                0
            ], 
            "M2": [
                4648
            ], 
            "BM1L": [
                5495
            ], 
            "WBO": [
                310, 
                3903, 
                2730, 
                7528, 
                8162, 
                8015, 
                4289, 
                319
            ], 
            "WBL": [
                3665
            ], 
            "irrelevant_Noun": [
                0
            ], 
            "M1_ADJ": [
                0
            ]
        }, 
        "location1": [
            19
        ], 
        "location2": [
            7
        ], 
        "sentence": "next , i placed the nozzle on the front of a hose end sprayer to test its ability to handle liquid weeder , fertilizer or detergent ."
    }
}