{
    "5d6da5beec63c1bbc0583decb96bf383": {
        "(19, 21)": {
            "AM2L": [
                310
            ], 
            "WBFL": [
                4150
            ], 
            "BM1F": [
                7405
            ], 
            "M1": [
                4648
            ], 
            "irrelevant_Adj": [
                0
            ], 
            "M2": [
                2259
            ], 
            "BM1L": [
                8527
            ], 
            "AM2F": [
                599
            ], 
            "irrelevant_Noun": [
                0
            ], 
            "M1_ADJ": [
                1
            ]
        }, 
        "location1": [
            19
        ], 
        "location2": [
            21
        ], 
        "sentence": "he just dust it every morning before he back out of his garage , and if needed he us some liquid instant detailer and a microfiber cloth after dusting if he feel like it ."
    }
}