{
    "469b32a0af4ec5615caf50c6a6221777": {
        "(19, 20)": {
            "AM2L": [
                5543
            ], 
            "BM1F": [
                3665
            ], 
            "M1": [
                4648
            ], 
            "irrelevant_Adj": [
                0
            ], 
            "M2": [
                8775
            ], 
            "BM1L": [
                8162
            ], 
            "WBNULL": [
                1
            ], 
            "irrelevant_Noun": [
                0
            ], 
            "AM2F": [
                3081
            ], 
            "M1_ADJ": [
                1
            ]
        }, 
        "location1": [
            19
        ], 
        "location2": [
            20
        ], 
        "sentence": "next , i placed the nozzle on the front of a hose end sprayer to test its ability to handle liquid weeder , fertilizer or detergent ."
    }
}