{
    "bf8cbf1ce349545bce65bbcd995e43cd": {
        "(13, 15)": {
            "AM2L": [
                1339
            ], 
            "WBFL": [
                8302
            ], 
            "BM1F": [
                310
            ], 
            "M1": [
                4671
            ], 
            "irrelevant_Adj": [
                1
            ], 
            "M2": [
                5862
            ], 
            "BM1L": [
                8531
            ], 
            "AM2F": [
                4414
            ], 
            "irrelevant_Noun": [
                0
            ], 
            "M1_ADJ": [
                1
            ]
        }, 
        "location1": [
            13
        ], 
        "location2": [
            15
        ], 
        "sentence": "good news1 ) fair price2 ) fit curt 2 `` trailer hitchbad news1 ) key use a little tricky2 ) plastic keyhole cap cover does n't feel real snugpractice locking/unlocking with the key about 20 time before you start using this so you establish some ' muscle memory ' on how to turn the key and remove the locking hardware - it 's not like your house key ."
    }
}