{
    "523bf97e0301092154255c0f95414776": {
        "(13, 15)": {
            "AM2L": [
                7433
            ], 
            "WBFL": [
                5148
            ], 
            "BM1F": [
                310
            ], 
            "M1": [
                4671
            ], 
            "irrelevant_Adj": [
                1
            ], 
            "M2": [
                5979
            ], 
            "BM1L": [
                4829
            ], 
            "AM2F": [
                599
            ], 
            "irrelevant_Noun": [
                0
            ], 
            "M1_ADJ": [
                1
            ]
        }, 
        "location1": [
            13
        ], 
        "location2": [
            15
        ], 
        "sentence": "this filter combined with an airaid mrt helped my 2004 tahoe make a little more power and sound like it has a v8 under the hood !"
    }, 
    "0c4918492cc1c417924af3afcb6fb372": {
        "(5, 7)": {
            "AM2L": [
                8034
            ], 
            "WBFL": [
                5148
            ], 
            "BM1F": [
                310
            ], 
            "M1": [
                4671
            ], 
            "irrelevant_Adj": [
                1
            ], 
            "M2": [
                5979
            ], 
            "BM1L": [
                3252
            ], 
            "AM2F": [
                5495
            ], 
            "irrelevant_Noun": [
                0
            ], 
            "M1_ADJ": [
                1
            ]
        }, 
        "location1": [
            5
        ], 
        "location2": [
            7
        ], 
        "sentence": "i had hoped for a little more power on the high pressure setting but cant really expect much i guess ."
    }
}