{
    "0f5eb41bd03e069de666792ab292c44f": {
        "location1": [
            35
        ], 
        "location2": [
            1
        ], 
        "(35, 1)": {
            "AM2L": [
                8028
            ], 
            "AM2F": [
                2580
            ], 
            "WBF": [
                3719
            ], 
            "BM1F": [
                3252
            ], 
            "M1": [
                641
            ], 
            "irrelevant_Adj": [
                1
            ], 
            "M2": [
                4671
            ], 
            "WBO": [
                5566, 
                4279, 
                4625, 
                6413, 
                3089, 
                527, 
                5595, 
                8034, 
                5846, 
                3962, 
                2, 
                6390, 
                3237, 
                8034, 
                7622, 
                3962, 
                2304, 
                4651, 
                326, 
                4283, 
                8909, 
                3564, 
                3252, 
                4940, 
                599, 
                720, 
                5458, 
                5407, 
                3962, 
                3717
            ], 
            "WBL": [
                3564
            ], 
            "irrelevant_Noun": [
                0
            ], 
            "M1_ADJ": [
                0
            ]
        }, 
        "sentence": "for anyone having other issue like red fiber all over the place , i 'd recommend following the step i did listed above , it worked great for me and as of now i have a great little duster that i paid less then 5 buck for ."
    }
}