{
    "0c4918492cc1c417924af3afcb6fb372": {
        "(5, 19)": {
            "WBF": [
                5148
            ], 
            "BM1F": [
                310
            ], 
            "M1": [
                4671
            ], 
            "irrelevant_Adj": [
                1
            ], 
            "M2": [
                3618
            ], 
            "BM1L": [
                3252
            ], 
            "WBO": [
                5979, 
                5495, 
                8034, 
                3808, 
                6038, 
                7044, 
                1262, 
                1337, 
                6354, 
                2911
            ], 
            "WBL": [
                3962
            ], 
            "irrelevant_Noun": [
                0
            ], 
            "M1_ADJ": [
                1
            ]
        }, 
        "location1": [
            5
        ], 
        "location2": [
            19
        ], 
        "sentence": "i had hoped for a little more power on the high pressure setting but cant really expect much i guess ."
    }
}