{
    "51fb3faf190639de944734dcb7c21a64": {
        "(19, 27)": {
            "AM2L": [
                3962
            ], 
            "AM2F": [
                7362
            ], 
            "WBF": [
                7895
            ], 
            "BM1F": [
                8080
            ], 
            "M1": [
                4671
            ], 
            "irrelevant_Adj": [
                1
            ], 
            "M2": [
                1425
            ], 
            "BM1L": [
                5458
            ], 
            "WBO": [
                8028, 
                3851, 
                4283, 
                8169
            ], 
            "WBL": [
                8034
            ], 
            "irrelevant_Noun": [
                0
            ], 
            "M1_ADJ": [
                1
            ]
        }, 
        "location1": [
            19
        ], 
        "location2": [
            27
        ], 
        "sentence": "however , i did break one recently when i moved my sofa - not the deflector itself but one of those little tab that hold it together in the center , so i 'm back to buy another ."
    }
}