{
    "4464db1947ca2d7c95949c42be06522d": {
        "(17, 5)": {
            "AM2L": [
                8162
            ], 
            "AM2F": [
                3790
            ], 
            "WBF": [
                7605
            ], 
            "BM1F": [
                1907
            ], 
            "M1": [
                6637
            ], 
            "irrelevant_Adj": [
                1
            ], 
            "M2": [
                4671
            ], 
            "BM1L": [
                310
            ], 
            "WBO": [
                8028, 
                8034, 
                7233, 
                1899, 
                929, 
                8948, 
                7362, 
                3962
            ], 
            "WBL": [
                310
            ], 
            "irrelevant_Noun": [
                0
            ], 
            "M1_ADJ": [
                0
            ]
        }, 
        "location1": [
            17
        ], 
        "location2": [
            5
        ], 
        "sentence": "i 've read a couple review stating that the sizing could be wrong , so i was a little hesitant to order , but the return policy is simple so i did , very happy with my order ."
    }
}