{
    "9258bfe2ac4ba83879c068d829d3aea5": {
        "location1": [
            2
        ], 
        "location2": [
            6
        ], 
        "(2, 6)": {
            "WBF": [
                3372
            ], 
            "BM1F": [
                5325
            ], 
            "M1": [
                4671
            ], 
            "irrelevant_Adj": [
                1
            ], 
            "M2": [
                6054
            ], 
            "BM1L": [
                310
            ], 
            "WBO": [
                3252
            ], 
            "WBL": [
                8034
            ], 
            "irrelevant_Noun": [
                0
            ], 
            "M1_ADJ": [
                1
            ]
        }, 
        "sentence": "a nice little funnel for the price ."
    }, 
    "614de89b3a6b642ff3bb0924c80a4126": {
        "location1": [
            5
        ], 
        "location2": [
            8
        ], 
        "(5, 8)": {
            "WBF": [
                5595
            ], 
            "BM1F": [
                8917
            ], 
            "M1": [
                4671
            ], 
            "irrelevant_Adj": [
                1
            ], 
            "M2": [
                6054
            ], 
            "BM1L": [
                8695
            ], 
            "WBO": [
                3651
            ], 
            "WBL": [
                3651
            ], 
            "irrelevant_Noun": [
                0
            ], 
            "M1_ADJ": [
                1
            ]
        }, 
        "sentence": "came in at wally world , little over half price ."
    }, 
    "28fd067761c7fda1660629a178a5ff0d": {
        "(22, 4)": {
            "AM2L": [
                7528
            ], 
            "AM2F": [
                8154
            ], 
            "WBF": [
                8991
            ], 
            "BM1F": [
                8034
            ], 
            "M1": [
                6054
            ], 
            "irrelevant_Adj": [
                1
            ], 
            "M2": [
                4671
            ], 
            "BM1L": [
                4981
            ], 
            "WBO": [
                3459, 
                5148, 
                8736, 
                8887, 
                8034, 
                1105, 
                1262, 
                5387, 
                8034, 
                3564, 
                6038, 
                3962, 
                3717, 
                2921
            ], 
            "WBL": [
                8034
            ], 
            "irrelevant_Noun": [
                0
            ], 
            "M1_ADJ": [
                0
            ]
        }, 
        "location1": [
            22
        ], 
        "location2": [
            4
        ], 
        "sentence": "( not to mention the price ) you get more water with the bon-aire , but not the great pressure i have experienced from the little tip-style sprayer ."
    }, 
    "6b4ca92211770e0f86d91df4ad7fcc56": {
        "location1": [
            22
        ], 
        "location2": [
            1
        ], 
        "(22, 1)": {
            "AM2L": [
                8024
            ], 
            "AM2F": [
                7311
            ], 
            "WBF": [
                8718
            ], 
            "BM1F": [
                8034
            ], 
            "M1": [
                6054
            ], 
            "irrelevant_Adj": [
                1
            ], 
            "M2": [
                4671
            ], 
            "WBO": [
                6667, 
                599, 
                4283, 
                8718, 
                2182, 
                5495, 
                8140, 
                3924, 
                4283, 
                8718, 
                5387, 
                720, 
                2572, 
                720, 
                3962, 
                4004, 
                599
            ], 
            "WBL": [
                310
            ], 
            "irrelevant_Noun": [
                0
            ], 
            "M1_ADJ": [
                0
            ]
        }, 
        "sentence": "the price was right and it was delivered on time , however , it was not as durable as i imagined and was a little smaller than it looked to be in the picture ."
    }
}