{
    "bf8cbf1ce349545bce65bbcd995e43cd": {
        "(13, 47)": {
            "AM2L": [
                6510
            ], 
            "AM2F": [
                599
            ], 
            "WBF": [
                8302
            ], 
            "BM1F": [
                310
            ], 
            "M1": [
                4671
            ], 
            "irrelevant_Adj": [
                1
            ], 
            "M2": [
                4409
            ], 
            "BM1L": [
                8531
            ], 
            "WBO": [
                5862, 
                4414, 
                1339, 
                1914, 
                2445, 
                5245, 
                3066, 
                6344, 
                7361, 
                4698, 
                8887, 
                8034, 
                4409, 
                325, 
                113, 
                8140, 
                959, 
                8991, 
                7598, 
                8542, 
                8073, 
                7362, 
                8991, 
                2830, 
                7405, 
                5212, 
                4978, 
                5495, 
                3920, 
                8162
            ], 
            "WBL": [
                8034
            ], 
            "irrelevant_Noun": [
                0
            ], 
            "M1_ADJ": [
                1
            ]
        }, 
        "sentence": "good news1 ) fair price2 ) fit curt 2 `` trailer hitchbad news1 ) key use a little tricky2 ) plastic keyhole cap cover does n't feel real snugpractice locking/unlocking with the key about 20 time before you start using this so you establish some ' muscle memory ' on how to turn the key and remove the locking hardware - it 's not like your house key .", 
        "location2": [
            10, 
            27, 
            47, 
            59
        ], 
        "(13, 27)": {
            "AM2L": [
                113
            ], 
            "AM2F": [
                325
            ], 
            "WBF": [
                8302
            ], 
            "BM1F": [
                310
            ], 
            "M1": [
                4671
            ], 
            "irrelevant_Adj": [
                1
            ], 
            "M2": [
                4409
            ], 
            "BM1L": [
                8531
            ], 
            "WBO": [
                5862, 
                4414, 
                1339, 
                1914, 
                2445, 
                5245, 
                3066, 
                6344, 
                7361, 
                4698
            ], 
            "WBL": [
                8034
            ], 
            "irrelevant_Noun": [
                0
            ], 
            "M1_ADJ": [
                1
            ]
        }, 
        "location1": [
            13
        ], 
        "(13, 59)": {
            "WBF": [
                8302
            ], 
            "BM1F": [
                310
            ], 
            "M1": [
                4671
            ], 
            "irrelevant_Adj": [
                1
            ], 
            "M2": [
                4409
            ], 
            "BM1L": [
                8531
            ], 
            "WBO": [
                5862, 
                4414, 
                1339, 
                1914, 
                2445, 
                5245, 
                3066, 
                6344, 
                7361, 
                4698, 
                8887, 
                8034, 
                4409, 
                325, 
                113, 
                8140, 
                959, 
                8991, 
                7598, 
                8542, 
                8073, 
                7362, 
                8991, 
                2830, 
                7405, 
                5212, 
                4978, 
                5495, 
                3920, 
                8162, 
                8351, 
                8034, 
                4409, 
                599, 
                6510, 
                8034, 
                4697, 
                3691, 
                4283, 
                8, 
                5387, 
                4625
            ], 
            "WBL": [
                3916
            ], 
            "irrelevant_Noun": [
                0
            ], 
            "M1_ADJ": [
                1
            ]
        }, 
        "(13, 10)": {
            "AM2L": [
                5862
            ], 
            "AM2F": [
                8302
            ], 
            "WBF": [
                8531
            ], 
            "BM1F": [
                5320
            ], 
            "M1": [
                4409
            ], 
            "irrelevant_Adj": [
                1
            ], 
            "M2": [
                4671
            ], 
            "BM1L": [
                3842
            ], 
            "WBO": [
                310
            ], 
            "WBL": [
                310
            ], 
            "irrelevant_Noun": [
                0
            ], 
            "M1_ADJ": [
                0
            ]
        }
    }
}