{
    "aec2d58c0b77e34cbddcbe6c7a412990": {
        "(8, 12)": {
            "AM2F": [
                2545
            ], 
            "WBF": [
                2421
            ], 
            "BM1F": [
                310
            ], 
            "M1": [
                4671
            ], 
            "irrelevant_Adj": [
                1
            ], 
            "M2": [
                503
            ], 
            "BM1L": [
                8887
            ], 
            "WBO": [
                8626
            ], 
            "WBL": [
                8044
            ], 
            "irrelevant_Noun": [
                0
            ], 
            "M1_ADJ": [
                1
            ]
        }, 
        "location1": [
            8
        ], 
        "location2": [
            12
        ], 
        "sentence": "i wash it on gentle cycle with a little distilled vinegar then air dry ."
    }
}