{
    "c52304bc671be70abe06daa3b56499c6": {
        "location1": [
            11
        ], 
        "location2": [
            17
        ], 
        "(11, 17)": {
            "WBF": [
                1044
            ], 
            "BM1F": [
                310
            ], 
            "M1": [
                4671
            ], 
            "irrelevant_Adj": [
                1
            ], 
            "M2": [
                574
            ], 
            "BM1L": [
                3252
            ], 
            "WBO": [
                4578, 
                8024
            ], 
            "WBL": [
                5495
            ], 
            "irrelevant_Noun": [
                0
            ], 
            "M1_ADJ": [
                1
            ]
        }, 
        "sentence": "we picked up four of these wheel chock locally for a little bit less than offered on amazon ."
    }
}