{
    "f666dd6ec76a9b3957bdc377a50b73f7": {
        "location1": [
            2
        ], 
        "location2": [
            11
        ], 
        "(2, 11)": {
            "AM2F": [
                5244
            ], 
            "WBF": [
                7668
            ], 
            "BM1F": [
                310
            ], 
            "M1": [
                4671
            ], 
            "irrelevant_Adj": [
                1
            ], 
            "M2": [
                4382
            ], 
            "BM1L": [
                5407
            ], 
            "WBO": [
                325, 
                6535, 
                5232, 
                5488, 
                3109
            ], 
            "WBL": [
                8034
            ], 
            "irrelevant_Noun": [
                0
            ], 
            "M1_ADJ": [
                1
            ]
        }, 
        "sentence": "now , a little story about replacing my old filter with the k & n ."
    }
}