{
    "d16f0cd923596df64944bcedfc3427cd": {
        "(27, 15)": {
            "AM2F": [
                2653
            ], 
            "WBF": [
                3338
            ], 
            "BM1F": [
                7230
            ], 
            "M1": [
                6289
            ], 
            "irrelevant_Adj": [
                1
            ], 
            "M2": [
                4671
            ], 
            "BM1L": [
                879
            ], 
            "WBO": [
                24, 
                273, 
                8162, 
                104, 
                29, 
                599, 
                1450, 
                8603
            ], 
            "WBL": [
                8887
            ], 
            "irrelevant_Noun": [
                0
            ], 
            "M1_ADJ": [
                0
            ]
        }, 
        "location1": [
            27
        ], 
        "location2": [
            15
        ], 
        "sentence": "if you need extra room for storing this , then is perfect for you ; ball size range from 1 7/8 to 2 1/2 `` and change very easily with little effort ."
    }
}