{
    "4464db1947ca2d7c95949c42be06522d": {
        "(17, 20)": {
            "AM2L": [
                8034
            ], 
            "AM2F": [
                1262
            ], 
            "WBF": [
                3790
            ], 
            "BM1F": [
                310
            ], 
            "M1": [
                4671
            ], 
            "irrelevant_Adj": [
                1
            ], 
            "M2": [
                5547
            ], 
            "BM1L": [
                8718
            ], 
            "WBO": [
                8162
            ], 
            "WBL": [
                8162
            ], 
            "irrelevant_Noun": [
                0
            ], 
            "M1_ADJ": [
                1
            ]
        }, 
        "location1": [
            17
        ], 
        "location2": [
            20, 
            34
        ], 
        "(17, 34)": {
            "WBF": [
                3790
            ], 
            "BM1F": [
                310
            ], 
            "M1": [
                4671
            ], 
            "irrelevant_Adj": [
                1
            ], 
            "M2": [
                5547
            ], 
            "BM1L": [
                8718
            ], 
            "WBO": [
                8162, 
                5547, 
                1262, 
                8034, 
                6621, 
                5912, 
                4268, 
                7208, 
                7362, 
                3962, 
                2304, 
                8603, 
                3686
            ], 
            "WBL": [
                5232
            ], 
            "irrelevant_Noun": [
                0
            ], 
            "M1_ADJ": [
                1
            ]
        }, 
        "sentence": "i 've read a couple review stating that the sizing could be wrong , so i was a little hesitant to order , but the return policy is simple so i did , very happy with my order ."
    }
}