{
    "d09357fce67d684bbb30a0bd6c475546": {
        "location1": [
            9
        ], 
        "location2": [
            1
        ], 
        "(9, 1)": {
            "AM2L": [
                1162
            ], 
            "AM2F": [
                24
            ], 
            "WBF": [
                3962
            ], 
            "BM1F": [
                3252
            ], 
            "M1": [
                8979
            ], 
            "irrelevant_Adj": [
                1
            ], 
            "M2": [
                4671
            ], 
            "WBO": [
                3717, 
                956, 
                310, 
                3008
            ], 
            "WBL": [
                8034
            ], 
            "irrelevant_Noun": [
                0
            ], 
            "M1_ADJ": [
                0
            ]
        }, 
        "sentence": "for year i have been a fan of the little 1 `` brass tip-style nozzle but all of a sudden ca n't find them anymore ."
    }
}