{
    "d751d41655ba300a7148f9b0c1ad7fbf": {
        "location1": [
            4
        ], 
        "location2": [
            12
        ], 
        "(4, 12)": {
            "WBF": [
                1473
            ], 
            "BM1F": [
                310
            ], 
            "M1": [
                4671
            ], 
            "irrelevant_Adj": [
                1
            ], 
            "M2": [
                4279
            ], 
            "BM1L": [
                3066
            ], 
            "WBO": [
                1262, 
                3962, 
                3717, 
                5245
            ], 
            "WBL": [
                636
            ], 
            "irrelevant_Noun": [
                0
            ], 
            "M1_ADJ": [
                1
            ]
        }, 
        "sentence": "the handle feel a little cheaper but i have n't had any issue ."
    }, 
    "0f5eb41bd03e069de666792ab292c44f": {
        "(35, 4)": {
            "AM2L": [
                8028
            ], 
            "AM2F": [
                2580
            ], 
            "WBF": [
                4625
            ], 
            "BM1F": [
                5566
            ], 
            "M1": [
                4279
            ], 
            "irrelevant_Adj": [
                1
            ], 
            "M2": [
                4671
            ], 
            "BM1L": [
                3719
            ], 
            "WBO": [
                6413, 
                3089, 
                527, 
                5595, 
                8034, 
                5846, 
                3962, 
                2, 
                6390, 
                3237, 
                8034, 
                7622, 
                3962, 
                2304, 
                4651, 
                326, 
                4283, 
                8909, 
                3564, 
                3252, 
                4940, 
                599, 
                720, 
                5458, 
                5407, 
                3962, 
                3717
            ], 
            "WBL": [
                3564
            ], 
            "irrelevant_Noun": [
                0
            ], 
            "M1_ADJ": [
                0
            ]
        }, 
        "location1": [
            35
        ], 
        "location2": [
            4
        ], 
        "sentence": "for anyone having other issue like red fiber all over the place , i 'd recommend following the step i did listed above , it worked great for me and as of now i have a great little duster that i paid less then 5 buck for ."
    }
}