{
    "8b4d4e373695936271cf52b60faa8b8e": {
        "(1, 8)": {
            "AM2L": [
                5191
            ], 
            "AM2F": [
                7433
            ], 
            "WBF": [
                1044
            ], 
            "BM1F": [
                8073
            ], 
            "M1": [
                4671
            ], 
            "irrelevant_Adj": [
                1
            ], 
            "M2": [
                8324
            ], 
            "WBO": [
                5458, 
                2590, 
                4800
            ], 
            "WBL": [
                8826
            ], 
            "irrelevant_Noun": [
                0
            ], 
            "M1_ADJ": [
                1
            ]
        }, 
        "location1": [
            1
        ], 
        "location2": [
            8
        ], 
        "sentence": "this little bit of dynamat made the whole trunk sound much more solid and reduced the flexing ."
    }
}