{
    "e7fa74defbdf5f17f54c605117785142": {
        "location1": [
            13
        ], 
        "location2": [
            4
        ], 
        "(13, 4)": {
            "AM2L": [
                8034
            ], 
            "AM2F": [
                5495
            ], 
            "WBF": [
                3252
            ], 
            "BM1F": [
                8907
            ], 
            "M1": [
                3120
            ], 
            "irrelevant_Adj": [
                1
            ], 
            "M2": [
                4671
            ], 
            "BM1L": [
                1286
            ], 
            "WBO": [
                5232, 
                8320, 
                1262, 
                8034, 
                6219
            ], 
            "WBL": [
                310
            ], 
            "irrelevant_Noun": [
                0
            ], 
            "M1_ADJ": [
                0
            ]
        }, 
        "sentence": "these long cable work fine for my truck , but the quality seems a little on the shabby side ."
    }
}