{
    "4c6acdef23675a5d898f42e51fcf2413": {
        "(16, 1)": {
            "AM2L": [
                5181
            ], 
            "AM2F": [
                6038
            ], 
            "WBF": [
                3962
            ], 
            "BM1F": [
                5503
            ], 
            "M1": [
                2087
            ], 
            "irrelevant_Adj": [
                1
            ], 
            "M2": [
                4671
            ], 
            "WBO": [
                3273, 
                8162, 
                6510, 
                4283, 
                8812, 
                6185, 
                5574, 
                599, 
                4283, 
                6976, 
                8162
            ], 
            "WBL": [
                8603
            ], 
            "irrelevant_Noun": [
                1
            ], 
            "M1_ADJ": [
                0
            ]
        }, 
        "location1": [
            16
        ], 
        "location2": [
            1
        ], 
        "sentence": "one day i forgot to remove it when pulling out and it seems to take very little pressure moving forward to flatten it like a pan cake so i though my 50,000 investment may be better served with a heavy duty galvanized wheel chock that wont give in and even let me move over it by mistake and let me know its holding solid if i ever did again roll forward over it ."
    }
}