{
    "dcb73d356972335389fc1b1fd59d23c0": {
        "(4, 40)": {
            "AM2L": [
                2057
            ], 
            "AM2F": [
                7272
            ], 
            "WBF": [
                2358
            ], 
            "BM1F": [
                310
            ], 
            "M1": [
                4671
            ], 
            "irrelevant_Adj": [
                1
            ], 
            "M2": [
                8723
            ], 
            "BM1L": [
                3461
            ], 
            "WBO": [
                7366, 
                4283, 
                4043, 
                310, 
                4671, 
                7370, 
                599, 
                8736, 
                599, 
                8942, 
                4283, 
                5574, 
                5543, 
                8108, 
                4283, 
                4043, 
                8034, 
                8723, 
                4376, 
                4829, 
                7824, 
                8991, 
                2436, 
                5245, 
                6209, 
                4283, 
                4043, 
                8034, 
                2546, 
                4283, 
                1668, 
                5574
            ], 
            "WBL": [
                8034
            ], 
            "irrelevant_Noun": [
                0
            ], 
            "M1_ADJ": [
                1
            ]
        }, 
        "sentence": "when it gets a little dirty , soak it in a little soap and water and wring it out or throw it in the washer ( just make sure you do n't put it in the dryer , it comes out of the washer slightly damp , just like it should be stored ) .", 
        "location2": [
            23, 
            40
        ], 
        "location1": [
            4, 
            10
        ], 
        "(10, 23)": {
            "AM2L": [
                4829
            ], 
            "AM2F": [
                4376
            ], 
            "WBF": [
                7370
            ], 
            "BM1F": [
                310
            ], 
            "M1": [
                4671
            ], 
            "irrelevant_Adj": [
                1
            ], 
            "M2": [
                8723
            ], 
            "BM1L": [
                4043
            ], 
            "WBO": [
                599, 
                8736, 
                599, 
                8942, 
                4283, 
                5574, 
                5543, 
                8108, 
                4283
            ], 
            "WBL": [
                8034
            ], 
            "irrelevant_Noun": [
                0
            ], 
            "M1_ADJ": [
                1
            ]
        }, 
        "(10, 40)": {
            "AM2L": [
                2057
            ], 
            "AM2F": [
                7272
            ], 
            "WBF": [
                7370
            ], 
            "BM1F": [
                310
            ], 
            "M1": [
                4671
            ], 
            "irrelevant_Adj": [
                1
            ], 
            "M2": [
                8723
            ], 
            "BM1L": [
                4043
            ], 
            "WBO": [
                599, 
                8736, 
                599, 
                8942, 
                4283, 
                5574, 
                5543, 
                8108, 
                4283, 
                4043, 
                8034, 
                8723, 
                4376, 
                4829, 
                7824, 
                8991, 
                2436, 
                5245, 
                6209, 
                4283, 
                4043, 
                8034, 
                2546, 
                4283, 
                1668, 
                5574
            ], 
            "WBL": [
                8034
            ], 
            "irrelevant_Noun": [
                0
            ], 
            "M1_ADJ": [
                1
            ]
        }, 
        "(4, 23)": {
            "AM2L": [
                4829
            ], 
            "AM2F": [
                4376
            ], 
            "WBF": [
                2358
            ], 
            "BM1F": [
                310
            ], 
            "M1": [
                4671
            ], 
            "irrelevant_Adj": [
                1
            ], 
            "M2": [
                8723
            ], 
            "BM1L": [
                3461
            ], 
            "WBO": [
                7366, 
                4283, 
                4043, 
                310, 
                4671, 
                7370, 
                599, 
                8736, 
                599, 
                8942, 
                4283, 
                5574, 
                5543, 
                8108, 
                4283
            ], 
            "WBL": [
                8034
            ], 
            "irrelevant_Noun": [
                0
            ], 
            "M1_ADJ": [
                1
            ]
        }
    }
}