{
    "0ee6d4a8aad5d7e704286d20f0377664": {
        "(14, 17)": {
            "AM2F": [
                5407
            ], 
            "WBF": [
                5595
            ], 
            "BM1F": [
                310
            ], 
            "M1": [
                4671
            ], 
            "irrelevant_Adj": [
                1
            ], 
            "M2": [
                8776
            ], 
            "BM1L": [
                3252
            ], 
            "WBO": [
                104
            ], 
            "WBL": [
                104
            ], 
            "irrelevant_Noun": [
                0
            ], 
            "M1_ADJ": [
                1
            ]
        }, 
        "location1": [
            14
        ], 
        "location2": [
            17
        ], 
        "sentence": "bought the filter , slapped it on , and it has been working flawlessly for a little over 2 week now ."
    }
}