{
    "dcb73d356972335389fc1b1fd59d23c0": {
        "(4, 11)": {
            "AM2L": [
                8736
            ], 
            "AM2F": [
                599
            ], 
            "WBF": [
                2358
            ], 
            "BM1F": [
                310
            ], 
            "M1": [
                4671
            ], 
            "irrelevant_Adj": [
                1
            ], 
            "M2": [
                7370
            ], 
            "BM1L": [
                3461
            ], 
            "WBO": [
                7366, 
                4283, 
                4043
            ], 
            "WBL": [
                4671
            ], 
            "irrelevant_Noun": [
                0
            ], 
            "M1_ADJ": [
                1
            ]
        }, 
        "location1": [
            4, 
            10
        ], 
        "location2": [
            11
        ], 
        "(10, 11)": {
            "AM2L": [
                8736
            ], 
            "BM1F": [
                310
            ], 
            "M1": [
                4671
            ], 
            "irrelevant_Adj": [
                1
            ], 
            "M2": [
                7370
            ], 
            "BM1L": [
                4043
            ], 
            "WBNULL": [
                1
            ], 
            "irrelevant_Noun": [
                0
            ], 
            "AM2F": [
                599
            ], 
            "M1_ADJ": [
                1
            ]
        }, 
        "sentence": "when it gets a little dirty , soak it in a little soap and water and wring it out or throw it in the washer ( just make sure you do n't put it in the dryer , it comes out of the washer slightly damp , just like it should be stored ) ."
    }
}