{
    "a445a224cab644aa0048870656ae4f37": {
        "(7, 14)": {
            "AM2L": [
                4152
            ], 
            "AM2F": [
                5410
            ], 
            "WBF": [
                2206
            ], 
            "BM1F": [
                8997
            ], 
            "M1": [
                4689
            ], 
            "irrelevant_Adj": [
                0
            ], 
            "M2": [
                1160
            ], 
            "BM1L": [
                8162
            ], 
            "WBO": [
                7663, 
                599, 
                1271
            ], 
            "WBL": [
                1933
            ], 
            "irrelevant_Noun": [
                0
            ], 
            "M1_ADJ": [
                1
            ]
        }, 
        "location1": [
            7
        ], 
        "location2": [
            14
        ], 
        "sentence": "you are better off going to your local department store and buying the craftsman brand nozzle instead ."
    }
}