{
    "a445a224cab644aa0048870656ae4f37": {
        "location1": [
            7
        ], 
        "location2": [
            9
        ], 
        "(7, 9)": {
            "AM2L": [
                1271
            ], 
            "WBFL": [
                2206
            ], 
            "BM1F": [
                8997
            ], 
            "M1": [
                4689
            ], 
            "irrelevant_Adj": [
                0
            ], 
            "M2": [
                7663
            ], 
            "BM1L": [
                8162
            ], 
            "AM2F": [
                599
            ], 
            "irrelevant_Noun": [
                0
            ], 
            "M1_ADJ": [
                1
            ]
        }, 
        "sentence": "you are better off going to your local department store and buying the craftsman brand nozzle instead ."
    }
}