{
    "5f6f0ae2c8e46202f1f4c8cf45c6bfe1": {
        "(16, 11)": {
            "AM2F": [
                3101
            ], 
            "WBF": [
                599
            ], 
            "BM1F": [
                3518
            ], 
            "M1": [
                4570
            ], 
            "irrelevant_Adj": [
                0
            ], 
            "M2": [
                4692
            ], 
            "BM1L": [
                310
            ], 
            "WBO": [
                8842
            ], 
            "WBL": [
                832
            ], 
            "irrelevant_Noun": [
                0
            ], 
            "M1_ADJ": [
                0
            ]
        }, 
        "location1": [
            16
        ], 
        "location2": [
            11
        ], 
        "sentence": "hard to complain , it 's a funnel , it 's a good length and width for awkwardly located fill ."
    }
}