{
    "5f6f0ae2c8e46202f1f4c8cf45c6bfe1": {
        "(16, 17)": {
            "BM1F": [
                832
            ], 
            "M1": [
                4692
            ], 
            "irrelevant_Adj": [
                0
            ], 
            "M2": [
                3101
            ], 
            "BM1L": [
                3252
            ], 
            "WBNULL": [
                1
            ], 
            "irrelevant_Noun": [
                0
            ], 
            "M1_ADJ": [
                1
            ]
        }, 
        "location1": [
            16
        ], 
        "location2": [
            17
        ], 
        "sentence": "hard to complain , it 's a funnel , it 's a good length and width for awkwardly located fill ."
    }
}