{
    "8e1e047e9d76b82ef8d9a355eb704ecb": {
        "(5, 6)": {
            "AM2L": [
                3962
            ], 
            "BM1F": [
                8073
            ], 
            "M1": [
                4694
            ], 
            "irrelevant_Adj": [
                0
            ], 
            "M2": [
                7042
            ], 
            "BM1L": [
                4625
            ], 
            "WBNULL": [
                1
            ], 
            "irrelevant_Noun": [
                0
            ], 
            "AM2F": [
                8501
            ], 
            "M1_ADJ": [
                1
            ]
        }, 
        "location1": [
            5
        ], 
        "location2": [
            6
        ], 
        "sentence": "so far i like this lock set up , i live in the four corner area of nm , i hope to not have the rusting problem some reviewer have had in the wet slushy climate ."
    }, 
    "9eba1f4bc3a9501a7903eb8d4710165b": {
        "location1": [
            25
        ], 
        "location2": [
            18
        ], 
        "(25, 18)": {
            "AM2F": [
                4043
            ], 
            "WBF": [
                599
            ], 
            "BM1F": [
                4213
            ], 
            "M1": [
                7042
            ], 
            "irrelevant_Adj": [
                0
            ], 
            "M2": [
                4694
            ], 
            "BM1L": [
                3252
            ], 
            "WBO": [
                8034, 
                8956, 
                1074
            ], 
            "WBL": [
                3112
            ], 
            "irrelevant_Noun": [
                0
            ], 
            "M1_ADJ": [
                0
            ]
        }, 
        "sentence": "spend the extra $ $ $ and get the x-block and / or the fastaway ( we now use both , fastway for intiial set and the x block for final lock in )"
    }
}