{
    "fa8f63f7ecc50796fd91a0680e3dae42": {
        "(19, 5)": {
            "AM2L": [
                599
            ], 
            "AM2F": [
                4954
            ], 
            "WBF": [
                599
            ], 
            "BM1F": [
                619
            ], 
            "M1": [
                3171
            ], 
            "irrelevant_Adj": [
                0
            ], 
            "M2": [
                4694
            ], 
            "BM1L": [
                4671
            ], 
            "WBO": [
                310, 
                2125, 
                4671, 
                6757, 
                1339, 
                8162, 
                4401, 
                8034, 
                3591, 
                5574
            ], 
            "WBL": [
                8034
            ], 
            "irrelevant_Noun": [
                0
            ], 
            "M1_ADJ": [
                0
            ]
        }, 
        "location1": [
            19
        ], 
        "location2": [
            5
        ], 
        "sentence": "there 's a little anodized flare , and a decent little rubber cap to keep the grit out of the lock mechanism and it 's stainless steel to boot !"
    }
}