{
    "fa8f63f7ecc50796fd91a0680e3dae42": {
        "location1": [
            19
        ], 
        "location2": [
            15
        ], 
        "(19, 15)": {
            "AM2L": [
                599
            ], 
            "AM2F": [
                4954
            ], 
            "WBF": [
                5574
            ], 
            "BM1F": [
                8034
            ], 
            "M1": [
                3591
            ], 
            "irrelevant_Adj": [
                0
            ], 
            "M2": [
                4694
            ], 
            "BM1L": [
                4401
            ], 
            "WBO": [
                5458
            ], 
            "WBL": [
                8034
            ], 
            "irrelevant_Noun": [
                0
            ], 
            "M1_ADJ": [
                0
            ]
        }, 
        "sentence": "there 's a little anodized flare , and a decent little rubber cap to keep the grit out of the lock mechanism and it 's stainless steel to boot !"
    }
}