{
    "1107fef5a389e7df2ef9a4b8a67eed70": {
        "(14, 41)": {
            "AM2L": [
                8789
            ], 
            "AM2F": [
                720
            ], 
            "WBF": [
                5766
            ], 
            "BM1F": [
                310
            ], 
            "M1": [
                4710
            ], 
            "irrelevant_Adj": [
                0
            ], 
            "M2": [
                8907
            ], 
            "BM1L": [
                3252
            ], 
            "WBO": [
                5458, 
                8140, 
                8739, 
                8997, 
                3419, 
                5543, 
                7409, 
                4625, 
                8028, 
                1262, 
                3252, 
                8724, 
                8997, 
                1358, 
                8812, 
                8991, 
                5512, 
                8351, 
                8034, 
                8736, 
                5495, 
                5767, 
                4283
            ], 
            "WBL": [
                5245
            ], 
            "irrelevant_Noun": [
                0
            ], 
            "M1_ADJ": [
                1
            ]
        }, 
        "location1": [
            14
        ], 
        "location2": [
            41
        ], 
        "sentence": "this type of nozzle may be good if you 're holding it for a long period of time watering your garden or something like that , but for washing your car when you only turn the water on periodically , it does n't work as well as a trigger type hose nozzle ."
    }, 
    "4e5967eeb6fb953023a9a6f14a36b90b": {
        "(7, 16)": {
            "AM2L": [
                8162
            ], 
            "AM2F": [
                5757
            ], 
            "WBF": [
                6637
            ], 
            "BM1F": [
                310
            ], 
            "M1": [
                4710
            ], 
            "irrelevant_Adj": [
                0
            ], 
            "M2": [
                8907
            ], 
            "BM1L": [
                2436
            ], 
            "WBO": [
                8162, 
                1857, 
                8034, 
                909, 
                8028
            ], 
            "WBL": [
                5828
            ], 
            "irrelevant_Noun": [
                0
            ], 
            "M1_ADJ": [
                1
            ]
        }, 
        "location1": [
            7
        ], 
        "location2": [
            16
        ], 
        "sentence": "i do n't need to do a long review to convey the basic that this pin work perfectly to secure your hitch to the receiver ."
    }, 
    "e7fa74defbdf5f17f54c605117785142": {
        "(1, 3)": {
            "AM2L": [
                3252
            ], 
            "WBFL": [
                1286
            ], 
            "BM1F": [
                8053
            ], 
            "M1": [
                4710
            ], 
            "irrelevant_Adj": [
                0
            ], 
            "M2": [
                8907
            ], 
            "AM2F": [
                3120
            ], 
            "irrelevant_Noun": [
                0
            ], 
            "M1_ADJ": [
                1
            ]
        }, 
        "location1": [
            1
        ], 
        "location2": [
            3
        ], 
        "sentence": "these long cable work fine for my truck , but the quality seems a little on the shabby side ."
    }, 
    "854287031049fe4c074ec70d65b9ce35": {
        "(3, 11)": {
            "AM2F": [
                5756
            ], 
            "WBF": [
                8140
            ], 
            "BM1F": [
                7225
            ], 
            "M1": [
                4710
            ], 
            "irrelevant_Adj": [
                0
            ], 
            "M2": [
                8907
            ], 
            "BM1L": [
                1358
            ], 
            "WBO": [
                3962, 
                4376, 
                5887, 
                4283
            ], 
            "WBL": [
                599
            ], 
            "irrelevant_Noun": [
                0
            ], 
            "M1_ADJ": [
                1
            ]
        }, 
        "location1": [
            3
        ], 
        "location2": [
            11
        ], 
        "sentence": "when car sits long time , i just plug it in and work perfect ."
    }
}