{
    "24ee517d81d088ce2dd7118757e608cf": {
        "(7, 14)": {
            "WBF": [
                6335
            ], 
            "BM1F": [
                8034
            ], 
            "M1": [
                4713
            ], 
            "irrelevant_Adj": [
                0
            ], 
            "M2": [
                8320
            ], 
            "BM1L": [
                3252
            ], 
            "WBO": [
                5285, 
                3252, 
                8165
            ], 
            "WBL": [
                599
            ], 
            "irrelevant_Noun": [
                0
            ], 
            "M1_ADJ": [
                1
            ]
        }, 
        "location1": [
            7
        ], 
        "location2": [
            14
        ], 
        "sentence": "priced right and just right for the longer reach needed for today car and truck ."
    }, 
    "b4f6cafed2a052143314ec193fd9ac24": {
        "(8, 1)": {
            "AM2L": [
                8046
            ], 
            "AM2F": [
                5407
            ], 
            "WBF": [
                1323
            ], 
            "BM1F": [
                8034
            ], 
            "M1": [
                8320
            ], 
            "irrelevant_Adj": [
                0
            ], 
            "M2": [
                4713
            ], 
            "WBO": [
                7609, 
                4043, 
                192
            ], 
            "WBL": [
                5103
            ], 
            "irrelevant_Noun": [
                0
            ], 
            "M1_ADJ": [
                0
            ]
        }, 
        "location1": [
            8
        ], 
        "location2": [
            1
        ], 
        "sentence": "the truck can stay in 4 cylinder mode longer now , theoretically boosting my mileage a bit ."
    }
}