{
    "e1c276fb7bbe4817bcb002f195c9fb2e": {
        "location1": [
            10
        ], 
        "location2": [
            11
        ], 
        "(10, 11)": {
            "AM2L": [
                753
            ], 
            "BM1F": [
                8034
            ], 
            "M1": [
                4710
            ], 
            "irrelevant_Adj": [
                0
            ], 
            "M2": [
                8003
            ], 
            "BM1L": [
                1262
            ], 
            "WBNULL": [
                1
            ], 
            "irrelevant_Noun": [
                0
            ], 
            "AM2F": [
                6854
            ], 
            "M1_ADJ": [
                1
            ]
        }, 
        "sentence": "the initial cost of these is pretty steep but the long term saving , assuming you keep car for a few year , is quickly recovered ."
    }
}