{
    "94aef053c12b9b9e13727aafd87c6d64": {
        "(3, 18)": {
            "AM2L": [
                2617
            ], 
            "AM2F": [
                5387
            ], 
            "WBF": [
                5260
            ], 
            "BM1F": [
                3372
            ], 
            "M1": [
                4710
            ], 
            "irrelevant_Adj": [
                0
            ], 
            "M2": [
                5525
            ], 
            "BM1L": [
                4671
            ], 
            "WBO": [
                5586, 
                4268, 
                3518, 
                3252, 
                8262, 
                3212, 
                5543, 
                5566, 
                7722, 
                7204, 
                8887
            ], 
            "WBL": [
                7308
            ], 
            "irrelevant_Noun": [
                0
            ], 
            "M1_ADJ": [
                1
            ]
        }, 
        "location1": [
            3
        ], 
        "location2": [
            18
        ], 
        "sentence": "great little funnel , long narrow output is good for transmission fluid or other stuff similar with a small opening not easy to get to ."
    }
}