{
    "0acb9cf2506937489429a8db0487b196": {
        "(2, 3)": {
            "AM2L": [
                8789
            ], 
            "BM1F": [
                310
            ], 
            "M1": [
                4710
            ], 
            "irrelevant_Adj": [
                0
            ], 
            "M2": [
                8750
            ], 
            "BM1L": [
                3508
            ], 
            "WBNULL": [
                1
            ], 
            "irrelevant_Noun": [
                1
            ], 
            "AM2F": [
                720
            ], 
            "M1_ADJ": [
                1
            ]
        }, 
        "location1": [
            2
        ], 
        "location2": [
            3
        ], 
        "sentence": "goes a long way as well ."
    }, 
    "29316822b01b45e42ec94fc4ac5fa28a": {
        "(13, 6)": {
            "AM2F": [
                6772
            ], 
            "WBF": [
                8162
            ], 
            "BM1F": [
                8034
            ], 
            "M1": [
                8750
            ], 
            "irrelevant_Adj": [
                0
            ], 
            "M2": [
                4710
            ], 
            "BM1L": [
                4268
            ], 
            "WBO": [
                3502, 
                5191, 
                1473
            ], 
            "WBL": [
                8034
            ], 
            "irrelevant_Noun": [
                1
            ], 
            "M1_ADJ": [
                0
            ]
        }, 
        "location1": [
            13
        ], 
        "location2": [
            6
        ], 
        "sentence": "getting the bulk pack is the way to go - much cheaper in the long run ."
    }, 
    "9b4d51f494b94f903307891d63c5302a": {
        "(1, 10)": {
            "AM2L": [
                8049
            ], 
            "AM2F": [
                850
            ], 
            "WBF": [
                7242
            ], 
            "BM1F": [
                8034
            ], 
            "M1": [
                4710
            ], 
            "irrelevant_Adj": [
                0
            ], 
            "M2": [
                8750
            ], 
            "WBO": [
                8153, 
                5458, 
                8073, 
                3372, 
                6335
            ], 
            "WBL": [
                8034
            ], 
            "irrelevant_Noun": [
                1
            ], 
            "M1_ADJ": [
                1
            ]
        }, 
        "location1": [
            1
        ], 
        "location2": [
            10
        ], 
        "sentence": "the long skinny tip of this funnel reach all the way back there and fit well , preventing a real mess ."
    }
}