{
    "2f1c153afc9490c49135269df645e87c": {
        "(13, 6)": {
            "AM2L": [
                8991
            ], 
            "AM2F": [
                2418
            ], 
            "WBF": [
                3252
            ], 
            "BM1F": [
                4043
            ], 
            "M1": [
                5547
            ], 
            "irrelevant_Adj": [
                0
            ], 
            "M2": [
                4710
            ], 
            "BM1L": [
                8047
            ], 
            "WBO": [
                2094, 
                2018, 
                8162
            ], 
            "WBL": [
                385
            ], 
            "irrelevant_Noun": [
                0
            ], 
            "M1_ADJ": [
                0
            ]
        }, 
        "location1": [
            13
        ], 
        "location2": [
            6
        ], 
        "sentence": "now , according to electrical theory in order for dc current to flow across long distance , you need thicker cable ."
    }
}