{
    "615b966b79fa371d580395b63894e905": {
        "location1": [
            15
        ], 
        "location2": [
            6
        ], 
        "(15, 6)": {
            "AM2F": [
                4286
            ], 
            "WBF": [
                760
            ], 
            "BM1F": [
                8073
            ], 
            "M1": [
                2948
            ], 
            "irrelevant_Adj": [
                0
            ], 
            "M2": [
                4710
            ], 
            "BM1L": [
                8542
            ], 
            "WBO": [
                4553, 
                161, 
                8140, 
                310, 
                5140
            ], 
            "WBL": [
                8266
            ], 
            "irrelevant_Noun": [
                0
            ], 
            "M1_ADJ": [
                0
            ]
        }, 
        "sentence": "instead i have been using this extender at least 3 time a month to transport long item ."
    }
}