{
    "e8e070a58b9f557349427b6fe44b9bdc": {
        "(9, 21)": {
            "WBF": [
                7362
            ], 
            "BM1F": [
                688
            ], 
            "M1": [
                4710
            ], 
            "irrelevant_Adj": [
                0
            ], 
            "M2": [
                6829
            ], 
            "BM1L": [
                1286
            ], 
            "WBO": [
                8028, 
                8057, 
                1323, 
                2616, 
                6335, 
                8034, 
                921, 
                5458
            ], 
            "WBL": [
                3518
            ], 
            "irrelevant_Noun": [
                0
            ], 
            "M1_ADJ": [
                1
            ]
        }, 
        "location1": [
            9
        ], 
        "location2": [
            21
        ], 
        "sentence": "it 's double good if those jumper cable are long so that they can easily reach the battery of a good samaritan ."
    }
}