{
    "b1ca28e7aa8cb3bfdf6d6a7704db0c0e": {
        "(9, 5)": {
            "AM2L": [
                1663
            ], 
            "AM2F": [
                599
            ], 
            "WBF": [
                8747
            ], 
            "BM1F": [
                6150
            ], 
            "M1": [
                1160
            ], 
            "irrelevant_Adj": [
                0
            ], 
            "M2": [
                4710
            ], 
            "BM1L": [
                8034
            ], 
            "WBO": [
                8162
            ], 
            "WBL": [
                4509
            ], 
            "irrelevant_Noun": [
                0
            ], 
            "M1_ADJ": [
                0
            ]
        }, 
        "location1": [
            9
        ], 
        "location2": [
            5
        ], 
        "sentence": "i also find the protect-all brand wax to last long and come off cleaner after applying wax leaving a cleaner shine ."
    }
}