{
    "1107fef5a389e7df2ef9a4b8a67eed70": {
        "location1": [
            14
        ], 
        "location2": [
            43
        ], 
        "(14, 43)": {
            "AM2L": [
                310
            ], 
            "AM2F": [
                720
            ], 
            "WBF": [
                5766
            ], 
            "BM1F": [
                310
            ], 
            "M1": [
                4710
            ], 
            "irrelevant_Adj": [
                0
            ], 
            "M2": [
                8789
            ], 
            "BM1L": [
                3252
            ], 
            "WBO": [
                5458, 
                8140, 
                8739, 
                8997, 
                3419, 
                5543, 
                7409, 
                4625, 
                8028, 
                1262, 
                3252, 
                8724, 
                8997, 
                1358, 
                8812, 
                8991, 
                5512, 
                8351, 
                8034, 
                8736, 
                5495, 
                5767, 
                4283, 
                2445, 
                5245
            ], 
            "WBL": [
                720
            ], 
            "irrelevant_Noun": [
                0
            ], 
            "M1_ADJ": [
                1
            ]
        }, 
        "sentence": "this type of nozzle may be good if you 're holding it for a long period of time watering your garden or something like that , but for washing your car when you only turn the water on periodically , it does n't work as well as a trigger type hose nozzle ."
    }, 
    "4921ff5f10dfc2036a764b3850aa6495": {
        "location1": [
            3
        ], 
        "location2": [
            6
        ], 
        "(3, 6)": {
            "WBF": [
                599
            ], 
            "BM1F": [
                5877
            ], 
            "M1": [
                4710
            ], 
            "irrelevant_Adj": [
                0
            ], 
            "M2": [
                8789
            ], 
            "BM1L": [
                8718
            ], 
            "WBO": [
                1232
            ], 
            "WBL": [
                1232
            ], 
            "irrelevant_Noun": [
                0
            ], 
            "M1_ADJ": [
                1
            ]
        }, 
        "sentence": "it was plenty long and built well ."
    }, 
    "0acb9cf2506937489429a8db0487b196": {
        "(2, 5)": {
            "WBF": [
                8750
            ], 
            "BM1F": [
                310
            ], 
            "M1": [
                4710
            ], 
            "irrelevant_Adj": [
                0
            ], 
            "M2": [
                8789
            ], 
            "BM1L": [
                3508
            ], 
            "WBO": [
                720
            ], 
            "WBL": [
                720
            ], 
            "irrelevant_Noun": [
                0
            ], 
            "M1_ADJ": [
                1
            ]
        }, 
        "location1": [
            2
        ], 
        "location2": [
            5
        ], 
        "sentence": "goes a long way as well ."
    }, 
    "9b4d51f494b94f903307891d63c5302a": {
        "location1": [
            1
        ], 
        "location2": [
            15
        ], 
        "(1, 15)": {
            "AM2L": [
                310
            ], 
            "AM2F": [
                6047
            ], 
            "WBF": [
                7242
            ], 
            "BM1F": [
                8034
            ], 
            "M1": [
                4710
            ], 
            "irrelevant_Adj": [
                0
            ], 
            "M2": [
                8789
            ], 
            "WBO": [
                8153, 
                5458, 
                8073, 
                3372, 
                6335, 
                527, 
                8034, 
                8750, 
                850, 
                8049
            ], 
            "WBL": [
                3149
            ], 
            "irrelevant_Noun": [
                0
            ], 
            "M1_ADJ": [
                1
            ]
        }, 
        "sentence": "the long skinny tip of this funnel reach all the way back there and fit well , preventing a real mess ."
    }, 
    "37671d650ae978e4a5801c76fe275b35": {
        "(5, 14)": {
            "AM2L": [
                7362
            ], 
            "AM2F": [
                4800
            ], 
            "WBF": [
                4283
            ], 
            "BM1F": [
                3920
            ], 
            "M1": [
                4710
            ], 
            "irrelevant_Adj": [
                0
            ], 
            "M2": [
                8789
            ], 
            "BM1L": [
                7979
            ], 
            "WBO": [
                8851, 
                4509, 
                1262, 
                4283, 
                4717
            ], 
            "WBL": [
                3066
            ], 
            "irrelevant_Noun": [
                0
            ], 
            "M1_ADJ": [
                1
            ]
        }, 
        "location1": [
            5
        ], 
        "location2": [
            14
        ], 
        "sentence": "i ca n't tell how long it will last but it look and feel well made so i give it 4 star ."
    }
}