{
    "854287031049fe4c074ec70d65b9ce35": {
        "(3, 7)": {
            "AM2L": [
                4043
            ], 
            "AM2F": [
                4283
            ], 
            "WBF": [
                8140
            ], 
            "BM1F": [
                7225
            ], 
            "M1": [
                4710
            ], 
            "irrelevant_Adj": [
                0
            ], 
            "M2": [
                5887
            ], 
            "BM1L": [
                1358
            ], 
            "WBO": [
                3962
            ], 
            "WBL": [
                4376
            ], 
            "irrelevant_Noun": [
                0
            ], 
            "M1_ADJ": [
                1
            ]
        }, 
        "location1": [
            3
        ], 
        "location2": [
            7
        ], 
        "sentence": "when car sits long time , i just plug it in and work perfect ."
    }
}