{
    "4e5967eeb6fb953023a9a6f14a36b90b": {
        "location1": [
            7
        ], 
        "location2": [
            21
        ], 
        "(7, 21)": {
            "AM2L": [
                8034
            ], 
            "AM2F": [
                8162
            ], 
            "WBF": [
                6637
            ], 
            "BM1F": [
                310
            ], 
            "M1": [
                4710
            ], 
            "irrelevant_Adj": [
                0
            ], 
            "M2": [
                3841
            ], 
            "BM1L": [
                2436
            ], 
            "WBO": [
                8162, 
                1857, 
                8034, 
                909, 
                8028, 
                8073, 
                5828, 
                8907, 
                5757, 
                8162
            ], 
            "WBL": [
                8997
            ], 
            "irrelevant_Noun": [
                0
            ], 
            "M1_ADJ": [
                1
            ]
        }, 
        "sentence": "i do n't need to do a long review to convey the basic that this pin work perfectly to secure your hitch to the receiver ."
    }
}