{
    "77b17245e1b25fea6ac1156b3adcc212": {
        "location1": [
            23
        ], 
        "location2": [
            26
        ], 
        "(23, 26)": {
            "AM2L": [
                310
            ], 
            "AM2F": [
                1275
            ], 
            "WBF": [
                8140
            ], 
            "BM1F": [
                310
            ], 
            "M1": [
                4710
            ], 
            "irrelevant_Adj": [
                0
            ], 
            "M2": [
                7776
            ], 
            "BM1L": [
                3252
            ], 
            "WBO": [
                310
            ], 
            "WBL": [
                310
            ], 
            "irrelevant_Noun": [
                0
            ], 
            "M1_ADJ": [
                1
            ]
        }, 
        "sentence": "i have two vent directly over my living room sofa and although i have lived with them blowing directly on me for a long time , a suggestion by a friend , had me search out diffuser ."
    }
}