{
    "be420e6228f575768e52a91b44aa80cc": {
        "location1": [
            8
        ], 
        "location2": [
            17
        ], 
        "(8, 17)": {
            "AM2L": [
                3650
            ], 
            "AM2F": [
                8
            ], 
            "WBF": [
                8140
            ], 
            "BM1F": [
                310
            ], 
            "M1": [
                4710
            ], 
            "irrelevant_Adj": [
                0
            ], 
            "M2": [
                2447
            ], 
            "BM1L": [
                7910
            ], 
            "WBO": [
                8162, 
                8719, 
                8034, 
                7370, 
                5574
            ], 
            "WBL": [
                5232
            ], 
            "irrelevant_Noun": [
                0
            ], 
            "M1_ADJ": [
                1
            ]
        }, 
        "sentence": "with my old nozzle , it would take a long time to wash the soap out of my dog 's hair ."
    }
}