{
    "4e5967eeb6fb953023a9a6f14a36b90b": {
        "(7, 8)": {
            "AM2L": [
                1857
            ], 
            "BM1F": [
                310
            ], 
            "M1": [
                4710
            ], 
            "irrelevant_Adj": [
                0
            ], 
            "M2": [
                6637
            ], 
            "BM1L": [
                2436
            ], 
            "WBNULL": [
                1
            ], 
            "irrelevant_Noun": [
                0
            ], 
            "AM2F": [
                8162
            ], 
            "M1_ADJ": [
                1
            ]
        }, 
        "location1": [
            7
        ], 
        "location2": [
            8
        ], 
        "sentence": "i do n't need to do a long review to convey the basic that this pin work perfectly to secure your hitch to the receiver ."
    }
}