{
    "1107fef5a389e7df2ef9a4b8a67eed70": {
        "(14, 20)": {
            "AM2L": [
                7409
            ], 
            "AM2F": [
                5543
            ], 
            "WBF": [
                5766
            ], 
            "BM1F": [
                310
            ], 
            "M1": [
                4710
            ], 
            "irrelevant_Adj": [
                0
            ], 
            "M2": [
                3419
            ], 
            "BM1L": [
                3252
            ], 
            "WBO": [
                5458, 
                8140
            ], 
            "WBL": [
                8997
            ], 
            "irrelevant_Noun": [
                0
            ], 
            "M1_ADJ": [
                1
            ]
        }, 
        "location1": [
            14
        ], 
        "location2": [
            20
        ], 
        "sentence": "this type of nozzle may be good if you 're holding it for a long period of time watering your garden or something like that , but for washing your car when you only turn the water on periodically , it does n't work as well as a trigger type hose nozzle ."
    }
}