{
    "c68138bc9dc1c6291832914c16b03ee4": {
        "(12, 15)": {
            "AM2L": [
                8034
            ], 
            "AM2F": [
                5458
            ], 
            "WBF": [
                8028
            ], 
            "BM1F": [
                7362
            ], 
            "M1": [
                4710
            ], 
            "irrelevant_Adj": [
                0
            ], 
            "M2": [
                1140
            ], 
            "BM1L": [
                4289
            ], 
            "WBO": [
                8034
            ], 
            "WBL": [
                8034
            ], 
            "irrelevant_Noun": [
                0
            ], 
            "M1_ADJ": [
                1
            ]
        }, 
        "location1": [
            12
        ], 
        "location2": [
            15
        ], 
        "sentence": "it is awkward for filling my car engine oil because its so long that the bottom of the funnel hit the valve head before anything else , so its unstable to just sit in there ."
    }
}