{
    "be420e6228f575768e52a91b44aa80cc": {
        "(8, 13)": {
            "AM2L": [
                5458
            ], 
            "AM2F": [
                5574
            ], 
            "WBF": [
                8140
            ], 
            "BM1F": [
                310
            ], 
            "M1": [
                4710
            ], 
            "irrelevant_Adj": [
                0
            ], 
            "M2": [
                7370
            ], 
            "BM1L": [
                7910
            ], 
            "WBO": [
                8162
            ], 
            "WBL": [
                8034
            ], 
            "irrelevant_Noun": [
                0
            ], 
            "M1_ADJ": [
                1
            ]
        }, 
        "location1": [
            8
        ], 
        "location2": [
            13
        ], 
        "sentence": "with my old nozzle , it would take a long time to wash the soap out of my dog 's hair ."
    }
}