{
    "9b4d51f494b94f903307891d63c5302a": {
        "(1, 19)": {
            "WBF": [
                7242
            ], 
            "BM1F": [
                8034
            ], 
            "M1": [
                4710
            ], 
            "irrelevant_Adj": [
                0
            ], 
            "M2": [
                4993
            ], 
            "WBO": [
                8153, 
                5458, 
                8073, 
                3372, 
                6335, 
                527, 
                8034, 
                8750, 
                850, 
                8049, 
                599, 
                3149, 
                8789, 
                6047
            ], 
            "WBL": [
                6344
            ], 
            "irrelevant_Noun": [
                0
            ], 
            "M1_ADJ": [
                1
            ]
        }, 
        "location1": [
            1
        ], 
        "location2": [
            19
        ], 
        "sentence": "the long skinny tip of this funnel reach all the way back there and fit well , preventing a real mess ."
    }
}