{
    "29316822b01b45e42ec94fc4ac5fa28a": {
        "(13, 2)": {
            "AM2F": [
                6772
            ], 
            "WBF": [
                5640
            ], 
            "BM1F": [
                8034
            ], 
            "M1": [
                1235
            ], 
            "irrelevant_Adj": [
                0
            ], 
            "M2": [
                4710
            ], 
            "BM1L": [
                3463
            ], 
            "WBO": [
                4268, 
                8034, 
                8750, 
                8162, 
                3502, 
                5191, 
                1473
            ], 
            "WBL": [
                8034
            ], 
            "irrelevant_Noun": [
                0
            ], 
            "M1_ADJ": [
                0
            ]
        }, 
        "location1": [
            13
        ], 
        "location2": [
            2
        ], 
        "sentence": "getting the bulk pack is the way to go - much cheaper in the long run ."
    }
}