{
    "00f34e0df9ea415cda53a255799c64c9": {
        "location1": [
            33
        ], 
        "location2": [
            36
        ], 
        "(33, 36)": {
            "AM2L": [
                1323
            ], 
            "AM2F": [
                8991
            ], 
            "WBF": [
                599
            ], 
            "BM1F": [
                8034
            ], 
            "M1": [
                4714
            ], 
            "irrelevant_Adj": [
                0
            ], 
            "M2": [
                1286
            ], 
            "BM1L": [
                3459
            ], 
            "WBO": [
                3761
            ], 
            "WBL": [
                3761
            ], 
            "irrelevant_Noun": [
                0
            ], 
            "M1_ADJ": [
                1
            ]
        }, 
        "sentence": "do n't worry if this does n't make sense , you do n't really need to know all of this , but i 'm trying to make a point as to why to get the longest and heavist cable you can ."
    }, 
    "2341143e6422c0fe1fa4910780bf7472": {
        "(2, 3)": {
            "AM2L": [
                4268
            ], 
            "BM1F": [
                8034
            ], 
            "M1": [
                4714
            ], 
            "irrelevant_Adj": [
                0
            ], 
            "M2": [
                1286
            ], 
            "BM1L": [
                3719
            ], 
            "WBNULL": [
                1
            ], 
            "irrelevant_Noun": [
                0
            ], 
            "AM2F": [
                5959
            ], 
            "M1_ADJ": [
                1
            ]
        }, 
        "location1": [
            2
        ], 
        "location2": [
            3
        ], 
        "sentence": "having the longest cable possible is a major plus if your car is parked up against something like a pole or wall , or even parked on a one way street ."
    }
}