{
    "7697d17eada2567b9721b0be6bf3b37f": {
        "(15, 16)": {
            "AM2L": [
                4942
            ], 
            "BM1F": [
                310
            ], 
            "M1": [
                4710
            ], 
            "irrelevant_Adj": [
                0
            ], 
            "M2": [
                2418
            ], 
            "BM1L": [
                599
            ], 
            "WBNULL": [
                1
            ], 
            "irrelevant_Noun": [
                0
            ], 
            "AM2F": [
                6772
            ], 
            "M1_ADJ": [
                1
            ]
        }, 
        "location1": [
            15
        ], 
        "location2": [
            16
        ], 
        "sentence": "large load , low voltage ( that we do n't want to make in lower ) , and a long distance run mean that you wan the heaviest cable you can find ."
    }, 
    "2f1c153afc9490c49135269df645e87c": {
        "(13, 14)": {
            "AM2L": [
                5284
            ], 
            "BM1F": [
                385
            ], 
            "M1": [
                4710
            ], 
            "irrelevant_Adj": [
                0
            ], 
            "M2": [
                2418
            ], 
            "BM1L": [
                3205
            ], 
            "WBNULL": [
                1
            ], 
            "irrelevant_Noun": [
                0
            ], 
            "AM2F": [
                8991
            ], 
            "M1_ADJ": [
                1
            ]
        }, 
        "location1": [
            13
        ], 
        "location2": [
            14
        ], 
        "sentence": "now , according to electrical theory in order for dc current to flow across long distance , you need thicker cable ."
    }
}