{
    "36980c6d2983093a487eec2522fe77a4": {
        "(20, 14)": {
            "AM2L": [
                3762
            ], 
            "AM2F": [
                599
            ], 
            "WBF": [
                7663
            ], 
            "BM1F": [
                599
            ], 
            "M1": [
                5154
            ], 
            "irrelevant_Adj": [
                0
            ], 
            "M2": [
                4710
            ], 
            "BM1L": [
                1177
            ], 
            "WBO": [
                8991, 
                1323
            ], 
            "WBL": [
                2953
            ], 
            "irrelevant_Noun": [
                0
            ], 
            "M1_ADJ": [
                0
            ]
        }, 
        "location1": [
            20
        ], 
        "location2": [
            14
        ], 
        "sentence": "for the price of a set of cheap booster/jumper cable in a brick and morter store , you can buy extra long and heavy duty jumper !"
    }
}