{
    "ddd8a4a313d43764956236ff4b6f1ec8": {
        "(18, 22)": {
            "AM2L": [
                2436
            ], 
            "AM2F": [
                3962
            ], 
            "WBF": [
                8819
            ], 
            "BM1F": [
                5191
            ], 
            "M1": [
                4713
            ], 
            "irrelevant_Adj": [
                0
            ], 
            "M2": [
                4942
            ], 
            "BM1L": [
                3252
            ], 
            "WBO": [
                4043
            ], 
            "WBL": [
                8351
            ], 
            "irrelevant_Noun": [
                0
            ], 
            "M1_ADJ": [
                1
            ]
        }, 
        "location1": [
            18
        ], 
        "location2": [
            22
        ], 
        "sentence": "now i find that i can keep the car dust free and use the car cover for much longer , which in turn mean i do n't have to wash the car nearly as often ."
    }
}