{
    "102967e9e34ae67cc41babcdb814e428": {
        "(4, 7)": {
            "AM2L": [
                2847
            ], 
            "AM2F": [
                3205
            ], 
            "WBF": [
                6600
            ], 
            "BM1F": [
                4283
            ], 
            "M1": [
                4752
            ], 
            "irrelevant_Adj": [
                0
            ], 
            "M2": [
                503
            ], 
            "BM1L": [
                4824
            ], 
            "WBO": [
                8162
            ], 
            "WBL": [
                8162
            ], 
            "irrelevant_Noun": [
                0
            ], 
            "M1_ADJ": [
                1
            ]
        }, 
        "location1": [
            4
        ], 
        "location2": [
            7
        ], 
        "sentence": "this filter maintains it low restriction to air flow , even when very dirty ."
    }
}