{
    "7d9664f2bb632cd84099722685a040f2": {
        "(12, 19)": {
            "AM2L": [
                3481
            ], 
            "AM2F": [
                8028
            ], 
            "WBF": [
                6038
            ], 
            "BM1F": [
                599
            ], 
            "M1": [
                4752
            ], 
            "irrelevant_Adj": [
                0
            ], 
            "M2": [
                7463
            ], 
            "BM1L": [
                813
            ], 
            "WBO": [
                8456, 
                8991, 
                4376
            ], 
            "WBL": [
                310
            ], 
            "irrelevant_Noun": [
                0
            ], 
            "M1_ADJ": [
                1
            ]
        }, 
        "location1": [
            12
        ], 
        "location2": [
            19
        ], 
        "sentence": "i would not recommend it for those of us with average and low pressure unless you just want a spayer that gives you lot of water and so/so pressure ."
    }
}