{
    "107d9831a252ade511dd6a71529f6e2d": {
        "(19, 20)": {
            "AM2L": [
                7690
            ], 
            "BM1F": [
                310
            ], 
            "M1": [
                4752
            ], 
            "irrelevant_Adj": [
                0
            ], 
            "M2": [
                6038
            ], 
            "BM1L": [
                2183
            ], 
            "WBNULL": [
                1
            ], 
            "irrelevant_Noun": [
                0
            ], 
            "AM2F": [
                8736
            ], 
            "M1_ADJ": [
                1
            ]
        }, 
        "location1": [
            19
        ], 
        "location2": [
            20, 
            27
        ], 
        "(19, 27)": {
            "AM2L": [
                7690
            ], 
            "AM2F": [
                5260
            ], 
            "WBF": [
                6038
            ], 
            "BM1F": [
                310
            ], 
            "M1": [
                4752
            ], 
            "irrelevant_Adj": [
                0
            ], 
            "M2": [
                6038
            ], 
            "BM1L": [
                2183
            ], 
            "WBO": [
                8736, 
                7690, 
                8105, 
                8162
            ], 
            "WBL": [
                3808
            ], 
            "irrelevant_Noun": [
                0
            ], 
            "M1_ADJ": [
                1
            ]
        }, 
        "sentence": "it allows a good amount of control of the water spray pattern , ranging from a wide fan delivering a low pressure water stream , through to a high pressure , narrow stream ."
    }, 
    "7d9664f2bb632cd84099722685a040f2": {
        "(12, 28)": {
            "WBF": [
                6038
            ], 
            "BM1F": [
                599
            ], 
            "M1": [
                4752
            ], 
            "irrelevant_Adj": [
                0
            ], 
            "M2": [
                6038
            ], 
            "BM1L": [
                813
            ], 
            "WBO": [
                8456, 
                8991, 
                4376, 
                8702, 
                310, 
                7463, 
                8028, 
                3481, 
                8991, 
                4737, 
                5458, 
                8736
            ], 
            "WBL": [
                7365
            ], 
            "irrelevant_Noun": [
                0
            ], 
            "M1_ADJ": [
                1
            ]
        }, 
        "(12, 13)": {
            "AM2L": [
                8991
            ], 
            "BM1F": [
                599
            ], 
            "M1": [
                4752
            ], 
            "irrelevant_Adj": [
                0
            ], 
            "M2": [
                6038
            ], 
            "BM1L": [
                813
            ], 
            "WBNULL": [
                1
            ], 
            "irrelevant_Noun": [
                0
            ], 
            "AM2F": [
                8456
            ], 
            "M1_ADJ": [
                1
            ]
        }, 
        "location1": [
            12
        ], 
        "location2": [
            13, 
            28
        ], 
        "sentence": "i would not recommend it for those of us with average and low pressure unless you just want a spayer that gives you lot of water and so/so pressure ."
    }
}