{
    "b20f3f2c9b8d933a07bc4bc6e932d3d2": {
        "(17, 18)": {
            "AM2L": [
                1792
            ], 
            "BM1F": [
                8034
            ], 
            "M1": [
                4752
            ], 
            "irrelevant_Adj": [
                0
            ], 
            "M2": [
                6770
            ], 
            "BM1L": [
                6422
            ], 
            "WBNULL": [
                1
            ], 
            "irrelevant_Noun": [
                0
            ], 
            "AM2F": [
                5352
            ], 
            "M1_ADJ": [
                1
            ]
        }, 
        "location1": [
            17
        ], 
        "location2": [
            18
        ], 
        "sentence": "i covered the interior wall of my dryer ( i posted a photo above ) and it reduced the low rumbling noise considerably ."
    }
}