{
    "0fa998c21304024da8888194a0a105d3": {
        "(11, 6)": {
            "AM2F": [
                6054
            ], 
            "WBF": [
                5148
            ], 
            "BM1F": [
                3252
            ], 
            "M1": [
                642
            ], 
            "irrelevant_Adj": [
                0
            ], 
            "M2": [
                4752
            ], 
            "BM1L": [
                729
            ], 
            "WBO": [
                2826
            ], 
            "WBL": [
                8034
            ], 
            "irrelevant_Noun": [
                0
            ], 
            "M1_ADJ": [
                0
            ]
        }, 
        "location1": [
            11
        ], 
        "location2": [
            6
        ], 
        "sentence": "really , i could n't ask for anything more , especially for the low price !"
    }
}