{
    "7697d17eada2567b9721b0be6bf3b37f": {
        "location1": [
            2
        ], 
        "location2": [
            1
        ], 
        "(2, 1)": {
            "AM2L": [
                8028
            ], 
            "BM1F": [
                4501
            ], 
            "M1": [
                4688
            ], 
            "irrelevant_Adj": [
                0
            ], 
            "M2": [
                4752
            ], 
            "AM2F": [
                8656
            ], 
            "irrelevant_Noun": [
                0
            ], 
            "WBNULL": [
                1
            ], 
            "M1_ADJ": [
                0
            ]
        }, 
        "sentence": "large load , low voltage ( that we do n't want to make in lower ) , and a long distance run mean that you wan the heaviest cable you can find ."
    }
}