{
    "87a325bc88d63bf4618bbc207c950406": {
        "(21, 30)": {
            "AM2L": [
                3594
            ], 
            "AM2F": [
                8887
            ], 
            "WBF": [
                8567
            ], 
            "BM1F": [
                3339
            ], 
            "M1": [
                4756
            ], 
            "irrelevant_Adj": [
                0
            ], 
            "M2": [
                1155
            ], 
            "BM1L": [
                8034
            ], 
            "WBO": [
                1244, 
                8814, 
                3962, 
                2973, 
                310
            ], 
            "WBL": [
                563
            ], 
            "irrelevant_Noun": [
                0
            ], 
            "M1_ADJ": [
                1
            ]
        }, 
        "location1": [
            21
        ], 
        "location2": [
            30
        ], 
        "sentence": "i routed and zip-tied it to blend in with all of the other factory wire and ran it to the front lower valance [ bumper ] where i fabricated a simple aluminum bracket with grommet pull-through opening and terminated at a plug ."
    }
}