{
    "31f1daa2cef7ce598c0dceb62c1dbbab": {
        "location1": [
            40
        ], 
        "location2": [
            16
        ], 
        "(40, 16)": {
            "AM2L": [
                8887
            ], 
            "AM2F": [
                7481
            ], 
            "WBF": [
                7362
            ], 
            "BM1F": [
                198
            ], 
            "M1": [
                5185
            ], 
            "irrelevant_Adj": [
                0
            ], 
            "M2": [
                4756
            ], 
            "BM1L": [
                8410
            ], 
            "WBO": [
                4283, 
                4929, 
                929, 
                2555, 
                3252, 
                620, 
                8285, 
                1262, 
                7640, 
                7609, 
                5326, 
                1568, 
                760, 
                3821, 
                7481, 
                599, 
                4268, 
                8603, 
                2617, 
                8162
            ], 
            "WBL": [
                760
            ], 
            "irrelevant_Noun": [
                0
            ], 
            "M1_ADJ": [
                0
            ]
        }, 
        "sentence": "a week later , i 'm noticing the windshield no longer clear itself at speed under 40 mph , so it may be due for another treatment , but still stay nicely clear at highway speed , and is very easy to clear at lower speed with a single pass of the wiper ."
    }
}