{
    "60d3b0f1df001f2733e4c5aa8d14b3d9": {
        "(23, 20)": {
            "AM2L": [
                5148
            ], 
            "AM2F": [
                953
            ], 
            "WBF": [
                4216
            ], 
            "BM1F": [
                503
            ], 
            "M1": [
                7690
            ], 
            "irrelevant_Adj": [
                1
            ], 
            "M2": [
                4817
            ], 
            "BM1L": [
                8034
            ], 
            "WBO": [
                8034
            ], 
            "WBL": [
                8034
            ], 
            "irrelevant_Noun": [
                0
            ], 
            "M1_ADJ": [
                0
            ]
        }, 
        "location1": [
            23
        ], 
        "location2": [
            20
        ], 
        "sentence": "this air deflector was installed beneath our chest of drawer in the bedroom and is successful at getting the air stream into the main bedroom more quickly ."
    }
}