{
    "60d3b0f1df001f2733e4c5aa8d14b3d9": {
        "(23, 1)": {
            "AM2L": [
                5148
            ], 
            "AM2F": [
                953
            ], 
            "WBF": [
                2162
            ], 
            "BM1F": [
                8073
            ], 
            "M1": [
                503
            ], 
            "irrelevant_Adj": [
                1
            ], 
            "M2": [
                4817
            ], 
            "WBO": [
                8718, 
                4146, 
                994, 
                5571, 
                1493, 
                5458, 
                2507, 
                4043, 
                8034, 
                953, 
                599, 
                4268, 
                7758, 
                760, 
                3463, 
                8034, 
                503, 
                7690
            ], 
            "WBL": [
                8034
            ], 
            "irrelevant_Noun": [
                0
            ], 
            "M1_ADJ": [
                0
            ]
        }, 
        "(23, 19)": {
            "AM2L": [
                5148
            ], 
            "AM2F": [
                953
            ], 
            "WBF": [
                7690
            ], 
            "BM1F": [
                8034
            ], 
            "M1": [
                503
            ], 
            "irrelevant_Adj": [
                1
            ], 
            "M2": [
                4817
            ], 
            "BM1L": [
                3463
            ], 
            "WBO": [
                4216
            ], 
            "WBL": [
                8034
            ], 
            "irrelevant_Noun": [
                0
            ], 
            "M1_ADJ": [
                0
            ]
        }, 
        "location1": [
            23
        ], 
        "location2": [
            1, 
            19
        ], 
        "sentence": "this air deflector was installed beneath our chest of drawer in the bedroom and is successful at getting the air stream into the main bedroom more quickly ."
    }
}