{
    "60d3b0f1df001f2733e4c5aa8d14b3d9": {
        "(23, 24)": {
            "AM2L": [
                6232
            ], 
            "BM1F": [
                8034
            ], 
            "M1": [
                4817
            ], 
            "irrelevant_Adj": [
                1
            ], 
            "M2": [
                953
            ], 
            "BM1L": [
                4216
            ], 
            "WBNULL": [
                1
            ], 
            "irrelevant_Noun": [
                0
            ], 
            "AM2F": [
                5148
            ], 
            "M1_ADJ": [
                1
            ]
        }, 
        "location1": [
            23
        ], 
        "location2": [
            12, 
            24
        ], 
        "(23, 12)": {
            "AM2L": [
                5148
            ], 
            "AM2F": [
                953
            ], 
            "WBF": [
                599
            ], 
            "BM1F": [
                8034
            ], 
            "M1": [
                953
            ], 
            "irrelevant_Adj": [
                1
            ], 
            "M2": [
                4817
            ], 
            "BM1L": [
                4043
            ], 
            "WBO": [
                4268, 
                7758, 
                760, 
                3463, 
                8034, 
                503, 
                7690
            ], 
            "WBL": [
                8034
            ], 
            "irrelevant_Noun": [
                0
            ], 
            "M1_ADJ": [
                0
            ]
        }, 
        "sentence": "this air deflector was installed beneath our chest of drawer in the bedroom and is successful at getting the air stream into the main bedroom more quickly ."
    }
}