{
    "ccf6d0179f36fe7621c28bb6755852c0": {
        "(1, 2)": {
            "AM2L": [
                310
            ], 
            "BM1F": [
                8034
            ], 
            "M1": [
                4817
            ], 
            "irrelevant_Adj": [
                1
            ], 
            "M2": [
                452
            ], 
            "AM2F": [
                5595
            ], 
            "irrelevant_Noun": [
                0
            ], 
            "WBNULL": [
                1
            ], 
            "M1_ADJ": [
                1
            ]
        }, 
        "location1": [
            1
        ], 
        "location2": [
            2
        ], 
        "sentence": "the main advantage over a towel is that it work like both a towel and a sponge , depending on how wet it is ."
    }
}