{
    "df2a1253d98a5f9fe06c54b79cf3d0f9": {
        "(3, 10)": {
            "AM2L": [
                574
            ], 
            "AM2F": [
                3338
            ], 
            "WBF": [
                2313
            ], 
            "BM1F": [
                8534
            ], 
            "M1": [
                4873
            ], 
            "irrelevant_Adj": [
                1
            ], 
            "M2": [
                6195
            ], 
            "BM1L": [
                3717
            ], 
            "WBO": [
                4431, 
                4043, 
                2979
            ], 
            "WBL": [
                4509
            ], 
            "irrelevant_Noun": [
                0
            ], 
            "M1_ADJ": [
                1
            ]
        }, 
        "location1": [
            3
        ], 
        "location2": [
            10
        ], 
        "sentence": "i have used many different kind , in fact my last purchase from amazon included this one as well as a fancy one with a waffle pattern design ."
    }
}