{
    "54c5cac28b7da7bde9044198e6f2d1a5": {
        "(6, 4)": {
            "AM2L": [
                527
            ], 
            "WBFL": [
                8887
            ], 
            "BM1F": [
                3419
            ], 
            "M1": [
                5777
            ], 
            "irrelevant_Adj": [
                1
            ], 
            "M2": [
                4873
            ], 
            "BM1L": [
                310
            ], 
            "AM2F": [
                3207
            ], 
            "irrelevant_Noun": [
                0
            ], 
            "M1_ADJ": [
                0
            ]
        }, 
        "location1": [
            6
        ], 
        "location2": [
            4
        ], 
        "sentence": "i am a garden person with many flower all over the place ."
    }
}