{
    "a12f901263508d1fd038c9ebd76a1159": {
        "location1": [
            7
        ], 
        "location2": [
            10
        ], 
        "(7, 10)": {
            "AM2L": [
                8979
            ], 
            "AM2F": [
                3252
            ], 
            "WBF": [
                1358
            ], 
            "BM1F": [
                5495
            ], 
            "M1": [
                4873
            ], 
            "irrelevant_Adj": [
                1
            ], 
            "M2": [
                6122
            ], 
            "BM1L": [
                7722
            ], 
            "WBO": [
                787
            ], 
            "WBL": [
                787
            ], 
            "irrelevant_Noun": [
                0
            ], 
            "M1_ADJ": [
                1
            ]
        }, 
        "sentence": "i have been using this stuff on many car audio project for year and its been great ."
    }
}