{
    "9522067a6dc5da816155450f50b24af7": {
        "(0, 15)": {
            "WBF": [
                6197
            ], 
            "AM2L": [
                6038
            ], 
            "M1": [
                4873
            ], 
            "irrelevant_Adj": [
                1
            ], 
            "M2": [
                9002
            ], 
            "WBO": [
                3717, 
                4800, 
                8073, 
                8065, 
                7433, 
                4625, 
                4283, 
                7533, 
                8736, 
                3338, 
                8034
            ], 
            "WBL": [
                5458
            ], 
            "irrelevant_Noun": [
                0
            ], 
            "AM2F": [
                760
            ], 
            "M1_ADJ": [
                1
            ]
        }, 
        "location1": [
            0
        ], 
        "location2": [
            15
        ], 
        "sentence": "many purchaser have made this thing sound like it sprinkle water from the fountain of youth at pressure to rival old faithful ."
    }
}