{
    "d95809e4d70c8b1ddc41a6dd2c1ca590": {
        "location1": [
            2
        ], 
        "location2": [
            4
        ], 
        "(2, 4)": {
            "AM2L": [
                2436
            ], 
            "WBFL": [
                7526
            ], 
            "BM1F": [
                7362
            ], 
            "M1": [
                4873
            ], 
            "irrelevant_Adj": [
                1
            ], 
            "M2": [
                7044
            ], 
            "BM1L": [
                8887
            ], 
            "AM2F": [
                8991
            ], 
            "irrelevant_Noun": [
                0
            ], 
            "M1_ADJ": [
                1
            ]
        }, 
        "sentence": "with so many spray setting , you do n't need anything else ."
    }
}