{
    "9522067a6dc5da816155450f50b24af7": {
        "(0, 21)": {
            "WBF": [
                6197
            ], 
            "M1": [
                4873
            ], 
            "irrelevant_Adj": [
                1
            ], 
            "M2": [
                2995
            ], 
            "WBO": [
                3717, 
                4800, 
                8073, 
                8065, 
                7433, 
                4625, 
                4283, 
                7533, 
                8736, 
                3338, 
                8034, 
                3296, 
                5458, 
                9002, 
                760, 
                6038, 
                8162
            ], 
            "WBL": [
                5488
            ], 
            "irrelevant_Noun": [
                0
            ], 
            "M1_ADJ": [
                1
            ]
        }, 
        "location1": [
            0
        ], 
        "location2": [
            21
        ], 
        "sentence": "many purchaser have made this thing sound like it sprinkle water from the fountain of youth at pressure to rival old faithful ."
    }
}