{
    "c3c456d6d00d259426373b7b727b9a4a": {
        "location1": [
            4
        ], 
        "location2": [
            8
        ], 
        "(4, 8)": {
            "AM2L": [
                3905
            ], 
            "AM2F": [
                5458
            ], 
            "WBF": [
                8140
            ], 
            "BM1F": [
                8718
            ], 
            "M1": [
                4873
            ], 
            "irrelevant_Adj": [
                1
            ], 
            "M2": [
                4920
            ], 
            "BM1L": [
                1358
            ], 
            "WBO": [
                7210
            ], 
            "WBL": [
                310
            ], 
            "irrelevant_Noun": [
                0
            ], 
            "M1_ADJ": [
                1
            ]
        }, 
        "sentence": "washing the car was ( many time ) simply a matter of hosing off the dust ."
    }
}