{
    "a12f901263508d1fd038c9ebd76a1159": {
        "(7, 5)": {
            "AM2L": [
                787
            ], 
            "WBFL": [
                5495
            ], 
            "BM1F": [
                8073
            ], 
            "M1": [
                7722
            ], 
            "irrelevant_Adj": [
                1
            ], 
            "M2": [
                4873
            ], 
            "BM1L": [
                8542
            ], 
            "AM2F": [
                1358
            ], 
            "irrelevant_Noun": [
                0
            ], 
            "M1_ADJ": [
                0
            ]
        }, 
        "location1": [
            7
        ], 
        "location2": [
            5
        ], 
        "sentence": "i have been using this stuff on many car audio project for year and its been great ."
    }
}