{
    "42f65b0007350d0a1464de0e7a7b60bc": {
        "location1": [
            6, 
            10
        ], 
        "location2": [
            5
        ], 
        "(10, 5)": {
            "AM2L": [
                1286
            ], 
            "AM2F": [
                3426
            ], 
            "WBF": [
                4928
            ], 
            "BM1F": [
                1286
            ], 
            "M1": [
                6162
            ], 
            "irrelevant_Adj": [
                0
            ], 
            "M2": [
                4928
            ], 
            "BM1L": [
                8053
            ], 
            "WBO": [
                4570
            ], 
            "WBL": [
                5272
            ], 
            "irrelevant_Noun": [
                0
            ], 
            "M1_ADJ": [
                0
            ]
        }, 
        "(6, 5)": {
            "AM2L": [
                760
            ], 
            "BM1F": [
                1286
            ], 
            "M1": [
                6162
            ], 
            "irrelevant_Adj": [
                0
            ], 
            "M2": [
                4928
            ], 
            "BM1L": [
                8053
            ], 
            "WBNULL": [
                1
            ], 
            "irrelevant_Noun": [
                0
            ], 
            "AM2F": [
                4570
            ], 
            "M1_ADJ": [
                0
            ]
        }, 
        "sentence": "that 's what these cable provide , maximum length at near maximum gauge cable ."
    }, 
    "5ff51c24ce352ad54acce99717c0e147": {
        "(16, 15)": {
            "AM2L": [
                2062
            ], 
            "BM1F": [
                8162
            ], 
            "M1": [
                6162
            ], 
            "irrelevant_Adj": [
                0
            ], 
            "M2": [
                4928
            ], 
            "BM1L": [
                4648
            ], 
            "WBNULL": [
                1
            ], 
            "irrelevant_Noun": [
                0
            ], 
            "AM2F": [
                7433
            ], 
            "M1_ADJ": [
                0
            ]
        }, 
        "location1": [
            16
        ], 
        "location2": [
            15
        ], 
        "sentence": "the butyl is viscoelastic - it has just the right consistency between solid and liquid to provide maximum sound damping ."
    }
}