{
    "5ff51c24ce352ad54acce99717c0e147": {
        "(16, 17)": {
            "BM1F": [
                6162
            ], 
            "M1": [
                4928
            ], 
            "irrelevant_Adj": [
                0
            ], 
            "M2": [
                7433
            ], 
            "BM1L": [
                8162
            ], 
            "WBNULL": [
                1
            ], 
            "irrelevant_Noun": [
                0
            ], 
            "AM2F": [
                2062
            ], 
            "M1_ADJ": [
                1
            ]
        }, 
        "location1": [
            16
        ], 
        "location2": [
            17
        ], 
        "sentence": "the butyl is viscoelastic - it has just the right consistency between solid and liquid to provide maximum sound damping ."
    }
}