{
    "6078b83dd0180a3bb3770394bcde5387": {
        "(21, 11)": {
            "AM2L": [
                8872
            ], 
            "AM2F": [
                8862
            ], 
            "WBF": [
                8812
            ], 
            "BM1F": [
                5543
            ], 
            "M1": [
                5076
            ], 
            "irrelevant_Adj": [
                0
            ], 
            "M2": [
                5050
            ], 
            "BM1L": [
                2529
            ], 
            "WBO": [
                8034, 
                8736, 
                6976, 
                8162, 
                2404, 
                1275
            ], 
            "WBL": [
                8887
            ], 
            "irrelevant_Noun": [
                0
            ], 
            "M1_ADJ": [
                0
            ]
        }, 
        "location1": [
            21
        ], 
        "location2": [
            11
        ], 
        "sentence": "i really appreciate the rain x in a light drizzle or mist , when the water seems to disperse by itself with minimal windshield wiper use ."
    }
}