{
    "f2bc0dd3f77a1dbc481b26e5cb28ae52": {
        "(10, 13)": {
            "AM2L": [
                8719
            ], 
            "AM2F": [
                599
            ], 
            "WBF": [
                475
            ], 
            "BM1F": [
                688
            ], 
            "M1": [
                5050
            ], 
            "irrelevant_Adj": [
                0
            ], 
            "M2": [
                6267
            ], 
            "BM1L": [
                7688
            ], 
            "WBO": [
                310
            ], 
            "WBL": [
                310
            ], 
            "irrelevant_Noun": [
                0
            ], 
            "M1_ADJ": [
                1
            ]
        }, 
        "location1": [
            10
        ], 
        "location2": [
            13
        ], 
        "sentence": "it shine as well but also the water streak are minimal after a rain and wash off easier ."
    }, 
    "6078b83dd0180a3bb3770394bcde5387": {
        "(21, 4)": {
            "AM2L": [
                8872
            ], 
            "AM2F": [
                8862
            ], 
            "WBF": [
                8956
            ], 
            "BM1F": [
                8034
            ], 
            "M1": [
                6267
            ], 
            "irrelevant_Adj": [
                0
            ], 
            "M2": [
                5050
            ], 
            "BM1L": [
                674
            ], 
            "WBO": [
                4043, 
                310, 
                4616, 
                2529, 
                5543, 
                5076, 
                8812, 
                8034, 
                8736, 
                6976, 
                8162, 
                2404, 
                1275
            ], 
            "WBL": [
                8887
            ], 
            "irrelevant_Noun": [
                0
            ], 
            "M1_ADJ": [
                0
            ]
        }, 
        "location1": [
            21
        ], 
        "location2": [
            4
        ], 
        "sentence": "i really appreciate the rain x in a light drizzle or mist , when the water seems to disperse by itself with minimal windshield wiper use ."
    }
}