{
    "f68ef02d087e4a3bb0e11447f246d636": {
        "(17, 12)": {
            "AM2F": [
                2653
            ], 
            "WBF": [
                4396
            ], 
            "BM1F": [
                6960
            ], 
            "M1": [
                7281
            ], 
            "irrelevant_Adj": [
                0
            ], 
            "M2": [
                5050
            ], 
            "BM1L": [
                8162
            ], 
            "WBO": [
                8162
            ], 
            "WBL": [
                8887
            ], 
            "irrelevant_Noun": [
                0
            ], 
            "M1_ADJ": [
                0
            ]
        }, 
        "location1": [
            17
        ], 
        "location2": [
            12
        ], 
        "sentence": "hitch extender is good for kayak transport and allows me to secure slippery kayak to bed , with minimal effort ."
    }
}