{
    "6078b83dd0180a3bb3770394bcde5387": {
        "location1": [
            21
        ], 
        "location2": [
            24
        ], 
        "(21, 24)": {
            "WBF": [
                8862
            ], 
            "BM1F": [
                8887
            ], 
            "M1": [
                5050
            ], 
            "irrelevant_Adj": [
                0
            ], 
            "M2": [
                8531
            ], 
            "BM1L": [
                4290
            ], 
            "WBO": [
                8872
            ], 
            "WBL": [
                8872
            ], 
            "irrelevant_Noun": [
                0
            ], 
            "M1_ADJ": [
                1
            ]
        }, 
        "sentence": "i really appreciate the rain x in a light drizzle or mist , when the water seems to disperse by itself with minimal windshield wiper use ."
    }
}