{
    "537cca086410626d29ae952bce7bc0bf": {
        "location1": [
            1
        ], 
        "location2": [
            4
        ], 
        "(1, 4)": {
            "AM2L": [
                2445
            ], 
            "AM2F": [
                4283
            ], 
            "WBF": [
                5543
            ], 
            "BM1F": [
                4043
            ], 
            "M1": [
                5106
            ], 
            "irrelevant_Adj": [
                0
            ], 
            "M2": [
                6267
            ], 
            "WBO": [
                3762
            ], 
            "WBL": [
                3762
            ], 
            "irrelevant_Noun": [
                0
            ], 
            "M1_ADJ": [
                1
            ]
        }, 
        "sentence": "in moderate or heavy rain , it does a great job of keeping the water beaded up so vision is n't as reduced as it is on untreated window ."
    }
}