{
    "0976b9b71e36efe0d7fd4d2c2dcb04d6": {
        "(9, 7)": {
            "WBFL": [
                599
            ], 
            "BM1F": [
                7138
            ], 
            "M1": [
                2418
            ], 
            "irrelevant_Adj": [
                0
            ], 
            "M2": [
                5106
            ], 
            "BM1L": [
                3510
            ], 
            "AM2F": [
                7481
            ], 
            "irrelevant_Noun": [
                0
            ], 
            "M1_ADJ": [
                0
            ]
        }, 
        "location1": [
            9
        ], 
        "location2": [
            7
        ], 
        "sentence": "work good though if only going short distance and moderate speed ."
    }
}