{
    "537cca086410626d29ae952bce7bc0bf": {
        "location1": [
            1
        ], 
        "location2": [
            27
        ], 
        "(1, 27)": {
            "WBF": [
                5543
            ], 
            "BM1F": [
                4043
            ], 
            "M1": [
                5106
            ], 
            "irrelevant_Adj": [
                0
            ], 
            "M2": [
                8860
            ], 
            "WBO": [
                3762, 
                6267, 
                4283, 
                2445, 
                310, 
                3564, 
                4344, 
                5458, 
                4403, 
                8034, 
                8736, 
                932, 
                8501, 
                7362, 
                8641, 
                4268, 
                5245, 
                720, 
                6422, 
                720, 
                4283, 
                4268
            ], 
            "WBL": [
                8495
            ], 
            "irrelevant_Noun": [
                0
            ], 
            "M1_ADJ": [
                1
            ]
        }, 
        "sentence": "in moderate or heavy rain , it does a great job of keeping the water beaded up so vision is n't as reduced as it is on untreated window ."
    }
}