{
    "4bedbd9c957147588a13a252e4add290": {
        "(15, 9)": {
            "AM2L": [
                2793
            ], 
            "AM2F": [
                864
            ], 
            "WBF": [
                7211
            ], 
            "BM1F": [
                8997
            ], 
            "M1": [
                1098
            ], 
            "irrelevant_Adj": [
                0
            ], 
            "M2": [
                5116
            ], 
            "BM1L": [
                5495
            ], 
            "WBO": [
                4283, 
                7225
            ], 
            "WBL": [
                310
            ], 
            "irrelevant_Noun": [
                0
            ], 
            "M1_ADJ": [
                0
            ]
        }, 
        "location1": [
            15
        ], 
        "location2": [
            9
        ], 
        "sentence": "i am hesitant to recommend using it on your body since it sits in a moist , bacteria-friendly environment between us - but as a car dryer it is terrific ."
    }
}