{
    "4bedbd9c957147588a13a252e4add290": {
        "(15, 23)": {
            "AM2L": [
                4283
            ], 
            "AM2F": [
                2546
            ], 
            "WBF": [
                864
            ], 
            "BM1F": [
                310
            ], 
            "M1": [
                5116
            ], 
            "irrelevant_Adj": [
                0
            ], 
            "M2": [
                1358
            ], 
            "BM1L": [
                4043
            ], 
            "WBO": [
                2793, 
                1016, 
                8527, 
                1262
            ], 
            "WBL": [
                310
            ], 
            "irrelevant_Noun": [
                0
            ], 
            "M1_ADJ": [
                1
            ]
        }, 
        "location1": [
            15
        ], 
        "location2": [
            23
        ], 
        "sentence": "i am hesitant to recommend using it on your body since it sits in a moist , bacteria-friendly environment between us - but as a car dryer it is terrific ."
    }, 
    "7e65a8712def487be11f3cbf7438e325": {
        "(43, 6)": {
            "AM2L": [
                8034
            ], 
            "AM2F": [
                4043
            ], 
            "WBF": [
                7522
            ], 
            "BM1F": [
                2547
            ], 
            "M1": [
                1358
            ], 
            "irrelevant_Adj": [
                0
            ], 
            "M2": [
                5116
            ], 
            "BM1L": [
                8812
            ], 
            "WBO": [
                3312, 
                3962, 
                2030, 
                4283, 
                8162, 
                3651, 
                599, 
                6224, 
                7230, 
                4831, 
                4283, 
                3564, 
                3252, 
                8034, 
                4440, 
                8195, 
                7219, 
                599, 
                918, 
                8907, 
                3564, 
                3252, 
                4440, 
                7494, 
                808, 
                546, 
                2860, 
                1473, 
                8024, 
                1447, 
                8991, 
                3717, 
                8162
            ], 
            "WBL": [
                4283
            ], 
            "irrelevant_Noun": [
                0
            ], 
            "M1_ADJ": [
                0
            ]
        }, 
        "location1": [
            43
        ], 
        "location2": [
            6
        ], 
        "sentence": "- does not produce streak when drying car - spot free ! - i cut it to half and quarter size - makes it great for the kitchen top , sink and bathroom - work great for kitchen spill - available almost everywhere - cheaper than chamoiscons : - you have to store it moist in the canister or it will dry stiff as a cardboard ."
    }
}