{
    "fc9ac882d39019635bcc85e1ab378a96": {
        "(10, 7)": {
            "AM2L": [
                2616
            ], 
            "AM2F": [
                8747
            ], 
            "WBF": [
                3338
            ], 
            "BM1F": [
                8034
            ], 
            "M1": [
                7826
            ], 
            "irrelevant_Adj": [
                0
            ], 
            "M2": [
                5116
            ], 
            "BM1L": [
                5495
            ], 
            "WBO": [
                8034
            ], 
            "WBL": [
                8034
            ], 
            "irrelevant_Noun": [
                0
            ], 
            "M1_ADJ": [
                0
            ]
        }, 
        "location1": [
            10
        ], 
        "location2": [
            7
        ], 
        "sentence": ") , but it was just swirl on the surface from the moist wax - easily removed ."
    }, 
    "be0e736e9f91f703cbe08ee038215902": {
        "location1": [
            13
        ], 
        "location2": [
            56
        ], 
        "(13, 56)": {
            "WBF": [
                4625
            ], 
            "BM1F": [
                5458
            ], 
            "M1": [
                5116
            ], 
            "irrelevant_Adj": [
                0
            ], 
            "M2": [
                7826
            ], 
            "BM1L": [
                4431
            ], 
            "WBO": [
                1262, 
                2548, 
                7383, 
                4625, 
                1262, 
                4283, 
                1668, 
                5459, 
                5325, 
                8044, 
                3962, 
                3233, 
                8887, 
                159, 
                2545, 
                1605, 
                8162, 
                4829, 
                7824, 
                4289, 
                1719, 
                5459, 
                599, 
                7116, 
                599, 
                4283, 
                2445, 
                1663, 
                5459, 
                2617, 
                599, 
                4283, 
                2445, 
                1564, 
                3128, 
                8501, 
                4556, 
                310, 
                5325
            ], 
            "WBL": [
                3486
            ], 
            "irrelevant_Noun": [
                0
            ], 
            "M1_ADJ": [
                1
            ]
        }, 
        "sentence": "1st off it does go on easy , once on its stay kind of moist like but drys soft like but it comes off nice , then i follow with 2nd dry cloth to make sure its completly off and shiny and it does come off easy and it does clean finish up leaving a nice shiny glazed surface ."
    }
}