{
    "1fd15875b581c48f787e97deeaa1ce23": {
        "(10, 17)": {
            "AM2L": [
                4283
            ], 
            "AM2F": [
                599
            ], 
            "WBF": [
                6361
            ], 
            "BM1F": [
                8034
            ], 
            "M1": [
                5148
            ], 
            "irrelevant_Adj": [
                1
            ], 
            "M2": [
                3128
            ], 
            "BM1L": [
                527
            ], 
            "WBO": [
                4283, 
                2445, 
                5387
            ], 
            "WBL": [
                8034
            ], 
            "irrelevant_Noun": [
                0
            ], 
            "M1_ADJ": [
                1
            ]
        }, 
        "location1": [
            10
        ], 
        "location2": [
            17
        ], 
        "sentence": "it has a waxy coating on the fiber ( all the more reason it does not scratch the finish ) and it has to dry out before initial use ."
    }
}