{
    "0fa998c21304024da8888194a0a105d3": {
        "(7, 12)": {
            "WBF": [
                2826
            ], 
            "BM1F": [
                642
            ], 
            "M1": [
                5148
            ], 
            "irrelevant_Adj": [
                1
            ], 
            "M2": [
                6054
            ], 
            "BM1L": [
                3252
            ], 
            "WBO": [
                3252
            ], 
            "WBL": [
                4752
            ], 
            "irrelevant_Noun": [
                0
            ], 
            "M1_ADJ": [
                1
            ]
        }, 
        "location1": [
            7
        ], 
        "location2": [
            12
        ], 
        "sentence": "really , i could n't ask for anything more , especially for the low price !"
    }, 
    "33059ad536a353ac0413180943d55f56": {
        "location1": [
            17
        ], 
        "location2": [
            15
        ], 
        "(17, 15)": {
            "AM2L": [
                2990
            ], 
            "WBFL": [
                4268
            ], 
            "BM1F": [
                8034
            ], 
            "M1": [
                6054
            ], 
            "irrelevant_Adj": [
                1
            ], 
            "M2": [
                5148
            ], 
            "BM1L": [
                599
            ], 
            "AM2F": [
                8024
            ], 
            "irrelevant_Noun": [
                0
            ], 
            "M1_ADJ": [
                0
            ]
        }, 
        "sentence": "has a guard on the top for spill prevention , feel sturdy and durable , and the price is more than fair ."
    }, 
    "28fd067761c7fda1660629a178a5ff0d": {
        "(7, 4)": {
            "AM2L": [
                8887
            ], 
            "AM2F": [
                8736
            ], 
            "WBF": [
                8991
            ], 
            "BM1F": [
                8034
            ], 
            "M1": [
                6054
            ], 
            "irrelevant_Adj": [
                1
            ], 
            "M2": [
                5148
            ], 
            "BM1L": [
                4981
            ], 
            "WBO": [
                3459
            ], 
            "WBL": [
                3459
            ], 
            "irrelevant_Noun": [
                0
            ], 
            "M1_ADJ": [
                0
            ]
        }, 
        "location1": [
            7
        ], 
        "location2": [
            4
        ], 
        "sentence": "( not to mention the price ) you get more water with the bon-aire , but not the great pressure i have experienced from the little tip-style sprayer ."
    }
}