{
    "1634ecc9737304dbeed723386234c63e": {
        "location1": [
            10
        ], 
        "location2": [
            4
        ], 
        "(10, 4)": {
            "AM2L": [
                8034
            ], 
            "AM2F": [
                5894
            ], 
            "WBF": [
                760
            ], 
            "BM1F": [
                2547
            ], 
            "M1": [
                8140
            ], 
            "irrelevant_Adj": [
                1
            ], 
            "M2": [
                5148
            ], 
            "BM1L": [
                1358
            ], 
            "WBO": [
                4553, 
                4043
            ], 
            "WBL": [
                4930
            ], 
            "irrelevant_Noun": [
                1
            ], 
            "M1_ADJ": [
                0
            ]
        }, 
        "sentence": "it cut car drying time at least in half , maybe more , plus the effort to dry with this towel is less than with a standard towel or chamois ."
    }
}