{
    "9e79214f6b888a0e09ed12e3b426de50": {
        "location1": [
            6
        ], 
        "location2": [
            15
        ], 
        "(6, 15)": {
            "AM2L": [
                8034
            ], 
            "AM2F": [
                5458
            ], 
            "WBF": [
                5543
            ], 
            "BM1F": [
                5416
            ], 
            "M1": [
                5148
            ], 
            "irrelevant_Adj": [
                1
            ], 
            "M2": [
                7230
            ], 
            "BM1L": [
                3159
            ], 
            "WBO": [
                4578, 
                7362, 
                585, 
                4268, 
                2270
            ], 
            "WBL": [
                8034
            ], 
            "irrelevant_Noun": [
                0
            ], 
            "M1_ADJ": [
                1
            ]
        }, 
        "sentence": "the voltage is a fixed number ( more or less ) so amperage is determined by the size of the engine your trying to start ."
    }
}