{
    "aba1ea1a5e6bec74919eb998d133a6da": {
        "(11, 8)": {
            "AM2L": [
                3962
            ], 
            "AM2F": [
                4026
            ], 
            "WBF": [
                8887
            ], 
            "BM1F": [
                310
            ], 
            "M1": [
                6997
            ], 
            "irrelevant_Adj": [
                1
            ], 
            "M2": [
                5148
            ], 
            "BM1L": [
                7598
            ], 
            "WBO": [
                8053
            ], 
            "WBL": [
                8053
            ], 
            "irrelevant_Noun": [
                0
            ], 
            "M1_ADJ": [
                0
            ]
        }, 
        "(11, 20)": {
            "AM2L": [
                2526
            ], 
            "AM2F": [
                8320
            ], 
            "WBF": [
                4026
            ], 
            "BM1F": [
                8053
            ], 
            "M1": [
                5148
            ], 
            "irrelevant_Adj": [
                1
            ], 
            "M2": [
                6997
            ], 
            "BM1L": [
                8887
            ], 
            "WBO": [
                3962, 
                1323, 
                3459, 
                310, 
                4367
            ], 
            "WBL": [
                310
            ], 
            "irrelevant_Noun": [
                0
            ], 
            "M1_ADJ": [
                1
            ]
        }, 
        "location1": [
            11
        ], 
        "location2": [
            8, 
            20
        ], 
        "sentence": "pro - i know i can jump start a semi with these ( more importantly , i can get a jump from a semi - truck driver are the good guy btw ) - extra long at 25 ' - parrot clamp are strong , but an average guy can open them with one hand - copper insert in the parrot clamp is nice - clamp are rated at 500amps - they 're friggin heavy at near 14 lbs , yes that 's a pro !"
    }
}