{
    "aba1ea1a5e6bec74919eb998d133a6da": {
        "(11, 27)": {
            "AM2L": [
                4710
            ], 
            "AM2F": [
                2953
            ], 
            "WBF": [
                4026
            ], 
            "BM1F": [
                8053
            ], 
            "M1": [
                5148
            ], 
            "irrelevant_Adj": [
                1
            ], 
            "M2": [
                1209
            ], 
            "BM1L": [
                8887
            ], 
            "WBO": [
                3962, 
                1323, 
                3459, 
                310, 
                4367, 
                3338, 
                310, 
                6997, 
                8320, 
                2526, 
                688, 
                8034
            ], 
            "WBL": [
                3638
            ], 
            "irrelevant_Noun": [
                0
            ], 
            "M1_ADJ": [
                1
            ]
        }, 
        "location1": [
            11
        ], 
        "location2": [
            27
        ], 
        "sentence": "pro - i know i can jump start a semi with these ( more importantly , i can get a jump from a semi - truck driver are the good guy btw ) - extra long at 25 ' - parrot clamp are strong , but an average guy can open them with one hand - copper insert in the parrot clamp is nice - clamp are rated at 500amps - they 're friggin heavy at near 14 lbs , yes that 's a pro !"
    }
}