{
    "0160f1084e85eb7bc13afacf945c1e00": {
        "location1": [
            14
        ], 
        "location2": [
            2
        ], 
        "(14, 2)": {
            "AM2L": [
                1262
            ], 
            "AM2F": [
                6961
            ], 
            "WBF": [
                1918
            ], 
            "BM1F": [
                6757
            ], 
            "M1": [
                1339
            ], 
            "irrelevant_Adj": [
                1
            ], 
            "M2": [
                5148
            ], 
            "BM1L": [
                8034
            ], 
            "WBO": [
                8034, 
                4409, 
                3856, 
                1899, 
                929, 
                310, 
                1014, 
                2239
            ], 
            "WBL": [
                3149
            ], 
            "irrelevant_Noun": [
                0
            ], 
            "M1_ADJ": [
                0
            ]
        }, 
        "sentence": "the rubber cap covering the key hole could be a better design to fit more securely but i 'd buy it again ."
    }
}