{
    "ef1d109d225ed5682b9ffb33c8e3b985": {
        "(15, 8)": {
            "AM2L": [
                8805
            ], 
            "AM2F": [
                4625
            ], 
            "WBF": [
                7342
            ], 
            "BM1F": [
                116
            ], 
            "M1": [
                2454
            ], 
            "irrelevant_Adj": [
                1
            ], 
            "M2": [
                5148
            ], 
            "BM1L": [
                2914
            ], 
            "WBO": [
                4369, 
                1286, 
                1262
            ], 
            "WBL": [
                6972
            ], 
            "irrelevant_Noun": [
                0
            ], 
            "M1_ADJ": [
                0
            ]
        }, 
        "location1": [
            15
        ], 
        "location2": [
            8
        ], 
        "sentence": "for the money i was not expecting 200 dollar snap-on jumper cable but these seem more like what you would see at a chinese knock off shop like harbor freight for 30 buck ."
    }
}