{
    "76548e9d10d7ba055c25bdd0830fe3f1": {
        "(2, 14)": {
            "AM2L": [
                503
            ], 
            "AM2F": [
                5244
            ], 
            "WBF": [
                5979
            ], 
            "BM1F": [
                8
            ], 
            "M1": [
                5148
            ], 
            "irrelevant_Adj": [
                1
            ], 
            "M2": [
                5672
            ], 
            "BM1L": [
                4283
            ], 
            "WBO": [
                8162, 
                8034, 
                2750, 
                8034, 
                7647, 
                503, 
                3109, 
                4268
            ], 
            "WBL": [
                8058
            ], 
            "irrelevant_Noun": [
                0
            ], 
            "M1_ADJ": [
                1
            ]
        }, 
        "location1": [
            2
        ], 
        "location2": [
            14
        ], 
        "sentence": "it 's more power to the engine the stock air filter is just thick papersk & n ; air is way better ."
    }
}