{
    "c2e10ff7451f13af5fcfcce4de11f527": {
        "location1": [
            31
        ], 
        "location2": [
            7
        ], 
        "(31, 7)": {
            "AM2L": [
                599
            ], 
            "AM2F": [
                4646
            ], 
            "WBF": [
                5458
            ], 
            "BM1F": [
                3122
            ], 
            "M1": [
                5905
            ], 
            "irrelevant_Adj": [
                1
            ], 
            "M2": [
                5148
            ], 
            "BM1L": [
                8034
            ], 
            "WBO": [
                4403, 
                8997, 
                1358, 
                1564, 
                1262, 
                4283, 
                6976, 
                8162, 
                4940, 
                8028, 
                8806, 
                4158, 
                5503, 
                8527, 
                8162, 
                2577, 
                8040, 
                1358, 
                7144, 
                5387
            ], 
            "WBL": [
                969
            ], 
            "irrelevant_Noun": [
                0
            ], 
            "M1_ADJ": [
                0
            ]
        }, 
        "sentence": "maybe i do n't understand the finer point of keeping your car clean , but it seems to me that whatever instrument one us to dust their car should not leave behind more lint and strand of fabric than it pick up ."
    }, 
    "7a6ecbc6724a0fda8993520a16901abc": {
        "(17, 13)": {
            "AM2L": [
                4746
            ], 
            "AM2F": [
                8024
            ], 
            "WBF": [
                3962
            ], 
            "BM1F": [
                8073
            ], 
            "M1": [
                5905
            ], 
            "irrelevant_Adj": [
                1
            ], 
            "M2": [
                5148
            ], 
            "BM1L": [
                760
            ], 
            "WBO": [
                4625
            ], 
            "WBL": [
                4283
            ], 
            "irrelevant_Noun": [
                0
            ], 
            "M1_ADJ": [
                0
            ]
        }, 
        "(8, 13)": {
            "AM2L": [
                4625
            ], 
            "AM2F": [
                3962
            ], 
            "WBF": [
                8736
            ], 
            "BM1F": [
                8542
            ], 
            "M1": [
                5148
            ], 
            "irrelevant_Adj": [
                1
            ], 
            "M2": [
                5905
            ], 
            "BM1L": [
                2729
            ], 
            "WBO": [
                7362
            ], 
            "WBL": [
                8073
            ], 
            "irrelevant_Noun": [
                0
            ], 
            "M1_ADJ": [
                1
            ]
        }, 
        "location1": [
            8, 
            17
        ], 
        "location2": [
            13
        ], 
        "sentence": "it 's a bit heavy , and encourages using more water , so at this point i like it more than love it ."
    }
}