{
    "8b4d4e373695936271cf52b60faa8b8e": {
        "(11, 9)": {
            "AM2L": [
                599
            ], 
            "WBFL": [
                5191
            ], 
            "BM1F": [
                8324
            ], 
            "M1": [
                7433
            ], 
            "irrelevant_Adj": [
                1
            ], 
            "M2": [
                5148
            ], 
            "BM1L": [
                8826
            ], 
            "AM2F": [
                7395
            ], 
            "irrelevant_Noun": [
                0
            ], 
            "M1_ADJ": [
                0
            ]
        }, 
        "location1": [
            11
        ], 
        "location2": [
            9
        ], 
        "sentence": "this little bit of dynamat made the whole trunk sound much more solid and reduced the flexing ."
    }, 
    "523bf97e0301092154255c0f95414776": {
        "(14, 17)": {
            "AM2L": [
                4283
            ], 
            "AM2F": [
                4625
            ], 
            "WBF": [
                5979
            ], 
            "BM1F": [
                4671
            ], 
            "M1": [
                5148
            ], 
            "irrelevant_Adj": [
                1
            ], 
            "M2": [
                7433
            ], 
            "BM1L": [
                310
            ], 
            "WBO": [
                599
            ], 
            "WBL": [
                599
            ], 
            "irrelevant_Noun": [
                0
            ], 
            "M1_ADJ": [
                1
            ]
        }, 
        "location1": [
            14
        ], 
        "location2": [
            17
        ], 
        "sentence": "this filter combined with an airaid mrt helped my 2004 tahoe make a little more power and sound like it has a v8 under the hood !"
    }, 
    "0fc43446e5faaefa25ac5aad6f6f4e66": {
        "location1": [
            14
        ], 
        "location2": [
            9
        ], 
        "(14, 9)": {
            "WBF": [
                8812
            ], 
            "BM1F": [
                3216
            ], 
            "M1": [
                7433
            ], 
            "irrelevant_Adj": [
                1
            ], 
            "M2": [
                5148
            ], 
            "BM1L": [
                310
            ], 
            "WBO": [
                2528
            ], 
            "WBL": [
                5344
            ], 
            "irrelevant_Noun": [
                0
            ], 
            "M1_ADJ": [
                0
            ]
        }, 
        "sentence": "the top of my pt would make a flutering sound when driving , not no more ."
    }
}