{
    "f176788267c902afa336ac0c351ac000": {
        "(6, 9)": {
            "AM2L": [
                5458
            ], 
            "AM2F": [
                5574
            ], 
            "WBF": [
                5458
            ], 
            "BM1F": [
                8942
            ], 
            "M1": [
                5158
            ], 
            "irrelevant_Adj": [
                1
            ], 
            "M2": [
                8736
            ], 
            "BM1L": [
                4376
            ], 
            "WBO": [
                8034
            ], 
            "WBL": [
                8034
            ], 
            "irrelevant_Noun": [
                0
            ], 
            "M1_ADJ": [
                1
            ]
        }, 
        "location1": [
            6
        ], 
        "location2": [
            9
        ], 
        "sentence": "when you are done , just wring most of the water out of the absorber and roll it back into its plastic container for next time ."
    }
}