{
    "311f965842af6ed27d5034be21b9cb05": {
        "(11, 5)": {
            "AM2L": [
                8034
            ], 
            "AM2F": [
                5458
            ], 
            "WBF": [
                3338
            ], 
            "BM1F": [
                2853
            ], 
            "M1": [
                8979
            ], 
            "irrelevant_Adj": [
                1
            ], 
            "M2": [
                5158
            ], 
            "BM1L": [
                4818
            ], 
            "WBO": [
                3204, 
                599
            ], 
            "WBL": [
                2436
            ], 
            "irrelevant_Noun": [
                0
            ], 
            "M1_ADJ": [
                0
            ]
        }, 
        "location1": [
            11
        ], 
        "location2": [
            5
        ], 
        "sentence": "we go to maine every year from florida and i do most of the driving at night when a cleaner windshield is nice to have ."
    }
}