{
    "3357b99e51e4e42a9c9e239717e7e250": {
        "location1": [
            22
        ], 
        "location2": [
            8
        ], 
        "(22, 8)": {
            "AM2L": [
                3349
            ], 
            "AM2F": [
                1360
            ], 
            "WBF": [
                8819
            ], 
            "BM1F": [
                720
            ], 
            "M1": [
                6935
            ], 
            "irrelevant_Adj": [
                1
            ], 
            "M2": [
                5158
            ], 
            "BM1L": [
                7760
            ], 
            "WBO": [
                4268, 
                310, 
                3518, 
                6103, 
                1262, 
                8034, 
                1821, 
                4268, 
                2317, 
                8162
            ], 
            "WBL": [
                4216
            ], 
            "irrelevant_Noun": [
                0
            ], 
            "M1_ADJ": [
                0
            ]
        }, 
        "sentence": "i use mine for fuel additive such as seafoam , which is a good product but the container is difficult to pour into most car/truck fuel tank ."
    }
}