{
    "ae8b53edc7e170c4cd952b526a027e1e": {
        "(1, 24)": {
            "WBF": [
                1358
            ], 
            "BM1F": [
                4625
            ], 
            "M1": [
                5158
            ], 
            "irrelevant_Adj": [
                1
            ], 
            "M2": [
                5683
            ], 
            "WBO": [
                2257, 
                2783, 
                3962, 
                5311, 
                4626, 
                8162, 
                6966, 
                161, 
                3915, 
                5458, 
                2260, 
                8907, 
                2251, 
                4043, 
                310, 
                1907, 
                5458, 
                2087, 
                5458
            ], 
            "WBL": [
                599
            ], 
            "irrelevant_Noun": [
                0
            ], 
            "M1_ADJ": [
                1
            ]
        }, 
        "location1": [
            1
        ], 
        "location2": [
            24
        ], 
        "sentence": "like most car detail enthusiast , i never liked to see 3 hour of detailing work destroyed in a couple of day of driving and parking ."
    }
}