{
    "311f965842af6ed27d5034be21b9cb05": {
        "(11, 16)": {
            "AM2L": [
                310
            ], 
            "AM2F": [
                8812
            ], 
            "WBF": [
                5458
            ], 
            "BM1F": [
                2436
            ], 
            "M1": [
                5158
            ], 
            "irrelevant_Adj": [
                1
            ], 
            "M2": [
                5333
            ], 
            "BM1L": [
                3962
            ], 
            "WBO": [
                8034
            ], 
            "WBL": [
                760
            ], 
            "irrelevant_Noun": [
                1
            ], 
            "M1_ADJ": [
                1
            ]
        }, 
        "location1": [
            11
        ], 
        "location2": [
            16
        ], 
        "sentence": "we go to maine every year from florida and i do most of the driving at night when a cleaner windshield is nice to have ."
    }
}