{
    "1d03ac92a7e85756ac441e67d3467456": {
        "(7, 15)": {
            "AM2L": [
                3459
            ], 
            "AM2F": [
                2812
            ], 
            "WBF": [
                8587
            ], 
            "BM1F": [
                5158
            ], 
            "M1": [
                5166
            ], 
            "irrelevant_Adj": [
                0
            ], 
            "M2": [
                3019
            ], 
            "BM1L": [
                3459
            ], 
            "WBO": [
                8501, 
                599, 
                6776, 
                3252
            ], 
            "WBL": [
                599
            ], 
            "irrelevant_Noun": [
                0
            ], 
            "M1_ADJ": [
                1
            ]
        }, 
        "location1": [
            7
        ], 
        "location2": [
            15
        ], 
        "sentence": "these are good enough to get most motorized vehicle up and running , for semi and farm equipment , get solid copper ."
    }
}