{
    "978e534161673a566b836ae2fe59f719": {
        "(10, 3)": {
            "AM2F": [
                1462
            ], 
            "WBF": [
                8931
            ], 
            "BM1F": [
                3248
            ], 
            "M1": [
                1874
            ], 
            "irrelevant_Adj": [
                0
            ], 
            "M2": [
                5169
            ], 
            "BM1L": [
                57
            ], 
            "WBO": [
                929, 
                6662, 
                5495
            ], 
            "WBL": [
                1358
            ], 
            "irrelevant_Noun": [
                0
            ], 
            "M1_ADJ": [
                0
            ]
        }, 
        "location1": [
            10
        ], 
        "location2": [
            3
        ], 
        "sentence": "a 12 foot cord would be ridiculous on a car mountable charger ."
    }
}