{
    "978e534161673a566b836ae2fe59f719": {
        "location1": [
            10
        ], 
        "location2": [
            11
        ], 
        "(10, 11)": {
            "BM1F": [
                1358
            ], 
            "M1": [
                5169
            ], 
            "irrelevant_Adj": [
                0
            ], 
            "M2": [
                1462
            ], 
            "BM1L": [
                310
            ], 
            "WBNULL": [
                1
            ], 
            "irrelevant_Noun": [
                0
            ], 
            "M1_ADJ": [
                1
            ]
        }, 
        "sentence": "a 12 foot cord would be ridiculous on a car mountable charger ."
    }
}