{
    "35a5504bc8305ada41cbed2fbf371a9f": {
        "(7, 17)": {
            "AM2L": [
                3252
            ], 
            "AM2F": [
                1262
            ], 
            "WBF": [
                5148
            ], 
            "BM1F": [
                599
            ], 
            "M1": [
                5191
            ], 
            "irrelevant_Adj": [
                0
            ], 
            "M2": [
                8907
            ], 
            "BM1L": [
                7425
            ], 
            "WBO": [
                2917, 
                5432, 
                6867, 
                4043, 
                3835, 
                2087
            ], 
            "WBL": [
                2087
            ], 
            "irrelevant_Noun": [
                0
            ], 
            "M1_ADJ": [
                1
            ]
        }, 
        "location1": [
            7
        ], 
        "location2": [
            17
        ], 
        "sentence": "my mechanic us a more sophisticated ( and much more expensive ) obd scanner in his day to day work , but for someone who does occasional maintenance on his own car , this tool is worth the $ 89 investment ."
    }, 
    "74c6114749fd6b611901c5d1da8a2738": {
        "(7, 8)": {
            "AM2L": [
                4144
            ], 
            "BM1F": [
                8188
            ], 
            "M1": [
                5191
            ], 
            "irrelevant_Adj": [
                0
            ], 
            "M2": [
                8907
            ], 
            "BM1L": [
                4376
            ], 
            "WBNULL": [
                1
            ], 
            "irrelevant_Noun": [
                0
            ], 
            "AM2F": [
                8162
            ], 
            "M1_ADJ": [
                1
            ]
        }, 
        "location1": [
            7, 
            21
        ], 
        "location2": [
            8
        ], 
        "(21, 8)": {
            "AM2F": [
                2312
            ], 
            "WBF": [
                8162
            ], 
            "BM1F": [
                5191
            ], 
            "M1": [
                8907
            ], 
            "irrelevant_Adj": [
                0
            ], 
            "M2": [
                5191
            ], 
            "BM1L": [
                8188
            ], 
            "WBO": [
                4144, 
                599, 
                3962, 
                3117, 
                4283, 
                3688, 
                8162, 
                978, 
                8057
            ], 
            "WBL": [
                4829
            ], 
            "irrelevant_Noun": [
                0
            ], 
            "M1_ADJ": [
                0
            ]
        }, 
        "sentence": "i returned because it is just too much work to install and i find it hard to believe they would make much difference ."
    }, 
    "a48c1c88dab6b1bd870abeafb967793a": {
        "(4, 1)": {
            "AM2L": [
                8162
            ], 
            "AM2F": [
                2614
            ], 
            "WBF": [
                599
            ], 
            "BM1F": [
                4283
            ], 
            "M1": [
                8907
            ], 
            "irrelevant_Adj": [
                0
            ], 
            "M2": [
                5191
            ], 
            "WBO": [
                4268
            ], 
            "WBL": [
                4268
            ], 
            "irrelevant_Noun": [
                0
            ], 
            "M1_ADJ": [
                0
            ]
        }, 
        "location1": [
            4
        ], 
        "location2": [
            1
        ], 
        "sentence": "it work and is much easier to lock/unlock with the key facing you than if it is pointed to the side ."
    }
}