{
    "20836f425883312e0cf331243493b4f9": {
        "(11, 1)": {
            "AM2L": [
                8162
            ], 
            "AM2F": [
                2614
            ], 
            "WBF": [
                8034
            ], 
            "BM1F": [
                475
            ], 
            "M1": [
                668
            ], 
            "irrelevant_Adj": [
                0
            ], 
            "M2": [
                5191
            ], 
            "WBO": [
                8872, 
                1054, 
                5344, 
                4713, 
                4559, 
                7688
            ], 
            "WBL": [
                944
            ], 
            "irrelevant_Noun": [
                0
            ], 
            "M1_ADJ": [
                0
            ]
        }, 
        "location1": [
            11
        ], 
        "location2": [
            1
        ], 
        "sentence": "after application , the wiper blade no longer left streak , it became much easier to clearly see outside and the water beaded and blew away ."
    }
}