{
    "5a3ee38e3d02d533c17b74be3b6c4b97": {
        "location1": [
            20
        ], 
        "location2": [
            7
        ], 
        "(20, 7)": {
            "AM2L": [
                8657
            ], 
            "AM2F": [
                7311
            ], 
            "WBF": [
                4134
            ], 
            "BM1F": [
                6038
            ], 
            "M1": [
                1231
            ], 
            "irrelevant_Adj": [
                0
            ], 
            "M2": [
                5191
            ], 
            "BM1L": [
                5774
            ], 
            "WBO": [
                8034, 
                3903, 
                599, 
                8051, 
                8034, 
                2906, 
                5458, 
                8736, 
                8718
            ], 
            "WBL": [
                310
            ], 
            "irrelevant_Noun": [
                0
            ], 
            "M1_ADJ": [
                0
            ]
        }, 
        "sentence": "the small diameter would not permit pressure buildup inside the hose and therefore the exit of water was at a much smaller volume than a standard hose ."
    }
}