{
    "fa15bb41cf41d0229aca9d0cf3f80b87": {
        "location1": [
            6
        ], 
        "location2": [
            16
        ], 
        "(6, 16)": {
            "AM2L": [
                4369
            ], 
            "AM2F": [
                5458
            ], 
            "WBF": [
                2614
            ], 
            "BM1F": [
                8
            ], 
            "M1": [
                5191
            ], 
            "irrelevant_Adj": [
                0
            ], 
            "M2": [
                7042
            ], 
            "BM1L": [
                4283
            ], 
            "WBO": [
                8162, 
                3459, 
                310, 
                4367, 
                3985, 
                8991
            ], 
            "WBL": [
                310
            ], 
            "irrelevant_Noun": [
                0
            ], 
            "M1_ADJ": [
                1
            ]
        }, 
        "sentence": "in time like that , it 's much easier to get a jump if you own a set of jumper cable ."
    }
}