{
    "5a3ee38e3d02d533c17b74be3b6c4b97": {
        "location1": [
            20
        ], 
        "location2": [
            22
        ], 
        "(20, 22)": {
            "AM2L": [
                310
            ], 
            "WBFL": [
                7311
            ], 
            "BM1F": [
                310
            ], 
            "M1": [
                5191
            ], 
            "irrelevant_Adj": [
                0
            ], 
            "M2": [
                8657
            ], 
            "BM1L": [
                760
            ], 
            "AM2F": [
                8024
            ], 
            "irrelevant_Noun": [
                0
            ], 
            "M1_ADJ": [
                1
            ]
        }, 
        "sentence": "the small diameter would not permit pressure buildup inside the hose and therefore the exit of water was at a much smaller volume than a standard hose ."
    }
}