{
    "35a5504bc8305ada41cbed2fbf371a9f": {
        "(7, 30)": {
            "AM2L": [
                8927
            ], 
            "AM2F": [
                4268
            ], 
            "WBF": [
                5148
            ], 
            "BM1F": [
                599
            ], 
            "M1": [
                5191
            ], 
            "irrelevant_Adj": [
                0
            ], 
            "M2": [
                8190
            ], 
            "BM1L": [
                7425
            ], 
            "WBO": [
                2917, 
                5432, 
                6867, 
                4043, 
                3835, 
                2087, 
                8162, 
                2087, 
                8907, 
                1262, 
                3252, 
                7408, 
                8824, 
                2445, 
                5442, 
                4826, 
                5495, 
                3835, 
                5624
            ], 
            "WBL": [
                8073
            ], 
            "irrelevant_Noun": [
                0
            ], 
            "M1_ADJ": [
                1
            ]
        }, 
        "location1": [
            7
        ], 
        "location2": [
            30
        ], 
        "sentence": "my mechanic us a more sophisticated ( and much more expensive ) obd scanner in his day to day work , but for someone who does occasional maintenance on his own car , this tool is worth the $ 89 investment ."
    }
}