{
    "0c4918492cc1c417924af3afcb6fb372": {
        "(17, 19)": {
            "WBFL": [
                3962
            ], 
            "BM1F": [
                2911
            ], 
            "M1": [
                5191
            ], 
            "irrelevant_Adj": [
                0
            ], 
            "M2": [
                3618
            ], 
            "BM1L": [
                6354
            ], 
            "irrelevant_Noun": [
                0
            ], 
            "M1_ADJ": [
                1
            ]
        }, 
        "location1": [
            17
        ], 
        "location2": [
            19
        ], 
        "sentence": "i had hoped for a little more power on the high pressure setting but cant really expect much i guess ."
    }
}