{
    "4ab97dd30e1df24f5b4f8945d6830292": {
        "(8, 12)": {
            "AM2L": [
                194
            ], 
            "AM2F": [
                599
            ], 
            "WBF": [
                1872
            ], 
            "BM1F": [
                720
            ], 
            "M1": [
                5191
            ], 
            "irrelevant_Adj": [
                0
            ], 
            "M2": [
                282
            ], 
            "BM1L": [
                8362
            ], 
            "WBO": [
                8874
            ], 
            "WBL": [
                720
            ], 
            "irrelevant_Noun": [
                0
            ], 
            "M1_ADJ": [
                1
            ]
        }, 
        "(20, 12)": {
            "AM2L": [
                250
            ], 
            "AM2F": [
                720
            ], 
            "WBF": [
                599
            ], 
            "BM1F": [
                720
            ], 
            "M1": [
                282
            ], 
            "irrelevant_Adj": [
                0
            ], 
            "M2": [
                5191
            ], 
            "BM1L": [
                8874
            ], 
            "WBO": [
                194, 
                4268, 
                310, 
                325
            ], 
            "WBL": [
                720
            ], 
            "irrelevant_Noun": [
                0
            ], 
            "M1_ADJ": [
                0
            ]
        }, 
        "location1": [
            8, 
            20
        ], 
        "location2": [
            12
        ], 
        "sentence": "so for example 6-ga has about twice as much copper wire as 8-ga , and 4-ga is a about twice as much as 6-ga , so on and so on ."
    }
}