{
    "d4958344764a5b94f492d271352d769d": {
        "location1": [
            6
        ], 
        "location2": [
            8
        ], 
        "(6, 8)": {
            "WBFL": [
                7662
            ], 
            "BM1F": [
                8501
            ], 
            "M1": [
                5191
            ], 
            "irrelevant_Adj": [
                0
            ], 
            "M2": [
                7449
            ], 
            "BM1L": [
                7910
            ], 
            "irrelevant_Noun": [
                0
            ], 
            "M1_ADJ": [
                1
            ]
        }, 
        "sentence": "they also do n't take up much storage space ."
    }
}