{
    "35a5504bc8305ada41cbed2fbf371a9f": {
        "location1": [
            7
        ], 
        "location2": [
            28
        ], 
        "(7, 28)": {
            "AM2L": [
                8190
            ], 
            "AM2F": [
                8073
            ], 
            "WBF": [
                5148
            ], 
            "BM1F": [
                599
            ], 
            "M1": [
                5191
            ], 
            "irrelevant_Adj": [
                0
            ], 
            "M2": [
                1358
            ], 
            "BM1L": [
                7425
            ], 
            "WBO": [
                2917, 
                5432, 
                6867, 
                4043, 
                3835, 
                2087, 
                8162, 
                2087, 
                8907, 
                1262, 
                3252, 
                7408, 
                8824, 
                2445, 
                5442, 
                4826, 
                5495
            ], 
            "WBL": [
                5624
            ], 
            "irrelevant_Noun": [
                0
            ], 
            "M1_ADJ": [
                1
            ]
        }, 
        "sentence": "my mechanic us a more sophisticated ( and much more expensive ) obd scanner in his day to day work , but for someone who does occasional maintenance on his own car , this tool is worth the $ 89 investment ."
    }, 
    "94f654d88822f9afb698d3b0cae99f3b": {
        "location1": [
            7
        ], 
        "location2": [
            2
        ], 
        "(7, 2)": {
            "AM2L": [
                8024
            ], 
            "AM2F": [
                5148
            ], 
            "WBF": [
                2580
            ], 
            "BM1F": [
                1305
            ], 
            "M1": [
                1358
            ], 
            "irrelevant_Adj": [
                0
            ], 
            "M2": [
                5191
            ], 
            "BM1L": [
                8034
            ], 
            "WBO": [
                3705
            ], 
            "WBL": [
                7362
            ], 
            "irrelevant_Noun": [
                0
            ], 
            "M1_ADJ": [
                0
            ]
        }, 
        "sentence": "the california car duster has been so much more than i expected ."
    }, 
    "c4a15b6fa06735b9455a332bb5ce910b": {
        "location1": [
            3
        ], 
        "location2": [
            15
        ], 
        "(3, 15)": {
            "WBF": [
                2614
            ], 
            "BM1F": [
                4283
            ], 
            "M1": [
                5191
            ], 
            "irrelevant_Adj": [
                0
            ], 
            "M2": [
                1358
            ], 
            "BM1L": [
                3117
            ], 
            "WBO": [
                8162, 
                8531, 
                8073, 
                1445, 
                5595, 
                310, 
                8227, 
                8821
            ], 
            "WBL": [
                310
            ], 
            "irrelevant_Noun": [
                0
            ], 
            "M1_ADJ": [
                1
            ]
        }, 
        "sentence": "i find it much easier to use this chamois over a towel while drying a car ."
    }, 
    "668be39467a0e171ca29e6501446145e": {
        "(3, 8)": {
            "WBF": [
                8812
            ], 
            "BM1F": [
                7362
            ], 
            "M1": [
                5191
            ], 
            "irrelevant_Adj": [
                0
            ], 
            "M2": [
                1358
            ], 
            "BM1L": [
                3776
            ], 
            "WBO": [
                8724
            ], 
            "WBL": [
                5624
            ], 
            "irrelevant_Noun": [
                0
            ], 
            "M1_ADJ": [
                1
            ]
        }, 
        "location1": [
            3
        ], 
        "location2": [
            8
        ], 
        "sentence": "it help so much when washing your own car ."
    }, 
    "db11e559d15a272afb1f623c9e0f543f": {
        "(29, 7)": {
            "AM2L": [
                2481
            ], 
            "AM2F": [
                8736
            ], 
            "WBF": [
                5543
            ], 
            "BM1F": [
                310
            ], 
            "M1": [
                1358
            ], 
            "irrelevant_Adj": [
                0
            ], 
            "M2": [
                5191
            ], 
            "BM1L": [
                8724
            ], 
            "WBO": [
                1026, 
                4344, 
                4625, 
                3905, 
                2481, 
                310, 
                5930, 
                5543, 
                6922, 
                1262, 
                3252, 
                8739, 
                5969, 
                5860, 
                599, 
                8287, 
                8073, 
                5410
            ], 
            "WBL": [
                8188
            ], 
            "irrelevant_Noun": [
                0
            ], 
            "M1_ADJ": [
                0
            ]
        }, 
        "location1": [
            29
        ], 
        "location2": [
            7
        ], 
        "sentence": "this would be great for washing a car or big job like hosing down a pool or screen , but for watering potted plant and tree , this nozzle put too much water down and creates splashing ."
    }, 
    "2f122d99f366bcd758bd0a03260a0a97": {
        "location1": [
            26
        ], 
        "location2": [
            15
        ], 
        "(26, 15)": {
            "AM2L": [
                8073
            ], 
            "AM2F": [
                8736
            ], 
            "WBF": [
                475
            ], 
            "BM1F": [
                5232
            ], 
            "M1": [
                1358
            ], 
            "irrelevant_Adj": [
                0
            ], 
            "M2": [
                5191
            ], 
            "BM1L": [
                2545
            ], 
            "WBO": [
                310, 
                3518, 
                8719, 
                8991, 
                8851, 
                929, 
                7830
            ], 
            "WBL": [
                3920
            ], 
            "irrelevant_Noun": [
                0
            ], 
            "M1_ADJ": [
                0
            ]
        }, 
        "sentence": "i know these have many many us but i just use it to dry my car after a good wash . you will be surprised by how much water this thing will hold ."
    }, 
    "d102132ed156445bd0c31ed170163111": {
        "location1": [
            24
        ], 
        "location2": [
            17
        ], 
        "(24, 17)": {
            "AM2F": [
                8060
            ], 
            "WBF": [
                8057
            ], 
            "BM1F": [
                5232
            ], 
            "M1": [
                1358
            ], 
            "irrelevant_Adj": [
                0
            ], 
            "M2": [
                5191
            ], 
            "BM1L": [
                3252
            ], 
            "WBO": [
                2436, 
                5245, 
                6354
            ], 
            "WBL": [
                8028
            ], 
            "irrelevant_Noun": [
                0
            ], 
            "M1_ADJ": [
                0
            ]
        }, 
        "sentence": "( update : after compairing them to the 4ga cable i bought a month or so back for my car , they do n't really seem that much thicker ."
    }, 
    "ddd8a4a313d43764956236ff4b6f1ec8": {
        "(17, 30)": {
            "AM2L": [
                720
            ], 
            "AM2F": [
                5275
            ], 
            "WBF": [
                4713
            ], 
            "BM1F": [
                3252
            ], 
            "M1": [
                5191
            ], 
            "irrelevant_Adj": [
                0
            ], 
            "M2": [
                1358
            ], 
            "BM1L": [
                1914
            ], 
            "WBO": [
                8819, 
                4043, 
                8351, 
                4942, 
                3962, 
                2436, 
                5245, 
                3717, 
                8162
            ], 
            "WBL": [
                8034
            ], 
            "irrelevant_Noun": [
                0
            ], 
            "M1_ADJ": [
                1
            ]
        }, 
        "sentence": "now i find that i can keep the car dust free and use the car cover for much longer , which in turn mean i do n't have to wash the car nearly as often .", 
        "location2": [
            8, 
            14, 
            30
        ], 
        "location1": [
            17
        ], 
        "(17, 14)": {
            "AM2L": [
                8819
            ], 
            "AM2F": [
                4713
            ], 
            "WBF": [
                1914
            ], 
            "BM1F": [
                8034
            ], 
            "M1": [
                1358
            ], 
            "irrelevant_Adj": [
                0
            ], 
            "M2": [
                5191
            ], 
            "BM1L": [
                8531
            ], 
            "WBO": [
                3252
            ], 
            "WBL": [
                3252
            ], 
            "irrelevant_Noun": [
                0
            ], 
            "M1_ADJ": [
                0
            ]
        }, 
        "(17, 8)": {
            "AM2L": [
                8819
            ], 
            "AM2F": [
                4713
            ], 
            "WBF": [
                2577
            ], 
            "BM1F": [
                8034
            ], 
            "M1": [
                1358
            ], 
            "irrelevant_Adj": [
                0
            ], 
            "M2": [
                5191
            ], 
            "BM1L": [
                4401
            ], 
            "WBO": [
                3312, 
                599, 
                8531, 
                8034, 
                1358
            ], 
            "WBL": [
                3252
            ], 
            "irrelevant_Noun": [
                0
            ], 
            "M1_ADJ": [
                0
            ]
        }
    }, 
    "bdbbd06472fb21d43b85df586734cbbb": {
        "location1": [
            10
        ], 
        "location2": [
            4
        ], 
        "(10, 4)": {
            "WBF": [
                3338
            ], 
            "BM1F": [
                5232
            ], 
            "M1": [
                1358
            ], 
            "irrelevant_Adj": [
                0
            ], 
            "M2": [
                5191
            ], 
            "BM1L": [
                2059
            ], 
            "WBO": [
                8034, 
                7521
            ], 
            "WBL": [
                7424
            ], 
            "irrelevant_Noun": [
                0
            ], 
            "M1_ADJ": [
                0
            ]
        }, 
        "sentence": "this product dampened my car from the sport exhaust sooooo much ! ! ! !"
    }, 
    "c13b231c8ee645d71db771b692151d32": {
        "(13, 40)": {
            "WBF": [
                4370
            ], 
            "BM1F": [
                720
            ], 
            "M1": [
                5191
            ], 
            "irrelevant_Adj": [
                0
            ], 
            "M2": [
                1358
            ], 
            "BM1L": [
                3459
            ], 
            "WBO": [
                5967, 
                720, 
                4873, 
                5458, 
                8034, 
                7362, 
                1307, 
                4369, 
                1286, 
                5495, 
                8034, 
                4887, 
                8049, 
                7144, 
                929, 
                4526, 
                482, 
                4888, 
                6103, 
                8028, 
                1323, 
                5387, 
                4367
            ], 
            "WBL": [
                310
            ], 
            "irrelevant_Noun": [
                0
            ], 
            "M1_ADJ": [
                1
            ]
        }, 
        "location1": [
            13
        ], 
        "location2": [
            40
        ], 
        "sentence": "i 'm serious , buy an extension cord for $ 5 and you get as much jumping potential as many of the so called ' jumper ' cable on the market -- - there should be law against marketing product that can not jump start a car ."
    }, 
    "5feadc6b5b2bce603ada3a67e9e59ba3": {
        "(24, 13)": {
            "AM2L": [
                8024
            ], 
            "AM2F": [
                1571
            ], 
            "WBF": [
                4268
            ], 
            "BM1F": [
                8034
            ], 
            "M1": [
                1358
            ], 
            "irrelevant_Adj": [
                0
            ], 
            "M2": [
                5191
            ], 
            "BM1L": [
                8813
            ], 
            "WBO": [
                5181, 
                4556, 
                310, 
                8603, 
                1568, 
                8618, 
                8105
            ], 
            "WBL": [
                8862
            ], 
            "irrelevant_Noun": [
                0
            ], 
            "M1_ADJ": [
                0
            ]
        }, 
        "location1": [
            24
        ], 
        "location2": [
            13
        ], 
        "sentence": "water drop still land on the windshield , but immediately roll off whenever the car is moving , leaving a very clear view through the windshield - much clearer than even with wiper on high ."
    }, 
    "820f3ffea335bb3dd8a32dea99cf7ef5": {
        "(6, 29)": {
            "AM2F": [
                1014
            ], 
            "WBF": [
                1014
            ], 
            "BM1F": [
                7362
            ], 
            "M1": [
                5191
            ], 
            "irrelevant_Adj": [
                0
            ], 
            "M2": [
                1358
            ], 
            "BM1L": [
                1445
            ], 
            "WBO": [
                945, 
                4283, 
                2445, 
                5245, 
                4555, 
                7688, 
                5495, 
                3485, 
                8860, 
                599, 
                4283, 
                1564, 
                8501, 
                8034, 
                8736, 
                599, 
                636, 
                4560, 
                2356
            ], 
            "WBL": [
                8034
            ], 
            "irrelevant_Noun": [
                0
            ], 
            "M1_ADJ": [
                1
            ]
        }, 
        "location1": [
            6
        ], 
        "location2": [
            29
        ], 
        "sentence": "i like genuine leather chamois so much better because it does n't leave streak on glass window and it clean up the water and any leftover dirt on the car better ."
    }
}