{
    "820f3ffea335bb3dd8a32dea99cf7ef5": {
        "(6, 3)": {
            "AM2L": [
                945
            ], 
            "AM2F": [
                1014
            ], 
            "WBF": [
                1445
            ], 
            "BM1F": [
                3453
            ], 
            "M1": [
                4554
            ], 
            "irrelevant_Adj": [
                0
            ], 
            "M2": [
                5191
            ], 
            "BM1L": [
                4625
            ], 
            "WBO": [
                7362
            ], 
            "WBL": [
                7362
            ], 
            "irrelevant_Noun": [
                0
            ], 
            "M1_ADJ": [
                0
            ]
        }, 
        "location1": [
            6
        ], 
        "location2": [
            3
        ], 
        "sentence": "i like genuine leather chamois so much better because it does n't leave streak on glass window and it clean up the water and any leftover dirt on the car better ."
    }
}