{
    "6d9c2358cc5308c41d2b73957250dc90": {
        "(9, 7)": {
            "WBFL": [
                720
            ], 
            "BM1F": [
                8997
            ], 
            "M1": [
                8872
            ], 
            "irrelevant_Adj": [
                0
            ], 
            "M2": [
                5191
            ], 
            "BM1L": [
                8531
            ], 
            "irrelevant_Noun": [
                0
            ], 
            "M1_ADJ": [
                0
            ]
        }, 
        "location1": [
            9
        ], 
        "location2": [
            7
        ], 
        "sentence": "you do not have to use your wiper as much ."
    }, 
    "f22864dd7f3440bae8b0e6be1f2e5e2d": {
        "location1": [
            10
        ], 
        "location2": [
            21
        ], 
        "(10, 21)": {
            "WBF": [
                8034
            ], 
            "BM1F": [
                4268
            ], 
            "M1": [
                5191
            ], 
            "irrelevant_Adj": [
                0
            ], 
            "M2": [
                8872
            ], 
            "BM1L": [
                2647
            ], 
            "WBO": [
                6830, 
                599, 
                8833, 
                7760, 
                5856, 
                2436, 
                5245
            ], 
            "WBL": [
                3717
            ], 
            "irrelevant_Noun": [
                0
            ], 
            "M1_ADJ": [
                1
            ]
        }, 
        "sentence": "for those who have flown small plane , the effect is much the same , and why such plane do n't even have wiper ."
    }, 
    "20836f425883312e0cf331243493b4f9": {
        "location1": [
            11
        ], 
        "location2": [
            3
        ], 
        "(11, 3)": {
            "AM2L": [
                8162
            ], 
            "AM2F": [
                2614
            ], 
            "WBF": [
                1054
            ], 
            "BM1F": [
                8034
            ], 
            "M1": [
                8872
            ], 
            "irrelevant_Adj": [
                0
            ], 
            "M2": [
                5191
            ], 
            "BM1L": [
                668
            ], 
            "WBO": [
                5344, 
                4713, 
                4559, 
                7688
            ], 
            "WBL": [
                944
            ], 
            "irrelevant_Noun": [
                0
            ], 
            "M1_ADJ": [
                0
            ]
        }, 
        "sentence": "after application , the wiper blade no longer left streak , it became much easier to clearly see outside and the water beaded and blew away ."
    }, 
    "5feadc6b5b2bce603ada3a67e9e59ba3": {
        "(24, 29)": {
            "AM2L": [
                3808
            ], 
            "AM2F": [
                5495
            ], 
            "WBF": [
                1571
            ], 
            "BM1F": [
                8862
            ], 
            "M1": [
                5191
            ], 
            "irrelevant_Adj": [
                0
            ], 
            "M2": [
                8872
            ], 
            "BM1L": [
                8034
            ], 
            "WBO": [
                8024
            ], 
            "WBL": [
                8887
            ], 
            "irrelevant_Noun": [
                0
            ], 
            "M1_ADJ": [
                1
            ]
        }, 
        "location1": [
            24
        ], 
        "location2": [
            29
        ], 
        "sentence": "water drop still land on the windshield , but immediately roll off whenever the car is moving , leaving a very clear view through the windshield - much clearer than even with wiper on high ."
    }
}