{
    "4ab97dd30e1df24f5b4f8945d6830292": {
        "(20, 2)": {
            "AM2L": [
                250
            ], 
            "AM2F": [
                720
            ], 
            "WBF": [
                250
            ], 
            "BM1F": [
                3252
            ], 
            "M1": [
                2877
            ], 
            "irrelevant_Adj": [
                0
            ], 
            "M2": [
                5191
            ], 
            "BM1L": [
                7362
            ], 
            "WBO": [
                3705, 
                325, 
                8362, 
                720, 
                5191, 
                1872, 
                8874, 
                720, 
                282, 
                599, 
                194, 
                4268, 
                310, 
                325
            ], 
            "WBL": [
                720
            ], 
            "irrelevant_Noun": [
                0
            ], 
            "M1_ADJ": [
                0
            ]
        }, 
        "location1": [
            8, 
            20
        ], 
        "location2": [
            2
        ], 
        "(8, 2)": {
            "AM2L": [
                8874
            ], 
            "AM2F": [
                1872
            ], 
            "WBF": [
                250
            ], 
            "BM1F": [
                3252
            ], 
            "M1": [
                2877
            ], 
            "irrelevant_Adj": [
                0
            ], 
            "M2": [
                5191
            ], 
            "BM1L": [
                7362
            ], 
            "WBO": [
                3705, 
                325
            ], 
            "WBL": [
                720
            ], 
            "irrelevant_Noun": [
                0
            ], 
            "M1_ADJ": [
                0
            ]
        }, 
        "sentence": "so for example 6-ga has about twice as much copper wire as 8-ga , and 4-ga is a about twice as much as 6-ga , so on and so on ."
    }
}