{
    "35a5504bc8305ada41cbed2fbf371a9f": {
        "(7, 16)": {
            "AM2L": [
                1262
            ], 
            "AM2F": [
                8907
            ], 
            "WBF": [
                5148
            ], 
            "BM1F": [
                599
            ], 
            "M1": [
                5191
            ], 
            "irrelevant_Adj": [
                0
            ], 
            "M2": [
                2087
            ], 
            "BM1L": [
                7425
            ], 
            "WBO": [
                2917, 
                5432, 
                6867, 
                4043, 
                3835
            ], 
            "WBL": [
                8162
            ], 
            "irrelevant_Noun": [
                1
            ], 
            "M1_ADJ": [
                1
            ]
        }, 
        "(7, 14)": {
            "AM2L": [
                2087
            ], 
            "AM2F": [
                8162
            ], 
            "WBF": [
                5148
            ], 
            "BM1F": [
                599
            ], 
            "M1": [
                5191
            ], 
            "irrelevant_Adj": [
                0
            ], 
            "M2": [
                2087
            ], 
            "BM1L": [
                7425
            ], 
            "WBO": [
                2917, 
                5432, 
                6867
            ], 
            "WBL": [
                3835
            ], 
            "irrelevant_Noun": [
                1
            ], 
            "M1_ADJ": [
                1
            ]
        }, 
        "location1": [
            7
        ], 
        "location2": [
            14, 
            16
        ], 
        "sentence": "my mechanic us a more sophisticated ( and much more expensive ) obd scanner in his day to day work , but for someone who does occasional maintenance on his own car , this tool is worth the $ 89 investment ."
    }
}