{
    "5a3ee38e3d02d533c17b74be3b6c4b97": {
        "(20, 2)": {
            "AM2L": [
                8657
            ], 
            "AM2F": [
                7311
            ], 
            "WBF": [
                8931
            ], 
            "BM1F": [
                7308
            ], 
            "M1": [
                2301
            ], 
            "irrelevant_Adj": [
                0
            ], 
            "M2": [
                5191
            ], 
            "BM1L": [
                8034
            ], 
            "WBO": [
                5387, 
                5774, 
                6038, 
                1231, 
                4134, 
                8034, 
                3903, 
                599, 
                8051, 
                8034, 
                2906, 
                5458, 
                8736, 
                8718
            ], 
            "WBL": [
                310
            ], 
            "irrelevant_Noun": [
                0
            ], 
            "M1_ADJ": [
                0
            ]
        }, 
        "location1": [
            20
        ], 
        "location2": [
            2
        ], 
        "sentence": "the small diameter would not permit pressure buildup inside the hose and therefore the exit of water was at a much smaller volume than a standard hose ."
    }
}