{
    "db11e559d15a272afb1f623c9e0f543f": {
        "(29, 22)": {
            "AM2L": [
                2481
            ], 
            "AM2F": [
                8736
            ], 
            "WBF": [
                599
            ], 
            "BM1F": [
                5969
            ], 
            "M1": [
                5860
            ], 
            "irrelevant_Adj": [
                0
            ], 
            "M2": [
                5191
            ], 
            "BM1L": [
                8739
            ], 
            "WBO": [
                8287, 
                8073, 
                5410
            ], 
            "WBL": [
                8188
            ], 
            "irrelevant_Noun": [
                0
            ], 
            "M1_ADJ": [
                0
            ]
        }, 
        "location1": [
            29
        ], 
        "location2": [
            22
        ], 
        "sentence": "this would be great for washing a car or big job like hosing down a pool or screen , but for watering potted plant and tree , this nozzle put too much water down and creates splashing ."
    }
}