{
    "87970777b240fb740721e0ee74976232": {
        "sentence": "also it does not have any detection , so the battery can be continuously overcharged , which will eventually damage the battery ( as multiple battery expert tell me ) .", 
        "(21, 22)": {
            "AM2L": [
                7979
            ], 
            "BM1F": [
                720
            ], 
            "M1": [
                5204
            ], 
            "irrelevant_Adj": [
                0
            ], 
            "M2": [
                921
            ], 
            "BM1L": [
                921
            ], 
            "WBNULL": [
                1
            ], 
            "irrelevant_Noun": [
                0
            ], 
            "AM2F": [
                2925
            ], 
            "M1_ADJ": [
                1
            ]
        }, 
        "location2": [
            9, 
            19, 
            22
        ], 
        "location1": [
            21
        ], 
        "(21, 19)": {
            "AM2L": [
                2925
            ], 
            "WBFL": [
                720
            ], 
            "BM1F": [
                8034
            ], 
            "M1": [
                921
            ], 
            "irrelevant_Adj": [
                0
            ], 
            "M2": [
                5204
            ], 
            "BM1L": [
                2053
            ], 
            "AM2F": [
                921
            ], 
            "irrelevant_Noun": [
                0
            ], 
            "M1_ADJ": [
                0
            ]
        }, 
        "(21, 9)": {
            "AM2L": [
                2925
            ], 
            "AM2F": [
                921
            ], 
            "WBF": [
                1323
            ], 
            "BM1F": [
                8034
            ], 
            "M1": [
                921
            ], 
            "irrelevant_Adj": [
                0
            ], 
            "M2": [
                5204
            ], 
            "BM1L": [
                7362
            ], 
            "WBO": [
                929, 
                1837, 
                5603, 
                8819, 
                8851, 
                2850, 
                2053, 
                8034
            ], 
            "WBL": [
                720
            ], 
            "irrelevant_Noun": [
                0
            ], 
            "M1_ADJ": [
                0
            ]
        }
    }
}