{
    "6717d7b303524d0ea025e86c6898388d": {
        "(4, 16)": {
            "AM2L": [
                5232
            ], 
            "AM2F": [
                5458
            ], 
            "WBF": [
                3856
            ], 
            "BM1F": [
                720
            ], 
            "M1": [
                5204
            ], 
            "irrelevant_Adj": [
                0
            ], 
            "M2": [
                951
            ], 
            "BM1L": [
                892
            ], 
            "WBO": [
                7362, 
                3962, 
                1899, 
                434, 
                4283, 
                3252, 
                8034, 
                3771
            ], 
            "WBL": [
                8034
            ], 
            "irrelevant_Noun": [
                0
            ], 
            "M1_ADJ": [
                1
            ]
        }, 
        "location1": [
            4
        ], 
        "location2": [
            16
        ], 
        "sentence": "the cross bar as multiple hole so i could adjust it for the height of the bed of my truck ."
    }
}