{
    "87970777b240fb740721e0ee74976232": {
        "location1": [
            21
        ], 
        "location2": [
            23
        ], 
        "(21, 23)": {
            "AM2L": [
                4940
            ], 
            "WBFL": [
                921
            ], 
            "BM1F": [
                720
            ], 
            "M1": [
                5204
            ], 
            "irrelevant_Adj": [
                0
            ], 
            "M2": [
                2925
            ], 
            "BM1L": [
                921
            ], 
            "AM2F": [
                7979
            ], 
            "irrelevant_Noun": [
                0
            ], 
            "M1_ADJ": [
                1
            ]
        }, 
        "sentence": "also it does not have any detection , so the battery can be continuously overcharged , which will eventually damage the battery ( as multiple battery expert tell me ) ."
    }
}