{
    "c1ccd1cf47d648c72d5f60124862fcc1": {
        "(5, 6)": {
            "AM2L": [
                6542
            ], 
            "BM1F": [
                8887
            ], 
            "M1": [
                5204
            ], 
            "irrelevant_Adj": [
                0
            ], 
            "M2": [
                3331
            ], 
            "BM1L": [
                7517
            ], 
            "WBNULL": [
                1
            ], 
            "irrelevant_Noun": [
                0
            ], 
            "AM2F": [
                8824
            ], 
            "M1_ADJ": [
                1
            ]
        }, 
        "location1": [
            5
        ], 
        "location2": [
            6
        ], 
        "sentence": "i 've also spoken with multiple friend who reported the same issue ."
    }
}