{
    "94aef053c12b9b9e13727aafd87c6d64": {
        "(4, 10)": {
            "AM2L": [
                5566
            ], 
            "AM2F": [
                5543
            ], 
            "WBF": [
                5586
            ], 
            "BM1F": [
                4710
            ], 
            "M1": [
                5260
            ], 
            "irrelevant_Adj": [
                0
            ], 
            "M2": [
                3212
            ], 
            "BM1L": [
                3372
            ], 
            "WBO": [
                4268, 
                3518
            ], 
            "WBL": [
                8262
            ], 
            "irrelevant_Noun": [
                0
            ], 
            "M1_ADJ": [
                1
            ]
        }, 
        "location1": [
            4
        ], 
        "location2": [
            10
        ], 
        "sentence": "great little funnel , long narrow output is good for transmission fluid or other stuff similar with a small opening not easy to get to ."
    }
}