{
    "107d9831a252ade511dd6a71529f6e2d": {
        "(28, 22)": {
            "AM2F": [
                7690
            ], 
            "WBF": [
                8105
            ], 
            "BM1F": [
                8736
            ], 
            "M1": [
                7690
            ], 
            "irrelevant_Adj": [
                0
            ], 
            "M2": [
                5260
            ], 
            "BM1L": [
                6038
            ], 
            "WBO": [
                8162, 
                310
            ], 
            "WBL": [
                6038
            ], 
            "irrelevant_Noun": [
                0
            ], 
            "M1_ADJ": [
                0
            ]
        }, 
        "location1": [
            28
        ], 
        "location2": [
            22, 
            29
        ], 
        "(28, 29)": {
            "BM1F": [
                6038
            ], 
            "M1": [
                5260
            ], 
            "irrelevant_Adj": [
                0
            ], 
            "M2": [
                7690
            ], 
            "BM1L": [
                3808
            ], 
            "WBNULL": [
                1
            ], 
            "irrelevant_Noun": [
                0
            ], 
            "M1_ADJ": [
                1
            ]
        }, 
        "sentence": "it allows a good amount of control of the water spray pattern , ranging from a wide fan delivering a low pressure water stream , through to a high pressure , narrow stream ."
    }
}