{
    "94aef053c12b9b9e13727aafd87c6d64": {
        "location1": [
            4
        ], 
        "location2": [
            3
        ], 
        "(4, 3)": {
            "AM2L": [
                4268
            ], 
            "BM1F": [
                3372
            ], 
            "M1": [
                4710
            ], 
            "irrelevant_Adj": [
                0
            ], 
            "M2": [
                5260
            ], 
            "BM1L": [
                4671
            ], 
            "WBNULL": [
                1
            ], 
            "irrelevant_Noun": [
                0
            ], 
            "AM2F": [
                5586
            ], 
            "M1_ADJ": [
                0
            ]
        }, 
        "sentence": "great little funnel , long narrow output is good for transmission fluid or other stuff similar with a small opening not easy to get to ."
    }
}