{
    "04de1b39e39d162196ab8378893a1ac8": {
        "(11, 7)": {
            "AM2L": [
                7240
            ], 
            "AM2F": [
                7096
            ], 
            "WBF": [
                720
            ], 
            "BM1F": [
                34
            ], 
            "M1": [
                8979
            ], 
            "irrelevant_Adj": [
                0
            ], 
            "M2": [
                5265
            ], 
            "BM1L": [
                5595
            ], 
            "WBO": [
                8789
            ], 
            "WBL": [
                720
            ], 
            "irrelevant_Noun": [
                0
            ], 
            "M1_ADJ": [
                0
            ]
        }, 
        "location1": [
            11
        ], 
        "location2": [
            7
        ], 
        "sentence": "i have used these for over 10 year as well as natural sheep skin chamois ."
    }, 
    "af9181485cdf6cfb2baeeeb10e23e400": {
        "location1": [
            10
        ], 
        "location2": [
            6
        ], 
        "(10, 6)": {
            "AM2L": [
                5543
            ], 
            "AM2F": [
                5503
            ], 
            "WBF": [
                5191
            ], 
            "BM1F": [
                3252
            ], 
            "M1": [
                8979
            ], 
            "irrelevant_Adj": [
                0
            ], 
            "M2": [
                5265
            ], 
            "BM1L": [
                1445
            ], 
            "WBO": [
                1014
            ], 
            "WBL": [
                8024
            ], 
            "irrelevant_Noun": [
                0
            ], 
            "M1_ADJ": [
                0
            ]
        }, 
        "sentence": "i have used absorber chamois for year , much better than natural one or any other brand ."
    }, 
    "91f2351c6250e3a17e38d1db19527620": {
        "location1": [
            4
        ], 
        "location2": [
            12
        ], 
        "(4, 12)": {
            "AM2L": [
                3962
            ], 
            "AM2F": [
                7362
            ], 
            "WBF": [
                1445
            ], 
            "BM1F": [
                310
            ], 
            "M1": [
                5265
            ], 
            "irrelevant_Adj": [
                0
            ], 
            "M2": [
                8979
            ], 
            "BM1L": [
                5626
            ], 
            "WBO": [
                1262, 
                3717, 
                5245, 
                8534
            ], 
            "WBL": [
                4043
            ], 
            "irrelevant_Noun": [
                0
            ], 
            "M1_ADJ": [
                1
            ]
        }, 
        "sentence": "i 've owned a natural chamois but have n't used it in year so i threw it away ."
    }
}