{
    "8e297858c2002d441db732952a04a22c": {
        "location1": [
            13
        ], 
        "location2": [
            5
        ], 
        "(13, 5)": {
            "AM2F": [
                1445
            ], 
            "WBF": [
                325
            ], 
            "BM1F": [
                4268
            ], 
            "M1": [
                7409
            ], 
            "irrelevant_Adj": [
                0
            ], 
            "M2": [
                5265
            ], 
            "BM1L": [
                8049
            ], 
            "WBO": [
                8034, 
                7114, 
                4559, 
                969
            ], 
            "WBL": [
                310
            ], 
            "irrelevant_Noun": [
                0
            ], 
            "M1_ADJ": [
                0
            ]
        }, 
        "sentence": "well for me there is something about the shine left behind with a natural chamois ."
    }
}