{
    "42f65b0007350d0a1464de0e7a7b60bc": {
        "location1": [
            9
        ], 
        "location2": [
            4, 
            12
        ], 
        "(9, 12)": {
            "WBF": [
                4928
            ], 
            "BM1F": [
                760
            ], 
            "M1": [
                5272
            ], 
            "irrelevant_Adj": [
                0
            ], 
            "M2": [
                1286
            ], 
            "BM1L": [
                4570
            ], 
            "WBO": [
                3426
            ], 
            "WBL": [
                3426
            ], 
            "irrelevant_Noun": [
                0
            ], 
            "M1_ADJ": [
                1
            ]
        }, 
        "(9, 4)": {
            "AM2L": [
                3426
            ], 
            "AM2F": [
                4928
            ], 
            "WBF": [
                6162
            ], 
            "BM1F": [
                8053
            ], 
            "M1": [
                1286
            ], 
            "irrelevant_Adj": [
                0
            ], 
            "M2": [
                5272
            ], 
            "BM1L": [
                8805
            ], 
            "WBO": [
                4928
            ], 
            "WBL": [
                760
            ], 
            "irrelevant_Noun": [
                0
            ], 
            "M1_ADJ": [
                0
            ]
        }, 
        "sentence": "that 's what these cable provide , maximum length at near maximum gauge cable ."
    }
}