{
    "42f65b0007350d0a1464de0e7a7b60bc": {
        "(9, 11)": {
            "WBFL": [
                4928
            ], 
            "BM1F": [
                760
            ], 
            "M1": [
                5272
            ], 
            "irrelevant_Adj": [
                0
            ], 
            "M2": [
                3426
            ], 
            "BM1L": [
                4570
            ], 
            "AM2F": [
                1286
            ], 
            "irrelevant_Noun": [
                0
            ], 
            "M1_ADJ": [
                1
            ]
        }, 
        "location1": [
            9
        ], 
        "location2": [
            11
        ], 
        "sentence": "that 's what these cable provide , maximum length at near maximum gauge cable ."
    }
}