{
    "d9f031cf94ce3521a1f1c67ac3ee22aa": {
        "location1": [
            11
        ], 
        "location2": [
            15
        ], 
        "(11, 15)": {
            "AM2L": [
                1050
            ], 
            "AM2F": [
                3338
            ], 
            "WBF": [
                599
            ], 
            "BM1F": [
                1160
            ], 
            "M1": [
                5314
            ], 
            "irrelevant_Adj": [
                1
            ], 
            "M2": [
                3128
            ], 
            "BM1L": [
                5495
            ], 
            "WBO": [
                5488
            ], 
            "WBL": [
                1358
            ], 
            "irrelevant_Noun": [
                0
            ], 
            "M1_ADJ": [
                1
            ]
        }, 
        "sentence": "have used a california duster for over 15 year on brand new and old car finish , from black to white ."
    }
}