{
    "3e3173f35a6271bc325830b0abf051a3": {
        "(17, 6)": {
            "AM2L": [
                7405
            ], 
            "AM2F": [
                4559
            ], 
            "WBF": [
                5458
            ], 
            "BM1F": [
                8034
            ], 
            "M1": [
                8862
            ], 
            "irrelevant_Adj": [
                1
            ], 
            "M2": [
                5314
            ], 
            "BM1L": [
                8162
            ], 
            "WBO": [
                5232, 
                1358, 
                3962, 
                5396, 
                8028, 
                8034, 
                8872
            ], 
            "WBL": [
                560
            ], 
            "irrelevant_Noun": [
                0
            ], 
            "M1_ADJ": [
                0
            ]
        }, 
        "location1": [
            17
        ], 
        "location2": [
            6
        ], 
        "sentence": "before i applied this to the windshield of my car , i noticed that the wiper blade , although new , left some streaking on the glass , and it could be a bit of a challenge to see outside especially when it rain hard and the raindrop magnify the light of car or the streetlight ."
    }
}