{
    "d9ffb9e020a37c320a74082f07770abe": {
        "(14, 28)": {
            "AM2L": [
                3416
            ], 
            "AM2F": [
                5232
            ], 
            "WBF": [
                5503
            ], 
            "BM1F": [
                310
            ], 
            "M1": [
                5314
            ], 
            "irrelevant_Adj": [
                1
            ], 
            "M2": [
                7788
            ], 
            "BM1L": [
                1141
            ], 
            "WBO": [
                8162, 
                6530, 
                8034, 
                5503, 
                8028, 
                3531, 
                6767, 
                4043, 
                3946, 
                4257
            ], 
            "WBL": [
                5705
            ], 
            "irrelevant_Noun": [
                0
            ], 
            "M1_ADJ": [
                1
            ]
        }, 
        "location1": [
            14
        ], 
        "location2": [
            28
        ], 
        "sentence": "i have used it for several year without any problem , and recently bought a new one to replace the one that got ruined in hurricane irene this past summer ( my garage was flooded ) ."
    }
}