{
    "73c2d6fb0b9f209bec707bc7613699ce": {
        "(9, 0)": {
            "WBF": [
                4283
            ], 
            "AM2L": [
                5502
            ], 
            "M1": [
                8972
            ], 
            "irrelevant_Adj": [
                1
            ], 
            "M2": [
                5314
            ], 
            "WBO": [
                4929, 
                4509, 
                3268, 
                1262, 
                3962
            ], 
            "WBL": [
                310
            ], 
            "irrelevant_Noun": [
                0
            ], 
            "AM2F": [
                5503
            ], 
            "M1_ADJ": [
                0
            ]
        }, 
        "location1": [
            9
        ], 
        "location2": [
            0
        ], 
        "sentence": "ya , it may last forever , but i buy a new one once a year - hey it 's pretty inexpensive ."
    }
}