{
    "3e3173f35a6271bc325830b0abf051a3": {
        "(17, 43)": {
            "AM2L": [
                8034
            ], 
            "AM2F": [
                4810
            ], 
            "WBF": [
                4559
            ], 
            "BM1F": [
                560
            ], 
            "M1": [
                5314
            ], 
            "irrelevant_Adj": [
                1
            ], 
            "M2": [
                6270
            ], 
            "BM1L": [
                1054
            ], 
            "WBO": [
                7405, 
                7689, 
                5495, 
                8034, 
                3485, 
                599, 
                4283, 
                1899, 
                929, 
                310, 
                1044, 
                5458, 
                310, 
                1441, 
                8162, 
                6966, 
                5589, 
                2826, 
                8812, 
                4283, 
                6267, 
                3688
            ], 
            "WBL": [
                8034
            ], 
            "irrelevant_Noun": [
                0
            ], 
            "M1_ADJ": [
                1
            ]
        }, 
        "location1": [
            17
        ], 
        "location2": [
            43
        ], 
        "sentence": "before i applied this to the windshield of my car , i noticed that the wiper blade , although new , left some streaking on the glass , and it could be a bit of a challenge to see outside especially when it rain hard and the raindrop magnify the light of car or the streetlight ."
    }
}