{
    "73c2d6fb0b9f209bec707bc7613699ce": {
        "(9, 14)": {
            "AM2L": [
                8
            ], 
            "AM2F": [
                4283
            ], 
            "WBF": [
                5503
            ], 
            "BM1F": [
                310
            ], 
            "M1": [
                5314
            ], 
            "irrelevant_Adj": [
                1
            ], 
            "M2": [
                3795
            ], 
            "BM1L": [
                1269
            ], 
            "WBO": [
                5502
            ], 
            "WBL": [
                8979
            ], 
            "irrelevant_Noun": [
                0
            ], 
            "M1_ADJ": [
                1
            ]
        }, 
        "location1": [
            9
        ], 
        "location2": [
            14
        ], 
        "sentence": "ya , it may last forever , but i buy a new one once a year - hey it 's pretty inexpensive ."
    }
}