{
    "cb3550d5772fe96bc677faaef3cbcb99": {
        "(29, 34)": {
            "AM2L": [
                8034
            ], 
            "AM2F": [
                5458
            ], 
            "WBF": [
                8872
            ], 
            "BM1F": [
                1271
            ], 
            "M1": [
                5314
            ], 
            "irrelevant_Adj": [
                1
            ], 
            "M2": [
                6594
            ], 
            "BM1L": [
                8162
            ], 
            "WBO": [
                1054
            ], 
            "WBL": [
                8034
            ], 
            "irrelevant_Noun": [
                0
            ], 
            "M1_ADJ": [
                1
            ]
        }, 
        "location1": [
            29
        ], 
        "location2": [
            34
        ], 
        "sentence": "do n't need it too often in so cal , but when it does rain , it help a lot with visibility , especially if you have n't gotten around to buying new wiper blade during the rest of the year ."
    }
}