{
    "d9ffb9e020a37c320a74082f07770abe": {
        "location1": [
            14
        ], 
        "location2": [
            9
        ], 
        "(14, 9)": {
            "AM2L": [
                8162
            ], 
            "AM2F": [
                5503
            ], 
            "WBF": [
                599
            ], 
            "BM1F": [
                636
            ], 
            "M1": [
                6090
            ], 
            "irrelevant_Adj": [
                1
            ], 
            "M2": [
                5314
            ], 
            "BM1L": [
                8889
            ], 
            "WBO": [
                6373
            ], 
            "WBL": [
                310
            ], 
            "irrelevant_Noun": [
                0
            ], 
            "M1_ADJ": [
                0
            ]
        }, 
        "sentence": "i have used it for several year without any problem , and recently bought a new one to replace the one that got ruined in hurricane irene this past summer ( my garage was flooded ) ."
    }
}