{
    "2c6ea565519ba52639fedd3bd5999d85": {
        "(7, 13)": {
            "WBF": [
                8320
            ], 
            "BM1F": [
                5232
            ], 
            "M1": [
                5314
            ], 
            "irrelevant_Adj": [
                1
            ], 
            "M2": [
                1286
            ], 
            "BM1L": [
                4043
            ], 
            "WBO": [
                7211, 
                8991
            ], 
            "WBL": [
                5284
            ], 
            "irrelevant_Noun": [
                0
            ], 
            "M1_ADJ": [
                1
            ]
        }, 
        "location1": [
            7
        ], 
        "location2": [
            13
        ], 
        "sentence": "i bought these to have in my new truck since you always need cable ."
    }, 
    "1de9d7b8054d96d5ccc0bbe06cd3edaf": {
        "(9, 6)": {
            "AM2L": [
                599
            ], 
            "AM2F": [
                1358
            ], 
            "WBF": [
                3252
            ], 
            "BM1F": [
                4369
            ], 
            "M1": [
                1286
            ], 
            "irrelevant_Adj": [
                1
            ], 
            "M2": [
                5314
            ], 
            "BM1L": [
                5458
            ], 
            "WBO": [
                5232
            ], 
            "WBL": [
                5232
            ], 
            "irrelevant_Noun": [
                0
            ], 
            "M1_ADJ": [
                0
            ]
        }, 
        "location1": [
            9
        ], 
        "location2": [
            6
        ], 
        "sentence": "i needed a set of jumper cable for my new car and these had good review and were at a good price ."
    }
}