{
    "905747d514113a827cff1733eba14cf6": {
        "(19, 6)": {
            "AM2F": [
                5503
            ], 
            "WBF": [
                3705
            ], 
            "BM1F": [
                5232
            ], 
            "M1": [
                8843
            ], 
            "irrelevant_Adj": [
                1
            ], 
            "M2": [
                5314
            ], 
            "BM1L": [
                945
            ], 
            "WBO": [
                3646, 
                5751, 
                8824, 
                1450, 
                3781, 
                5483, 
                8329, 
                8162, 
                6992
            ], 
            "WBL": [
                310
            ], 
            "irrelevant_Noun": [
                0
            ], 
            "M1_ADJ": [
                0
            ]
        }, 
        "location1": [
            19
        ], 
        "location2": [
            6
        ], 
        "sentence": "i only say this because my wife has had people who change her oil try to sell her a new one ."
    }
}