{
    "fe6415f51149655491ec553b88cbb7ad": {
        "(5, 21)": {
            "AM2L": [
                5033
            ], 
            "AM2F": [
                8991
            ], 
            "WBF": [
                2087
            ], 
            "BM1F": [
                8034
            ], 
            "M1": [
                5322
            ], 
            "irrelevant_Adj": [
                1
            ], 
            "M2": [
                454
            ], 
            "BM1L": [
                8140
            ], 
            "WBO": [
                8162, 
                6718, 
                8053, 
                5139, 
                850, 
                8501, 
                599, 
                3459, 
                8041, 
                6343, 
                3252, 
                8034
            ], 
            "WBL": [
                8848
            ], 
            "irrelevant_Noun": [
                0
            ], 
            "M1_ADJ": [
                1
            ]
        }, 
        "(19, 21)": {
            "AM2L": [
                5033
            ], 
            "WBFL": [
                8848
            ], 
            "BM1F": [
                8034
            ], 
            "M1": [
                5322
            ], 
            "irrelevant_Adj": [
                1
            ], 
            "M2": [
                454
            ], 
            "BM1L": [
                3252
            ], 
            "AM2F": [
                8991
            ], 
            "irrelevant_Noun": [
                0
            ], 
            "M1_ADJ": [
                1
            ]
        }, 
        "location1": [
            5, 
            19
        ], 
        "location2": [
            21
        ], 
        "sentence": "there 's always time the next day to roll these monster back up and get them ready for the next wild adventure you might have ."
    }
}