{
    "d50a973a92ce1d5926377f6178fad5d0": {
        "location1": [
            6
        ], 
        "location2": [
            0
        ], 
        "(6, 0)": {
            "WBF": [
                3705
            ], 
            "M1": [
                5503
            ], 
            "irrelevant_Adj": [
                1
            ], 
            "M2": [
                5322
            ], 
            "WBO": [
                956, 
                8923
            ], 
            "WBL": [
                8034
            ], 
            "irrelevant_Noun": [
                0
            ], 
            "M1_ADJ": [
                0
            ]
        }, 
        "sentence": "one has been worse than the next ."
    }
}