{
    "f176788267c902afa336ac0c351ac000": {
        "(23, 21)": {
            "WBFL": [
                3252
            ], 
            "BM1F": [
                5862
            ], 
            "M1": [
                1821
            ], 
            "irrelevant_Adj": [
                1
            ], 
            "M2": [
                5322
            ], 
            "BM1L": [
                4289
            ], 
            "AM2F": [
                8140
            ], 
            "irrelevant_Noun": [
                0
            ], 
            "M1_ADJ": [
                0
            ]
        }, 
        "location1": [
            23
        ], 
        "location2": [
            21
        ], 
        "sentence": "when you are done , just wring most of the water out of the absorber and roll it back into its plastic container for next time ."
    }
}