{
    "fa6b363f7b06f223b3512916557fe352": {
        "(1, 10)": {
            "AM2L": [
                8028
            ], 
            "AM2F": [
                1874
            ], 
            "WBF": [
                1849
            ], 
            "BM1F": [
                8034
            ], 
            "M1": [
                5322
            ], 
            "irrelevant_Adj": [
                1
            ], 
            "M2": [
                5979
            ], 
            "WBO": [
                8065, 
                4268, 
                8162, 
                3117, 
                310
            ], 
            "WBL": [
                6614
            ], 
            "irrelevant_Noun": [
                0
            ], 
            "M1_ADJ": [
                1
            ]
        }, 
        "location1": [
            1
        ], 
        "location2": [
            10, 
            35
        ], 
        "(1, 35)": {
            "WBF": [
                1849
            ], 
            "BM1F": [
                8034
            ], 
            "M1": [
                5322
            ], 
            "irrelevant_Adj": [
                1
            ], 
            "M2": [
                5979
            ], 
            "WBO": [
                8065, 
                4268, 
                8162, 
                3117, 
                310, 
                3518, 
                6614, 
                5979, 
                1874, 
                8028, 
                1323, 
                2660, 
                929, 
                4146, 
                4043, 
                8034, 
                1358, 
                8887, 
                8034, 
                5496, 
                1462, 
                5543, 
                8162, 
                8034, 
                5583, 
                3252, 
                8819, 
                8034, 
                1462, 
                8851
            ], 
            "WBL": [
                7936
            ], 
            "irrelevant_Noun": [
                0
            ], 
            "AM2F": [
                3338
            ], 
            "M1_ADJ": [
                1
            ]
        }, 
        "sentence": "the next convenient thing is to find a good retractable power cord that can either be installed in the car with the on-board charger , or to the outlet for which the charger will be tapping power from ."
    }
}