{
    "e865fc523d8884ac2dbcec1e27500413": {
        "location1": [
            16
        ], 
        "location2": [
            29
        ], 
        "(16, 29)": {
            "AM2L": [
                5284
            ], 
            "AM2F": [
                3962
            ], 
            "WBF": [
                8140
            ], 
            "BM1F": [
                8067
            ], 
            "M1": [
                5322
            ], 
            "irrelevant_Adj": [
                1
            ], 
            "M2": [
                7230
            ], 
            "BM1L": [
                3962
            ], 
            "WBO": [
                3962, 
                8851, 
                6195, 
                4043, 
                5777, 
                7362, 
                3962, 
                1323, 
                6354
            ], 
            "WBL": [
                8034
            ], 
            "irrelevant_Noun": [
                0
            ], 
            "M1_ADJ": [
                1
            ]
        }, 
        "sentence": "all in all , the funnel is solid , no complaint on the product quality , but i think next time i will purchase in person so i can really gauge the size i need ."
    }
}