{
    "8168cd2eab4ae563e185899d76d388bd": {
        "(17, 59)": {
            "WBF": [
                7622
            ], 
            "BM1F": [
                8034
            ], 
            "M1": [
                5322
            ], 
            "irrelevant_Adj": [
                1
            ], 
            "M2": [
                8140
            ], 
            "BM1L": [
                8887
            ], 
            "WBO": [
                5458, 
                5916, 
                599, 
                6490, 
                8073, 
                8227, 
                4268, 
                310, 
                3564, 
                8750, 
                8162, 
                2545, 
                8034, 
                1032, 
                8812, 
                4283, 
                8, 
                5296, 
                3911, 
                5379, 
                2545, 
                2767, 
                5458, 
                310, 
                2087, 
                3252, 
                8034, 
                1032, 
                8162, 
                2545, 
                5574, 
                5495, 
                4283, 
                8, 
                5624, 
                4043, 
                310, 
                2990
            ], 
            "WBL": [
                5458
            ], 
            "irrelevant_Noun": [
                1
            ], 
            "M1_ADJ": [
                1
            ]
        }, 
        "location1": [
            17
        ], 
        "location2": [
            59
        ], 
        "sentence": "so if i just hosed down the bike while cleaning and wanted to get on with the next step of polishing and relubing , this towel is a great way to dry the bike when it 's neither hot nor dry enough of a day for the bike to dry out on it 's own in a fair amount of time ."
    }, 
    "f176788267c902afa336ac0c351ac000": {
        "(23, 24)": {
            "BM1F": [
                3252
            ], 
            "M1": [
                5322
            ], 
            "irrelevant_Adj": [
                1
            ], 
            "M2": [
                8140
            ], 
            "BM1L": [
                1821
            ], 
            "WBNULL": [
                1
            ], 
            "irrelevant_Noun": [
                1
            ], 
            "M1_ADJ": [
                1
            ]
        }, 
        "location1": [
            23
        ], 
        "location2": [
            24
        ], 
        "sentence": "when you are done , just wring most of the water out of the absorber and roll it back into its plastic container for next time ."
    }, 
    "fe6415f51149655491ec553b88cbb7ad": {
        "(5, 3)": {
            "AM2L": [
                8162
            ], 
            "WBFL": [
                8034
            ], 
            "BM1F": [
                565
            ], 
            "M1": [
                8140
            ], 
            "irrelevant_Adj": [
                1
            ], 
            "M2": [
                5322
            ], 
            "BM1L": [
                8
            ], 
            "AM2F": [
                2087
            ], 
            "irrelevant_Noun": [
                1
            ], 
            "M1_ADJ": [
                0
            ]
        }, 
        "location1": [
            5, 
            19
        ], 
        "location2": [
            3
        ], 
        "(19, 3)": {
            "AM2L": [
                454
            ], 
            "AM2F": [
                8848
            ], 
            "WBF": [
                8034
            ], 
            "BM1F": [
                565
            ], 
            "M1": [
                8140
            ], 
            "irrelevant_Adj": [
                1
            ], 
            "M2": [
                5322
            ], 
            "BM1L": [
                8
            ], 
            "WBO": [
                5322, 
                2087, 
                8162, 
                6718, 
                8053, 
                5139, 
                850, 
                8501, 
                599, 
                3459, 
                8041, 
                6343
            ], 
            "WBL": [
                8034
            ], 
            "irrelevant_Noun": [
                1
            ], 
            "M1_ADJ": [
                0
            ]
        }, 
        "sentence": "there 's always time the next day to roll these monster back up and get them ready for the next wild adventure you might have ."
    }, 
    "e865fc523d8884ac2dbcec1e27500413": {
        "(16, 17)": {
            "AM2L": [
                8851
            ], 
            "BM1F": [
                8067
            ], 
            "M1": [
                5322
            ], 
            "irrelevant_Adj": [
                1
            ], 
            "M2": [
                8140
            ], 
            "BM1L": [
                3962
            ], 
            "WBNULL": [
                1
            ], 
            "irrelevant_Noun": [
                1
            ], 
            "AM2F": [
                3962
            ], 
            "M1_ADJ": [
                1
            ]
        }, 
        "location1": [
            16
        ], 
        "location2": [
            17
        ], 
        "sentence": "all in all , the funnel is solid , no complaint on the product quality , but i think next time i will purchase in person so i can really gauge the size i need ."
    }
}