{
    "fe6415f51149655491ec553b88cbb7ad": {
        "(5, 10)": {
            "AM2L": [
                8501
            ], 
            "AM2F": [
                850
            ], 
            "WBF": [
                2087
            ], 
            "BM1F": [
                8034
            ], 
            "M1": [
                5322
            ], 
            "irrelevant_Adj": [
                1
            ], 
            "M2": [
                5139
            ], 
            "BM1L": [
                8140
            ], 
            "WBO": [
                8162
            ], 
            "WBL": [
                8053
            ], 
            "irrelevant_Noun": [
                1
            ], 
            "M1_ADJ": [
                1
            ]
        }, 
        "(19, 10)": {
            "AM2L": [
                454
            ], 
            "AM2F": [
                8848
            ], 
            "WBF": [
                850
            ], 
            "BM1F": [
                8053
            ], 
            "M1": [
                5139
            ], 
            "irrelevant_Adj": [
                1
            ], 
            "M2": [
                5322
            ], 
            "BM1L": [
                6718
            ], 
            "WBO": [
                8501, 
                599, 
                3459, 
                8041, 
                6343
            ], 
            "WBL": [
                8034
            ], 
            "irrelevant_Noun": [
                1
            ], 
            "M1_ADJ": [
                0
            ]
        }, 
        "location1": [
            5, 
            19
        ], 
        "location2": [
            10
        ], 
        "sentence": "there 's always time the next day to roll these monster back up and get them ready for the next wild adventure you might have ."
    }
}