{
    "8168cd2eab4ae563e185899d76d388bd": {
        "location1": [
            17
        ], 
        "location2": [
            28
        ], 
        "(17, 28)": {
            "AM2L": [
                2545
            ], 
            "AM2F": [
                8162
            ], 
            "WBF": [
                7622
            ], 
            "BM1F": [
                8034
            ], 
            "M1": [
                5322
            ], 
            "irrelevant_Adj": [
                1
            ], 
            "M2": [
                8750
            ], 
            "BM1L": [
                8887
            ], 
            "WBO": [
                5458, 
                5916, 
                599, 
                6490, 
                8073, 
                8227, 
                4268
            ], 
            "WBL": [
                3564
            ], 
            "irrelevant_Noun": [
                1
            ], 
            "M1_ADJ": [
                1
            ]
        }, 
        "sentence": "so if i just hosed down the bike while cleaning and wanted to get on with the next step of polishing and relubing , this towel is a great way to dry the bike when it 's neither hot nor dry enough of a day for the bike to dry out on it 's own in a fair amount of time ."
    }
}