{
    "0de95416632dea9f3c04745e281d7522": {
        "(29, 28)": {
            "BM1F": [
                5232
            ], 
            "M1": [
                1358
            ], 
            "irrelevant_Adj": [
                1
            ], 
            "M2": [
                5322
            ], 
            "BM1L": [
                8493
            ], 
            "WBNULL": [
                1
            ], 
            "irrelevant_Noun": [
                0
            ], 
            "AM2F": [
                8719
            ], 
            "M1_ADJ": [
                0
            ]
        }, 
        "location1": [
            29
        ], 
        "location2": [
            28
        ], 
        "sentence": "you are supposed to keep the chamois damp so when i am done i just put it back in the case and it will stay damp until my car next wash ."
    }, 
    "fa6b363f7b06f223b3512916557fe352": {
        "(1, 19)": {
            "AM2L": [
                8034
            ], 
            "AM2F": [
                8887
            ], 
            "WBF": [
                1849
            ], 
            "BM1F": [
                8034
            ], 
            "M1": [
                5322
            ], 
            "irrelevant_Adj": [
                1
            ], 
            "M2": [
                1358
            ], 
            "WBO": [
                8065, 
                4268, 
                8162, 
                3117, 
                310, 
                3518, 
                6614, 
                5979, 
                1874, 
                8028, 
                1323, 
                2660, 
                929, 
                4146
            ], 
            "WBL": [
                8034
            ], 
            "irrelevant_Noun": [
                0
            ], 
            "M1_ADJ": [
                1
            ]
        }, 
        "location1": [
            1
        ], 
        "location2": [
            19
        ], 
        "sentence": "the next convenient thing is to find a good retractable power cord that can either be installed in the car with the on-board charger , or to the outlet for which the charger will be tapping power from ."
    }
}