{
    "68f28c913f0c9450517328ac8dec80e2": {
        "(2, 14)": {
            "AM2L": [
                6209
            ], 
            "AM2F": [
                8162
            ], 
            "WBF": [
                7178
            ], 
            "BM1F": [
                310
            ], 
            "M1": [
                5325
            ], 
            "irrelevant_Adj": [
                0
            ], 
            "M2": [
                7631
            ], 
            "BM1L": [
                5495
            ], 
            "WBO": [
                5390, 
                3252, 
                8034, 
                4979, 
                5574, 
                8049, 
                4382, 
                5244
            ], 
            "WBL": [
                310
            ], 
            "irrelevant_Noun": [
                0
            ], 
            "M1_ADJ": [
                1
            ]
        }, 
        "location1": [
            2
        ], 
        "location2": [
            14
        ], 
        "sentence": "on a nice side note for the men out there , k & n ; includes a sticker to put on the air box that says the filter is a k & n ; product and does not need to be replaced ."
    }
}