{
    "db1d3fa3cd3672ea83a8d3cec64b1cf7": {
        "(5, 25)": {
            "AM2L": [
                5285
            ], 
            "AM2F": [
                3985
            ], 
            "WBF": [
                8218
            ], 
            "BM1F": [
                7395
            ], 
            "M1": [
                5325
            ], 
            "irrelevant_Adj": [
                0
            ], 
            "M2": [
                642
            ], 
            "BM1L": [
                1232
            ], 
            "WBO": [
                1026, 
                3688, 
                1553, 
                599, 
                4746, 
                3719, 
                310, 
                4710, 
                1286, 
                7362, 
                3962, 
                5311, 
                3717, 
                8162, 
                5176, 
                1358
            ], 
            "WBL": [
                5543
            ], 
            "irrelevant_Noun": [
                0
            ], 
            "M1_ADJ": [
                1
            ]
        }, 
        "location1": [
            5
        ], 
        "location2": [
            25
        ], 
        "sentence": "but they are built solid , nice tough big hard clamp and love having a long cable so i never have to move car around or anything if needed ."
    }
}