{
    "0352edb48b074c2a457826d6977d3198": {
        "location1": [
            14
        ], 
        "location2": [
            15
        ], 
        "(14, 15)": {
            "AM2L": [
                4578
            ], 
            "BM1F": [
                310
            ], 
            "M1": [
                5325
            ], 
            "irrelevant_Adj": [
                0
            ], 
            "M2": [
                3050
            ], 
            "BM1L": [
                4268
            ], 
            "WBNULL": [
                1
            ], 
            "irrelevant_Noun": [
                0
            ], 
            "AM2F": [
                8188
            ], 
            "M1_ADJ": [
                1
            ]
        }, 
        "sentence": "being able to turn it off at either end of the rotation is a nice feature too , less messing with it when you 're done using it ."
    }
}