{
    "09ac83785de0bf2d05db518830a28ecf": {
        "(4, 5)": {
            "AM2L": [
                2239
            ], 
            "BM1F": [
                8603
            ], 
            "M1": [
                5325
            ], 
            "irrelevant_Adj": [
                0
            ], 
            "M2": [
                7569
            ], 
            "BM1L": [
                310
            ], 
            "WBNULL": [
                1
            ], 
            "irrelevant_Noun": [
                0
            ], 
            "AM2F": [
                7615
            ], 
            "M1_ADJ": [
                1
            ]
        }, 
        "location1": [
            4
        ], 
        "location2": [
            5
        ], 
        "sentence": "this is a very nice stainless steel design ."
    }
}