{
    "df3cb8ce10054eff827d022f8f514b11": {
        "location1": [
            3
        ], 
        "location2": [
            14
        ], 
        "(3, 14)": {
            "AM2L": [
                4694
            ], 
            "AM2F": [
                1286
            ], 
            "WBF": [
                8058
            ], 
            "BM1F": [
                310
            ], 
            "M1": [
                5325
            ], 
            "irrelevant_Adj": [
                0
            ], 
            "M2": [
                1025
            ], 
            "BM1L": [
                3705
            ], 
            "WBO": [
                1286, 
                599, 
                4283, 
                8, 
                5387, 
                8188, 
                4710
            ], 
            "WBL": [
                310
            ], 
            "irrelevant_Noun": [
                0
            ], 
            "M1_ADJ": [
                1
            ]
        }, 
        "sentence": "it has a nice thick cable and it 's not too long like a bicycle cable lock ."
    }
}