{
    "3e46f65aa1fa137ec0980771619a30b6": {
        "(6, 7)": {
            "BM1F": [
                310
            ], 
            "M1": [
                5325
            ], 
            "irrelevant_Adj": [
                0
            ], 
            "M2": [
                2312
            ], 
            "BM1L": [
                4831
            ], 
            "WBNULL": [
                1
            ], 
            "irrelevant_Noun": [
                1
            ], 
            "M1_ADJ": [
                1
            ]
        }, 
        "location1": [
            6
        ], 
        "location2": [
            7
        ], 
        "sentence": "went on great and makes a nice difference ."
    }
}