{
    "aba1ea1a5e6bec74919eb998d133a6da": {
        "(53, 21)": {
            "AM2L": [
                688
            ], 
            "AM2F": [
                1553
            ], 
            "WBF": [
                2526
            ], 
            "BM1F": [
                6997
            ], 
            "M1": [
                8320
            ], 
            "irrelevant_Adj": [
                0
            ], 
            "M2": [
                5325
            ], 
            "BM1L": [
                310
            ], 
            "WBO": [
                688, 
                8034, 
                3518, 
                3638, 
                1209, 
                2953, 
                4710, 
                760, 
                146, 
                5685, 
                1553, 
                688, 
                7707, 
                1262, 
                591, 
                813, 
                3638, 
                1323, 
                5522, 
                8041, 
                8887, 
                5503, 
                3661, 
                1872, 
                4131, 
                4043, 
                8034, 
                5685
            ], 
            "WBL": [
                4268
            ], 
            "irrelevant_Noun": [
                0
            ], 
            "M1_ADJ": [
                0
            ]
        }, 
        "location1": [
            53
        ], 
        "location2": [
            21
        ], 
        "sentence": "pro - i know i can jump start a semi with these ( more importantly , i can get a jump from a semi - truck driver are the good guy btw ) - extra long at 25 ' - parrot clamp are strong , but an average guy can open them with one hand - copper insert in the parrot clamp is nice - clamp are rated at 500amps - they 're friggin heavy at near 14 lbs , yes that 's a pro !"
    }, 
    "7dc8a85ef5b3920cd42c4afd3838307c": {
        "location1": [
            8
        ], 
        "location2": [
            2
        ], 
        "(8, 2)": {
            "AM2L": [
                3426
            ], 
            "AM2F": [
                4501
            ], 
            "WBF": [
                3252
            ], 
            "BM1F": [
                8034
            ], 
            "M1": [
                8320
            ], 
            "irrelevant_Adj": [
                0
            ], 
            "M2": [
                5325
            ], 
            "BM1L": [
                6776
            ], 
            "WBO": [
                171, 
                5062
            ], 
            "WBL": [
                8073
            ], 
            "irrelevant_Noun": [
                0
            ], 
            "M1_ADJ": [
                0
            ]
        }, 
        "sentence": "running the truck for 30-45 minute with this nice large gauge wire connected from my battery tot he trailer battery will give me a bit of a charge if ever in a pinch and i have no shore power , solar , or generator to recharge ."
    }
}