{
    "ccdad80eea151dd07974b51389d8ba5e": {
        "(4, 5)": {
            "AM2L": [
                7408
            ], 
            "BM1F": [
                6354
            ], 
            "M1": [
                5325
            ], 
            "irrelevant_Adj": [
                0
            ], 
            "M2": [
                3468
            ], 
            "BM1L": [
                310
            ], 
            "WBNULL": [
                1
            ], 
            "irrelevant_Noun": [
                0
            ], 
            "AM2F": [
                3252
            ], 
            "M1_ADJ": [
                1
            ]
        }, 
        "location1": [
            4
        ], 
        "location2": [
            5
        ], 
        "sentence": "this makes a really nice gift for someone to congratulate them on their new car , or for someone who like doing their own detailing ."
    }
}