{
    "df3cb8ce10054eff827d022f8f514b11": {
        "(3, 5)": {
            "AM2L": [
                4283
            ], 
            "WBFL": [
                8058
            ], 
            "BM1F": [
                310
            ], 
            "M1": [
                5325
            ], 
            "irrelevant_Adj": [
                0
            ], 
            "M2": [
                1286
            ], 
            "BM1L": [
                3705
            ], 
            "AM2F": [
                599
            ], 
            "irrelevant_Noun": [
                0
            ], 
            "M1_ADJ": [
                1
            ]
        }, 
        "location1": [
            3
        ], 
        "location2": [
            5, 
            15
        ], 
        "(3, 15)": {
            "AM2F": [
                4694
            ], 
            "WBF": [
                8058
            ], 
            "BM1F": [
                310
            ], 
            "M1": [
                5325
            ], 
            "irrelevant_Adj": [
                0
            ], 
            "M2": [
                1286
            ], 
            "BM1L": [
                3705
            ], 
            "WBO": [
                1286, 
                599, 
                4283, 
                8, 
                5387, 
                8188, 
                4710, 
                4625
            ], 
            "WBL": [
                1025
            ], 
            "irrelevant_Noun": [
                0
            ], 
            "M1_ADJ": [
                1
            ]
        }, 
        "sentence": "it has a nice thick cable and it 's not too long like a bicycle cable lock ."
    }, 
    "db1d3fa3cd3672ea83a8d3cec64b1cf7": {
        "(5, 15)": {
            "AM2L": [
                3962
            ], 
            "AM2F": [
                7362
            ], 
            "WBF": [
                8218
            ], 
            "BM1F": [
                7395
            ], 
            "M1": [
                5325
            ], 
            "irrelevant_Adj": [
                0
            ], 
            "M2": [
                1286
            ], 
            "BM1L": [
                1232
            ], 
            "WBO": [
                1026, 
                3688, 
                1553, 
                599, 
                4746, 
                3719
            ], 
            "WBL": [
                4710
            ], 
            "irrelevant_Noun": [
                0
            ], 
            "M1_ADJ": [
                1
            ]
        }, 
        "location1": [
            5
        ], 
        "location2": [
            15
        ], 
        "sentence": "but they are built solid , nice tough big hard clamp and love having a long cable so i never have to move car around or anything if needed ."
    }
}