{
    "ccdad80eea151dd07974b51389d8ba5e": {
        "(4, 23)": {
            "WBF": [
                3468
            ], 
            "BM1F": [
                6354
            ], 
            "M1": [
                5325
            ], 
            "irrelevant_Adj": [
                0
            ], 
            "M2": [
                2260
            ], 
            "BM1L": [
                310
            ], 
            "WBO": [
                3252, 
                7408, 
                8162, 
                1777, 
                8041, 
                5495, 
                8040, 
                5314, 
                1358, 
                5543, 
                3252, 
                7408, 
                8824, 
                4625, 
                2452
            ], 
            "WBL": [
                5624
            ], 
            "irrelevant_Noun": [
                0
            ], 
            "M1_ADJ": [
                1
            ]
        }, 
        "location1": [
            4
        ], 
        "location2": [
            23
        ], 
        "sentence": "this makes a really nice gift for someone to congratulate them on their new car , or for someone who like doing their own detailing ."
    }
}