{
    "247461a73ac07347478e497f4a1eb052": {
        "(21, 4)": {
            "AM2L": [
                5686
            ], 
            "AM2F": [
                1564
            ], 
            "WBF": [
                5574
            ], 
            "BM1F": [
                8034
            ], 
            "M1": [
                8736
            ], 
            "irrelevant_Adj": [
                0
            ], 
            "M2": [
                5325
            ], 
            "BM1L": [
                2505
            ], 
            "WBO": [
                8188, 
                3338, 
                2853, 
                4462, 
                599, 
                1938, 
                7362, 
                5344, 
                5284, 
                8162, 
                8531, 
                2587, 
                959
            ], 
            "WBL": [
                5232
            ], 
            "irrelevant_Noun": [
                0
            ], 
            "M1_ADJ": [
                0
            ]
        }, 
        "location1": [
            21
        ], 
        "location2": [
            4
        ], 
        "sentence": "it really draw the water out too , from every knook and cranny , so no need to use dw-40 before lubing my nice clean part ."
    }, 
    "6f0a88c94b907a18118e87128b3f2a0d": {
        "location1": [
            9
        ], 
        "location2": [
            4
        ], 
        "(9, 4)": {
            "AM2L": [
                8162
            ], 
            "AM2F": [
                1821
            ], 
            "WBF": [
                599
            ], 
            "BM1F": [
                5191
            ], 
            "M1": [
                8736
            ], 
            "irrelevant_Adj": [
                0
            ], 
            "M2": [
                5325
            ], 
            "BM1L": [
                7362
            ], 
            "WBO": [
                1668
            ], 
            "WBL": [
                310
            ], 
            "irrelevant_Noun": [
                0
            ], 
            "M1_ADJ": [
                0
            ]
        }, 
        "sentence": "this holds so much water and comes with a nice container to stow it away ."
    }, 
    "9babcd84605b39e7b0aab1addb387e87": {
        "(13, 24)": {
            "AM2L": [
                527
            ], 
            "AM2F": [
                7522
            ], 
            "WBF": [
                3962
            ], 
            "BM1F": [
                4717
            ], 
            "M1": [
                5325
            ], 
            "irrelevant_Adj": [
                0
            ], 
            "M2": [
                8736
            ], 
            "BM1L": [
                8162
            ], 
            "WBO": [
                3717, 
                8162, 
                2545, 
                4283, 
                5543, 
                3962, 
                3459
            ], 
            "WBL": [
                3688
            ], 
            "irrelevant_Noun": [
                0
            ], 
            "M1_ADJ": [
                1
            ]
        }, 
        "location1": [
            13
        ], 
        "location2": [
            4, 
            24
        ], 
        "(13, 4)": {
            "AM2L": [
                3717
            ], 
            "AM2F": [
                3962
            ], 
            "WBF": [
                599
            ], 
            "BM1F": [
                3688
            ], 
            "M1": [
                8736
            ], 
            "irrelevant_Adj": [
                0
            ], 
            "M2": [
                5325
            ], 
            "BM1L": [
                8603
            ], 
            "WBO": [
                8812, 
                3962, 
                8702, 
                5232, 
                1358
            ], 
            "WBL": [
                4717
            ], 
            "irrelevant_Noun": [
                0
            ], 
            "M1_ADJ": [
                0
            ]
        }, 
        "sentence": "i have very hard water and when i want my car to look nice i have to dry it or i get little hard water spot all over the place ."
    }, 
    "24814860c1a21af16d43888e4e89b866": {
        "(12, 8)": {
            "AM2L": [
                3208
            ], 
            "AM2F": [
                3450
            ], 
            "WBF": [
                3205
            ], 
            "BM1F": [
                2320
            ], 
            "M1": [
                8736
            ], 
            "irrelevant_Adj": [
                0
            ], 
            "M2": [
                5325
            ], 
            "BM1L": [
                5458
            ], 
            "WBO": [
                6102
            ], 
            "WBL": [
                310
            ], 
            "irrelevant_Noun": [
                0
            ], 
            "M1_ADJ": [
                0
            ]
        }, 
        "location1": [
            12
        ], 
        "location2": [
            8, 
            17
        ], 
        "(12, 17)": {
            "AM2L": [
                3252
            ], 
            "AM2F": [
                7780
            ], 
            "WBF": [
                3450
            ], 
            "BM1F": [
                310
            ], 
            "M1": [
                5325
            ], 
            "irrelevant_Adj": [
                0
            ], 
            "M2": [
                8736
            ], 
            "BM1L": [
                6102
            ], 
            "WBO": [
                3208
            ], 
            "WBL": [
                5458
            ], 
            "irrelevant_Noun": [
                0
            ], 
            "M1_ADJ": [
                1
            ]
        }, 
        "sentence": "the nozzle does a decent job of diffusing water flow , producing a nice gentle flowing fountain of water suitable for watering potted plant or delicate flower ."
    }
}