{
    "1789e0b02131e8611c075ccb33ba87a1": {
        "location1": [
            0
        ], 
        "location2": [
            2
        ], 
        "(0, 2)": {
            "WBFL": [
                6219
            ], 
            "M1": [
                5325
            ], 
            "irrelevant_Adj": [
                0
            ], 
            "M2": [
                4286
            ], 
            "irrelevant_Noun": [
                0
            ], 
            "M1_ADJ": [
                1
            ]
        }, 
        "sentence": "nice quality item ."
    }
}