{
    "247461a73ac07347478e497f4a1eb052": {
        "location1": [
            21
        ], 
        "location2": [
            23
        ], 
        "(21, 23)": {
            "WBFL": [
                1564
            ], 
            "BM1F": [
                5232
            ], 
            "M1": [
                5325
            ], 
            "irrelevant_Adj": [
                0
            ], 
            "M2": [
                5686
            ], 
            "BM1L": [
                4766
            ], 
            "irrelevant_Noun": [
                0
            ], 
            "M1_ADJ": [
                1
            ]
        }, 
        "sentence": "it really draw the water out too , from every knook and cranny , so no need to use dw-40 before lubing my nice clean part ."
    }
}