{
    "269429ca2f0c013a68cbe37f50fa3af7": {
        "(5, 2)": {
            "AM2L": [
                5658
            ], 
            "AM2F": [
                3511
            ], 
            "WBF": [
                8718
            ], 
            "BM1F": [
                1030
            ], 
            "M1": [
                4041
            ], 
            "irrelevant_Adj": [
                0
            ], 
            "M2": [
                5325
            ], 
            "BM1L": [
                8034
            ], 
            "WBO": [
                8034
            ], 
            "WBL": [
                8034
            ], 
            "irrelevant_Noun": [
                0
            ], 
            "M1_ADJ": [
                0
            ]
        }, 
        "location1": [
            5
        ], 
        "location2": [
            2
        ], 
        "sentence": "the biggest improvment was the nice gold painted bottom of the motorhome where the paint looked good before but now the paint look glazed , shiny , and rich like i never was able to get this high a shine before ."
    }
}