{
    "449c21808d8fffd913944b1b7fbcd651": {
        "(4, 10)": {
            "AM2L": [
                208
            ], 
            "AM2F": [
                6857
            ], 
            "WBF": [
                475
            ], 
            "BM1F": [
                5062
            ], 
            "M1": [
                5325
            ], 
            "irrelevant_Adj": [
                0
            ], 
            "M2": [
                5671
            ], 
            "BM1L": [
                104
            ], 
            "WBO": [
                248, 
                8163
            ], 
            "WBL": [
                73
            ], 
            "irrelevant_Noun": [
                0
            ], 
            "M1_ADJ": [
                1
            ]
        }, 
        "location1": [
            4
        ], 
        "location2": [
            10
        ], 
        "sentence": "warm after 2 minute , nice after 6 , toasty after 15 . paper say 4a / 48w , and it comes with a spare 7a fuse for the plug ."
    }
}