{
    "00969ee64f10657540e07e831ef2e7b5": {
        "location1": [
            4
        ], 
        "location2": [
            3
        ], 
        "(4, 3)": {
            "AM2L": [
                5458
            ], 
            "BM1F": [
                310
            ], 
            "M1": [
                2055
            ], 
            "irrelevant_Adj": [
                0
            ], 
            "M2": [
                5325
            ], 
            "BM1L": [
                2445
            ], 
            "WBNULL": [
                1
            ], 
            "irrelevant_Noun": [
                0
            ], 
            "AM2F": [
                4344
            ], 
            "M1_ADJ": [
                0
            ]
        }, 
        "sentence": "this does a damn nice job of dusting all of the car surface quickly and easily ."
    }
}