{
    "7dc8a85ef5b3920cd42c4afd3838307c": {
        "(8, 37)": {
            "AM2L": [
                7390
            ], 
            "AM2F": [
                5979
            ], 
            "WBF": [
                4501
            ], 
            "BM1F": [
                8073
            ], 
            "M1": [
                5325
            ], 
            "irrelevant_Adj": [
                0
            ], 
            "M2": [
                7137
            ], 
            "BM1L": [
                8887
            ], 
            "WBO": [
                3426, 
                8874, 
                1781, 
                3338, 
                5232, 
                921, 
                8211, 
                3729, 
                8250, 
                921, 
                8851, 
                3479, 
                4940, 
                310, 
                1044, 
                5458, 
                310, 
                1460, 
                3985, 
                2851, 
                4043, 
                310, 
                5830, 
                599, 
                3962
            ], 
            "WBL": [
                5344
            ], 
            "irrelevant_Noun": [
                0
            ], 
            "M1_ADJ": [
                1
            ]
        }, 
        "location1": [
            8
        ], 
        "location2": [
            37
        ], 
        "sentence": "running the truck for 30-45 minute with this nice large gauge wire connected from my battery tot he trailer battery will give me a bit of a charge if ever in a pinch and i have no shore power , solar , or generator to recharge ."
    }
}