{
    "269429ca2f0c013a68cbe37f50fa3af7": {
        "(5, 14)": {
            "AM2L": [
                3518
            ], 
            "AM2F": [
                4718
            ], 
            "WBF": [
                3511
            ], 
            "BM1F": [
                8034
            ], 
            "M1": [
                5325
            ], 
            "irrelevant_Adj": [
                0
            ], 
            "M2": [
                5657
            ], 
            "BM1L": [
                8718
            ], 
            "WBO": [
                5658, 
                1140, 
                5458, 
                8034, 
                5165
            ], 
            "WBL": [
                8034
            ], 
            "irrelevant_Noun": [
                0
            ], 
            "M1_ADJ": [
                1
            ]
        }, 
        "(5, 21)": {
            "AM2L": [
                3486
            ], 
            "AM2F": [
                4717
            ], 
            "WBF": [
                3511
            ], 
            "BM1F": [
                8034
            ], 
            "M1": [
                5325
            ], 
            "irrelevant_Adj": [
                0
            ], 
            "M2": [
                5657
            ], 
            "BM1L": [
                8718
            ], 
            "WBO": [
                5658, 
                1140, 
                5458, 
                8034, 
                5165, 
                8814, 
                8034, 
                5657, 
                4718, 
                3518, 
                959, 
                1262
            ], 
            "WBL": [
                8034
            ], 
            "irrelevant_Noun": [
                0
            ], 
            "M1_ADJ": [
                1
            ]
        }, 
        "location1": [
            5
        ], 
        "location2": [
            14, 
            21
        ], 
        "sentence": "the biggest improvment was the nice gold painted bottom of the motorhome where the paint looked good before but now the paint look glazed , shiny , and rich like i never was able to get this high a shine before ."
    }
}