{
    "df3cb8ce10054eff827d022f8f514b11": {
        "(3, 4)": {
            "AM2L": [
                599
            ], 
            "BM1F": [
                310
            ], 
            "M1": [
                5325
            ], 
            "irrelevant_Adj": [
                0
            ], 
            "M2": [
                8058
            ], 
            "BM1L": [
                3705
            ], 
            "WBNULL": [
                1
            ], 
            "irrelevant_Noun": [
                0
            ], 
            "AM2F": [
                1286
            ], 
            "M1_ADJ": [
                1
            ]
        }, 
        "location1": [
            3
        ], 
        "location2": [
            4
        ], 
        "sentence": "it has a nice thick cable and it 's not too long like a bicycle cable lock ."
    }
}