{
    "aba1ea1a5e6bec74919eb998d133a6da": {
        "(53, 47)": {
            "AM2L": [
                688
            ], 
            "AM2F": [
                1553
            ], 
            "WBF": [
                4043
            ], 
            "BM1F": [
                1872
            ], 
            "M1": [
                4131
            ], 
            "irrelevant_Adj": [
                0
            ], 
            "M2": [
                5325
            ], 
            "BM1L": [
                3661
            ], 
            "WBO": [
                8034, 
                5685
            ], 
            "WBL": [
                4268
            ], 
            "irrelevant_Noun": [
                0
            ], 
            "M1_ADJ": [
                0
            ]
        }, 
        "location1": [
            53
        ], 
        "location2": [
            47
        ], 
        "sentence": "pro - i know i can jump start a semi with these ( more importantly , i can get a jump from a semi - truck driver are the good guy btw ) - extra long at 25 ' - parrot clamp are strong , but an average guy can open them with one hand - copper insert in the parrot clamp is nice - clamp are rated at 500amps - they 're friggin heavy at near 14 lbs , yes that 's a pro !"
    }
}