{
    "989d02fb75aa55e3c692ee1db6df2f6c": {
        "(19, 13)": {
            "AM2L": [
                1262
            ], 
            "AM2F": [
                6757
            ], 
            "WBF": [
                388
            ], 
            "BM1F": [
                8073
            ], 
            "M1": [
                8065
            ], 
            "irrelevant_Adj": [
                0
            ], 
            "M2": [
                5362
            ], 
            "BM1L": [
                4118
            ], 
            "WBO": [
                4625, 
                310
            ], 
            "WBL": [
                5458
            ], 
            "irrelevant_Noun": [
                1
            ], 
            "M1_ADJ": [
                0
            ]
        }, 
        "location1": [
            19
        ], 
        "location2": [
            13
        ], 
        "sentence": "i was prepared to write a & # 34 ; sham-why & # 34 ; review because initially this thing acted like a sheet of nonabsorbent rubber , but once it started soaking water it seemed to ' open up ' and began working pretty well ."
    }
}