{
    "989d02fb75aa55e3c692ee1db6df2f6c": {
        "(19, 20)": {
            "AM2L": [
                5502
            ], 
            "BM1F": [
                5458
            ], 
            "M1": [
                5362
            ], 
            "irrelevant_Adj": [
                0
            ], 
            "M2": [
                6757
            ], 
            "BM1L": [
                7098
            ], 
            "WBNULL": [
                1
            ], 
            "irrelevant_Noun": [
                0
            ], 
            "AM2F": [
                1262
            ], 
            "M1_ADJ": [
                1
            ]
        }, 
        "location1": [
            19
        ], 
        "location2": [
            20
        ], 
        "sentence": "i was prepared to write a & # 34 ; sham-why & # 34 ; review because initially this thing acted like a sheet of nonabsorbent rubber , but once it started soaking water it seemed to ' open up ' and began working pretty well ."
    }
}