{
    "e7f0573b6db5d1d69e3acdc6a2637d58": {
        "location1": [
            15
        ], 
        "location2": [
            10
        ], 
        "(15, 10)": {
            "AM2L": [
                3252
            ], 
            "AM2F": [
                8227
            ], 
            "WBF": [
                8991
            ], 
            "BM1F": [
                599
            ], 
            "M1": [
                2857
            ], 
            "irrelevant_Adj": [
                0
            ], 
            "M2": [
                5380
            ], 
            "BM1L": [
                642
            ], 
            "WBO": [
                2
            ], 
            "WBL": [
                310
            ], 
            "irrelevant_Noun": [
                0
            ], 
            "M1_ADJ": [
                0
            ]
        }, 
        "sentence": "i use mine to wipe down just about anything and everything you 'd use a normal towel for ."
    }
}