{
    "35a5504bc8305ada41cbed2fbf371a9f": {
        "(23, 17)": {
            "AM2L": [
                5495
            ], 
            "AM2F": [
                4826
            ], 
            "WBF": [
                1262
            ], 
            "BM1F": [
                2087
            ], 
            "M1": [
                8907
            ], 
            "irrelevant_Adj": [
                0
            ], 
            "M2": [
                5442
            ], 
            "BM1L": [
                8162
            ], 
            "WBO": [
                3252, 
                7408
            ], 
            "WBL": [
                2445
            ], 
            "irrelevant_Noun": [
                0
            ], 
            "M1_ADJ": [
                0
            ]
        }, 
        "location1": [
            23
        ], 
        "location2": [
            17
        ], 
        "sentence": "my mechanic us a more sophisticated ( and much more expensive ) obd scanner in his day to day work , but for someone who does occasional maintenance on his own car , this tool is worth the $ 89 investment ."
    }
}