{
    "33a5433b616a87e539dd01593343cfd1": {
        "(12, 4)": {
            "AM2L": [
                760
            ], 
            "AM2F": [
                5953
            ], 
            "WBF": [
                5595
            ], 
            "BM1F": [
                2239
            ], 
            "M1": [
                4039
            ], 
            "irrelevant_Adj": [
                0
            ], 
            "M2": [
                5459
            ], 
            "BM1L": [
                310
            ], 
            "WBO": [
                8034, 
                5559, 
                8819, 
                5512
            ], 
            "WBL": [
                8034
            ], 
            "irrelevant_Noun": [
                0
            ], 
            "M1_ADJ": [
                0
            ]
        }, 
        "location1": [
            12
        ], 
        "location2": [
            4
        ], 
        "sentence": "this is a design improvement over the original , which only had the off position at one end of the spray selection ."
    }
}