{
    "397f3bc0bc504facf77bebbe00e6ddd1": {
        "(18, 31)": {
            "AM2L": [
                8044
            ], 
            "AM2F": [
                599
            ], 
            "WBF": [
                8162
            ], 
            "BM1F": [
                3338
            ], 
            "M1": [
                5459
            ], 
            "irrelevant_Adj": [
                0
            ], 
            "M2": [
                934
            ], 
            "BM1L": [
                3508
            ], 
            "WBO": [
                310, 
                3450, 
                7533, 
                8162, 
                8835, 
                7526, 
                599, 
                8044, 
                5262
            ], 
            "WBL": [
                310
            ], 
            "irrelevant_Noun": [
                0
            ], 
            "M1_ADJ": [
                1
            ]
        }, 
        "sentence": "water flow can be cut off at either end of the range , as the flow pattern goes from off , to a gentle sprinkle , to wide spray , and then narrowing into a beam , and then off again .", 
        "(34, 31)": {
            "AM2F": [
                481
            ], 
            "WBF": [
                599
            ], 
            "BM1F": [
                310
            ], 
            "M1": [
                934
            ], 
            "irrelevant_Adj": [
                0
            ], 
            "M2": [
                5459
            ], 
            "BM1L": [
                4216
            ], 
            "WBO": [
                8044
            ], 
            "WBL": [
                8044
            ], 
            "irrelevant_Noun": [
                0
            ], 
            "M1_ADJ": [
                0
            ]
        }, 
        "location2": [
            31
        ], 
        "(5, 31)": {
            "AM2L": [
                8044
            ], 
            "AM2F": [
                599
            ], 
            "WBF": [
                760
            ], 
            "BM1F": [
                2030
            ], 
            "M1": [
                5459
            ], 
            "irrelevant_Adj": [
                0
            ], 
            "M2": [
                934
            ], 
            "BM1L": [
                929
            ], 
            "WBO": [
                2660, 
                2730, 
                5458, 
                8034, 
                6289, 
                720, 
                8034, 
                3205, 
                5714, 
                3508, 
                3338, 
                5459, 
                8162, 
                310, 
                3450, 
                7533, 
                8162, 
                8835, 
                7526, 
                599, 
                8044, 
                5262
            ], 
            "WBL": [
                310
            ], 
            "irrelevant_Noun": [
                0
            ], 
            "M1_ADJ": [
                1
            ]
        }, 
        "location1": [
            5, 
            18, 
            34
        ]
    }
}