{
    "19f57cac0b3a8e3c029bd69fc952f555": {
        "(8, 3)": {
            "AM2L": [
                8162
            ], 
            "AM2F": [
                5503
            ], 
            "WBF": [
                475
            ], 
            "BM1F": [
                310
            ], 
            "M1": [
                7042
            ], 
            "irrelevant_Adj": [
                0
            ], 
            "M2": [
                5488
            ], 
            "BM1L": [
                3531
            ], 
            "WBO": [
                3962
            ], 
            "WBL": [
                5232
            ], 
            "irrelevant_Noun": [
                0
            ], 
            "M1_ADJ": [
                0
            ]
        }, 
        "location1": [
            8
        ], 
        "location2": [
            3
        ], 
        "sentence": "i got a set after i gave my old one to my boss whose truck was acting up ."
    }
}