{
    "b346736d82a874113ebfa1a86d893ca7": {
        "(26, 14)": {
            "AM2F": [
                5503
            ], 
            "WBF": [
                8250
            ], 
            "BM1F": [
                310
            ], 
            "M1": [
                8275
            ], 
            "irrelevant_Adj": [
                0
            ], 
            "M2": [
                5488
            ], 
            "BM1L": [
                1141
            ], 
            "WBO": [
                7362, 
                5285, 
                192, 
                5148, 
                1899, 
                5512, 
                3117, 
                5503
            ], 
            "WBL": [
                5232
            ], 
            "irrelevant_Noun": [
                0
            ], 
            "M1_ADJ": [
                0
            ]
        }, 
        "location1": [
            26
        ], 
        "location2": [
            14
        ], 
        "sentence": "i had bought a couple of these many year ago but recently bought a travel trailer so needed 4 more ( could only find one of my old one ) ."
    }
}