{
    "d02c32f7ed74daecc1c5a5a52c3ec737": {
        "(14, 7)": {
            "AM2L": [
                8227
            ], 
            "AM2F": [
                917
            ], 
            "WBF": [
                8819
            ], 
            "BM1F": [
                5344
            ], 
            "M1": [
                4646
            ], 
            "irrelevant_Adj": [
                0
            ], 
            "M2": [
                5488
            ], 
            "BM1L": [
                4542
            ], 
            "WBO": [
                4268, 
                6042, 
                6256
            ], 
            "WBL": [
                8034
            ], 
            "irrelevant_Noun": [
                0
            ], 
            "M1_ADJ": [
                0
            ]
        }, 
        "location1": [
            14
        ], 
        "location2": [
            7
        ], 
        "sentence": "it wring out easily and leaf no lint , which is pretty rad , because the old bath towel i was using before made my car fuzzy ."
    }, 
    "ee443f27bda490a416495d233bc12882": {
        "(14, 7)": {
            "AM2F": [
                7123
            ], 
            "WBF": [
                5495
            ], 
            "BM1F": [
                599
            ], 
            "M1": [
                4646
            ], 
            "irrelevant_Adj": [
                0
            ], 
            "M2": [
                5488
            ], 
            "BM1L": [
                1605
            ], 
            "WBO": [
                8997, 
                1358, 
                4625
            ], 
            "WBL": [
                599
            ], 
            "irrelevant_Noun": [
                0
            ], 
            "M1_ADJ": [
                0
            ]
        }, 
        "location1": [
            14
        ], 
        "location2": [
            7
        ], 
        "sentence": "the chamois does not leave cloth and lint on your car like towel and old shirt ."
    }
}