{
    "d02c32f7ed74daecc1c5a5a52c3ec737": {
        "(14, 16)": {
            "AM2L": [
                8718
            ], 
            "WBFL": [
                917
            ], 
            "BM1F": [
                8034
            ], 
            "M1": [
                5488
            ], 
            "irrelevant_Adj": [
                0
            ], 
            "M2": [
                8227
            ], 
            "BM1L": [
                945
            ], 
            "AM2F": [
                3962
            ], 
            "irrelevant_Noun": [
                0
            ], 
            "M1_ADJ": [
                1
            ]
        }, 
        "location1": [
            14
        ], 
        "location2": [
            16
        ], 
        "sentence": "it wring out easily and leaf no lint , which is pretty rad , because the old bath towel i was using before made my car fuzzy ."
    }, 
    "ee443f27bda490a416495d233bc12882": {
        "location1": [
            14
        ], 
        "location2": [
            12
        ], 
        "(14, 12)": {
            "WBFL": [
                599
            ], 
            "BM1F": [
                4625
            ], 
            "M1": [
                8227
            ], 
            "irrelevant_Adj": [
                0
            ], 
            "M2": [
                5488
            ], 
            "BM1L": [
                1358
            ], 
            "AM2F": [
                7123
            ], 
            "irrelevant_Noun": [
                0
            ], 
            "M1_ADJ": [
                0
            ]
        }, 
        "sentence": "the chamois does not leave cloth and lint on your car like towel and old shirt ."
    }, 
    "90a7ae28a0292b5577ea76b63f991ad4": {
        "location1": [
            6
        ], 
        "location2": [
            8
        ], 
        "(6, 8)": {
            "AM2L": [
                4283
            ], 
            "WBFL": [
                917
            ], 
            "BM1F": [
                8024
            ], 
            "M1": [
                5488
            ], 
            "irrelevant_Adj": [
                0
            ], 
            "M2": [
                8227
            ], 
            "BM1L": [
                1014
            ], 
            "AM2F": [
                599
            ], 
            "irrelevant_Noun": [
                0
            ], 
            "M1_ADJ": [
                1
            ]
        }, 
        "sentence": "it dry my car better than old bath towel , and it left no water spot ."
    }
}