{
    "d9f031cf94ce3521a1f1c67ac3ee22aa": {
        "(13, 3)": {
            "AM2L": [
                3128
            ], 
            "AM2F": [
                1358
            ], 
            "WBF": [
                2580
            ], 
            "BM1F": [
                310
            ], 
            "M1": [
                1305
            ], 
            "irrelevant_Adj": [
                0
            ], 
            "M2": [
                5488
            ], 
            "BM1L": [
                8534
            ], 
            "WBO": [
                3252, 
                5595, 
                73, 
                8979, 
                5495, 
                1160
            ], 
            "WBL": [
                599
            ], 
            "irrelevant_Noun": [
                0
            ], 
            "M1_ADJ": [
                0
            ]
        }, 
        "location1": [
            13
        ], 
        "location2": [
            3
        ], 
        "sentence": "have used a california duster for over 15 year on brand new and old car finish , from black to white ."
    }, 
    "0341dd924f2afe50ddde310a998b18d9": {
        "location1": [
            4
        ], 
        "location2": [
            6
        ], 
        "(4, 6)": {
            "AM2L": [
                599
            ], 
            "WBFL": [
                5559
            ], 
            "BM1F": [
                5232
            ], 
            "M1": [
                5488
            ], 
            "irrelevant_Adj": [
                0
            ], 
            "M2": [
                1305
            ], 
            "BM1L": [
                3717
            ], 
            "AM2F": [
                2580
            ], 
            "irrelevant_Noun": [
                0
            ], 
            "M1_ADJ": [
                1
            ]
        }, 
        "sentence": "i still have my old original california duster and it work great ( like fine wine , it got better with age ) but was mostly interested in this smaller one for the interior ."
    }
}