{
    "cfd9b80fde390404660eaa70a9c533e9": {
        "location1": [
            0
        ], 
        "location2": [
            2
        ], 
        "(0, 2)": {
            "WBFL": [
                3686
            ], 
            "M1": [
                5488
            ], 
            "irrelevant_Adj": [
                0
            ], 
            "M2": [
                3420
            ], 
            "irrelevant_Noun": [
                0
            ], 
            "M1_ADJ": [
                1
            ]
        }, 
        "sentence": "old happy gardener ."
    }
}