{
    "dd2e325192c68f039f54d8414d36dc19": {
        "location1": [
            21
        ], 
        "location2": [
            23
        ], 
        "(21, 23)": {
            "WBFL": [
                5232
            ], 
            "BM1F": [
                8979
            ], 
            "M1": [
                5488
            ], 
            "irrelevant_Adj": [
                0
            ], 
            "M2": [
                5294
            ], 
            "BM1L": [
                34
            ], 
            "AM2F": [
                3705
            ], 
            "irrelevant_Noun": [
                0
            ], 
            "M1_ADJ": [
                1
            ]
        }, 
        "sentence": "this nozzle is built like a tank and will last forever from the look of it and from the 10 year old my neighbor has ."
    }
}