{
    "0341dd924f2afe50ddde310a998b18d9": {
        "location1": [
            4
        ], 
        "location2": [
            30
        ], 
        "(4, 30)": {
            "WBF": [
                5559
            ], 
            "BM1F": [
                5232
            ], 
            "M1": [
                5488
            ], 
            "irrelevant_Adj": [
                0
            ], 
            "M2": [
                4197
            ], 
            "BM1L": [
                3717
            ], 
            "WBO": [
                1305, 
                2580, 
                599, 
                4283, 
                8907, 
                3564, 
                4625, 
                3120, 
                8864, 
                4283, 
                3531, 
                1014, 
                8887, 
                486, 
                1262, 
                8718, 
                5159, 
                4190, 
                4043, 
                8073, 
                7311, 
                5503
            ], 
            "WBL": [
                8034
            ], 
            "irrelevant_Noun": [
                0
            ], 
            "M1_ADJ": [
                1
            ]
        }, 
        "sentence": "i still have my old original california duster and it work great ( like fine wine , it got better with age ) but was mostly interested in this smaller one for the interior ."
    }
}