{
    "f666dd6ec76a9b3957bdc377a50b73f7": {
        "(7, 3)": {
            "AM2L": [
                8887
            ], 
            "AM2F": [
                3109
            ], 
            "WBF": [
                325
            ], 
            "BM1F": [
                4671
            ], 
            "M1": [
                7668
            ], 
            "irrelevant_Adj": [
                0
            ], 
            "M2": [
                5488
            ], 
            "BM1L": [
                310
            ], 
            "WBO": [
                6535
            ], 
            "WBL": [
                5232
            ], 
            "irrelevant_Noun": [
                0
            ], 
            "M1_ADJ": [
                0
            ]
        }, 
        "location1": [
            7
        ], 
        "location2": [
            3
        ], 
        "sentence": "now , a little story about replacing my old filter with the k & n ."
    }
}