{
    "d89094a4b505fab815bfb9e0784e1183": {
        "location1": [
            7
        ], 
        "location2": [
            2
        ], 
        "(7, 2)": {
            "AM2L": [
                5314
            ], 
            "AM2F": [
                599
            ], 
            "WBF": [
                5686
            ], 
            "BM1F": [
                8034
            ], 
            "M1": [
                5001
            ], 
            "irrelevant_Adj": [
                0
            ], 
            "M2": [
                5488
            ], 
            "BM1L": [
                8067
            ], 
            "WBO": [
                4268
            ], 
            "WBL": [
                4043
            ], 
            "irrelevant_Noun": [
                0
            ], 
            "M1_ADJ": [
                0
            ]
        }, 
        "sentence": "think the metal part is aluminum in old and new if that matter ."
    }
}