{
    "9522067a6dc5da816155450f50b24af7": {
        "(20, 15)": {
            "AM2F": [
                2995
            ], 
            "WBF": [
                760
            ], 
            "BM1F": [
                5458
            ], 
            "M1": [
                9002
            ], 
            "irrelevant_Adj": [
                0
            ], 
            "M2": [
                5488
            ], 
            "BM1L": [
                3296
            ], 
            "WBO": [
                6038
            ], 
            "WBL": [
                6682
            ], 
            "irrelevant_Noun": [
                0
            ], 
            "M1_ADJ": [
                0
            ]
        }, 
        "location1": [
            20
        ], 
        "location2": [
            15
        ], 
        "sentence": "many purchaser have made this thing sound like it sprinkle water from the fountain of youth at pressure to rival old faithful ."
    }
}