{
    "0b5ff56c9bcc846afaddacebdf9db70c": {
        "(4, 7)": {
            "AM2L": [
                2154
            ], 
            "AM2F": [
                8819
            ], 
            "WBF": [
                5503
            ], 
            "BM1F": [
                8034
            ], 
            "M1": [
                5488
            ], 
            "irrelevant_Adj": [
                0
            ], 
            "M2": [
                1699
            ], 
            "BM1L": [
                3646
            ], 
            "WBO": [
                3252
            ], 
            "WBL": [
                3252
            ], 
            "irrelevant_Noun": [
                0
            ], 
            "M1_ADJ": [
                1
            ]
        }, 
        "location1": [
            4
        ], 
        "location2": [
            7
        ], 
        "sentence": "remember i had the old one for comparison which defined `` perfect `` ."
    }
}