{
    "fd12310c1036d9fe802b5bcb1f5a4cd0": {
        "(9, 10)": {
            "AM2L": [
                8810
            ], 
            "BM1F": [
                5571
            ], 
            "M1": [
                5489
            ], 
            "irrelevant_Adj": [
                0
            ], 
            "M2": [
                5660
            ], 
            "BM1L": [
                8044
            ], 
            "WBNULL": [
                1
            ], 
            "irrelevant_Noun": [
                1
            ], 
            "AM2F": [
                5458
            ], 
            "M1_ADJ": [
                1
            ]
        }, 
        "location1": [
            9
        ], 
        "location2": [
            10
        ], 
        "sentence": "it 's bigger and feel more secure then our older pair of wheel chock ."
    }
}