{
    "3e04290a909350b9653b6f7e53b8437d": {
        "location1": [
            16
        ], 
        "location2": [
            13
        ], 
        "(16, 13)": {
            "AM2L": [
                3962
            ], 
            "AM2F": [
                6793
            ], 
            "WBF": [
                5495
            ], 
            "BM1F": [
                5458
            ], 
            "M1": [
                5630
            ], 
            "irrelevant_Adj": [
                0
            ], 
            "M2": [
                5489
            ], 
            "BM1L": [
                6509
            ], 
            "WBO": [
                591
            ], 
            "WBL": [
                591
            ], 
            "irrelevant_Noun": [
                0
            ], 
            "M1_ADJ": [
                0
            ]
        }, 
        "sentence": "i use mcguires fiberglass restorer and that did the most amazing removal of oxidation on an older rv i restored back to new so i knew it had to be good and tried it ."
    }
}