{
    "69cae703ace2254629ce4e1f3cce6c09": {
        "location1": [
            10
        ], 
        "location2": [
            6
        ], 
        "(10, 6)": {
            "AM2L": [
                8718
            ], 
            "AM2F": [
                8587
            ], 
            "WBF": [
                491
            ], 
            "BM1F": [
                104
            ], 
            "M1": [
                8979
            ], 
            "irrelevant_Adj": [
                0
            ], 
            "M2": [
                5489
            ], 
            "BM1L": [
                6867
            ], 
            "WBO": [
                8812
            ], 
            "WBL": [
                5571
            ], 
            "irrelevant_Noun": [
                0
            ], 
            "M1_ADJ": [
                0
            ]
        }, 
        "sentence": "i purchased this acton scanner 2 year ago when our older vehicle was repeatedly showing its mil ( malfunction indicator lamp ) ."
    }
}