{
    "fd12310c1036d9fe802b5bcb1f5a4cd0": {
        "location1": [
            9
        ], 
        "location2": [
            13
        ], 
        "(9, 13)": {
            "WBF": [
                5660
            ], 
            "BM1F": [
                5571
            ], 
            "M1": [
                5489
            ], 
            "irrelevant_Adj": [
                0
            ], 
            "M2": [
                1515
            ], 
            "BM1L": [
                8044
            ], 
            "WBO": [
                5458
            ], 
            "WBL": [
                8810
            ], 
            "irrelevant_Noun": [
                0
            ], 
            "M1_ADJ": [
                1
            ]
        }, 
        "sentence": "it 's bigger and feel more secure then our older pair of wheel chock ."
    }
}