{
    "69cae703ace2254629ce4e1f3cce6c09": {
        "location1": [
            10
        ], 
        "location2": [
            16
        ], 
        "(10, 16)": {
            "AM2L": [
                4080
            ], 
            "AM2F": [
                4836
            ], 
            "WBF": [
                8587
            ], 
            "BM1F": [
                5571
            ], 
            "M1": [
                5489
            ], 
            "irrelevant_Adj": [
                0
            ], 
            "M2": [
                5035
            ], 
            "BM1L": [
                8812
            ], 
            "WBO": [
                8718, 
                6526
            ], 
            "WBL": [
                4289
            ], 
            "irrelevant_Noun": [
                0
            ], 
            "M1_ADJ": [
                1
            ]
        }, 
        "sentence": "i purchased this acton scanner 2 year ago when our older vehicle was repeatedly showing its mil ( malfunction indicator lamp ) ."
    }
}