{
    "3e04290a909350b9653b6f7e53b8437d": {
        "(16, 4)": {
            "AM2L": [
                3962
            ], 
            "AM2F": [
                6793
            ], 
            "WBF": [
                599
            ], 
            "BM1F": [
                3090
            ], 
            "M1": [
                6597
            ], 
            "irrelevant_Adj": [
                0
            ], 
            "M2": [
                5489
            ], 
            "BM1L": [
                4938
            ], 
            "WBO": [
                8028, 
                2304, 
                8034, 
                5158, 
                572, 
                6509, 
                5458, 
                5630
            ], 
            "WBL": [
                591
            ], 
            "irrelevant_Noun": [
                0
            ], 
            "M1_ADJ": [
                0
            ]
        }, 
        "location1": [
            16
        ], 
        "location2": [
            4
        ], 
        "sentence": "i use mcguires fiberglass restorer and that did the most amazing removal of oxidation on an older rv i restored back to new so i knew it had to be good and tried it ."
    }
}