{
    "fa6b363f7b06f223b3512916557fe352": {
        "(22, 27)": {
            "AM2L": [
                8819
            ], 
            "AM2F": [
                3252
            ], 
            "WBF": [
                1462
            ], 
            "BM1F": [
                8034
            ], 
            "M1": [
                5496
            ], 
            "irrelevant_Adj": [
                0
            ], 
            "M2": [
                5583
            ], 
            "BM1L": [
                8887
            ], 
            "WBO": [
                5543
            ], 
            "WBL": [
                8034
            ], 
            "irrelevant_Noun": [
                0
            ], 
            "M1_ADJ": [
                1
            ]
        }, 
        "location1": [
            22
        ], 
        "location2": [
            27
        ], 
        "sentence": "the next convenient thing is to find a good retractable power cord that can either be installed in the car with the on-board charger , or to the outlet for which the charger will be tapping power from ."
    }
}