{
    "a5d2dfe591f23f087d21fcc401f94840": {
        "(42, 34)": {
            "AM2L": [
                2107
            ], 
            "AM2F": [
                6195
            ], 
            "WBF": [
                599
            ], 
            "BM1F": [
                503
            ], 
            "M1": [
                3109
            ], 
            "irrelevant_Adj": [
                0
            ], 
            "M2": [
                5507
            ], 
            "BM1L": [
                5244
            ], 
            "WBO": [
                3962, 
                4625, 
                3920, 
                4283
            ], 
            "WBL": [
                310
            ], 
            "irrelevant_Noun": [
                0
            ], 
            "M1_ADJ": [
                0
            ]
        }, 
        "location1": [
            42
        ], 
        "location2": [
            34
        ], 
        "sentence": "my g coupe needed an intake air flow replacement pretty badly after i purchased it ( despite the fact i purchased it with only 37k mile ) and i already knew about the k & n ; air filter and i like how it 's a one-time purchase deal , no need to buy again when it 's filthy ."
    }
}