{
    "a5d2dfe591f23f087d21fcc401f94840": {
        "(42, 17)": {
            "AM2L": [
                2107
            ], 
            "AM2F": [
                6195
            ], 
            "WBF": [
                3962
            ], 
            "BM1F": [
                8034
            ], 
            "M1": [
                2979
            ], 
            "irrelevant_Adj": [
                0
            ], 
            "M2": [
                5507
            ], 
            "BM1L": [
                2249
            ], 
            "WBO": [
                6196, 
                4283, 
                8887, 
                5512, 
                187, 
                5036, 
                599, 
                3962, 
                553, 
                4455, 
                325, 
                8034, 
                4382, 
                5244, 
                503, 
                3109, 
                599, 
                3962, 
                4625, 
                3920, 
                4283
            ], 
            "WBL": [
                310
            ], 
            "irrelevant_Noun": [
                0
            ], 
            "M1_ADJ": [
                0
            ]
        }, 
        "location1": [
            42
        ], 
        "location2": [
            17
        ], 
        "sentence": "my g coupe needed an intake air flow replacement pretty badly after i purchased it ( despite the fact i purchased it with only 37k mile ) and i already knew about the k & n ; air filter and i like how it 's a one-time purchase deal , no need to buy again when it 's filthy ."
    }
}