{
    "a5d2dfe591f23f087d21fcc401f94840": {
        "location1": [
            42
        ], 
        "location2": [
            43
        ], 
        "(42, 43)": {
            "AM2L": [
                5344
            ], 
            "BM1F": [
                310
            ], 
            "M1": [
                5507
            ], 
            "irrelevant_Adj": [
                0
            ], 
            "M2": [
                6195
            ], 
            "BM1L": [
                8
            ], 
            "WBNULL": [
                1
            ], 
            "irrelevant_Noun": [
                0
            ], 
            "AM2F": [
                2107
            ], 
            "M1_ADJ": [
                1
            ]
        }, 
        "sentence": "my g coupe needed an intake air flow replacement pretty badly after i purchased it ( despite the fact i purchased it with only 37k mile ) and i already knew about the k & n ; air filter and i like how it 's a one-time purchase deal , no need to buy again when it 's filthy ."
    }
}