{
    "3999bcb26a4c2a0bda9d3832e5658143": {
        "(1, 16)": {
            "AM2L": [
                8812
            ], 
            "AM2F": [
                8718
            ], 
            "WBF": [
                8140
            ], 
            "BM1F": [
                8034
            ], 
            "M1": [
                5512
            ], 
            "irrelevant_Adj": [
                1
            ], 
            "M2": [
                2528
            ], 
            "WBO": [
                8756, 
                5285, 
                8162, 
                8531, 
                8034, 
                8872, 
                4043, 
                7053, 
                2087, 
                5458, 
                6267
            ], 
            "WBL": [
                7357
            ], 
            "irrelevant_Noun": [
                0
            ], 
            "M1_ADJ": [
                1
            ]
        }, 
        "location1": [
            1
        ], 
        "location2": [
            16
        ], 
        "sentence": ") the only time we needed to use the wiper in several day of rain and snow driving was when passing truck , as those covered the windshield with cloud of tiny droplet that were hard to see through ."
    }, 
    "694e85fc78a8100c307341748de5ffc4": {
        "location1": [
            36
        ], 
        "location2": [
            43
        ], 
        "(36, 43)": {
            "AM2L": [
                7308
            ], 
            "AM2F": [
                310
            ], 
            "WBF": [
                1286
            ], 
            "BM1F": [
                8034
            ], 
            "M1": [
                5512
            ], 
            "irrelevant_Adj": [
                1
            ], 
            "M2": [
                2528
            ], 
            "BM1L": [
                688
            ], 
            "WBO": [
                3962, 
                1899, 
                6365
            ], 
            "WBL": [
                641
            ], 
            "irrelevant_Noun": [
                0
            ], 
            "M1_ADJ": [
                1
            ]
        }, 
        "sentence": "considering the hot temperature outside , the fact that it 's 12vdc and we need a long cable , and that we 're trying to start a car engine ( which takes a lot of power ) these are the only cable i could reccomend for anyone driving a small car up to a light truck ."
    }
}