{
    "bb3d16ecc6b23fba32024fb816d507a7": {
        "(1, 2)": {
            "AM2L": [
                8028
            ], 
            "BM1F": [
                5232
            ], 
            "M1": [
                5512
            ], 
            "irrelevant_Adj": [
                1
            ], 
            "M2": [
                1711
            ], 
            "AM2F": [
                4268
            ], 
            "irrelevant_Noun": [
                0
            ], 
            "WBNULL": [
                1
            ], 
            "M1_ADJ": [
                1
            ]
        }, 
        "location1": [
            1
        ], 
        "location2": [
            2
        ], 
        "sentence": "my only complaint is that it gets rust buildup inside the lock mechanism after a few month , so you need to clean it periodically ."
    }, 
    "c32d1f1efa068bb55c9d575aeb35d45c": {
        "(1, 2)": {
            "AM2L": [
                8028
            ], 
            "BM1F": [
                5232
            ], 
            "M1": [
                5512
            ], 
            "irrelevant_Adj": [
                1
            ], 
            "M2": [
                1711
            ], 
            "AM2F": [
                4268
            ], 
            "irrelevant_Noun": [
                0
            ], 
            "WBNULL": [
                1
            ], 
            "M1_ADJ": [
                1
            ]
        }, 
        "location1": [
            1
        ], 
        "location2": [
            2
        ], 
        "sentence": "my only complaint is that it is not actually made in calfornia ."
    }
}