{
    "47b4b2bdd6a5f2cf7a442debc4c313b0": {
        "(14, 10)": {
            "AM2L": [
                8162
            ], 
            "AM2F": [
                5062
            ], 
            "WBF": [
                7116
            ], 
            "BM1F": [
                7151
            ], 
            "M1": [
                6731
            ], 
            "irrelevant_Adj": [
                1
            ], 
            "M2": [
                5512
            ], 
            "BM1L": [
                4719
            ], 
            "WBO": [
                599
            ], 
            "WBL": [
                7913
            ], 
            "irrelevant_Noun": [
                0
            ], 
            "M1_ADJ": [
                0
            ]
        }, 
        "location1": [
            14
        ], 
        "location2": [
            10
        ], 
        "sentence": "this duster keep a relatively clean , maintained car looking show room shiny and takes only minute to use ."
    }
}