{
    "6a5b9d6418ae87895a0627281010f4b9": {
        "location1": [
            1
        ], 
        "location2": [
            11
        ], 
        "(1, 11)": {
            "AM2L": [
                565
            ], 
            "AM2F": [
                4274
            ], 
            "WBF": [
                6090
            ], 
            "BM1F": [
                8034
            ], 
            "M1": [
                5512
            ], 
            "irrelevant_Adj": [
                1
            ], 
            "M2": [
                1626
            ], 
            "WBO": [
                4268, 
                8028, 
                3160, 
                8587, 
                907, 
                5495
            ], 
            "WBL": [
                2294
            ], 
            "irrelevant_Noun": [
                0
            ], 
            "M1_ADJ": [
                1
            ]
        }, 
        "sentence": "the only problem is that fixingthe vehicle based on the diagnosed code isnot always helpful , sorry ."
    }
}