{
    "3999bcb26a4c2a0bda9d3832e5658143": {
        "location1": [
            1
        ], 
        "location2": [
            27
        ], 
        "(1, 27)": {
            "AM2L": [
                8152
            ], 
            "AM2F": [
                5458
            ], 
            "WBF": [
                8140
            ], 
            "BM1F": [
                8034
            ], 
            "M1": [
                5512
            ], 
            "irrelevant_Adj": [
                1
            ], 
            "M2": [
                1607
            ], 
            "WBO": [
                8756, 
                5285, 
                8162, 
                8531, 
                8034, 
                8872, 
                4043, 
                7053, 
                2087, 
                5458, 
                6267, 
                599, 
                7357, 
                2528, 
                8718, 
                8812, 
                5703, 
                8320, 
                720, 
                8080, 
                1917, 
                8034
            ], 
            "WBL": [
                8887
            ], 
            "irrelevant_Noun": [
                0
            ], 
            "M1_ADJ": [
                1
            ]
        }, 
        "sentence": ") the only time we needed to use the wiper in several day of rain and snow driving was when passing truck , as those covered the windshield with cloud of tiny droplet that were hard to see through ."
    }
}