{
    "1a0a2f2c38a1611ea8ff69c50c4c03d7": {
        "(1, 22)": {
            "AM2L": [
                4043
            ], 
            "AM2F": [
                4247
            ], 
            "WBF": [
                2506
            ], 
            "BM1F": [
                8034
            ], 
            "M1": [
                5512
            ], 
            "irrelevant_Adj": [
                1
            ], 
            "M2": [
                3329
            ], 
            "WBO": [
                3962, 
                3117, 
                4268, 
                8028, 
                3252, 
                8080, 
                8824, 
                8351, 
                4283, 
                5495, 
                599, 
                5459, 
                3323, 
                8049, 
                4268, 
                310, 
                2125
            ], 
            "WBL": [
                5458
            ], 
            "irrelevant_Noun": [
                0
            ], 
            "M1_ADJ": [
                1
            ]
        }, 
        "location1": [
            1
        ], 
        "location2": [
            22
        ], 
        "sentence": "the only drawback i find is that for those who turn it on and off frequently , there is a decent amount of friction involved in turning all the way off to all the way on , so it 's not as quick to use as a trigger shot ."
    }
}