{
    "1c81fabb3bfc9cc2630671fe607b2ddd": {
        "(34, 31)": {
            "AM2L": [
                1743
            ], 
            "AM2F": [
                310
            ], 
            "WBF": [
                8819
            ], 
            "BM1F": [
                3252
            ], 
            "M1": [
                2087
            ], 
            "irrelevant_Adj": [
                1
            ], 
            "M2": [
                5512
            ], 
            "BM1L": [
                2525
            ], 
            "WBO": [
                4268
            ], 
            "WBL": [
                4268
            ], 
            "irrelevant_Noun": [
                1
            ], 
            "M1_ADJ": [
                0
            ]
        }, 
        "location1": [
            34
        ], 
        "location2": [
            31
        ], 
        "sentence": "i ordered four to start , one for dad [ has a truck he rarely drive ] , one for car i `` baby-sit `` , one of wife 's jeep it sometimes does not get driven for day which is only a concern during cold illinois winter , and my truck which always is outside [ does not fit in garage ] and thought it would be a good idea on those super cold night when i also plug in my battery blanket and oil heater ."
    }, 
    "3999bcb26a4c2a0bda9d3832e5658143": {
        "location1": [
            1
        ], 
        "location2": [
            11
        ], 
        "(1, 11)": {
            "AM2L": [
                6267
            ], 
            "AM2F": [
                5458
            ], 
            "WBF": [
                8140
            ], 
            "BM1F": [
                8034
            ], 
            "M1": [
                5512
            ], 
            "irrelevant_Adj": [
                1
            ], 
            "M2": [
                2087
            ], 
            "WBO": [
                8756, 
                5285, 
                8162, 
                8531, 
                8034, 
                8872
            ], 
            "WBL": [
                7053
            ], 
            "irrelevant_Noun": [
                1
            ], 
            "M1_ADJ": [
                1
            ]
        }, 
        "sentence": ") the only time we needed to use the wiper in several day of rain and snow driving was when passing truck , as those covered the windshield with cloud of tiny droplet that were hard to see through ."
    }, 
    "1c6fe6bdd05ed23fd3dd769ad383f920": {
        "(14, 22)": {
            "AM2L": [
                8034
            ], 
            "AM2F": [
                959
            ], 
            "WBF": [
                8531
            ], 
            "BM1F": [
                1899
            ], 
            "M1": [
                5512
            ], 
            "irrelevant_Adj": [
                1
            ], 
            "M2": [
                2087
            ], 
            "BM1L": [
                3962
            ], 
            "WBO": [
                5232, 
                1358, 
                1914, 
                3252
            ], 
            "WBL": [
                3085
            ], 
            "irrelevant_Noun": [
                1
            ], 
            "M1_ADJ": [
                1
            ]
        }, 
        "location1": [
            14
        ], 
        "location2": [
            22
        ], 
        "sentence": "before discovering the california duster , i found that after washing my car , i could only use my car cover for a few day before the car got too dusty to put a cover over ."
    }
}