{
    "c32d1f1efa068bb55c9d575aeb35d45c": {
        "location1": [
            1
        ], 
        "location2": [
            11
        ], 
        "(1, 11)": {
            "WBF": [
                1711
            ], 
            "BM1F": [
                5232
            ], 
            "M1": [
                5512
            ], 
            "irrelevant_Adj": [
                1
            ], 
            "M2": [
                1303
            ], 
            "WBO": [
                4268, 
                8028, 
                4283, 
                4268, 
                5387, 
                402
            ], 
            "WBL": [
                4043
            ], 
            "irrelevant_Noun": [
                0
            ], 
            "M1_ADJ": [
                1
            ]
        }, 
        "sentence": "my only complaint is that it is not actually made in calfornia ."
    }
}