{
    "1a0a2f2c38a1611ea8ff69c50c4c03d7": {
        "(1, 2)": {
            "AM2L": [
                3117
            ], 
            "BM1F": [
                8034
            ], 
            "M1": [
                5512
            ], 
            "irrelevant_Adj": [
                1
            ], 
            "M2": [
                2506
            ], 
            "AM2F": [
                3962
            ], 
            "irrelevant_Noun": [
                0
            ], 
            "WBNULL": [
                1
            ], 
            "M1_ADJ": [
                1
            ]
        }, 
        "location1": [
            1
        ], 
        "location2": [
            2
        ], 
        "sentence": "the only drawback i find is that for those who turn it on and off frequently , there is a decent amount of friction involved in turning all the way off to all the way on , so it 's not as quick to use as a trigger shot ."
    }
}