{
    "975fdc18dd7ef0fc00d2ace278024131": {
        "(1, 8)": {
            "AM2L": [
                8
            ], 
            "AM2F": [
                8049
            ], 
            "WBF": [
                2487
            ], 
            "BM1F": [
                8034
            ], 
            "M1": [
                5512
            ], 
            "irrelevant_Adj": [
                1
            ], 
            "M2": [
                6936
            ], 
            "WBO": [
                8162, 
                8073, 
                6103
            ], 
            "WBL": [
                8034
            ], 
            "irrelevant_Noun": [
                0
            ], 
            "M1_ADJ": [
                1
            ]
        }, 
        "location1": [
            1
        ], 
        "location2": [
            8
        ], 
        "sentence": "the only downside to this product is the seal ; there 's a little spout on the bottle top that goes up and down ; you flip it up to dispense the product ."
    }
}