{
    "47b4b2bdd6a5f2cf7a442debc4c313b0": {
        "location1": [
            14
        ], 
        "location2": [
            15
        ], 
        "(14, 15)": {
            "AM2L": [
                8531
            ], 
            "BM1F": [
                7913
            ], 
            "M1": [
                5512
            ], 
            "irrelevant_Adj": [
                1
            ], 
            "M2": [
                5062
            ], 
            "BM1L": [
                599
            ], 
            "WBNULL": [
                1
            ], 
            "irrelevant_Noun": [
                0
            ], 
            "AM2F": [
                8162
            ], 
            "M1_ADJ": [
                1
            ]
        }, 
        "sentence": "this duster keep a relatively clean , maintained car looking show room shiny and takes only minute to use ."
    }, 
    "a1b1f118e5bcddb76689df90a96ae6e0": {
        "(6, 1)": {
            "AM2L": [
                1262
            ], 
            "AM2F": [
                1564
            ], 
            "WBF": [
                8034
            ], 
            "BM1F": [
                8888
            ], 
            "M1": [
                5062
            ], 
            "irrelevant_Adj": [
                1
            ], 
            "M2": [
                5512
            ], 
            "WBO": [
                7897
            ], 
            "WBL": [
                5387
            ], 
            "irrelevant_Noun": [
                0
            ], 
            "M1_ADJ": [
                0
            ]
        }, 
        "location1": [
            6
        ], 
        "location2": [
            1
        ], 
        "sentence": "within minute , the table is not only clean , but dry ."
    }
}