{
    "1107fef5a389e7df2ef9a4b8a67eed70": {
        "(32, 22)": {
            "AM2L": [
                8034
            ], 
            "AM2F": [
                8351
            ], 
            "WBF": [
                4625
            ], 
            "BM1F": [
                5543
            ], 
            "M1": [
                7409
            ], 
            "irrelevant_Adj": [
                1
            ], 
            "M2": [
                5512
            ], 
            "BM1L": [
                3419
            ], 
            "WBO": [
                8028, 
                1262, 
                3252, 
                8724, 
                8997, 
                1358
            ], 
            "WBL": [
                8991
            ], 
            "irrelevant_Noun": [
                0
            ], 
            "M1_ADJ": [
                0
            ]
        }, 
        "location1": [
            32
        ], 
        "location2": [
            22
        ], 
        "sentence": "this type of nozzle may be good if you 're holding it for a long period of time watering your garden or something like that , but for washing your car when you only turn the water on periodically , it does n't work as well as a trigger type hose nozzle ."
    }
}