{
    "975fdc18dd7ef0fc00d2ace278024131": {
        "(1, 5)": {
            "AM2L": [
                8034
            ], 
            "AM2F": [
                4268
            ], 
            "WBF": [
                2487
            ], 
            "BM1F": [
                8034
            ], 
            "M1": [
                5512
            ], 
            "irrelevant_Adj": [
                1
            ], 
            "M2": [
                6103
            ], 
            "WBO": [
                8162
            ], 
            "WBL": [
                8073
            ], 
            "irrelevant_Noun": [
                0
            ], 
            "M1_ADJ": [
                1
            ]
        }, 
        "(1, 30)": {
            "WBF": [
                2487
            ], 
            "BM1F": [
                8034
            ], 
            "M1": [
                5512
            ], 
            "irrelevant_Adj": [
                1
            ], 
            "M2": [
                6103
            ], 
            "WBO": [
                8162, 
                8073, 
                6103, 
                4268, 
                8034, 
                6936, 
                8049, 
                8, 
                310, 
                4671, 
                7525, 
                5495, 
                8034, 
                1138, 
                8195, 
                8028, 
                3508, 
                8501, 
                599, 
                2481, 
                8991, 
                3193, 
                4283, 
                8501, 
                8162
            ], 
            "WBL": [
                8034
            ], 
            "irrelevant_Noun": [
                0
            ], 
            "M1_ADJ": [
                1
            ]
        }, 
        "location1": [
            1
        ], 
        "location2": [
            5, 
            30
        ], 
        "sentence": "the only downside to this product is the seal ; there 's a little spout on the bottle top that goes up and down ; you flip it up to dispense the product ."
    }, 
    "27f901830375a22ce99f2600184c8802": {
        "location1": [
            20
        ], 
        "location2": [
            21
        ], 
        "(20, 21)": {
            "AM2L": [
                10
            ], 
            "BM1F": [
                8034
            ], 
            "M1": [
                5512
            ], 
            "irrelevant_Adj": [
                1
            ], 
            "M2": [
                6103
            ], 
            "BM1L": [
                4268
            ], 
            "WBNULL": [
                1
            ], 
            "irrelevant_Noun": [
                0
            ], 
            "AM2F": [
                3962
            ], 
            "M1_ADJ": [
                1
            ]
        }, 
        "sentence": "why vw chose to use this material is beyond me , but i know that the mini california duster is the only product i 've found that can successfully clean the dust off of the dashboard ."
    }, 
    "f517d6c48f3062f232ad0041e7221e29": {
        "(5, 1)": {
            "AM2L": [
                5503
            ], 
            "AM2F": [
                1141
            ], 
            "WBF": [
                4268
            ], 
            "BM1F": [
                8073
            ], 
            "M1": [
                6103
            ], 
            "irrelevant_Adj": [
                1
            ], 
            "M2": [
                5512
            ], 
            "WBO": [
                3564
            ], 
            "WBL": [
                3962
            ], 
            "irrelevant_Noun": [
                0
            ], 
            "M1_ADJ": [
                0
            ]
        }, 
        "location1": [
            5
        ], 
        "location2": [
            1
        ], 
        "sentence": "this product is great , i only bought one of the sheet and all you have to do is fill the open hole in you trunk ."
    }
}