{
    "61328b76534bd9307ab753d8c50e593a": {
        "(0, 11)": {
            "WBF": [
                2487
            ], 
            "M1": [
                5512
            ], 
            "irrelevant_Adj": [
                1
            ], 
            "M2": [
                1874
            ], 
            "WBO": [
                8162, 
                8073, 
                1462, 
                4268, 
                8034, 
                4570, 
                5458
            ], 
            "WBL": [
                5887
            ], 
            "irrelevant_Noun": [
                0
            ], 
            "M1_ADJ": [
                1
            ]
        }, 
        "location1": [
            0
        ], 
        "location2": [
            11
        ], 
        "sentence": "only downside to this charger is the length of the plug cord ."
    }
}