{
    "61328b76534bd9307ab753d8c50e593a": {
        "location1": [
            0
        ], 
        "location2": [
            7
        ], 
        "(0, 7)": {
            "WBF": [
                2487
            ], 
            "AM2L": [
                8034
            ], 
            "M1": [
                5512
            ], 
            "irrelevant_Adj": [
                1
            ], 
            "M2": [
                4570
            ], 
            "WBO": [
                8162, 
                8073, 
                1462
            ], 
            "WBL": [
                8034
            ], 
            "irrelevant_Noun": [
                0
            ], 
            "AM2F": [
                5458
            ], 
            "M1_ADJ": [
                1
            ]
        }, 
        "sentence": "only downside to this charger is the length of the plug cord ."
    }
}