{
    "1107fef5a389e7df2ef9a4b8a67eed70": {
        "(32, 48)": {
            "AM2F": [
                5410
            ], 
            "WBF": [
                8351
            ], 
            "BM1F": [
                8991
            ], 
            "M1": [
                5512
            ], 
            "irrelevant_Adj": [
                1
            ], 
            "M2": [
                3903
            ], 
            "BM1L": [
                8812
            ], 
            "WBO": [
                8034, 
                8736, 
                5495, 
                5767, 
                4283, 
                2445, 
                5245, 
                8907, 
                720, 
                8789, 
                720, 
                310
            ], 
            "WBL": [
                8374
            ], 
            "irrelevant_Noun": [
                0
            ], 
            "M1_ADJ": [
                1
            ]
        }, 
        "location1": [
            32
        ], 
        "location2": [
            48
        ], 
        "sentence": "this type of nozzle may be good if you 're holding it for a long period of time watering your garden or something like that , but for washing your car when you only turn the water on periodically , it does n't work as well as a trigger type hose nozzle ."
    }
}