{
    "66227f45bf444fa36eaec556da1055c7": {
        "(9, 10)": {
            "AM2L": [
                8162
            ], 
            "BM1F": [
                591
            ], 
            "M1": [
                5522
            ], 
            "irrelevant_Adj": [
                0
            ], 
            "M2": [
                5046
            ], 
            "BM1L": [
                3705
            ], 
            "WBNULL": [
                1
            ], 
            "irrelevant_Noun": [
                0
            ], 
            "AM2F": [
                7362
            ], 
            "M1_ADJ": [
                1
            ]
        }, 
        "location1": [
            9
        ], 
        "location2": [
            10
        ], 
        "sentence": "you can reason with this funnel , it has an open mind so to speak ."
    }
}