{
    "33a5433b616a87e539dd01593343cfd1": {
        "location1": [
            7
        ], 
        "location2": [
            20
        ], 
        "(7, 20)": {
            "WBF": [
                8819
            ], 
            "BM1F": [
                8034
            ], 
            "M1": [
                5559
            ], 
            "irrelevant_Adj": [
                0
            ], 
            "M2": [
                6985
            ], 
            "BM1L": [
                5595
            ], 
            "WBO": [
                5512, 
                3646, 
                8034, 
                5459, 
                5953, 
                760, 
                5503, 
                2730, 
                5458
            ], 
            "WBL": [
                7526
            ], 
            "irrelevant_Noun": [
                0
            ], 
            "M1_ADJ": [
                1
            ]
        }, 
        "sentence": "this is a design improvement over the original , which only had the off position at one end of the spray selection ."
    }
}