{
    "33a5433b616a87e539dd01593343cfd1": {
        "(7, 3)": {
            "AM2L": [
                5512
            ], 
            "AM2F": [
                8819
            ], 
            "WBF": [
                4039
            ], 
            "BM1F": [
                310
            ], 
            "M1": [
                2239
            ], 
            "irrelevant_Adj": [
                0
            ], 
            "M2": [
                5559
            ], 
            "BM1L": [
                4268
            ], 
            "WBO": [
                5595
            ], 
            "WBL": [
                8034
            ], 
            "irrelevant_Noun": [
                0
            ], 
            "M1_ADJ": [
                0
            ]
        }, 
        "location1": [
            7
        ], 
        "location2": [
            3
        ], 
        "sentence": "this is a design improvement over the original , which only had the off position at one end of the spray selection ."
    }
}