{
    "3e3a67ac2714c4345c035fce0fce61d4": {
        "(17, 29)": {
            "AM2L": [
                5483
            ], 
            "AM2F": [
                599
            ], 
            "WBF": [
                6201
            ], 
            "BM1F": [
                8034
            ], 
            "M1": [
                5559
            ], 
            "irrelevant_Adj": [
                0
            ], 
            "M2": [
                3422
            ], 
            "BM1L": [
                7036
            ], 
            "WBO": [
                3252, 
                8819, 
                3962, 
                1141, 
                8073, 
                5503, 
                8819, 
                4268
            ], 
            "WBL": [
                5976
            ], 
            "irrelevant_Noun": [
                0
            ], 
            "M1_ADJ": [
                1
            ]
        }, 
        "location1": [
            17
        ], 
        "location2": [
            29
        ], 
        "sentence": "the us for this item are nearly endless and i will order another one to serve the original purpoe for which i bought this one which is for pouring gas and oil ."
    }
}