{
    "03616fecb9e07b059bcc59f2a579b9c3": {
        "(13, 17)": {
            "WBF": [
                8907
            ], 
            "BM1F": [
                8034
            ], 
            "M1": [
                5559
            ], 
            "irrelevant_Adj": [
                0
            ], 
            "M2": [
                1468
            ], 
            "BM1L": [
                1200
            ], 
            "WBO": [
                4625
            ], 
            "WBL": [
                310
            ], 
            "irrelevant_Noun": [
                0
            ], 
            "M1_ADJ": [
                1
            ]
        }, 
        "location1": [
            13
        ], 
        "location2": [
            17
        ], 
        "sentence": "so i 'd have to say this , just like it big brother , the original , work like a charm ."
    }
}