{
    "03616fecb9e07b059bcc59f2a579b9c3": {
        "(13, 11)": {
            "AM2L": [
                4625
            ], 
            "WBFL": [
                8034
            ], 
            "BM1F": [
                1026
            ], 
            "M1": [
                1200
            ], 
            "irrelevant_Adj": [
                0
            ], 
            "M2": [
                5559
            ], 
            "BM1L": [
                4283
            ], 
            "AM2F": [
                8907
            ], 
            "irrelevant_Noun": [
                0
            ], 
            "M1_ADJ": [
                0
            ]
        }, 
        "location1": [
            13
        ], 
        "location2": [
            11
        ], 
        "sentence": "so i 'd have to say this , just like it big brother , the original , work like a charm ."
    }
}