{
    "1f7a77eea50c972878e142d57182e456": {
        "(6, 7)": {
            "AM2L": [
                1908
            ], 
            "BM1F": [
                3252
            ], 
            "M1": [
                5566
            ], 
            "irrelevant_Adj": [
                1
            ], 
            "M2": [
                6202
            ], 
            "BM1L": [
                8534
            ], 
            "WBNULL": [
                1
            ], 
            "irrelevant_Noun": [
                0
            ], 
            "AM2F": [
                5458
            ], 
            "M1_ADJ": [
                1
            ]
        }, 
        "location1": [
            6
        ], 
        "location2": [
            7
        ], 
        "sentence": "this funnel can be used for other purpose of course , ."
    }
}