{
    "0f5eb41bd03e069de666792ab292c44f": {
        "(3, 4)": {
            "AM2L": [
                6413
            ], 
            "BM1F": [
                3719
            ], 
            "M1": [
                5566
            ], 
            "irrelevant_Adj": [
                1
            ], 
            "M2": [
                4279
            ], 
            "BM1L": [
                641
            ], 
            "WBNULL": [
                1
            ], 
            "irrelevant_Noun": [
                0
            ], 
            "AM2F": [
                4625
            ], 
            "M1_ADJ": [
                1
            ]
        }, 
        "location1": [
            3
        ], 
        "location2": [
            4
        ], 
        "sentence": "for anyone having other issue like red fiber all over the place , i 'd recommend following the step i did listed above , it worked great for me and as of now i have a great little duster that i paid less then 5 buck for ."
    }, 
    "a1f6c4cdb515107145c09075c08eb833": {
        "(29, 18)": {
            "AM2L": [
                1160
            ], 
            "AM2F": [
                1686
            ], 
            "WBF": [
                3985
            ], 
            "BM1F": [
                591
            ], 
            "M1": [
                4279
            ], 
            "irrelevant_Adj": [
                1
            ], 
            "M2": [
                5566
            ], 
            "BM1L": [
                5245
            ], 
            "WBO": [
                8991, 
                8531, 
                8041, 
                1262, 
                4283, 
                4268, 
                2145
            ], 
            "WBL": [
                8887
            ], 
            "irrelevant_Noun": [
                0
            ], 
            "M1_ADJ": [
                0
            ]
        }, 
        "location1": [
            29
        ], 
        "location2": [
            18
        ], 
        "sentence": "i have n't used this in conjunction with the rainx wiper blade so maybe that is n't an issue if you use them , but it is def noticeable with other common brand ."
    }
}