{
    "6ca0a5d4b1e3b0aff75ea896d1b7b4b9": {
        "location1": [
            14
        ], 
        "location2": [
            12
        ], 
        "(14, 12)": {
            "WBFL": [
                8887
            ], 
            "BM1F": [
                7405
            ], 
            "M1": [
                6541
            ], 
            "irrelevant_Adj": [
                1
            ], 
            "M2": [
                5566
            ], 
            "BM1L": [
                8028
            ], 
            "AM2F": [
                1160
            ], 
            "irrelevant_Noun": [
                0
            ], 
            "M1_ADJ": [
                0
            ]
        }, 
        "sentence": "takes the dust off my car without leaving any streaking that some report with other brand ."
    }
}