{
    "0f5eb41bd03e069de666792ab292c44f": {
        "(3, 17)": {
            "AM2L": [
                2304
            ], 
            "AM2F": [
                3962
            ], 
            "WBF": [
                4279
            ], 
            "BM1F": [
                3719
            ], 
            "M1": [
                5566
            ], 
            "irrelevant_Adj": [
                1
            ], 
            "M2": [
                7622
            ], 
            "BM1L": [
                641
            ], 
            "WBO": [
                4625, 
                6413, 
                3089, 
                527, 
                5595, 
                8034, 
                5846, 
                3962, 
                2, 
                6390
            ], 
            "WBL": [
                8034
            ], 
            "irrelevant_Noun": [
                0
            ], 
            "M1_ADJ": [
                1
            ]
        }, 
        "location1": [
            3
        ], 
        "location2": [
            17
        ], 
        "sentence": "for anyone having other issue like red fiber all over the place , i 'd recommend following the step i did listed above , it worked great for me and as of now i have a great little duster that i paid less then 5 buck for ."
    }
}