{
    "6ca0a5d4b1e3b0aff75ea896d1b7b4b9": {
        "location1": [
            14
        ], 
        "location2": [
            2
        ], 
        "(14, 2)": {
            "AM2F": [
                1160
            ], 
            "WBF": [
                5459
            ], 
            "BM1F": [
                8034
            ], 
            "M1": [
                2577
            ], 
            "irrelevant_Adj": [
                1
            ], 
            "M2": [
                5566
            ], 
            "BM1L": [
                7913
            ], 
            "WBO": [
                5232, 
                1358, 
                8889, 
                4556, 
                636, 
                7689, 
                8028, 
                7405
            ], 
            "WBL": [
                8887
            ], 
            "irrelevant_Noun": [
                0
            ], 
            "M1_ADJ": [
                0
            ]
        }, 
        "sentence": "takes the dust off my car without leaving any streaking that some report with other brand ."
    }, 
    "f82f3f6d039395e95ed9deb12bb2dc94": {
        "(16, 21)": {
            "WBF": [
                5846
            ], 
            "BM1F": [
                8080
            ], 
            "M1": [
                5566
            ], 
            "irrelevant_Adj": [
                1
            ], 
            "M2": [
                2577
            ], 
            "BM1L": [
                527
            ], 
            "WBO": [
                5381
            ], 
            "WBL": [
                4043
            ], 
            "irrelevant_Noun": [
                0
            ], 
            "M1_ADJ": [
                1
            ]
        }, 
        "location1": [
            16
        ], 
        "location2": [
            21
        ], 
        "sentence": "this included behind my tv and entertainment center , on top of my refrigerator and all those other place normally buried in dust ."
    }, 
    "596d99dbe1e14f605dafc580333df318": {
        "location1": [
            10
        ], 
        "location2": [
            18
        ], 
        "(10, 18)": {
            "AM2L": [
                2356
            ], 
            "AM2F": [
                599
            ], 
            "WBF": [
                8587
            ], 
            "BM1F": [
                8887
            ], 
            "M1": [
                5566
            ], 
            "irrelevant_Adj": [
                1
            ], 
            "M2": [
                2577
            ], 
            "BM1L": [
                5705
            ], 
            "WBO": [
                599, 
                4748, 
                3920, 
                4283
            ], 
            "WBL": [
                8501
            ], 
            "irrelevant_Noun": [
                0
            ], 
            "M1_ADJ": [
                1
            ]
        }, 
        "sentence": "i 've used a california duster in the past with other vehicle and loved how it sucked up dust and dirt and held without scratching my finish ."
    }, 
    "e28ff43368a6f4bfb8f94b2163da9db2": {
        "(9, 6)": {
            "AM2L": [
                1623
            ], 
            "AM2F": [
                4616
            ], 
            "WBF": [
                599
            ], 
            "BM1F": [
                5919
            ], 
            "M1": [
                2577
            ], 
            "irrelevant_Adj": [
                1
            ], 
            "M2": [
                5566
            ], 
            "BM1L": [
                6510
            ], 
            "WBO": [
                636
            ], 
            "WBL": [
                636
            ], 
            "irrelevant_Noun": [
                0
            ], 
            "M1_ADJ": [
                0
            ]
        }, 
        "location1": [
            9
        ], 
        "location2": [
            6
        ], 
        "sentence": "the duster will easily remove pollen , dust , and any other light coating of material ."
    }
}