{
    "88b84dbaec5d7dd9012f48f94161a88e": {
        "location1": [
            7
        ], 
        "location2": [
            9
        ], 
        "(7, 9)": {
            "AM2L": [
                8531
            ], 
            "WBFL": [
                7032
            ], 
            "BM1F": [
                599
            ], 
            "M1": [
                5566
            ], 
            "irrelevant_Adj": [
                1
            ], 
            "M2": [
                1358
            ], 
            "BM1L": [
                4572
            ], 
            "AM2F": [
                6597
            ], 
            "irrelevant_Noun": [
                0
            ], 
            "M1_ADJ": [
                1
            ]
        }, 
        "sentence": "it 's no wonder jay leno and other serious car restorer use this stuff ."
    }, 
    "43b7900f2c7e35471b4f777cb28ee650": {
        "(22, 5)": {
            "AM2L": [
                720
            ], 
            "AM2F": [
                8587
            ], 
            "WBF": [
                599
            ], 
            "BM1F": [
                1134
            ], 
            "M1": [
                1358
            ], 
            "irrelevant_Adj": [
                1
            ], 
            "M2": [
                5566
            ], 
            "BM1L": [
                4043
            ], 
            "WBO": [
                7420, 
                720, 
                3962, 
                3459, 
                8140, 
                3962, 
                8851, 
                929, 
                1229, 
                310, 
                4382, 
                5244, 
                7043
            ], 
            "WBL": [
                5232
            ], 
            "irrelevant_Noun": [
                0
            ], 
            "M1_ADJ": [
                0
            ]
        }, 
        "location1": [
            22
        ], 
        "location2": [
            5
        ], 
        "sentence": "i have one in both car and soon as i get time i will be building a k & n set-up for my other vehicle as there is not one made for it"
    }, 
    "c498e7dfa32c7aa846aaff0b885f4df9": {
        "(14, 10)": {
            "AM2F": [
                1566
            ], 
            "WBF": [
                8719
            ], 
            "BM1F": [
                310
            ], 
            "M1": [
                1358
            ], 
            "irrelevant_Adj": [
                1
            ], 
            "M2": [
                5566
            ], 
            "BM1L": [
                8162
            ], 
            "WBO": [
                5543
            ], 
            "WBL": [
                8542
            ], 
            "irrelevant_Noun": [
                0
            ], 
            "M1_ADJ": [
                0
            ]
        }, 
        "location1": [
            14
        ], 
        "location2": [
            10
        ], 
        "sentence": "note : this is not a substitute for going to a car wash or using other cleaner ."
    }, 
    "f01c9ad6ca1126ce4837b391b957ae4f": {
        "(8, 11)": {
            "WBF": [
                2681
            ], 
            "BM1F": [
                5571
            ], 
            "M1": [
                5566
            ], 
            "irrelevant_Adj": [
                1
            ], 
            "M2": [
                1358
            ], 
            "BM1L": [
                3252
            ], 
            "WBO": [
                3399
            ], 
            "WBL": [
                3399
            ], 
            "irrelevant_Noun": [
                0
            ], 
            "M1_ADJ": [
                1
            ]
        }, 
        "location1": [
            8
        ], 
        "location2": [
            11
        ], 
        "sentence": "i will be buying another one for our other electronic gadgets-heavy car ."
    }, 
    "6ca0a5d4b1e3b0aff75ea896d1b7b4b9": {
        "(14, 5)": {
            "AM2F": [
                1160
            ], 
            "WBF": [
                8889
            ], 
            "BM1F": [
                5232
            ], 
            "M1": [
                1358
            ], 
            "irrelevant_Adj": [
                1
            ], 
            "M2": [
                5566
            ], 
            "BM1L": [
                5459
            ], 
            "WBO": [
                4556, 
                636, 
                7689, 
                8028, 
                7405
            ], 
            "WBL": [
                8887
            ], 
            "irrelevant_Noun": [
                0
            ], 
            "M1_ADJ": [
                0
            ]
        }, 
        "location1": [
            14
        ], 
        "location2": [
            5
        ], 
        "sentence": "takes the dust off my car without leaving any streaking that some report with other brand ."
    }
}