{
    "5b1dcc782012c643879d41c30e4b3c26": {
        "(11, 8)": {
            "AM2L": [
                8991
            ], 
            "AM2F": [
                2117
            ], 
            "WBF": [
                5543
            ], 
            "BM1F": [
                6832
            ], 
            "M1": [
                3555
            ], 
            "irrelevant_Adj": [
                1
            ], 
            "M2": [
                5566
            ], 
            "BM1L": [
                6713
            ], 
            "WBO": [
                7405
            ], 
            "WBL": [
                7405
            ], 
            "irrelevant_Noun": [
                0
            ], 
            "M1_ADJ": [
                0
            ]
        }, 
        "location1": [
            11
        ], 
        "location2": [
            8
        ], 
        "sentence": "however , if you pick up some rogue sand granule or some other debris , you could cause clear coat damage ."
    }
}