{
    "b1f788748beb9c0d33b8e694a4a62220": {
        "(17, 13)": {
            "AM2L": [
                804
            ], 
            "AM2F": [
                3252
            ], 
            "WBF": [
                2705
            ], 
            "BM1F": [
                6685
            ], 
            "M1": [
                7178
            ], 
            "irrelevant_Adj": [
                1
            ], 
            "M2": [
                5566
            ], 
            "BM1L": [
                3252
            ], 
            "WBO": [
                599
            ], 
            "WBL": [
                8034
            ], 
            "irrelevant_Noun": [
                0
            ], 
            "M1_ADJ": [
                0
            ]
        }, 
        "location1": [
            17
        ], 
        "location2": [
            13
        ], 
        "sentence": "i bought 2 of these , one to keep in my truck for road side emergency and the other for automotive work use at home ."
    }
}