{
    "e8276162c865d77081fbbe6d6c3f85ec": {
        "location1": [
            20
        ], 
        "location2": [
            6
        ], 
        "(20, 6)": {
            "AM2L": [
                5435
            ], 
            "AM2F": [
                8368
            ], 
            "WBF": [
                7362
            ], 
            "BM1F": [
                310
            ], 
            "M1": [
                2593
            ], 
            "irrelevant_Adj": [
                1
            ], 
            "M2": [
                5566
            ], 
            "BM1L": [
                5458
            ], 
            "WBO": [
                3962, 
                2436, 
                5245, 
                4465, 
                3985, 
                5232, 
                3926, 
                4066, 
                1262, 
                907
            ], 
            "WBL": [
                5232
            ], 
            "irrelevant_Noun": [
                0
            ], 
            "M1_ADJ": [
                0
            ]
        }, 
        "sentence": "i am fresh out of a dyno so i do n't know if my hp increased , but based on my other two observation , combined with this being a lifetime product , i am ecstatic about this filter ."
    }
}