{
    "573dcfa77c75c32bf9e0928188a7e067": {
        "location1": [
            10
        ], 
        "location2": [
            5
        ], 
        "(10, 5)": {
            "AM2F": [
                6639
            ], 
            "WBF": [
                5410
            ], 
            "BM1F": [
                8073
            ], 
            "M1": [
                3903
            ], 
            "irrelevant_Adj": [
                1
            ], 
            "M2": [
                5566
            ], 
            "BM1L": [
                4625
            ], 
            "WBO": [
                720
            ], 
            "WBL": [
                720
            ], 
            "irrelevant_Noun": [
                0
            ], 
            "M1_ADJ": [
                0
            ]
        }, 
        "sentence": "i did n't like this hose nozzle as much as other reviewer ."
    }, 
    "fbb8c8107c397d23ef2d34e50cc27363": {
        "(13, 16)": {
            "AM2L": [
                640
            ], 
            "AM2F": [
                3730
            ], 
            "WBF": [
                3419
            ], 
            "BM1F": [
                8034
            ], 
            "M1": [
                5566
            ], 
            "irrelevant_Adj": [
                1
            ], 
            "M2": [
                3903
            ], 
            "BM1L": [
                1269
            ], 
            "WBO": [
                8580
            ], 
            "WBL": [
                8580
            ], 
            "irrelevant_Noun": [
                0
            ], 
            "M1_ADJ": [
                1
            ]
        }, 
        "location1": [
            13
        ], 
        "location2": [
            16
        ], 
        "sentence": "solid piece of equipment , i do n't think i 'll ever buy the other `` garden `` variety hose head anymore ."
    }, 
    "e1979427e19ec0a4f8e53f88d44effec": {
        "(11, 12)": {
            "AM2L": [
                3962
            ], 
            "BM1F": [
                636
            ], 
            "M1": [
                5566
            ], 
            "irrelevant_Adj": [
                1
            ], 
            "M2": [
                3903
            ], 
            "BM1L": [
                4625
            ], 
            "WBNULL": [
                1
            ], 
            "irrelevant_Noun": [
                0
            ], 
            "AM2F": [
                5410
            ], 
            "M1_ADJ": [
                1
            ]
        }, 
        "(0, 12)": {
            "WBF": [
                8024
            ], 
            "AM2L": [
                3962
            ], 
            "M1": [
                5566
            ], 
            "irrelevant_Adj": [
                1
            ], 
            "M2": [
                3903
            ], 
            "WBO": [
                8028, 
                4283, 
                7526, 
                5574, 
                8736, 
                6039, 
                5191, 
                4625
            ], 
            "WBL": [
                5566
            ], 
            "irrelevant_Noun": [
                0
            ], 
            "AM2F": [
                5410
            ], 
            "M1_ADJ": [
                1
            ]
        }, 
        "location1": [
            0, 
            11
        ], 
        "location2": [
            12
        ], 
        "sentence": "other than that , it spray out water prett much like any other hose nozzle i have ever used ."
    }, 
    "263a0ab7d43f3ec4610334dd08f2c616": {
        "(15, 24)": {
            "WBF": [
                5410
            ], 
            "BM1F": [
                5232
            ], 
            "M1": [
                5566
            ], 
            "irrelevant_Adj": [
                1
            ], 
            "M2": [
                3903
            ], 
            "BM1L": [
                945
            ], 
            "WBO": [
                8907, 
                4376, 
                3120, 
                8887, 
                5232
            ], 
            "WBL": [
                2583
            ], 
            "irrelevant_Noun": [
                0
            ], 
            "M1_ADJ": [
                1
            ]
        }, 
        "location1": [
            15
        ], 
        "location2": [
            24
        ], 
        "sentence": "build quality is second to none , but i knocked it down a star because my other nozzle work just fine with my light duty hose ."
    }
}