{
    "9a0a9adf5d6cec4bed8dd1eeef495567": {
        "location1": [
            11
        ], 
        "location2": [
            13
        ], 
        "(11, 13)": {
            "WBFL": [
                7204
            ], 
            "BM1F": [
                5543
            ], 
            "M1": [
                5566
            ], 
            "irrelevant_Adj": [
                1
            ], 
            "M2": [
                2286
            ], 
            "BM1L": [
                8295
            ], 
            "irrelevant_Noun": [
                0
            ], 
            "M1_ADJ": [
                1
            ]
        }, 
        "sentence": "this is of particular importance if you use the tri-leveler or other similar device ."
    }
}