{
    "9a0a9adf5d6cec4bed8dd1eeef495567": {
        "(11, 4)": {
            "AM2L": [
                2286
            ], 
            "AM2F": [
                7204
            ], 
            "WBF": [
                3985
            ], 
            "BM1F": [
                5692
            ], 
            "M1": [
                4024
            ], 
            "irrelevant_Adj": [
                1
            ], 
            "M2": [
                5566
            ], 
            "BM1L": [
                5458
            ], 
            "WBO": [
                8991, 
                8531, 
                8034
            ], 
            "WBL": [
                5543
            ], 
            "irrelevant_Noun": [
                0
            ], 
            "M1_ADJ": [
                0
            ]
        }, 
        "location1": [
            11
        ], 
        "location2": [
            4
        ], 
        "sentence": "this is of particular importance if you use the tri-leveler or other similar device ."
    }
}