{
    "093e9c014ef9fc910a67b2e1c81297a4": {
        "(16, 15)": {
            "BM1F": [
                8162
            ], 
            "M1": [
                1914
            ], 
            "irrelevant_Adj": [
                1
            ], 
            "M2": [
                5566
            ], 
            "BM1L": [
                5284
            ], 
            "WBNULL": [
                1
            ], 
            "irrelevant_Noun": [
                0
            ], 
            "AM2F": [
                6451
            ], 
            "M1_ADJ": [
                0
            ]
        }, 
        "location1": [
            16
        ], 
        "location2": [
            15
        ], 
        "sentence": "i would recommend them , and will buy more if we rearrange thing and need to cover other register ."
    }, 
    "664d8d0a63ae2e29fdcad89851351001": {
        "(20, 49)": {
            "WBF": [
                4286
            ], 
            "BM1F": [
                5543
            ], 
            "M1": [
                5566
            ], 
            "irrelevant_Adj": [
                1
            ], 
            "M2": [
                1914
            ], 
            "BM1L": [
                2122
            ], 
            "WBO": [
                6025, 
                6087, 
                4578, 
                8024, 
                170, 
                5458, 
                8034, 
                8212, 
                3342, 
                7826, 
                4401, 
                4043, 
                5046, 
                227, 
                4268, 
                8034, 
                2845, 
                599, 
                1084, 
                8591, 
                599, 
                8034, 
                808, 
                7449, 
                5495
            ], 
            "WBL": [
                3339
            ], 
            "irrelevant_Noun": [
                0
            ], 
            "M1_ADJ": [
                1
            ]
        }, 
        "location1": [
            20
        ], 
        "location2": [
            49
        ], 
        "sentence": "i applied this to all accessible ( front face ) surface , and only the spot where there was not a decal or other item present , probably less than 30 % of the total frontal surface ( keep in mind 50 % is the evaporator and blower vent ) , and the available space on the front cover ."
    }
}