{
    "aecc66b14117f7c0f5253efeed425583": {
        "(5, 14)": {
            "AM2L": [
                310
            ], 
            "AM2F": [
                5495
            ], 
            "WBF": [
                2087
            ], 
            "BM1F": [
                8034
            ], 
            "M1": [
                5566
            ], 
            "irrelevant_Adj": [
                1
            ], 
            "M2": [
                7871
            ], 
            "BM1L": [
                5058
            ], 
            "WBO": [
                599, 
                3962, 
                2, 
                6857, 
                4283
            ], 
            "WBL": [
                5503
            ], 
            "irrelevant_Noun": [
                0
            ], 
            "M1_ADJ": [
                1
            ]
        }, 
        "location1": [
            5
        ], 
        "location2": [
            14, 
            23
        ], 
        "(5, 23)": {
            "AM2L": [
                1715
            ], 
            "AM2F": [
                8162
            ], 
            "WBF": [
                2087
            ], 
            "BM1F": [
                8034
            ], 
            "M1": [
                5566
            ], 
            "irrelevant_Adj": [
                1
            ], 
            "M2": [
                7871
            ], 
            "BM1L": [
                5058
            ], 
            "WBO": [
                599, 
                3962, 
                2, 
                6857, 
                4283, 
                8189, 
                5503, 
                7871, 
                5495, 
                310, 
                5666, 
                7554, 
                2545, 
                8044
            ], 
            "WBL": [
                6954
            ], 
            "irrelevant_Noun": [
                0
            ], 
            "M1_ADJ": [
                1
            ]
        }, 
        "sentence": "i washed my minivan the other day ; and i 'd say it took one swipe on a panel , squeeze dry , then a second swipe to completely dry the panel ."
    }
}