{
    "9ec64287056accc9fbf72de2c969417f": {
        "(5, 3)": {
            "AM2L": [
                4930
            ], 
            "WBFL": [
                3252
            ], 
            "BM1F": [
                8034
            ], 
            "M1": [
                5818
            ], 
            "irrelevant_Adj": [
                1
            ], 
            "M2": [
                5566
            ], 
            "BM1L": [
                760
            ], 
            "AM2F": [
                668
            ], 
            "irrelevant_Noun": [
                0
            ], 
            "M1_ADJ": [
                0
            ]
        }, 
        "location1": [
            5
        ], 
        "location2": [
            3
        ], 
        "sentence": "( look at the picture ) for other application , maybe a larger or different style funnel is better ."
    }
}