{
    "4a303e904b1d92074a31ac7d08f7c18c": {
        "(12, 10)": {
            "WBFL": [
                8887
            ], 
            "BM1F": [
                5344
            ], 
            "M1": [
                4195
            ], 
            "irrelevant_Adj": [
                1
            ], 
            "M2": [
                5566
            ], 
            "BM1L": [
                8
            ], 
            "AM2F": [
                3691
            ], 
            "irrelevant_Noun": [
                0
            ], 
            "M1_ADJ": [
                0
            ]
        }, 
        "location1": [
            12
        ], 
        "location2": [
            10
        ], 
        "sentence": "but the end are small enough so there 's no interference with other hardware ."
    }
}