{
    "6ca0a5d4b1e3b0aff75ea896d1b7b4b9": {
        "location1": [
            14
        ], 
        "location2": [
            9
        ], 
        "(14, 9)": {
            "AM2F": [
                1160
            ], 
            "WBF": [
                8028
            ], 
            "BM1F": [
                636
            ], 
            "M1": [
                7689
            ], 
            "irrelevant_Adj": [
                1
            ], 
            "M2": [
                5566
            ], 
            "BM1L": [
                4556
            ], 
            "WBO": [
                7405
            ], 
            "WBL": [
                8887
            ], 
            "irrelevant_Noun": [
                0
            ], 
            "M1_ADJ": [
                0
            ]
        }, 
        "sentence": "takes the dust off my car without leaving any streaking that some report with other brand ."
    }
}