{
    "664d8d0a63ae2e29fdcad89851351001": {
        "(20, 8)": {
            "AM2L": [
                6025
            ], 
            "AM2F": [
                4286
            ], 
            "WBF": [
                599
            ], 
            "BM1F": [
                2974
            ], 
            "M1": [
                7826
            ], 
            "irrelevant_Adj": [
                1
            ], 
            "M2": [
                5566
            ], 
            "BM1L": [
                3339
            ], 
            "WBO": [
                5512, 
                8034, 
                7522, 
                8814, 
                8049, 
                8718, 
                5387, 
                310
            ], 
            "WBL": [
                5543
            ], 
            "irrelevant_Noun": [
                0
            ], 
            "M1_ADJ": [
                0
            ]
        }, 
        "(20, 31)": {
            "AM2L": [
                4043
            ], 
            "AM2F": [
                4401
            ], 
            "WBF": [
                4286
            ], 
            "BM1F": [
                5543
            ], 
            "M1": [
                5566
            ], 
            "irrelevant_Adj": [
                1
            ], 
            "M2": [
                7826
            ], 
            "BM1L": [
                2122
            ], 
            "WBO": [
                6025, 
                6087, 
                4578, 
                8024, 
                170, 
                5458, 
                8034
            ], 
            "WBL": [
                3342
            ], 
            "irrelevant_Noun": [
                0
            ], 
            "M1_ADJ": [
                1
            ]
        }, 
        "location1": [
            20
        ], 
        "location2": [
            8, 
            31
        ], 
        "sentence": "i applied this to all accessible ( front face ) surface , and only the spot where there was not a decal or other item present , probably less than 30 % of the total frontal surface ( keep in mind 50 % is the evaporator and blower vent ) , and the available space on the front cover ."
    }
}