{
    "94aef053c12b9b9e13727aafd87c6d64": {
        "(12, 9)": {
            "AM2L": [
                7204
            ], 
            "AM2F": [
                7722
            ], 
            "WBF": [
                3212
            ], 
            "BM1F": [
                3252
            ], 
            "M1": [
                8262
            ], 
            "irrelevant_Adj": [
                1
            ], 
            "M2": [
                5566
            ], 
            "BM1L": [
                3518
            ], 
            "WBO": [
                5543
            ], 
            "WBL": [
                5543
            ], 
            "irrelevant_Noun": [
                0
            ], 
            "M1_ADJ": [
                0
            ]
        }, 
        "location1": [
            12
        ], 
        "location2": [
            9
        ], 
        "sentence": "great little funnel , long narrow output is good for transmission fluid or other stuff similar with a small opening not easy to get to ."
    }
}