{
    "4a303e904b1d92074a31ac7d08f7c18c": {
        "(12, 2)": {
            "AM2F": [
                3691
            ], 
            "WBF": [
                688
            ], 
            "BM1F": [
                8034
            ], 
            "M1": [
                2730
            ], 
            "irrelevant_Adj": [
                1
            ], 
            "M2": [
                5566
            ], 
            "BM1L": [
                1262
            ], 
            "WBO": [
                7308, 
                2767, 
                7362, 
                8049, 
                8, 
                5344
            ], 
            "WBL": [
                8887
            ], 
            "irrelevant_Noun": [
                0
            ], 
            "M1_ADJ": [
                0
            ]
        }, 
        "location1": [
            12
        ], 
        "location2": [
            2
        ], 
        "sentence": "but the end are small enough so there 's no interference with other hardware ."
    }, 
    "70175c963e881eba31055201c935acc1": {
        "location1": [
            16
        ], 
        "location2": [
            13
        ], 
        "(16, 13)": {
            "WBF": [
                5543
            ], 
            "BM1F": [
                5503
            ], 
            "M1": [
                2730
            ], 
            "irrelevant_Adj": [
                1
            ], 
            "M2": [
                5566
            ], 
            "BM1L": [
                8162
            ], 
            "WBO": [
                8034
            ], 
            "WBL": [
                8034
            ], 
            "irrelevant_Noun": [
                0
            ], 
            "M1_ADJ": [
                0
            ]
        }, 
        "sentence": "as it is , you turn it off by rotating the front to one end or the other ."
    }
}