{
    "4a7eed4d57cd9ce746012a282fbe1c2c": {
        "location1": [
            8
        ], 
        "location2": [
            0
        ], 
        "(8, 0)": {
            "WBF": [
                8
            ], 
            "AM2L": [
                599
            ], 
            "M1": [
                4583
            ], 
            "irrelevant_Adj": [
                1
            ], 
            "M2": [
                5566
            ], 
            "WBO": [
                4376, 
                6857, 
                8028, 
                8073
            ], 
            "WBL": [
                8028
            ], 
            "irrelevant_Noun": [
                0
            ], 
            "AM2F": [
                5503
            ], 
            "M1_ADJ": [
                0
            ]
        }, 
        "sentence": "let 's just say that this outperformed that other one and i am confident in saying that this does just as good of a job as a leather one , without the process of breaking it in ."
    }
}