{
    "94aef053c12b9b9e13727aafd87c6d64": {
        "(12, 18)": {
            "AM2L": [
                2617
            ], 
            "AM2F": [
                5387
            ], 
            "WBF": [
                7722
            ], 
            "BM1F": [
                5543
            ], 
            "M1": [
                5566
            ], 
            "irrelevant_Adj": [
                1
            ], 
            "M2": [
                5525
            ], 
            "BM1L": [
                3212
            ], 
            "WBO": [
                7204, 
                8887
            ], 
            "WBL": [
                7308
            ], 
            "irrelevant_Noun": [
                0
            ], 
            "M1_ADJ": [
                1
            ]
        }, 
        "location1": [
            12
        ], 
        "location2": [
            18
        ], 
        "sentence": "great little funnel , long narrow output is good for transmission fluid or other stuff similar with a small opening not easy to get to ."
    }, 
    "16632324bbe3060d459c5f4c7f0a7ac3": {
        "location1": [
            6
        ], 
        "location2": [
            14
        ], 
        "(6, 14)": {
            "AM2L": [
                5685
            ], 
            "AM2F": [
                5232
            ], 
            "WBF": [
                6637
            ], 
            "BM1F": [
                8034
            ], 
            "M1": [
                5566
            ], 
            "irrelevant_Adj": [
                1
            ], 
            "M2": [
                5525
            ], 
            "BM1L": [
                5458
            ], 
            "WBO": [
                3962, 
                2436, 
                5245, 
                3717
            ], 
            "WBL": [
                6090
            ], 
            "irrelevant_Noun": [
                0
            ], 
            "M1_ADJ": [
                1
            ]
        }, 
        "sentence": "-- solid clamp - unlike some of the other review , i do n't have a problem opening my parrot clamp with one hand ."
    }, 
    "87a325bc88d63bf4618bbc207c950406": {
        "(12, 34)": {
            "AM2L": [
                8005
            ], 
            "AM2F": [
                599
            ], 
            "WBF": [
                2981
            ], 
            "BM1F": [
                8034
            ], 
            "M1": [
                5566
            ], 
            "irrelevant_Adj": [
                1
            ], 
            "M2": [
                5525
            ], 
            "BM1L": [
                5458
            ], 
            "WBO": [
                8874, 
                599, 
                6286, 
                4283, 
                8162, 
                8034, 
                3339, 
                4756, 
                8567, 
                1244, 
                8814, 
                3962, 
                2973, 
                310, 
                7208, 
                563, 
                1155, 
                8887
            ], 
            "WBL": [
                6183
            ], 
            "irrelevant_Noun": [
                0
            ], 
            "M1_ADJ": [
                1
            ]
        }, 
        "location1": [
            12
        ], 
        "location2": [
            34
        ], 
        "sentence": "i routed and zip-tied it to blend in with all of the other factory wire and ran it to the front lower valance [ bumper ] where i fabricated a simple aluminum bracket with grommet pull-through opening and terminated at a plug ."
    }
}