{
    "a7b35a0573c9d26454ba822295eb3376": {
        "(13, 14)": {
            "BM1F": [
                4043
            ], 
            "M1": [
                5566
            ], 
            "irrelevant_Adj": [
                1
            ], 
            "M2": [
                7449
            ], 
            "BM1L": [
                4283
            ], 
            "WBNULL": [
                1
            ], 
            "irrelevant_Noun": [
                0
            ], 
            "M1_ADJ": [
                1
            ]
        }, 
        "location1": [
            13
        ], 
        "location2": [
            14
        ], 
        "sentence": "this thing has a strong resonance , so we can still hear it in other space ."
    }, 
    "664d8d0a63ae2e29fdcad89851351001": {
        "(20, 45)": {
            "AM2L": [
                8034
            ], 
            "AM2F": [
                5495
            ], 
            "WBF": [
                4286
            ], 
            "BM1F": [
                5543
            ], 
            "M1": [
                5566
            ], 
            "irrelevant_Adj": [
                1
            ], 
            "M2": [
                7449
            ], 
            "BM1L": [
                2122
            ], 
            "WBO": [
                6025, 
                6087, 
                4578, 
                8024, 
                170, 
                5458, 
                8034, 
                8212, 
                3342, 
                7826, 
                4401, 
                4043, 
                5046, 
                227, 
                4268, 
                8034, 
                2845, 
                599, 
                1084, 
                8591, 
                599
            ], 
            "WBL": [
                808
            ], 
            "irrelevant_Noun": [
                0
            ], 
            "M1_ADJ": [
                1
            ]
        }, 
        "location1": [
            20
        ], 
        "location2": [
            45
        ], 
        "sentence": "i applied this to all accessible ( front face ) surface , and only the spot where there was not a decal or other item present , probably less than 30 % of the total frontal surface ( keep in mind 50 % is the evaporator and blower vent ) , and the available space on the front cover ."
    }
}