{
    "6f8e19815a6dcc4445d78b75ec7ce474": {
        "(9, 10)": {
            "AM2L": [
                8049
            ], 
            "BM1F": [
                7405
            ], 
            "M1": [
                5566
            ], 
            "irrelevant_Adj": [
                1
            ], 
            "M2": [
                3372
            ], 
            "BM1L": [
                4625
            ], 
            "WBNULL": [
                1
            ], 
            "irrelevant_Noun": [
                0
            ], 
            "AM2F": [
                5574
            ], 
            "M1_ADJ": [
                1
            ]
        }, 
        "location1": [
            9
        ], 
        "location2": [
            10
        ], 
        "sentence": "it 's very sturdy and not flimsy like some other funnel out there ."
    }, 
    "94aef053c12b9b9e13727aafd87c6d64": {
        "(12, 2)": {
            "AM2L": [
                7204
            ], 
            "AM2F": [
                7722
            ], 
            "WBF": [
                4710
            ], 
            "BM1F": [
                4671
            ], 
            "M1": [
                3372
            ], 
            "irrelevant_Adj": [
                1
            ], 
            "M2": [
                5566
            ], 
            "BM1L": [
                3564
            ], 
            "WBO": [
                5260, 
                5586, 
                4268, 
                3518, 
                3252, 
                8262
            ], 
            "WBL": [
                5543
            ], 
            "irrelevant_Noun": [
                0
            ], 
            "M1_ADJ": [
                0
            ]
        }, 
        "location1": [
            12
        ], 
        "location2": [
            2
        ], 
        "sentence": "great little funnel , long narrow output is good for transmission fluid or other stuff similar with a small opening not easy to get to ."
    }, 
    "1f7a77eea50c972878e142d57182e456": {
        "(6, 1)": {
            "AM2L": [
                5458
            ], 
            "AM2F": [
                6202
            ], 
            "WBF": [
                1323
            ], 
            "BM1F": [
                8073
            ], 
            "M1": [
                3372
            ], 
            "irrelevant_Adj": [
                1
            ], 
            "M2": [
                5566
            ], 
            "WBO": [
                929
            ], 
            "WBL": [
                3252
            ], 
            "irrelevant_Noun": [
                0
            ], 
            "M1_ADJ": [
                0
            ]
        }, 
        "location1": [
            6
        ], 
        "location2": [
            1
        ], 
        "sentence": "this funnel can be used for other purpose of course , ."
    }, 
    "9ec64287056accc9fbf72de2c969417f": {
        "(5, 13)": {
            "AM2L": [
                1014
            ], 
            "AM2F": [
                4268
            ], 
            "WBF": [
                668
            ], 
            "BM1F": [
                3252
            ], 
            "M1": [
                5566
            ], 
            "irrelevant_Adj": [
                1
            ], 
            "M2": [
                3372
            ], 
            "BM1L": [
                5818
            ], 
            "WBO": [
                4930, 
                310, 
                4504, 
                5543
            ], 
            "WBL": [
                7735
            ], 
            "irrelevant_Noun": [
                0
            ], 
            "M1_ADJ": [
                1
            ]
        }, 
        "location1": [
            5
        ], 
        "location2": [
            13
        ], 
        "sentence": "( look at the picture ) for other application , maybe a larger or different style funnel is better ."
    }
}