{
    "87a325bc88d63bf4618bbc207c950406": {
        "location1": [
            12
        ], 
        "location2": [
            30
        ], 
        "(12, 30)": {
            "AM2L": [
                3594
            ], 
            "AM2F": [
                8887
            ], 
            "WBF": [
                2981
            ], 
            "BM1F": [
                8034
            ], 
            "M1": [
                5566
            ], 
            "irrelevant_Adj": [
                1
            ], 
            "M2": [
                1155
            ], 
            "BM1L": [
                5458
            ], 
            "WBO": [
                8874, 
                599, 
                6286, 
                4283, 
                8162, 
                8034, 
                3339, 
                4756, 
                8567, 
                1244, 
                8814, 
                3962, 
                2973, 
                310
            ], 
            "WBL": [
                563
            ], 
            "irrelevant_Noun": [
                0
            ], 
            "M1_ADJ": [
                1
            ]
        }, 
        "sentence": "i routed and zip-tied it to blend in with all of the other factory wire and ran it to the front lower valance [ bumper ] where i fabricated a simple aluminum bracket with grommet pull-through opening and terminated at a plug ."
    }
}