{
    "87a325bc88d63bf4618bbc207c950406": {
        "(12, 14)": {
            "AM2L": [
                6286
            ], 
            "WBFL": [
                2981
            ], 
            "BM1F": [
                8034
            ], 
            "M1": [
                5566
            ], 
            "irrelevant_Adj": [
                1
            ], 
            "M2": [
                8874
            ], 
            "BM1L": [
                5458
            ], 
            "AM2F": [
                599
            ], 
            "irrelevant_Noun": [
                0
            ], 
            "M1_ADJ": [
                1
            ]
        }, 
        "location1": [
            12
        ], 
        "location2": [
            14
        ], 
        "sentence": "i routed and zip-tied it to blend in with all of the other factory wire and ran it to the front lower valance [ bumper ] where i fabricated a simple aluminum bracket with grommet pull-through opening and terminated at a plug ."
    }
}