{
    "cd672db22b7808fe5c992860b79fe3cd": {
        "(11, 12)": {
            "AM2L": [
                1917
            ], 
            "BM1F": [
                8034
            ], 
            "M1": [
                5566
            ], 
            "irrelevant_Adj": [
                1
            ], 
            "M2": [
                3856
            ], 
            "BM1L": [
                5419
            ], 
            "WBNULL": [
                1
            ], 
            "irrelevant_Noun": [
                0
            ], 
            "AM2F": [
                688
            ], 
            "M1_ADJ": [
                1
            ]
        }, 
        "location1": [
            11
        ], 
        "location2": [
            12
        ], 
        "sentence": "the wrangler spare is held on by three lug nut , the other hole are covered from the inside by the mount so you ca n't get this cable thru any of them ."
    }, 
    "ec79ba3be2a3ccfecfd9245a1956143c": {
        "(12, 14)": {
            "AM2L": [
                8111
            ], 
            "WBFL": [
                8368
            ], 
            "BM1F": [
                8034
            ], 
            "M1": [
                5566
            ], 
            "irrelevant_Adj": [
                1
            ], 
            "M2": [
                3856
            ], 
            "BM1L": [
                5458
            ], 
            "AM2F": [
                599
            ], 
            "irrelevant_Noun": [
                0
            ], 
            "M1_ADJ": [
                1
            ]
        }, 
        "location1": [
            12
        ], 
        "location2": [
            7, 
            14
        ], 
        "(12, 7)": {
            "AM2L": [
                3856
            ], 
            "AM2F": [
                8368
            ], 
            "WBF": [
                8111
            ], 
            "BM1F": [
                310
            ], 
            "M1": [
                3856
            ], 
            "irrelevant_Adj": [
                1
            ], 
            "M2": [
                5566
            ], 
            "BM1L": [
                2516
            ], 
            "WBO": [
                5503
            ], 
            "WBL": [
                8034
            ], 
            "irrelevant_Noun": [
                0
            ], 
            "M1_ADJ": [
                0
            ]
        }, 
        "sentence": "the only way is to drill a hole thru one of the other two hole and thru the mount ."
    }
}