{
    "f82f3f6d039395e95ed9deb12bb2dc94": {
        "(16, 9)": {
            "AM2L": [
                5381
            ], 
            "AM2F": [
                5846
            ], 
            "WBF": [
                5458
            ], 
            "BM1F": [
                5495
            ], 
            "M1": [
                8195
            ], 
            "irrelevant_Adj": [
                1
            ], 
            "M2": [
                5566
            ], 
            "BM1L": [
                1425
            ], 
            "WBO": [
                5232, 
                6439, 
                599
            ], 
            "WBL": [
                8080
            ], 
            "irrelevant_Noun": [
                0
            ], 
            "M1_ADJ": [
                0
            ]
        }, 
        "location1": [
            16
        ], 
        "location2": [
            9
        ], 
        "sentence": "this included behind my tv and entertainment center , on top of my refrigerator and all those other place normally buried in dust ."
    }
}