{
    "75112fc8e8041713103c9a8a318d5e6c": {
        "location1": [
            10
        ], 
        "location2": [
            2
        ], 
        "(10, 2)": {
            "AM2L": [
                7362
            ], 
            "AM2F": [
                5104
            ], 
            "WBF": [
                4268
            ], 
            "BM1F": [
                4084
            ], 
            "M1": [
                7678
            ], 
            "irrelevant_Adj": [
                1
            ], 
            "M2": [
                5566
            ], 
            "BM1L": [
                8034
            ], 
            "WBO": [
                5458, 
                310, 
                8060, 
                3426
            ], 
            "WBL": [
                8034
            ], 
            "irrelevant_Noun": [
                0
            ], 
            "M1_ADJ": [
                0
            ]
        }, 
        "sentence": "the individual stranding is of a thicker gauge than the other model so i 'm guessing that 's why the thickness is n't much more ."
    }
}