{
    "cd672db22b7808fe5c992860b79fe3cd": {
        "(11, 1)": {
            "AM2L": [
                688
            ], 
            "AM2F": [
                3856
            ], 
            "WBF": [
                7457
            ], 
            "BM1F": [
                8034
            ], 
            "M1": [
                8937
            ], 
            "irrelevant_Adj": [
                1
            ], 
            "M2": [
                5566
            ], 
            "WBO": [
                4268, 
                3772, 
                5495, 
                1275, 
                8092, 
                4772
            ], 
            "WBL": [
                8034
            ], 
            "irrelevant_Noun": [
                0
            ], 
            "M1_ADJ": [
                0
            ]
        }, 
        "location1": [
            11
        ], 
        "location2": [
            1
        ], 
        "sentence": "the wrangler spare is held on by three lug nut , the other hole are covered from the inside by the mount so you ca n't get this cable thru any of them ."
    }
}