{
    "4648beb98c3ff45a06716c4cb40ae366": {
        "(13, 3)": {
            "AM2L": [
                599
            ], 
            "AM2F": [
                1269
            ], 
            "WBF": [
                8887
            ], 
            "BM1F": [
                6219
            ], 
            "M1": [
                4286
            ], 
            "irrelevant_Adj": [
                0
            ], 
            "M2": [
                5590
            ], 
            "BM1L": [
                310
            ], 
            "WBO": [
                310, 
                8792, 
                1160, 
                5251, 
                768, 
                4283
            ], 
            "WBL": [
                591
            ], 
            "irrelevant_Noun": [
                0
            ], 
            "M1_ADJ": [
                0
            ]
        }, 
        "location1": [
            13
        ], 
        "location2": [
            3
        ], 
        "sentence": "for a quality item with a well-known brand name attached , it 's an outstanding buy , and i 'm very pleased to have found it ."
    }
}