{
    "60880bd3eeff2f68531cc553da07bafe": {
        "(10, 22)": {
            "AM2L": [
                8034
            ], 
            "AM2F": [
                5458
            ], 
            "WBF": [
                4570
            ], 
            "BM1F": [
                8034
            ], 
            "M1": [
                5602
            ], 
            "irrelevant_Adj": [
                0
            ], 
            "M2": [
                6951
            ], 
            "BM1L": [
                599
            ], 
            "WBO": [
                4268, 
                7138, 
                2767, 
                8028, 
                3962, 
                1323, 
                7663, 
                4283
            ], 
            "WBL": [
                8034
            ], 
            "irrelevant_Noun": [
                0
            ], 
            "M1_ADJ": [
                1
            ]
        }, 
        "location1": [
            10
        ], 
        "location2": [
            22
        ], 
        "sentence": "the two piece fit one inside the other and the overall length is short enough that i can store it behind the seat of the truck until needed ."
    }
}