{
    "35a5504bc8305ada41cbed2fbf371a9f": {
        "(27, 20)": {
            "AM2L": [
                8073
            ], 
            "AM2F": [
                1358
            ], 
            "WBF": [
                8824
            ], 
            "BM1F": [
                3252
            ], 
            "M1": [
                7408
            ], 
            "irrelevant_Adj": [
                0
            ], 
            "M2": [
                5624
            ], 
            "BM1L": [
                1262
            ], 
            "WBO": [
                2445, 
                5442, 
                4826
            ], 
            "WBL": [
                3835
            ], 
            "irrelevant_Noun": [
                0
            ], 
            "M1_ADJ": [
                0
            ]
        }, 
        "location1": [
            27
        ], 
        "location2": [
            20
        ], 
        "sentence": "my mechanic us a more sophisticated ( and much more expensive ) obd scanner in his day to day work , but for someone who does occasional maintenance on his own car , this tool is worth the $ 89 investment ."
    }, 
    "ccdad80eea151dd07974b51389d8ba5e": {
        "(22, 7)": {
            "AM2F": [
                2260
            ], 
            "WBF": [
                8162
            ], 
            "BM1F": [
                3252
            ], 
            "M1": [
                7408
            ], 
            "irrelevant_Adj": [
                0
            ], 
            "M2": [
                5624
            ], 
            "BM1L": [
                3468
            ], 
            "WBO": [
                1777, 
                8041, 
                5495, 
                8040, 
                5314, 
                1358, 
                5543, 
                3252, 
                7408, 
                8824, 
                4625
            ], 
            "WBL": [
                8040
            ], 
            "irrelevant_Noun": [
                0
            ], 
            "M1_ADJ": [
                0
            ]
        }, 
        "location1": [
            22
        ], 
        "location2": [
            7, 
            17
        ], 
        "(22, 17)": {
            "AM2F": [
                2260
            ], 
            "WBF": [
                8824
            ], 
            "BM1F": [
                3252
            ], 
            "M1": [
                7408
            ], 
            "irrelevant_Adj": [
                0
            ], 
            "M2": [
                5624
            ], 
            "BM1L": [
                5543
            ], 
            "WBO": [
                4625
            ], 
            "WBL": [
                8040
            ], 
            "irrelevant_Noun": [
                0
            ], 
            "M1_ADJ": [
                0
            ]
        }, 
        "sentence": "this makes a really nice gift for someone to congratulate them on their new car , or for someone who like doing their own detailing ."
    }
}