{
    "fa15bb41cf41d0229aca9d0cf3f80b87": {
        "(14, 19)": {
            "WBF": [
                310
            ], 
            "BM1F": [
                8991
            ], 
            "M1": [
                5624
            ], 
            "irrelevant_Adj": [
                0
            ], 
            "M2": [
                1286
            ], 
            "BM1L": [
                3985
            ], 
            "WBO": [
                7042
            ], 
            "WBL": [
                4369
            ], 
            "irrelevant_Noun": [
                0
            ], 
            "M1_ADJ": [
                1
            ]
        }, 
        "location1": [
            14
        ], 
        "location2": [
            19
        ], 
        "sentence": "in time like that , it 's much easier to get a jump if you own a set of jumper cable ."
    }, 
    "2b0701648e08ffae5ec7efab4c8d020e": {
        "(13, 14)": {
            "BM1F": [
                8997
            ], 
            "M1": [
                5624
            ], 
            "irrelevant_Adj": [
                0
            ], 
            "M2": [
                1286
            ], 
            "BM1L": [
                3717
            ], 
            "WBNULL": [
                1
            ], 
            "irrelevant_Noun": [
                0
            ], 
            "M1_ADJ": [
                1
            ]
        }, 
        "location1": [
            13
        ], 
        "location2": [
            14
        ], 
        "sentence": "it 's much easier to get a jump start if you have your own cable ."
    }, 
    "d0c3f805da6e79e198e55dd968eb7d18": {
        "(1, 10)": {
            "WBF": [
                1134
            ], 
            "BM1F": [
                3962
            ], 
            "M1": [
                5624
            ], 
            "irrelevant_Adj": [
                0
            ], 
            "M2": [
                1286
            ], 
            "WBO": [
                8053, 
                599, 
                8034, 
                1638, 
                209
            ], 
            "WBL": [
                1118
            ], 
            "irrelevant_Noun": [
                0
            ], 
            "M1_ADJ": [
                1
            ]
        }, 
        "location1": [
            1
        ], 
        "location2": [
            10
        ], 
        "sentence": "i own both these and the coleman 4ga 25 ' booster cable ."
    }
}