{
    "cb0bd9c959abec5819f6e0f8887fb818": {
        "location1": [
            18
        ], 
        "location2": [
            19
        ], 
        "(18, 19)": {
            "AM2L": [
                1358
            ], 
            "BM1F": [
                310
            ], 
            "M1": [
                5644
            ], 
            "irrelevant_Adj": [
                0
            ], 
            "M2": [
                4737
            ], 
            "BM1L": [
                4043
            ], 
            "WBNULL": [
                1
            ], 
            "irrelevant_Noun": [
                0
            ], 
            "AM2F": [
                8887
            ], 
            "M1_ADJ": [
                1
            ]
        }, 
        "sentence": "because it never fails that your battery will fail to start your engine when your parked in a packed lot with car on all side ."
    }
}