{
    "d4c9a152f40b7d3e5d2f3188090dbafa": {
        "(2, 12)": {
            "AM2L": [
                8162
            ], 
            "AM2F": [
                2580
            ], 
            "WBF": [
                2200
            ], 
            "BM1F": [
                5232
            ], 
            "M1": [
                5659
            ], 
            "irrelevant_Adj": [
                0
            ], 
            "M2": [
                1305
            ], 
            "BM1L": [
                1262
            ], 
            "WBO": [
                6509, 
                3638, 
                8527, 
                5503, 
                599, 
                3819
            ], 
            "WBL": [
                8034
            ], 
            "irrelevant_Noun": [
                0
            ], 
            "M1_ADJ": [
                1
            ]
        }, 
        "location1": [
            2
        ], 
        "location2": [
            12
        ], 
        "sentence": "but my paintless dent removal guy us one and highly recommended the california duster to me ."
    }
}