{
    "044892f6216025c51e9094142350867b": {
        "location1": [
            5
        ], 
        "location2": [
            16
        ], 
        "(5, 16)": {
            "AM2L": [
                8034
            ], 
            "AM2F": [
                599
            ], 
            "WBF": [
                4829
            ], 
            "BM1F": [
                8073
            ], 
            "M1": [
                5692
            ], 
            "irrelevant_Adj": [
                0
            ], 
            "M2": [
                7230
            ], 
            "BM1L": [
                6390
            ], 
            "WBO": [
                599, 
                5104, 
                5595, 
                5567, 
                7210, 
                907, 
                5495
            ], 
            "WBL": [
                4501
            ], 
            "irrelevant_Noun": [
                0
            ], 
            "M1_ADJ": [
                1
            ]
        }, 
        "sentence": "bottom line : i recommend this particular make and model over others simply based on the large size and the thickness of the towel ."
    }
}