{
    "044892f6216025c51e9094142350867b": {
        "location1": [
            5
        ], 
        "location2": [
            8
        ], 
        "(5, 8)": {
            "AM2L": [
                5567
            ], 
            "AM2F": [
                5595
            ], 
            "WBF": [
                4829
            ], 
            "BM1F": [
                8073
            ], 
            "M1": [
                5692
            ], 
            "irrelevant_Adj": [
                0
            ], 
            "M2": [
                5104
            ], 
            "BM1L": [
                6390
            ], 
            "WBO": [
                599
            ], 
            "WBL": [
                599
            ], 
            "irrelevant_Noun": [
                0
            ], 
            "M1_ADJ": [
                1
            ]
        }, 
        "sentence": "bottom line : i recommend this particular make and model over others simply based on the large size and the thickness of the towel ."
    }
}