{
    "2e8312c17c82e5eeb9cf74784b6569ae": {
        "location1": [
            17
        ], 
        "location2": [
            11
        ], 
        "(17, 11)": {
            "AM2L": [
                8874
            ], 
            "AM2F": [
                3426
            ], 
            "WBF": [
                5458
            ], 
            "BM1F": [
                348
            ], 
            "M1": [
                4587
            ], 
            "irrelevant_Adj": [
                0
            ], 
            "M2": [
                5692
            ], 
            "BM1L": [
                8887
            ], 
            "WBO": [
                8656, 
                2532
            ], 
            "WBL": [
                310
            ], 
            "irrelevant_Noun": [
                0
            ], 
            "M1_ADJ": [
                0
            ]
        }, 
        "sentence": "the higher the voltage , the longer it can run with acceptable level of voltage drop over a particular gauge wire ."
    }
}