{
    "b4f718392703ac868824170d37b4e82c": {
        "(8, 4)": {
            "AM2L": [
                8542
            ], 
            "AM2F": [
                2927
            ], 
            "WBF": [
                6304
            ], 
            "BM1F": [
                3154
            ], 
            "M1": [
                7587
            ], 
            "irrelevant_Adj": [
                0
            ], 
            "M2": [
                5705
            ], 
            "BM1L": [
                310
            ], 
            "WBO": [
                945
            ], 
            "WBL": [
                5458
            ], 
            "irrelevant_Noun": [
                0
            ], 
            "M1_ADJ": [
                0
            ]
        }, 
        "location1": [
            8
        ], 
        "location2": [
            4
        ], 
        "sentence": "i gave a five star rating because of past expierence using this product ."
    }
}