{
    "596d99dbe1e14f605dafc580333df318": {
        "(8, 4)": {
            "AM2L": [
                5566
            ], 
            "AM2F": [
                8887
            ], 
            "WBF": [
                2580
            ], 
            "BM1F": [
                310
            ], 
            "M1": [
                1305
            ], 
            "irrelevant_Adj": [
                0
            ], 
            "M2": [
                5705
            ], 
            "BM1L": [
                8534
            ], 
            "WBO": [
                4043
            ], 
            "WBL": [
                8034
            ], 
            "irrelevant_Noun": [
                0
            ], 
            "M1_ADJ": [
                0
            ]
        }, 
        "location1": [
            8
        ], 
        "location2": [
            4
        ], 
        "sentence": "i 've used a california duster in the past with other vehicle and loved how it sucked up dust and dirt and held without scratching my finish ."
    }
}