{
    "d9ffb9e020a37c320a74082f07770abe": {
        "(27, 28)": {
            "AM2L": [
                3416
            ], 
            "BM1F": [
                8073
            ], 
            "M1": [
                5705
            ], 
            "irrelevant_Adj": [
                0
            ], 
            "M2": [
                7788
            ], 
            "BM1L": [
                4257
            ], 
            "WBNULL": [
                1
            ], 
            "irrelevant_Noun": [
                0
            ], 
            "AM2F": [
                5232
            ], 
            "M1_ADJ": [
                1
            ]
        }, 
        "location1": [
            27
        ], 
        "location2": [
            28
        ], 
        "sentence": "i have used it for several year without any problem , and recently bought a new one to replace the one that got ruined in hurricane irene this past summer ( my garage was flooded ) ."
    }
}