{
    "596d99dbe1e14f605dafc580333df318": {
        "(8, 26)": {
            "WBF": [
                8887
            ], 
            "BM1F": [
                8034
            ], 
            "M1": [
                5705
            ], 
            "irrelevant_Adj": [
                0
            ], 
            "M2": [
                3128
            ], 
            "BM1L": [
                4043
            ], 
            "WBO": [
                5566, 
                8587, 
                599, 
                4748, 
                3920, 
                4283, 
                7762, 
                8501, 
                2577, 
                599, 
                2356, 
                599, 
                3772, 
                8889
            ], 
            "WBL": [
                5232
            ], 
            "irrelevant_Noun": [
                0
            ], 
            "M1_ADJ": [
                1
            ]
        }, 
        "location1": [
            8
        ], 
        "location2": [
            26
        ], 
        "sentence": "i 've used a california duster in the past with other vehicle and loved how it sucked up dust and dirt and held without scratching my finish ."
    }
}