{
    "3b8289a5948da517c8cfc56a789f1b8c": {
        "(8, 3)": {
            "AM2L": [
                3646
            ], 
            "AM2F": [
                1262
            ], 
            "WBF": [
                8887
            ], 
            "BM1F": [
                3646
            ], 
            "M1": [
                2920
            ], 
            "irrelevant_Adj": [
                0
            ], 
            "M2": [
                5705
            ], 
            "BM1L": [
                3717
            ], 
            "WBO": [
                2590
            ], 
            "WBL": [
                8034
            ], 
            "irrelevant_Noun": [
                0
            ], 
            "M1_ADJ": [
                0
            ]
        }, 
        "location1": [
            8
        ], 
        "location2": [
            3
        ], 
        "sentence": "i have had experience with dynamat in the past , but had never used it on my vehicle and was a little skeptical ."
    }
}