{
    "b612ff26453023f71a1e27db5197c383": {
        "location1": [
            11
        ], 
        "location2": [
            17
        ], 
        "(11, 17)": {
            "WBF": [
                5410
            ], 
            "BM1F": [
                8034
            ], 
            "M1": [
                5756
            ], 
            "irrelevant_Adj": [
                0
            ], 
            "M2": [
                2730
            ], 
            "BM1L": [
                3252
            ], 
            "WBO": [
                8931, 
                1663
            ], 
            "WBL": [
                591
            ], 
            "irrelevant_Noun": [
                0
            ], 
            "M1_ADJ": [
                1
            ]
        }, 
        "sentence": "from all the review , i thought maybe my search for the perfect nozzle would come to an end ."
    }
}