{
    "b64be8ae0b483dc8588e0926864b2244": {
        "location1": [
            12
        ], 
        "location2": [
            7
        ], 
        "(12, 7)": {
            "WBF": [
                599
            ], 
            "BM1F": [
                2021
            ], 
            "M1": [
                6370
            ], 
            "irrelevant_Adj": [
                0
            ], 
            "M2": [
                5756
            ], 
            "BM1L": [
                310
            ], 
            "WBO": [
                8034
            ], 
            "WBL": [
                4268
            ], 
            "irrelevant_Noun": [
                0
            ], 
            "M1_ADJ": [
                0
            ]
        }, 
        "sentence": "i am using this on a curt receiver and the length is perfect ."
    }
}