{
    "3da0181d4a8bd2498fe87feb6068b389": {
        "(2, 7)": {
            "AM2L": [
                8320
            ], 
            "AM2F": [
                5543
            ], 
            "WBF": [
                3252
            ], 
            "BM1F": [
                4268
            ], 
            "M1": [
                5756
            ], 
            "irrelevant_Adj": [
                0
            ], 
            "M2": [
                1358
            ], 
            "BM1L": [
                4283
            ], 
            "WBO": [
                8531
            ], 
            "WBL": [
                636
            ], 
            "irrelevant_Noun": [
                0
            ], 
            "M1_ADJ": [
                1
            ]
        }, 
        "location1": [
            2
        ], 
        "location2": [
            7
        ], 
        "sentence": "it is perfect for use on any car or truck if you are going to remove it after each use ."
    }, 
    "6278bd0491dec24c2966fd35205a8ec2": {
        "(0, 3)": {
            "WBF": [
                3252
            ], 
            "AM2L": [
                310
            ], 
            "M1": [
                5756
            ], 
            "irrelevant_Adj": [
                0
            ], 
            "M2": [
                1358
            ], 
            "WBO": [
                1567
            ], 
            "WBL": [
                1567
            ], 
            "irrelevant_Noun": [
                0
            ], 
            "AM2F": [
                8542
            ], 
            "M1_ADJ": [
                1
            ]
        }, 
        "location1": [
            0
        ], 
        "location2": [
            3, 
            13
        ], 
        "(0, 13)": {
            "WBF": [
                3252
            ], 
            "AM2L": [
                599
            ], 
            "M1": [
                5756
            ], 
            "irrelevant_Adj": [
                0
            ], 
            "M2": [
                1358
            ], 
            "WBO": [
                1567, 
                1358, 
                8542, 
                310, 
                4960, 
                3008, 
                5458, 
                8736, 
                8162
            ], 
            "WBL": [
                8034
            ], 
            "irrelevant_Noun": [
                0
            ], 
            "AM2F": [
                8803
            ], 
            "M1_ADJ": [
                1
            ]
        }, 
        "sentence": "perfect for cleaning car ( using a medium fan of water to get the car wet and to rinse off the soap , and a high pressure spray to remove road grime from the wheel and underside ) ."
    }, 
    "854287031049fe4c074ec70d65b9ce35": {
        "(12, 1)": {
            "WBF": [
                7225
            ], 
            "BM1F": [
                8812
            ], 
            "M1": [
                1358
            ], 
            "irrelevant_Adj": [
                0
            ], 
            "M2": [
                5756
            ], 
            "WBO": [
                4710, 
                8140, 
                3962, 
                4376, 
                5887, 
                4283, 
                4043
            ], 
            "WBL": [
                8907
            ], 
            "irrelevant_Noun": [
                0
            ], 
            "M1_ADJ": [
                0
            ]
        }, 
        "location1": [
            12
        ], 
        "location2": [
            1
        ], 
        "sentence": "when car sits long time , i just plug it in and work perfect ."
    }
}