{
    "dfb044f20eba1393419c4081a0e80544": {
        "(9, 10)": {
            "BM1F": [
                310
            ], 
            "M1": [
                5756
            ], 
            "irrelevant_Adj": [
                0
            ], 
            "M2": [
                3149
            ], 
            "BM1L": [
                8718
            ], 
            "WBNULL": [
                1
            ], 
            "irrelevant_Noun": [
                0
            ], 
            "M1_ADJ": [
                1
            ]
        }, 
        "location1": [
            9
        ], 
        "location2": [
            10
        ], 
        "sentence": "bought for a 2001 maxima and it was a perfect fit ."
    }, 
    "d22d804f8c14404fbde98acbb58ec2a0": {
        "(1, 2)": {
            "BM1F": [
                310
            ], 
            "M1": [
                5756
            ], 
            "irrelevant_Adj": [
                0
            ], 
            "M2": [
                3149
            ], 
            "WBNULL": [
                1
            ], 
            "irrelevant_Noun": [
                0
            ], 
            "M1_ADJ": [
                1
            ]
        }, 
        "location1": [
            1
        ], 
        "location2": [
            2
        ], 
        "sentence": "a perfect fit ."
    }
}