{
    "b612ff26453023f71a1e27db5197c383": {
        "(11, 8)": {
            "AM2L": [
                8931
            ], 
            "AM2F": [
                5410
            ], 
            "WBF": [
                3252
            ], 
            "BM1F": [
                5232
            ], 
            "M1": [
                6943
            ], 
            "irrelevant_Adj": [
                0
            ], 
            "M2": [
                5756
            ], 
            "BM1L": [
                4930
            ], 
            "WBO": [
                8034
            ], 
            "WBL": [
                8034
            ], 
            "irrelevant_Noun": [
                0
            ], 
            "M1_ADJ": [
                0
            ]
        }, 
        "location1": [
            11
        ], 
        "location2": [
            8
        ], 
        "sentence": "from all the review , i thought maybe my search for the perfect nozzle would come to an end ."
    }
}