{
    "8415e8cb9ee7a6650902f4c16e9c52ef": {
        "(13, 14)": {
            "AM2L": [
                8169
            ], 
            "BM1F": [
                8368
            ], 
            "M1": [
                5805
            ], 
            "irrelevant_Adj": [
                0
            ], 
            "M2": [
                7826
            ], 
            "BM1L": [
                8812
            ], 
            "WBNULL": [
                1
            ], 
            "irrelevant_Noun": [
                0
            ], 
            "AM2F": [
                6756
            ], 
            "M1_ADJ": [
                1
            ]
        }, 
        "location1": [
            13
        ], 
        "location2": [
            14
        ], 
        "sentence": "resistance translates to heat in the same way that friction does when two physical surface rub together ."
    }
}