{
    "6eb9aa22b875aa176c356e0cceaccd99": {
        "location1": [
            12, 
            24
        ], 
        "location2": [
            47
        ], 
        "(24, 47)": {
            "AM2L": [
                8931
            ], 
            "AM2F": [
                599
            ], 
            "WBF": [
                3665
            ], 
            "BM1F": [
                8034
            ], 
            "M1": [
                5862
            ], 
            "irrelevant_Adj": [
                0
            ], 
            "M2": [
                2580
            ], 
            "BM1L": [
                3459
            ], 
            "WBO": [
                5503, 
                7211, 
                4283, 
                8, 
                8034, 
                2872, 
                6830, 
                1205, 
                644, 
                3962, 
                566, 
                6354, 
                8603, 
                3686, 
                8887, 
                8805, 
                3962, 
                5653, 
                3252
            ], 
            "WBL": [
                1303
            ], 
            "irrelevant_Noun": [
                0
            ], 
            "M1_ADJ": [
                1
            ]
        }, 
        "(12, 47)": {
            "AM2L": [
                8931
            ], 
            "AM2F": [
                599
            ], 
            "WBF": [
                3665
            ], 
            "BM1F": [
                8034
            ], 
            "M1": [
                5862
            ], 
            "irrelevant_Adj": [
                0
            ], 
            "M2": [
                2580
            ], 
            "BM1L": [
                5327
            ], 
            "WBO": [
                5503, 
                3066, 
                5877, 
                7733, 
                3252, 
                8034, 
                8570, 
                5557, 
                3459, 
                8034, 
                5862, 
                3665, 
                5503, 
                7211, 
                4283, 
                8, 
                8034, 
                2872, 
                6830, 
                1205, 
                644, 
                3962, 
                566, 
                6354, 
                8603, 
                3686, 
                8887, 
                8805, 
                3962, 
                5653, 
                3252
            ], 
            "WBL": [
                1303
            ], 
            "irrelevant_Noun": [
                0
            ], 
            "M1_ADJ": [
                1
            ]
        }, 
        "sentence": "although the wood handle one look classier and probably feel nicer , the plastic handle one feel plenty sturdy , for the value oriented , get the plastic handle one since it 's the exact same brush anyway ! i am really very happy with what i paid for the calfornia duster and would not hesitate to recommend one to anyone with a car or motorcycle ."
    }, 
    "11e8370269f26c43361c7a471566cad9": {
        "location1": [
            3
        ], 
        "location2": [
            6
        ], 
        "(3, 6)": {
            "AM2L": [
                8718
            ], 
            "AM2F": [
                8819
            ], 
            "WBF": [
                3665
            ], 
            "BM1F": [
                8034
            ], 
            "M1": [
                5862
            ], 
            "irrelevant_Adj": [
                0
            ], 
            "M2": [
                2580
            ], 
            "BM1L": [
                3531
            ], 
            "WBO": [
                1305
            ], 
            "WBL": [
                1305
            ], 
            "irrelevant_Noun": [
                0
            ], 
            "M1_ADJ": [
                1
            ]
        }, 
        "sentence": "i got the plastic handle california duster which was significantly cheaper at the time i ordered ."
    }
}