{
    "6eb9aa22b875aa176c356e0cceaccd99": {
        "(24, 20)": {
            "AM2L": [
                5503
            ], 
            "AM2F": [
                3665
            ], 
            "WBF": [
                5557
            ], 
            "BM1F": [
                8034
            ], 
            "M1": [
                8570
            ], 
            "irrelevant_Adj": [
                0
            ], 
            "M2": [
                5862
            ], 
            "BM1L": [
                3252
            ], 
            "WBO": [
                3459
            ], 
            "WBL": [
                8034
            ], 
            "irrelevant_Noun": [
                0
            ], 
            "M1_ADJ": [
                0
            ]
        }, 
        "(12, 20)": {
            "AM2L": [
                3459
            ], 
            "AM2F": [
                5557
            ], 
            "WBF": [
                3665
            ], 
            "BM1F": [
                8034
            ], 
            "M1": [
                5862
            ], 
            "irrelevant_Adj": [
                0
            ], 
            "M2": [
                8570
            ], 
            "BM1L": [
                5327
            ], 
            "WBO": [
                5503, 
                3066, 
                5877, 
                7733
            ], 
            "WBL": [
                8034
            ], 
            "irrelevant_Noun": [
                0
            ], 
            "M1_ADJ": [
                1
            ]
        }, 
        "location1": [
            12, 
            24
        ], 
        "location2": [
            20
        ], 
        "sentence": "although the wood handle one look classier and probably feel nicer , the plastic handle one feel plenty sturdy , for the value oriented , get the plastic handle one since it 's the exact same brush anyway ! i am really very happy with what i paid for the calfornia duster and would not hesitate to recommend one to anyone with a car or motorcycle ."
    }
}