{
    "14d8298e2178d48815e970b009863b02": {
        "(4, 10)": {
            "AM2L": [
                8034
            ], 
            "AM2F": [
                3252
            ], 
            "WBF": [
                8333
            ], 
            "BM1F": [
                310
            ], 
            "M1": [
                5862
            ], 
            "irrelevant_Adj": [
                0
            ], 
            "M2": [
                3853
            ], 
            "BM1L": [
                4043
            ], 
            "WBO": [
                8819, 
                7028
            ], 
            "WBL": [
                310
            ], 
            "irrelevant_Noun": [
                0
            ], 
            "M1_ADJ": [
                1
            ]
        }, 
        "location1": [
            4
        ], 
        "location2": [
            10
        ], 
        "sentence": "it comes in a plastic tube which serf as a holder for the absorber and i would suggest you store it in there since the absorber should be stored moist so it does not break down and stiffen ."
    }
}