{
    "5b9bb7025bd8d6b810e4cc368adbbe01": {
        "(13, 14)": {
            "AM2L": [
                2436
            ], 
            "BM1F": [
                8034
            ], 
            "M1": [
                5862
            ], 
            "irrelevant_Adj": [
                0
            ], 
            "M2": [
                1821
            ], 
            "BM1L": [
                4043
            ], 
            "WBNULL": [
                1
            ], 
            "irrelevant_Noun": [
                0
            ], 
            "AM2F": [
                5378
            ], 
            "M1_ADJ": [
                1
            ]
        }, 
        "location1": [
            13
        ], 
        "location2": [
            14
        ], 
        "sentence": "it will also last for year if left damp and stored in the plastic container , ( nope do n't dry it ) ."
    }, 
    "f176788267c902afa336ac0c351ac000": {
        "location1": [
            20
        ], 
        "location2": [
            21
        ], 
        "(20, 21)": {
            "AM2L": [
                5322
            ], 
            "BM1F": [
                4289
            ], 
            "M1": [
                5862
            ], 
            "irrelevant_Adj": [
                0
            ], 
            "M2": [
                1821
            ], 
            "BM1L": [
                4216
            ], 
            "WBNULL": [
                1
            ], 
            "irrelevant_Noun": [
                0
            ], 
            "AM2F": [
                3252
            ], 
            "M1_ADJ": [
                1
            ]
        }, 
        "sentence": "when you are done , just wring most of the water out of the absorber and roll it back into its plastic container for next time ."
    }, 
    "d2edae87821a94efdc146f70cd67a48a": {
        "location1": [
            14
        ], 
        "location2": [
            15
        ], 
        "(14, 15)": {
            "AM2L": [
                1668
            ], 
            "BM1F": [
                8034
            ], 
            "M1": [
                5862
            ], 
            "irrelevant_Adj": [
                0
            ], 
            "M2": [
                1821
            ], 
            "BM1L": [
                4043
            ], 
            "WBNULL": [
                1
            ], 
            "irrelevant_Noun": [
                0
            ], 
            "AM2F": [
                4283
            ], 
            "M1_ADJ": [
                1
            ]
        }, 
        "sentence": "this product can get moldy because you have to store it damp in the plastic container it comes with ."
    }
}