{
    "6eb9aa22b875aa176c356e0cceaccd99": {
        "(24, 6)": {
            "AM2L": [
                5503
            ], 
            "AM2F": [
                3665
            ], 
            "WBF": [
                599
            ], 
            "BM1F": [
                4717
            ], 
            "M1": [
                1561
            ], 
            "irrelevant_Adj": [
                0
            ], 
            "M2": [
                5862
            ], 
            "BM1L": [
                5503
            ], 
            "WBO": [
                6087, 
                3066, 
                5327, 
                8034, 
                5862, 
                3665, 
                5503, 
                3066, 
                5877, 
                7733, 
                3252, 
                8034, 
                8570, 
                5557
            ], 
            "WBL": [
                8034
            ], 
            "irrelevant_Noun": [
                0
            ], 
            "M1_ADJ": [
                0
            ]
        }, 
        "location1": [
            12, 
            24
        ], 
        "location2": [
            6
        ], 
        "(12, 6)": {
            "AM2L": [
                5503
            ], 
            "AM2F": [
                3665
            ], 
            "WBF": [
                599
            ], 
            "BM1F": [
                4717
            ], 
            "M1": [
                1561
            ], 
            "irrelevant_Adj": [
                0
            ], 
            "M2": [
                5862
            ], 
            "BM1L": [
                5503
            ], 
            "WBO": [
                6087, 
                3066
            ], 
            "WBL": [
                8034
            ], 
            "irrelevant_Noun": [
                0
            ], 
            "M1_ADJ": [
                0
            ]
        }, 
        "sentence": "although the wood handle one look classier and probably feel nicer , the plastic handle one feel plenty sturdy , for the value oriented , get the plastic handle one since it 's the exact same brush anyway ! i am really very happy with what i paid for the calfornia duster and would not hesitate to recommend one to anyone with a car or motorcycle ."
    }
}