{
    "2827d91062cf459ed920c7fb37b7518d": {
        "(10, 13)": {
            "AM2L": [
                4884
            ], 
            "AM2F": [
                599
            ], 
            "WBF": [
                5455
            ], 
            "BM1F": [
                1564
            ], 
            "M1": [
                5871
            ], 
            "irrelevant_Adj": [
                0
            ], 
            "M2": [
                7567
            ], 
            "BM1L": [
                5459
            ], 
            "WBO": [
                6511
            ], 
            "WBL": [
                6511
            ], 
            "irrelevant_Noun": [
                0
            ], 
            "M1_ADJ": [
                1
            ]
        }, 
        "location1": [
            10
        ], 
        "location2": [
            13
        ], 
        "sentence": "it worked very well , went on easy , wiped off clean , pleasant odor , removed stain and mark ."
    }
}