{
    "a552001490b764b250a3391e6238302f": {
        "(11, 9)": {
            "WBFL": [
                8887
            ], 
            "BM1F": [
                5344
            ], 
            "M1": [
                4279
            ], 
            "irrelevant_Adj": [
                0
            ], 
            "M2": [
                5932
            ], 
            "BM1L": [
                3646
            ], 
            "AM2F": [
                1784
            ], 
            "irrelevant_Noun": [
                0
            ], 
            "M1_ADJ": [
                0
            ]
        }, 
        "location1": [
            11
        ], 
        "location2": [
            9
        ], 
        "sentence": "they worked well for me and i had no issue with poor connection ."
    }
}