{
    "91f50aa12634c034150e20cf5a91c8c0": {
        "(11, 6)": {
            "AM2F": [
                1358
            ], 
            "WBF": [
                5458
            ], 
            "BM1F": [
                2561
            ], 
            "M1": [
                8183
            ], 
            "irrelevant_Adj": [
                0
            ], 
            "M2": [
                5932
            ], 
            "BM1L": [
                8162
            ], 
            "WBO": [
                2577
            ], 
            "WBL": [
                5232
            ], 
            "irrelevant_Noun": [
                0
            ], 
            "M1_ADJ": [
                0
            ]
        }, 
        "location1": [
            11
        ], 
        "location2": [
            6
        ], 
        "sentence": "all of them seem to dump ton of dust on my poor car ."
    }
}