{
    "1d53834eba3ee6a15e0300065239003d": {
        "(12, 21)": {
            "WBF": [
                7178
            ], 
            "BM1F": [
                8034
            ], 
            "M1": [
                5956
            ], 
            "irrelevant_Adj": [
                0
            ], 
            "M2": [
                5046
            ], 
            "BM1L": [
                8162
            ], 
            "WBO": [
                1016, 
                8451, 
                599, 
                921, 
                3252
            ], 
            "WBL": [
                5458
            ], 
            "irrelevant_Noun": [
                0
            ], 
            "M1_ADJ": [
                1
            ]
        }, 
        "location1": [
            12
        ], 
        "location2": [
            21
        ], 
        "sentence": "i added a 5a blade fuse with all weather holder to the positive side between unit and battery for peace of mind ."
    }
}