{
    "62be7ee8ec15cb14f98eed798fbe8076": {
        "location1": [
            10
        ], 
        "location2": [
            23
        ], 
        "(10, 23)": {
            "WBF": [
                599
            ], 
            "BM1F": [
                720
            ], 
            "M1": [
                5959
            ], 
            "irrelevant_Adj": [
                0
            ], 
            "M2": [
                1460
            ], 
            "BM1L": [
                7420
            ], 
            "WBO": [
                3717, 
                4283, 
                8016, 
                8162, 
                4829, 
                7824, 
                4283, 
                7640, 
                3855
            ], 
            "WBL": [
                6141
            ], 
            "irrelevant_Noun": [
                0
            ], 
            "M1_ADJ": [
                1
            ]
        }, 
        "sentence": "take it to an auto part store as soon as possible and have it tested to make sure it still holds a proper charge ."
    }
}