{
    "2341143e6422c0fe1fa4910780bf7472": {
        "location1": [
            4
        ], 
        "location2": [
            29
        ], 
        "(4, 29)": {
            "WBF": [
                4268
            ], 
            "BM1F": [
                1286
            ], 
            "M1": [
                5959
            ], 
            "irrelevant_Adj": [
                0
            ], 
            "M2": [
                7692
            ], 
            "BM1L": [
                4714
            ], 
            "WBO": [
                310, 
                4827, 
                5894, 
                3985, 
                8997, 
                1358, 
                4268, 
                5682, 
                8501, 
                482, 
                7409, 
                4625, 
                310, 
                5910, 
                5543, 
                8693, 
                5543, 
                2847, 
                5682, 
                5495, 
                310
            ], 
            "WBL": [
                8750
            ], 
            "irrelevant_Noun": [
                0
            ], 
            "M1_ADJ": [
                1
            ]
        }, 
        "sentence": "having the longest cable possible is a major plus if your car is parked up against something like a pole or wall , or even parked on a one way street ."
    }
}