{
    "db11e559d15a272afb1f623c9e0f543f": {
        "location1": [
            21
        ], 
        "location2": [
            24
        ], 
        "(21, 24)": {
            "AM2L": [
                5410
            ], 
            "AM2F": [
                8073
            ], 
            "WBF": [
                5860
            ], 
            "BM1F": [
                8739
            ], 
            "M1": [
                5969
            ], 
            "irrelevant_Adj": [
                0
            ], 
            "M2": [
                8287
            ], 
            "BM1L": [
                3252
            ], 
            "WBO": [
                599
            ], 
            "WBL": [
                599
            ], 
            "irrelevant_Noun": [
                0
            ], 
            "M1_ADJ": [
                1
            ]
        }, 
        "sentence": "this would be great for washing a car or big job like hosing down a pool or screen , but for watering potted plant and tree , this nozzle put too much water down and creates splashing ."
    }
}