{
    "db11e559d15a272afb1f623c9e0f543f": {
        "(21, 22)": {
            "AM2L": [
                8287
            ], 
            "BM1F": [
                8739
            ], 
            "M1": [
                5969
            ], 
            "irrelevant_Adj": [
                0
            ], 
            "M2": [
                5860
            ], 
            "BM1L": [
                3252
            ], 
            "WBNULL": [
                1
            ], 
            "irrelevant_Noun": [
                0
            ], 
            "AM2F": [
                599
            ], 
            "M1_ADJ": [
                1
            ]
        }, 
        "location1": [
            21
        ], 
        "location2": [
            22
        ], 
        "sentence": "this would be great for washing a car or big job like hosing down a pool or screen , but for watering potted plant and tree , this nozzle put too much water down and creates splashing ."
    }, 
    "24814860c1a21af16d43888e4e89b866": {
        "(21, 22)": {
            "AM2L": [
                2176
            ], 
            "BM1F": [
                8739
            ], 
            "M1": [
                5969
            ], 
            "irrelevant_Adj": [
                0
            ], 
            "M2": [
                5860
            ], 
            "BM1L": [
                3252
            ], 
            "WBNULL": [
                1
            ], 
            "irrelevant_Noun": [
                0
            ], 
            "AM2F": [
                5543
            ], 
            "M1_ADJ": [
                1
            ]
        }, 
        "location1": [
            21
        ], 
        "location2": [
            22
        ], 
        "sentence": "the nozzle does a decent job of diffusing water flow , producing a nice gentle flowing fountain of water suitable for watering potted plant or delicate flower ."
    }
}