{
    "db11e559d15a272afb1f623c9e0f543f": {
        "(21, 26)": {
            "AM2L": [
                8188
            ], 
            "AM2F": [
                6209
            ], 
            "WBF": [
                5860
            ], 
            "BM1F": [
                8739
            ], 
            "M1": [
                5969
            ], 
            "irrelevant_Adj": [
                0
            ], 
            "M2": [
                5410
            ], 
            "BM1L": [
                3252
            ], 
            "WBO": [
                599
            ], 
            "WBL": [
                8073
            ], 
            "irrelevant_Noun": [
                0
            ], 
            "M1_ADJ": [
                1
            ]
        }, 
        "location1": [
            21
        ], 
        "location2": [
            26
        ], 
        "sentence": "this would be great for washing a car or big job like hosing down a pool or screen , but for watering potted plant and tree , this nozzle put too much water down and creates splashing ."
    }, 
    "24814860c1a21af16d43888e4e89b866": {
        "location1": [
            21
        ], 
        "location2": [
            1
        ], 
        "(21, 1)": {
            "AM2L": [
                5543
            ], 
            "AM2F": [
                5860
            ], 
            "WBF": [
                2445
            ], 
            "BM1F": [
                8034
            ], 
            "M1": [
                5410
            ], 
            "irrelevant_Adj": [
                0
            ], 
            "M2": [
                5969
            ], 
            "WBO": [
                310, 
                2125, 
                4344, 
                5458, 
                2320, 
                8736, 
                3205, 
                6102, 
                310, 
                5325, 
                3450, 
                3208, 
                3296, 
                5458, 
                8736, 
                7780
            ], 
            "WBL": [
                8739
            ], 
            "irrelevant_Noun": [
                0
            ], 
            "M1_ADJ": [
                0
            ]
        }, 
        "sentence": "the nozzle does a decent job of diffusing water flow , producing a nice gentle flowing fountain of water suitable for watering potted plant or delicate flower ."
    }
}