{
    "db11e559d15a272afb1f623c9e0f543f": {
        "(21, 30)": {
            "AM2L": [
                599
            ], 
            "AM2F": [
                2481
            ], 
            "WBF": [
                5860
            ], 
            "BM1F": [
                8739
            ], 
            "M1": [
                5969
            ], 
            "irrelevant_Adj": [
                0
            ], 
            "M2": [
                8736
            ], 
            "BM1L": [
                3252
            ], 
            "WBO": [
                599, 
                8287, 
                8073, 
                5410, 
                6209
            ], 
            "WBL": [
                5191
            ], 
            "irrelevant_Noun": [
                0
            ], 
            "M1_ADJ": [
                1
            ]
        }, 
        "location1": [
            21
        ], 
        "location2": [
            30
        ], 
        "sentence": "this would be great for washing a car or big job like hosing down a pool or screen , but for watering potted plant and tree , this nozzle put too much water down and creates splashing ."
    }, 
    "24814860c1a21af16d43888e4e89b866": {
        "(21, 17)": {
            "AM2L": [
                5543
            ], 
            "AM2F": [
                5860
            ], 
            "WBF": [
                7780
            ], 
            "BM1F": [
                5458
            ], 
            "M1": [
                8736
            ], 
            "irrelevant_Adj": [
                0
            ], 
            "M2": [
                5969
            ], 
            "BM1L": [
                3296
            ], 
            "WBO": [
                3252
            ], 
            "WBL": [
                8739
            ], 
            "irrelevant_Noun": [
                0
            ], 
            "M1_ADJ": [
                0
            ]
        }, 
        "location1": [
            21
        ], 
        "location2": [
            8, 
            17
        ], 
        "(21, 8)": {
            "AM2L": [
                5543
            ], 
            "AM2F": [
                5860
            ], 
            "WBF": [
                3205
            ], 
            "BM1F": [
                2320
            ], 
            "M1": [
                8736
            ], 
            "irrelevant_Adj": [
                0
            ], 
            "M2": [
                5969
            ], 
            "BM1L": [
                5458
            ], 
            "WBO": [
                6102, 
                310, 
                5325, 
                3450, 
                3208, 
                3296, 
                5458, 
                8736, 
                7780
            ], 
            "WBL": [
                8739
            ], 
            "irrelevant_Noun": [
                0
            ], 
            "M1_ADJ": [
                0
            ]
        }, 
        "sentence": "the nozzle does a decent job of diffusing water flow , producing a nice gentle flowing fountain of water suitable for watering potted plant or delicate flower ."
    }
}