{
    "948145f10ee972bd6f9f3aab0e4ca7ea": {
        "(14, 16)": {
            "AM2L": [
                3985
            ], 
            "WBFL": [
                5657
            ], 
            "BM1F": [
                8997
            ], 
            "M1": [
                5995
            ], 
            "irrelevant_Adj": [
                0
            ], 
            "M2": [
                4344
            ], 
            "BM1L": [
                5495
            ], 
            "AM2F": [
                599
            ], 
            "irrelevant_Noun": [
                0
            ], 
            "M1_ADJ": [
                1
            ]
        }, 
        "location1": [
            14
        ], 
        "location2": [
            16
        ], 
        "sentence": "it takes a little longer , but the microfiber towel is marginally safer on your precious paint job and if you 're auto obsessed , it may be worth the extra time ."
    }
}