{
    "664d8d0a63ae2e29fdcad89851351001": {
        "(22, 38)": {
            "AM2L": [
                1084
            ], 
            "AM2F": [
                599
            ], 
            "WBF": [
                6087
            ], 
            "BM1F": [
                4286
            ], 
            "M1": [
                6025
            ], 
            "irrelevant_Adj": [
                0
            ], 
            "M2": [
                2845
            ], 
            "BM1L": [
                5566
            ], 
            "WBO": [
                4578, 
                8024, 
                170, 
                5458, 
                8034, 
                8212, 
                3342, 
                7826, 
                4401, 
                4043, 
                5046, 
                227
            ], 
            "WBL": [
                8034
            ], 
            "irrelevant_Noun": [
                0
            ], 
            "M1_ADJ": [
                1
            ]
        }, 
        "location1": [
            22
        ], 
        "location2": [
            38
        ], 
        "sentence": "i applied this to all accessible ( front face ) surface , and only the spot where there was not a decal or other item present , probably less than 30 % of the total frontal surface ( keep in mind 50 % is the evaporator and blower vent ) , and the available space on the front cover ."
    }
}