{
    "664d8d0a63ae2e29fdcad89851351001": {
        "(22, 12)": {
            "AM2L": [
                4578
            ], 
            "AM2F": [
                6087
            ], 
            "WBF": [
                8814
            ], 
            "BM1F": [
                8034
            ], 
            "M1": [
                7522
            ], 
            "irrelevant_Adj": [
                0
            ], 
            "M2": [
                6025
            ], 
            "BM1L": [
                5512
            ], 
            "WBO": [
                8049, 
                8718, 
                5387, 
                310, 
                2122, 
                5543
            ], 
            "WBL": [
                4286
            ], 
            "irrelevant_Noun": [
                0
            ], 
            "M1_ADJ": [
                0
            ]
        }, 
        "location1": [
            22
        ], 
        "location2": [
            12
        ], 
        "sentence": "i applied this to all accessible ( front face ) surface , and only the spot where there was not a decal or other item present , probably less than 30 % of the total frontal surface ( keep in mind 50 % is the evaporator and blower vent ) , and the available space on the front cover ."
    }
}