{
    "664d8d0a63ae2e29fdcad89851351001": {
        "location1": [
            22
        ], 
        "location2": [
            49
        ], 
        "(22, 49)": {
            "WBF": [
                6087
            ], 
            "BM1F": [
                4286
            ], 
            "M1": [
                6025
            ], 
            "irrelevant_Adj": [
                0
            ], 
            "M2": [
                1914
            ], 
            "BM1L": [
                5566
            ], 
            "WBO": [
                4578, 
                8024, 
                170, 
                5458, 
                8034, 
                8212, 
                3342, 
                7826, 
                4401, 
                4043, 
                5046, 
                227, 
                4268, 
                8034, 
                2845, 
                599, 
                1084, 
                8591, 
                599, 
                8034, 
                808, 
                7449, 
                5495
            ], 
            "WBL": [
                3339
            ], 
            "irrelevant_Noun": [
                0
            ], 
            "M1_ADJ": [
                1
            ]
        }, 
        "sentence": "i applied this to all accessible ( front face ) surface , and only the spot where there was not a decal or other item present , probably less than 30 % of the total frontal surface ( keep in mind 50 % is the evaporator and blower vent ) , and the available space on the front cover ."
    }
}