{
    "45c79c07de2b17a425789e4308e80f8b": {
        "location1": [
            3
        ], 
        "location2": [
            14
        ], 
        "(3, 14)": {
            "WBF": [
                6407
            ], 
            "BM1F": [
                310
            ], 
            "M1": [
                6082
            ], 
            "irrelevant_Adj": [
                0
            ], 
            "M2": [
                5777
            ], 
            "BM1L": [
                5387
            ], 
            "WBO": [
                3638, 
                3962, 
                8531, 
                5232, 
                1286, 
                5148, 
                8024
            ], 
            "WBL": [
                813
            ], 
            "irrelevant_Noun": [
                0
            ], 
            "M1_ADJ": [
                1
            ]
        }, 
        "sentence": "while not a pro recovery guy i use my cable more than the average person ."
    }
}