{
    "aba1ea1a5e6bec74919eb998d133a6da": {
        "(71, 50)": {
            "WBF": [
                1553
            ], 
            "BM1F": [
                8034
            ], 
            "M1": [
                5685
            ], 
            "irrelevant_Adj": [
                0
            ], 
            "M2": [
                6082
            ], 
            "BM1L": [
                4043
            ], 
            "WBO": [
                4268, 
                5325, 
                1553, 
                688, 
                6302, 
                760, 
                232, 
                8057, 
                7, 
                3334, 
                3762, 
                760, 
                5272, 
                70, 
                4536, 
                8986, 
                8028
            ], 
            "WBL": [
                310
            ], 
            "irrelevant_Noun": [
                0
            ], 
            "M1_ADJ": [
                0
            ]
        }, 
        "sentence": "pro - i know i can jump start a semi with these ( more importantly , i can get a jump from a semi - truck driver are the good guy btw ) - extra long at 25 ' - parrot clamp are strong , but an average guy can open them with one hand - copper insert in the parrot clamp is nice - clamp are rated at 500amps - they 're friggin heavy at near 14 lbs , yes that 's a pro !", 
        "location2": [
            32, 
            50
        ], 
        "location1": [
            0, 
            71
        ], 
        "(0, 50)": {
            "WBF": [
                3962
            ], 
            "AM2L": [
                4268
            ], 
            "M1": [
                6082
            ], 
            "irrelevant_Adj": [
                0
            ], 
            "M2": [
                5685
            ], 
            "WBO": [
                4465, 
                3962, 
                1323, 
                4367, 
                7598, 
                310, 
                6997, 
                8887, 
                8053, 
                5148, 
                4026, 
                3962, 
                1323, 
                3459, 
                310, 
                4367, 
                3338, 
                310, 
                6997, 
                8320, 
                2526, 
                688, 
                8034, 
                3518, 
                3638, 
                1209, 
                2953, 
                4710, 
                760, 
                146, 
                5685, 
                1553, 
                688, 
                7707, 
                1262, 
                591, 
                813, 
                3638, 
                1323, 
                5522, 
                8041, 
                8887, 
                5503, 
                3661, 
                1872, 
                4131
            ], 
            "WBL": [
                8034
            ], 
            "irrelevant_Noun": [
                0
            ], 
            "AM2F": [
                1553
            ], 
            "M1_ADJ": [
                1
            ]
        }, 
        "(71, 32)": {
            "WBF": [
                1553
            ], 
            "BM1F": [
                146
            ], 
            "M1": [
                5685
            ], 
            "irrelevant_Adj": [
                0
            ], 
            "M2": [
                6082
            ], 
            "BM1L": [
                760
            ], 
            "WBO": [
                688, 
                7707, 
                1262, 
                591, 
                813, 
                3638, 
                1323, 
                5522, 
                8041, 
                8887, 
                5503, 
                3661, 
                1872, 
                4131, 
                4043, 
                8034, 
                5685, 
                1553, 
                4268, 
                5325, 
                1553, 
                688, 
                6302, 
                760, 
                232, 
                8057, 
                7, 
                3334, 
                3762, 
                760, 
                5272, 
                70, 
                4536, 
                8986, 
                8028
            ], 
            "WBL": [
                310
            ], 
            "irrelevant_Noun": [
                0
            ], 
            "M1_ADJ": [
                0
            ]
        }, 
        "(0, 32)": {
            "WBF": [
                3962
            ], 
            "AM2L": [
                688
            ], 
            "M1": [
                6082
            ], 
            "irrelevant_Adj": [
                0
            ], 
            "M2": [
                5685
            ], 
            "WBO": [
                4465, 
                3962, 
                1323, 
                4367, 
                7598, 
                310, 
                6997, 
                8887, 
                8053, 
                5148, 
                4026, 
                3962, 
                1323, 
                3459, 
                310, 
                4367, 
                3338, 
                310, 
                6997, 
                8320, 
                2526, 
                688, 
                8034, 
                3518, 
                3638, 
                1209, 
                2953, 
                4710
            ], 
            "WBL": [
                146
            ], 
            "irrelevant_Noun": [
                0
            ], 
            "AM2F": [
                1553
            ], 
            "M1_ADJ": [
                1
            ]
        }
    }
}