{
    "45c79c07de2b17a425789e4308e80f8b": {
        "location1": [
            3
        ], 
        "location2": [
            9
        ], 
        "(3, 9)": {
            "AM2L": [
                8024
            ], 
            "AM2F": [
                5148
            ], 
            "WBF": [
                6407
            ], 
            "BM1F": [
                310
            ], 
            "M1": [
                6082
            ], 
            "irrelevant_Adj": [
                0
            ], 
            "M2": [
                1286
            ], 
            "BM1L": [
                5387
            ], 
            "WBO": [
                3638, 
                3962
            ], 
            "WBL": [
                5232
            ], 
            "irrelevant_Noun": [
                0
            ], 
            "M1_ADJ": [
                1
            ]
        }, 
        "sentence": "while not a pro recovery guy i use my cable more than the average person ."
    }
}