{
    "47c6d9f3432e8c3e949b765b66efb491": {
        "(1, 8)": {
            "AM2L": [
                4725
            ], 
            "AM2F": [
                3149
            ], 
            "WBF": [
                6757
            ], 
            "BM1F": [
                8034
            ], 
            "M1": [
                6154
            ], 
            "irrelevant_Adj": [
                0
            ], 
            "M2": [
                2792
            ], 
            "WBO": [
                1339, 
                8028, 
                1914
            ], 
            "WBL": [
                4409
            ], 
            "irrelevant_Noun": [
                0
            ], 
            "M1_ADJ": [
                1
            ]
        }, 
        "location1": [
            1
        ], 
        "location2": [
            8
        ], 
        "sentence": "the protective rubber cap that cover the key entry , fit loosely ."
    }
}