{
    "3908e69c2be8cb41edb75d4a5210f856": {
        "(15, 52)": {
            "WBF": [
                8887
            ], 
            "BM1F": [
                1307
            ], 
            "M1": [
                6150
            ], 
            "irrelevant_Adj": [
                0
            ], 
            "M2": [
                3090
            ], 
            "BM1L": [
                8747
            ], 
            "WBO": [
                8555, 
                4116, 
                4043, 
                4283, 
                6073, 
                8162, 
                8330, 
                8073, 
                3165, 
                8747, 
                599, 
                8534, 
                4283, 
                3252, 
                8979, 
                599, 
                4283, 
                2304, 
                8034, 
                4344, 
                599, 
                5392, 
                2692, 
                5495, 
                8034, 
                4887, 
                7362, 
                3962, 
                8082, 
                8718, 
                3510, 
                8162, 
                8195
            ], 
            "WBL": [
                3252
            ], 
            "irrelevant_Noun": [
                0
            ], 
            "M1_ADJ": [
                1
            ]
        }, 
        "location1": [
            15
        ], 
        "location2": [
            52
        ], 
        "sentence": "i thought i had found the best shine wax protection using an rv wax called protect-all with uv inhibitor in it prior to trying this flagship wax and used it for year and it did the job and nothing else on the market ( so i thought ) was going to top it for fiberglass ."
    }
}