{
    "8f871134a71fd91c7f4d19449befb514": {
        "(31, 32)": {
            "BM1F": [
                8034
            ], 
            "M1": [
                6150
            ], 
            "irrelevant_Adj": [
                0
            ], 
            "M2": [
                1160
            ], 
            "BM1L": [
                4043
            ], 
            "WBNULL": [
                1
            ], 
            "irrelevant_Noun": [
                0
            ], 
            "M1_ADJ": [
                1
            ]
        }, 
        "location1": [
            31
        ], 
        "location2": [
            32
        ], 
        "sentence": "so we tried it - liked it at first but then a week or so later found the flagship to not be as good as what i used for year in the protect-all brand ."
    }, 
    "b1ca28e7aa8cb3bfdf6d6a7704db0c0e": {
        "(4, 5)": {
            "AM2L": [
                8162
            ], 
            "BM1F": [
                8034
            ], 
            "M1": [
                6150
            ], 
            "irrelevant_Adj": [
                0
            ], 
            "M2": [
                1160
            ], 
            "BM1L": [
                3117
            ], 
            "WBNULL": [
                1
            ], 
            "irrelevant_Noun": [
                0
            ], 
            "AM2F": [
                8747
            ], 
            "M1_ADJ": [
                1
            ]
        }, 
        "location1": [
            4
        ], 
        "location2": [
            5
        ], 
        "sentence": "i also find the protect-all brand wax to last long and come off cleaner after applying wax leaving a cleaner shine ."
    }
}