{
    "3908e69c2be8cb41edb75d4a5210f856": {
        "(15, 25)": {
            "AM2L": [
                599
            ], 
            "AM2F": [
                8747
            ], 
            "WBF": [
                8887
            ], 
            "BM1F": [
                1307
            ], 
            "M1": [
                6150
            ], 
            "irrelevant_Adj": [
                0
            ], 
            "M2": [
                3165
            ], 
            "BM1L": [
                8747
            ], 
            "WBO": [
                8555, 
                4116, 
                4043, 
                4283, 
                6073, 
                8162
            ], 
            "WBL": [
                8073
            ], 
            "irrelevant_Noun": [
                0
            ], 
            "M1_ADJ": [
                1
            ]
        }, 
        "location1": [
            15
        ], 
        "location2": [
            25
        ], 
        "sentence": "i thought i had found the best shine wax protection using an rv wax called protect-all with uv inhibitor in it prior to trying this flagship wax and used it for year and it did the job and nothing else on the market ( so i thought ) was going to top it for fiberglass ."
    }, 
    "8f871134a71fd91c7f4d19449befb514": {
        "(31, 17)": {
            "AM2F": [
                1160
            ], 
            "WBF": [
                8162
            ], 
            "BM1F": [
                8034
            ], 
            "M1": [
                3165
            ], 
            "irrelevant_Adj": [
                0
            ], 
            "M2": [
                6150
            ], 
            "BM1L": [
                3294
            ], 
            "WBO": [
                5387, 
                929, 
                720, 
                3518, 
                720, 
                8805, 
                3962, 
                8534, 
                3252, 
                8979
            ], 
            "WBL": [
                8034
            ], 
            "irrelevant_Noun": [
                0
            ], 
            "M1_ADJ": [
                0
            ]
        }, 
        "location1": [
            31
        ], 
        "location2": [
            17
        ], 
        "sentence": "so we tried it - liked it at first but then a week or so later found the flagship to not be as good as what i used for year in the protect-all brand ."
    }
}