{
    "47c6d9f3432e8c3e949b765b66efb491": {
        "(1, 3)": {
            "AM2L": [
                1914
            ], 
            "WBFL": [
                6757
            ], 
            "BM1F": [
                8034
            ], 
            "M1": [
                6154
            ], 
            "irrelevant_Adj": [
                0
            ], 
            "M2": [
                1339
            ], 
            "AM2F": [
                8028
            ], 
            "irrelevant_Noun": [
                0
            ], 
            "M1_ADJ": [
                1
            ]
        }, 
        "location1": [
            1
        ], 
        "location2": [
            3
        ], 
        "sentence": "the protective rubber cap that cover the key entry , fit loosely ."
    }
}