{
    "87a325bc88d63bf4618bbc207c950406": {
        "(33, 30)": {
            "AM2L": [
                599
            ], 
            "AM2F": [
                5525
            ], 
            "WBF": [
                8887
            ], 
            "BM1F": [
                563
            ], 
            "M1": [
                1155
            ], 
            "irrelevant_Adj": [
                0
            ], 
            "M2": [
                6183
            ], 
            "BM1L": [
                7208
            ], 
            "WBO": [
                3594
            ], 
            "WBL": [
                3594
            ], 
            "irrelevant_Noun": [
                0
            ], 
            "M1_ADJ": [
                0
            ]
        }, 
        "location1": [
            33
        ], 
        "location2": [
            30
        ], 
        "sentence": "i routed and zip-tied it to blend in with all of the other factory wire and ran it to the front lower valance [ bumper ] where i fabricated a simple aluminum bracket with grommet pull-through opening and terminated at a plug ."
    }
}