{
    "1a0a2f2c38a1611ea8ff69c50c4c03d7": {
        "(40, 46)": {
            "WBF": [
                8162
            ], 
            "BM1F": [
                720
            ], 
            "M1": [
                6229
            ], 
            "irrelevant_Adj": [
                0
            ], 
            "M2": [
                7142
            ], 
            "BM1L": [
                5387
            ], 
            "WBO": [
                8531, 
                720
            ], 
            "WBL": [
                8305
            ], 
            "irrelevant_Noun": [
                0
            ], 
            "M1_ADJ": [
                1
            ]
        }, 
        "location1": [
            40
        ], 
        "location2": [
            46
        ], 
        "sentence": "the only drawback i find is that for those who turn it on and off frequently , there is a decent amount of friction involved in turning all the way off to all the way on , so it 's not as quick to use as a trigger shot ."
    }
}