{
    "c576aa15ea0d5c69b8a3a8156132ce24": {
        "(6, 26)": {
            "AM2L": [
                3880
            ], 
            "AM2F": [
                599
            ], 
            "WBF": [
                7308
            ], 
            "BM1F": [
                310
            ], 
            "M1": [
                6229
            ], 
            "irrelevant_Adj": [
                0
            ], 
            "M2": [
                8320
            ], 
            "BM1L": [
                5284
            ], 
            "WBO": [
                6378, 
                8057, 
                688, 
                8034, 
                5756, 
                4570, 
                8162, 
                5936, 
                5232, 
                3879, 
                6772, 
                8034, 
                1286, 
                8162, 
                8034, 
                850
            ], 
            "WBL": [
                8034
            ], 
            "irrelevant_Noun": [
                0
            ], 
            "M1_ADJ": [
                1
            ]
        }, 
        "location1": [
            6
        ], 
        "location2": [
            26
        ], 
        "sentence": "if you are in need a quick small recharge they are the perfect length to pop my hood , run the cable to the back of the truck and hook up to the battery that are on the tongue of my travel trailer ."
    }
}