{
    "d8e95dad6bfb2d6be36694fd4250fd3a": {
        "(6, 20)": {
            "AM2L": [
                7659
            ], 
            "AM2F": [
                599
            ], 
            "WBF": [
                8750
            ], 
            "BM1F": [
                5344
            ], 
            "M1": [
                6229
            ], 
            "irrelevant_Adj": [
                0
            ], 
            "M2": [
                3730
            ], 
            "BM1L": [
                4268
            ], 
            "WBO": [
                8162, 
                3459, 
                8034, 
                2244, 
                7526, 
                5714, 
                8991, 
                3717, 
                8162, 
                7293
            ], 
            "WBL": [
                8034
            ], 
            "irrelevant_Noun": [
                0
            ], 
            "M1_ADJ": [
                1
            ]
        }, 
        "location1": [
            6
        ], 
        "location2": [
            20
        ], 
        "sentence": "for a start , there is no quick way to get the desired spray pattern , you have to slowly rotate the head and stop when you think it is what you need , often messing around ' finely tuning ' it to try and get the best result ."
    }
}