{
    "1a0a2f2c38a1611ea8ff69c50c4c03d7": {
        "(40, 2)": {
            "AM2L": [
                8531
            ], 
            "AM2F": [
                8162
            ], 
            "WBF": [
                3962
            ], 
            "BM1F": [
                5512
            ], 
            "M1": [
                2506
            ], 
            "irrelevant_Adj": [
                0
            ], 
            "M2": [
                6229
            ], 
            "BM1L": [
                8034
            ], 
            "WBO": [
                3117, 
                4268, 
                8028, 
                3252, 
                8080, 
                8824, 
                8351, 
                4283, 
                5495, 
                599, 
                5459, 
                3323, 
                8049, 
                4268, 
                310, 
                2125, 
                583, 
                5458, 
                3329, 
                4247, 
                4043, 
                8354, 
                527, 
                8034, 
                8750, 
                5459, 
                8162, 
                527, 
                8034, 
                8750, 
                5495, 
                7362, 
                4283, 
                8
            ], 
            "WBL": [
                720
            ], 
            "irrelevant_Noun": [
                0
            ], 
            "M1_ADJ": [
                0
            ]
        }, 
        "location1": [
            40
        ], 
        "location2": [
            2
        ], 
        "sentence": "the only drawback i find is that for those who turn it on and off frequently , there is a decent amount of friction involved in turning all the way off to all the way on , so it 's not as quick to use as a trigger shot ."
    }
}