{
    "c576aa15ea0d5c69b8a3a8156132ce24": {
        "location1": [
            6
        ], 
        "location2": [
            8
        ], 
        "(6, 8)": {
            "AM2L": [
                688
            ], 
            "WBFL": [
                7308
            ], 
            "BM1F": [
                310
            ], 
            "M1": [
                6229
            ], 
            "irrelevant_Adj": [
                0
            ], 
            "M2": [
                6378
            ], 
            "BM1L": [
                5284
            ], 
            "AM2F": [
                8057
            ], 
            "irrelevant_Noun": [
                0
            ], 
            "M1_ADJ": [
                1
            ]
        }, 
        "sentence": "if you are in need a quick small recharge they are the perfect length to pop my hood , run the cable to the back of the truck and hook up to the battery that are on the tongue of my travel trailer ."
    }
}