{
    "c576aa15ea0d5c69b8a3a8156132ce24": {
        "location1": [
            6
        ], 
        "location2": [
            23
        ], 
        "(6, 23)": {
            "AM2L": [
                8034
            ], 
            "AM2F": [
                5458
            ], 
            "WBF": [
                7308
            ], 
            "BM1F": [
                310
            ], 
            "M1": [
                6229
            ], 
            "irrelevant_Adj": [
                0
            ], 
            "M2": [
                850
            ], 
            "BM1L": [
                5284
            ], 
            "WBO": [
                6378, 
                8057, 
                688, 
                8034, 
                5756, 
                4570, 
                8162, 
                5936, 
                5232, 
                3879, 
                6772, 
                8034, 
                1286
            ], 
            "WBL": [
                8034
            ], 
            "irrelevant_Noun": [
                0
            ], 
            "M1_ADJ": [
                1
            ]
        }, 
        "sentence": "if you are in need a quick small recharge they are the perfect length to pop my hood , run the cable to the back of the truck and hook up to the battery that are on the tongue of my travel trailer ."
    }, 
    "761fef26aab697cfebf07059c3efa877": {
        "location1": [
            11
        ], 
        "location2": [
            14
        ], 
        "(11, 14)": {
            "AM2L": [
                2547
            ], 
            "AM2F": [
                760
            ], 
            "WBF": [
                7554
            ], 
            "BM1F": [
                310
            ], 
            "M1": [
                6229
            ], 
            "irrelevant_Adj": [
                0
            ], 
            "M2": [
                850
            ], 
            "BM1L": [
                8887
            ], 
            "WBO": [
                8997
            ], 
            "WBL": [
                8997
            ], 
            "irrelevant_Noun": [
                0
            ], 
            "M1_ADJ": [
                1
            ]
        }, 
        "sentence": "the absorber work well with soaking up water then with a quick squeeze your back at drying ."
    }
}