{
    "c576aa15ea0d5c69b8a3a8156132ce24": {
        "(6, 13)": {
            "AM2L": [
                5936
            ], 
            "AM2F": [
                8162
            ], 
            "WBF": [
                7308
            ], 
            "BM1F": [
                310
            ], 
            "M1": [
                6229
            ], 
            "irrelevant_Adj": [
                0
            ], 
            "M2": [
                4570
            ], 
            "BM1L": [
                5284
            ], 
            "WBO": [
                6378, 
                8057, 
                688
            ], 
            "WBL": [
                5756
            ], 
            "irrelevant_Noun": [
                0
            ], 
            "M1_ADJ": [
                1
            ]
        }, 
        "location1": [
            6
        ], 
        "location2": [
            13
        ], 
        "sentence": "if you are in need a quick small recharge they are the perfect length to pop my hood , run the cable to the back of the truck and hook up to the battery that are on the tongue of my travel trailer ."
    }
}