{
    "87b9ad72d9f65478efc1477ea9b95d24": {
        "location1": [
            13
        ], 
        "location2": [
            19
        ], 
        "(13, 19)": {
            "WBF": [
                3686
            ], 
            "BM1F": [
                5387
            ], 
            "M1": [
                6344
            ], 
            "irrelevant_Adj": [
                0
            ], 
            "M2": [
                1811
            ], 
            "BM1L": [
                566
            ], 
            "WBO": [
                8887, 
                8034
            ], 
            "WBL": [
                5458
            ], 
            "irrelevant_Noun": [
                0
            ], 
            "M1_ADJ": [
                1
            ]
        }, 
        "sentence": "this product does what it is supposed to do , but , i am not real happy with the quality of construction ."
    }
}