{
    "bf8cbf1ce349545bce65bbcd995e43cd": {
        "location1": [
            22
        ], 
        "location2": [
            41
        ], 
        "(22, 41)": {
            "AM2L": [
                3920
            ], 
            "AM2F": [
                5495
            ], 
            "WBF": [
                7361
            ], 
            "BM1F": [
                3066
            ], 
            "M1": [
                6344
            ], 
            "irrelevant_Adj": [
                0
            ], 
            "M2": [
                4978
            ], 
            "BM1L": [
                5245
            ], 
            "WBO": [
                4698, 
                8887, 
                8034, 
                4409, 
                325, 
                113, 
                8140, 
                959, 
                8991, 
                7598, 
                8542, 
                8073, 
                7362, 
                8991, 
                2830
            ], 
            "WBL": [
                5212
            ], 
            "irrelevant_Noun": [
                0
            ], 
            "M1_ADJ": [
                1
            ]
        }, 
        "sentence": "good news1 ) fair price2 ) fit curt 2 `` trailer hitchbad news1 ) key use a little tricky2 ) plastic keyhole cap cover does n't feel real snugpractice locking/unlocking with the key about 20 time before you start using this so you establish some ' muscle memory ' on how to turn the key and remove the locking hardware - it 's not like your house key ."
    }
}