{
    "bf8cbf1ce349545bce65bbcd995e43cd": {
        "(22, 4)": {
            "AM2L": [
                4698
            ], 
            "AM2F": [
                7361
            ], 
            "WBF": [
                2021
            ], 
            "BM1F": [
                6055
            ], 
            "M1": [
                3149
            ], 
            "irrelevant_Adj": [
                0
            ], 
            "M2": [
                6344
            ], 
            "BM1L": [
                2990
            ], 
            "WBO": [
                104, 
                8250, 
                3842, 
                5320, 
                4409, 
                8531, 
                310, 
                4671, 
                8302, 
                5862, 
                4414, 
                1339, 
                1914, 
                2445
            ], 
            "WBL": [
                3066
            ], 
            "irrelevant_Noun": [
                0
            ], 
            "M1_ADJ": [
                0
            ]
        }, 
        "location1": [
            22
        ], 
        "location2": [
            4
        ], 
        "sentence": "good news1 ) fair price2 ) fit curt 2 `` trailer hitchbad news1 ) key use a little tricky2 ) plastic keyhole cap cover does n't feel real snugpractice locking/unlocking with the key about 20 time before you start using this so you establish some ' muscle memory ' on how to turn the key and remove the locking hardware - it 's not like your house key ."
    }, 
    "9b4d51f494b94f903307891d63c5302a": {
        "(18, 14)": {
            "AM2F": [
                4993
            ], 
            "WBF": [
                8789
            ], 
            "BM1F": [
                599
            ], 
            "M1": [
                3149
            ], 
            "irrelevant_Adj": [
                0
            ], 
            "M2": [
                6344
            ], 
            "BM1L": [
                8049
            ], 
            "WBO": [
                6047
            ], 
            "WBL": [
                310
            ], 
            "irrelevant_Noun": [
                0
            ], 
            "M1_ADJ": [
                0
            ]
        }, 
        "location1": [
            18
        ], 
        "location2": [
            14
        ], 
        "sentence": "the long skinny tip of this funnel reach all the way back there and fit well , preventing a real mess ."
    }
}