{
    "bc1111e0acc8bd35cc0da9539f66f5e5": {
        "(4, 5)": {
            "AM2L": [
                3962
            ], 
            "BM1F": [
                8034
            ], 
            "M1": [
                6344
            ], 
            "irrelevant_Adj": [
                0
            ], 
            "M2": [
                6603
            ], 
            "BM1L": [
                720
            ], 
            "WBNULL": [
                1
            ], 
            "irrelevant_Noun": [
                0
            ], 
            "AM2F": [
                8081
            ], 
            "M1_ADJ": [
                1
            ]
        }, 
        "(16, 5)": {
            "AM2L": [
                4043
            ], 
            "AM2F": [
                2312
            ], 
            "WBF": [
                8081
            ], 
            "BM1F": [
                6344
            ], 
            "M1": [
                6603
            ], 
            "irrelevant_Adj": [
                0
            ], 
            "M2": [
                6344
            ], 
            "BM1L": [
                8034
            ], 
            "WBO": [
                3962, 
                5, 
                5387, 
                7824, 
                8028, 
                3962, 
                10
            ], 
            "WBL": [
                310
            ], 
            "irrelevant_Noun": [
                0
            ], 
            "M1_ADJ": [
                0
            ]
        }, 
        "location1": [
            4, 
            16
        ], 
        "location2": [
            5
        ], 
        "sentence": "as far as the real result , though , i 'm not sure that i 've noticed a real difference in sound quality , noise , or heat ."
    }
}