{
    "34e04d9699bb170d43f9268ccf66e771": {
        "(11, 8)": {
            "WBF": [
                3339
            ], 
            "BM1F": [
                5458
            ], 
            "M1": [
                4570
            ], 
            "irrelevant_Adj": [
                0
            ], 
            "M2": [
                6359
            ], 
            "BM1L": [
                5877
            ], 
            "WBO": [
                8162
            ], 
            "WBL": [
                8162
            ], 
            "irrelevant_Noun": [
                0
            ], 
            "M1_ADJ": [
                0
            ]
        }, 
        "location1": [
            11
        ], 
        "location2": [
            8
        ], 
        "sentence": "bought these for my k2500 suburban plenty of length front to rear ."
    }
}