{
    "5fbbcc9625d6c205a1dfd2947537ef5b": {
        "(23, 5)": {
            "AM2L": [
                4625
            ], 
            "AM2F": [
                4717
            ], 
            "WBF": [
                3783
            ], 
            "BM1F": [
                8034
            ], 
            "M1": [
                5808
            ], 
            "irrelevant_Adj": [
                0
            ], 
            "M2": [
                6359
            ], 
            "BM1L": [
                4043
            ], 
            "WBO": [
                760, 
                574, 
                3339, 
                5410, 
                4268, 
                7569, 
                5495, 
                1134, 
                5458, 
                5047, 
                1262, 
                8034, 
                1651, 
                1098
            ], 
            "WBL": [
                8034
            ], 
            "irrelevant_Noun": [
                0
            ], 
            "M1_ADJ": [
                0
            ]
        }, 
        "location1": [
            23
        ], 
        "location2": [
            5
        ], 
        "sentence": "whoop , just noticed in the pic here at amazon , front nozzle is stainless on both of mine but the colored body toward the rear look like anodized aluminum on both of mine ."
    }
}