{
    "828e3aedc39b4b2e5e01bbd3c61066a2": {
        "(8, 12)": {
            "WBF": [
                7124
            ], 
            "BM1F": [
                8034
            ], 
            "M1": [
                6359
            ], 
            "irrelevant_Adj": [
                0
            ], 
            "M2": [
                6802
            ], 
            "BM1L": [
                1450
            ], 
            "WBO": [
                5495
            ], 
            "WBL": [
                5232
            ], 
            "irrelevant_Noun": [
                0
            ], 
            "M1_ADJ": [
                1
            ]
        }, 
        "location1": [
            8
        ], 
        "location2": [
            12
        ], 
        "sentence": "i bought 4 of these to change the rear shock on my s2000 ."
    }
}