{
    "34e04d9699bb170d43f9268ccf66e771": {
        "(11, 9)": {
            "WBFL": [
                8162
            ], 
            "BM1F": [
                4570
            ], 
            "M1": [
                3339
            ], 
            "irrelevant_Adj": [
                0
            ], 
            "M2": [
                6359
            ], 
            "BM1L": [
                5458
            ], 
            "irrelevant_Noun": [
                0
            ], 
            "M1_ADJ": [
                0
            ]
        }, 
        "location1": [
            11
        ], 
        "location2": [
            9
        ], 
        "sentence": "bought these for my k2500 suburban plenty of length front to rear ."
    }, 
    "5fbbcc9625d6c205a1dfd2947537ef5b": {
        "(23, 9)": {
            "AM2L": [
                4625
            ], 
            "AM2F": [
                4717
            ], 
            "WBF": [
                5410
            ], 
            "BM1F": [
                574
            ], 
            "M1": [
                3339
            ], 
            "irrelevant_Adj": [
                0
            ], 
            "M2": [
                6359
            ], 
            "BM1L": [
                760
            ], 
            "WBO": [
                4268, 
                7569, 
                5495, 
                1134, 
                5458, 
                5047, 
                1262, 
                8034, 
                1651, 
                1098
            ], 
            "WBL": [
                8034
            ], 
            "irrelevant_Noun": [
                0
            ], 
            "M1_ADJ": [
                0
            ]
        }, 
        "location1": [
            23
        ], 
        "location2": [
            9
        ], 
        "sentence": "whoop , just noticed in the pic here at amazon , front nozzle is stainless on both of mine but the colored body toward the rear look like anodized aluminum on both of mine ."
    }
}