{
    "5fbbcc9625d6c205a1dfd2947537ef5b": {
        "(23, 20)": {
            "AM2L": [
                4625
            ], 
            "AM2F": [
                4717
            ], 
            "WBF": [
                8224
            ], 
            "BM1F": [
                1651
            ], 
            "M1": [
                1098
            ], 
            "irrelevant_Adj": [
                0
            ], 
            "M2": [
                6359
            ], 
            "BM1L": [
                8034
            ], 
            "WBO": [
                8034
            ], 
            "WBL": [
                8034
            ], 
            "irrelevant_Noun": [
                0
            ], 
            "M1_ADJ": [
                0
            ]
        }, 
        "location1": [
            23
        ], 
        "location2": [
            20
        ], 
        "sentence": "whoop , just noticed in the pic here at amazon , front nozzle is stainless on both of mine but the colored body toward the rear look like anodized aluminum on both of mine ."
    }
}