{
    "421b646afe71fddb7e029998d63c2b84": {
        "location1": [
            15
        ], 
        "location2": [
            7
        ], 
        "(15, 7)": {
            "AM2L": [
                5458
            ], 
            "AM2F": [
                6195
            ], 
            "WBF": [
                8034
            ], 
            "BM1F": [
                1358
            ], 
            "M1": [
                1368
            ], 
            "irrelevant_Adj": [
                0
            ], 
            "M2": [
                6372
            ], 
            "BM1L": [
                7796
            ], 
            "WBO": [
                4509, 
                3085, 
                8979, 
                1262
            ], 
            "WBL": [
                310
            ], 
            "irrelevant_Noun": [
                0
            ], 
            "M1_ADJ": [
                0
            ]
        }, 
        "sentence": "i had gotten away from super-anal car care the last few year but with a recent purchase of a brand new 2014 subaru xv crosstrek , my automotive wishlist her on amazon has been growing and another california duster has been towards the top of the & # 34 ; really want & # 34 ; list ."
    }
}