{
    "421b646afe71fddb7e029998d63c2b84": {
        "(15, 36)": {
            "AM2L": [
                3705
            ], 
            "AM2F": [
                2580
            ], 
            "WBF": [
                6195
            ], 
            "BM1F": [
                310
            ], 
            "M1": [
                6372
            ], 
            "irrelevant_Adj": [
                0
            ], 
            "M2": [
                1305
            ], 
            "BM1L": [
                8887
            ], 
            "WBO": [
                5458, 
                310, 
                1160, 
                5314, 
                135, 
                7738, 
                8969, 
                1986, 
                5232, 
                804, 
                8885, 
                3781, 
                5495, 
                574, 
                3705, 
                956, 
                3602
            ], 
            "WBL": [
                620
            ], 
            "irrelevant_Noun": [
                0
            ], 
            "M1_ADJ": [
                1
            ]
        }, 
        "location1": [
            15
        ], 
        "location2": [
            36
        ], 
        "sentence": "i had gotten away from super-anal car care the last few year but with a recent purchase of a brand new 2014 subaru xv crosstrek , my automotive wishlist her on amazon has been growing and another california duster has been towards the top of the & # 34 ; really want & # 34 ; list ."
    }
}