{
    "e6d751e74ad5126bbcfc2ec7fcd830cb": {
        "(15, 16)": {
            "BM1F": [
                310
            ], 
            "M1": [
                6372
            ], 
            "irrelevant_Adj": [
                0
            ], 
            "M2": [
                6054
            ], 
            "BM1L": [
                475
            ], 
            "WBNULL": [
                1
            ], 
            "irrelevant_Noun": [
                0
            ], 
            "AM2F": [
                2532
            ], 
            "M1_ADJ": [
                1
            ]
        }, 
        "location1": [
            15
        ], 
        "location2": [
            16
        ], 
        "sentence": "despite a few negative review here i decided to give it a go after a recent price drop ."
    }
}