{
    "b747ba11482910b10228e42ae3236603": {
        "(2, 25)": {
            "AM2L": [
                527
            ], 
            "AM2F": [
                8572
            ], 
            "WBF": [
                8907
            ], 
            "BM1F": [
                5158
            ], 
            "M1": [
                6372
            ], 
            "irrelevant_Adj": [
                0
            ], 
            "M2": [
                6038
            ], 
            "BM1L": [
                8034
            ], 
            "WBO": [
                4376, 
                4625, 
                8034, 
                5488, 
                5503, 
                599, 
                5495, 
                4578, 
                6038, 
                945, 
                8034, 
                3142, 
                3903, 
                1022, 
                4043, 
                3339, 
                8976, 
                4268, 
                495
            ], 
            "WBL": [
                8034
            ], 
            "irrelevant_Noun": [
                0
            ], 
            "M1_ADJ": [
                1
            ]
        }, 
        "(2, 12)": {
            "AM2L": [
                8034
            ], 
            "AM2F": [
                945
            ], 
            "WBF": [
                8907
            ], 
            "BM1F": [
                5158
            ], 
            "M1": [
                6372
            ], 
            "irrelevant_Adj": [
                0
            ], 
            "M2": [
                6038
            ], 
            "BM1L": [
                8034
            ], 
            "WBO": [
                4376, 
                4625, 
                8034, 
                5488, 
                5503, 
                599
            ], 
            "WBL": [
                4578
            ], 
            "irrelevant_Noun": [
                0
            ], 
            "M1_ADJ": [
                1
            ]
        }, 
        "location1": [
            2
        ], 
        "location2": [
            12, 
            25
        ], 
        "sentence": "the most recent work just like the old one and on less pressure because the first hose bibb in front yard is ahead of the pressure valve all home have ."
    }
}