{
    "37c40cebc5df98bf875142f2367717a8": {
        "(5, 6)": {
            "BM1F": [
                4555
            ], 
            "M1": [
                6413
            ], 
            "irrelevant_Adj": [
                0
            ], 
            "M2": [
                3089
            ], 
            "BM1L": [
                2445
            ], 
            "WBNULL": [
                1
            ], 
            "irrelevant_Noun": [
                0
            ], 
            "AM2F": [
                969
            ], 
            "M1_ADJ": [
                1
            ]
        }, 
        "location1": [
            5
        ], 
        "location2": [
            6
        ], 
        "sentence": "but this brush does leave red fiber behind"
    }, 
    "0f5eb41bd03e069de666792ab292c44f": {
        "(6, 7)": {
            "AM2L": [
                5595
            ], 
            "BM1F": [
                4625
            ], 
            "M1": [
                6413
            ], 
            "irrelevant_Adj": [
                0
            ], 
            "M2": [
                3089
            ], 
            "BM1L": [
                4279
            ], 
            "WBNULL": [
                1
            ], 
            "irrelevant_Noun": [
                0
            ], 
            "AM2F": [
                527
            ], 
            "M1_ADJ": [
                1
            ]
        }, 
        "location1": [
            6
        ], 
        "location2": [
            7
        ], 
        "sentence": "for anyone having other issue like red fiber all over the place , i 'd recommend following the step i did listed above , it worked great for me and as of now i have a great little duster that i paid less then 5 buck for ."
    }, 
    "93762dab4376c15deb531b2448620ba2": {
        "(15, 16)": {
            "AM2L": [
                5595
            ], 
            "BM1F": [
                7686
            ], 
            "M1": [
                6413
            ], 
            "irrelevant_Adj": [
                0
            ], 
            "M2": [
                3089
            ], 
            "BM1L": [
                8887
            ], 
            "WBNULL": [
                1
            ], 
            "irrelevant_Noun": [
                0
            ], 
            "AM2F": [
                527
            ], 
            "M1_ADJ": [
                1
            ]
        }, 
        "location1": [
            15
        ], 
        "location2": [
            16
        ], 
        "sentence": "that seemed to do the trick because i have n't had any issue with stray red fiber all over the place or the pad falling apart as i 've read in previous review ."
    }
}