{
    "0f5eb41bd03e069de666792ab292c44f": {
        "(6, 11)": {
            "AM2L": [
                2
            ], 
            "AM2F": [
                3962
            ], 
            "WBF": [
                3089
            ], 
            "BM1F": [
                4625
            ], 
            "M1": [
                6413
            ], 
            "irrelevant_Adj": [
                0
            ], 
            "M2": [
                5846
            ], 
            "BM1L": [
                4279
            ], 
            "WBO": [
                527
            ], 
            "WBL": [
                8034
            ], 
            "irrelevant_Noun": [
                1
            ], 
            "M1_ADJ": [
                1
            ]
        }, 
        "location1": [
            6
        ], 
        "location2": [
            11
        ], 
        "sentence": "for anyone having other issue like red fiber all over the place , i 'd recommend following the step i did listed above , it worked great for me and as of now i have a great little duster that i paid less then 5 buck for ."
    }, 
    "93762dab4376c15deb531b2448620ba2": {
        "location1": [
            15
        ], 
        "location2": [
            20
        ], 
        "(15, 20)": {
            "AM2L": [
                8034
            ], 
            "AM2F": [
                5543
            ], 
            "WBF": [
                3089
            ], 
            "BM1F": [
                7686
            ], 
            "M1": [
                6413
            ], 
            "irrelevant_Adj": [
                0
            ], 
            "M2": [
                5846
            ], 
            "BM1L": [
                8887
            ], 
            "WBO": [
                527
            ], 
            "WBL": [
                8034
            ], 
            "irrelevant_Noun": [
                1
            ], 
            "M1_ADJ": [
                1
            ]
        }, 
        "sentence": "that seemed to do the trick because i have n't had any issue with stray red fiber all over the place or the pad falling apart as i 've read in previous review ."
    }
}