{
    "37c40cebc5df98bf875142f2367717a8": {
        "(5, 2)": {
            "AM2L": [
                969
            ], 
            "AM2F": [
                3089
            ], 
            "WBF": [
                2445
            ], 
            "BM1F": [
                8073
            ], 
            "M1": [
                1205
            ], 
            "irrelevant_Adj": [
                0
            ], 
            "M2": [
                6413
            ], 
            "BM1L": [
                1262
            ], 
            "WBO": [
                4555
            ], 
            "WBL": [
                4555
            ], 
            "irrelevant_Noun": [
                0
            ], 
            "M1_ADJ": [
                0
            ]
        }, 
        "location1": [
            5
        ], 
        "location2": [
            2
        ], 
        "sentence": "but this brush does leave red fiber behind"
    }
}