{
    "0f5eb41bd03e069de666792ab292c44f": {
        "location1": [
            6
        ], 
        "location2": [
            36
        ], 
        "(6, 36)": {
            "AM2L": [
                3962
            ], 
            "AM2F": [
                8028
            ], 
            "WBF": [
                3089
            ], 
            "BM1F": [
                4625
            ], 
            "M1": [
                6413
            ], 
            "irrelevant_Adj": [
                0
            ], 
            "M2": [
                2580
            ], 
            "BM1L": [
                4279
            ], 
            "WBO": [
                527, 
                5595, 
                8034, 
                5846, 
                3962, 
                2, 
                6390, 
                3237, 
                8034, 
                7622, 
                3962, 
                2304, 
                4651, 
                326, 
                4283, 
                8909, 
                3564, 
                3252, 
                4940, 
                599, 
                720, 
                5458, 
                5407, 
                3962, 
                3717, 
                310
            ], 
            "WBL": [
                4671
            ], 
            "irrelevant_Noun": [
                0
            ], 
            "M1_ADJ": [
                1
            ]
        }, 
        "sentence": "for anyone having other issue like red fiber all over the place , i 'd recommend following the step i did listed above , it worked great for me and as of now i have a great little duster that i paid less then 5 buck for ."
    }
}