{
    "0f5eb41bd03e069de666792ab292c44f": {
        "(6, 1)": {
            "AM2L": [
                527
            ], 
            "AM2F": [
                3089
            ], 
            "WBF": [
                3719
            ], 
            "BM1F": [
                3252
            ], 
            "M1": [
                641
            ], 
            "irrelevant_Adj": [
                0
            ], 
            "M2": [
                6413
            ], 
            "WBO": [
                5566
            ], 
            "WBL": [
                4625
            ], 
            "irrelevant_Noun": [
                0
            ], 
            "M1_ADJ": [
                0
            ]
        }, 
        "location1": [
            6
        ], 
        "location2": [
            1
        ], 
        "sentence": "for anyone having other issue like red fiber all over the place , i 'd recommend following the step i did listed above , it worked great for me and as of now i have a great little duster that i paid less then 5 buck for ."
    }
}