{
    "bfa6d76291127ad84b068bff16af4c62": {
        "(11, 5)": {
            "AM2F": [
                8531
            ], 
            "WBF": [
                8812
            ], 
            "BM1F": [
                8034
            ], 
            "M1": [
                3903
            ], 
            "irrelevant_Adj": [
                0
            ], 
            "M2": [
                6455
            ], 
            "BM1L": [
                3338
            ], 
            "WBO": [
                4283, 
                8
            ], 
            "WBL": [
                4043
            ], 
            "irrelevant_Noun": [
                0
            ], 
            "M1_ADJ": [
                0
            ]
        }, 
        "location1": [
            11
        ], 
        "location2": [
            5
        ], 
        "sentence": "i remove it from the hose when it 's not in regular use ."
    }
}