{
    "5bf70c2721d9273020a1c8be4ab1dc68": {
        "(7, 8)": {
            "BM1F": [
                8034
            ], 
            "M1": [
                6575
            ], 
            "irrelevant_Adj": [
                0
            ], 
            "M2": [
                3727
            ], 
            "BM1L": [
                6512
            ], 
            "WBNULL": [
                1
            ], 
            "irrelevant_Noun": [
                0
            ], 
            "M1_ADJ": [
                1
            ]
        }, 
        "location1": [
            7
        ], 
        "location2": [
            8
        ], 
        "sentence": "you have to work at removing the residual haze ."
    }
}