{
    "89c34bfb7ec4c5b23731de9021ee8c2b": {
        "(9, 18)": {
            "AM2L": [
                8501
            ], 
            "AM2F": [
                4283
            ], 
            "WBF": [
                6758
            ], 
            "BM1F": [
                310
            ], 
            "M1": [
                6662
            ], 
            "irrelevant_Adj": [
                0
            ], 
            "M2": [
                3752
            ], 
            "BM1L": [
                5458
            ], 
            "WBO": [
                4914, 
                8028, 
                3461, 
                7634, 
                8812
            ], 
            "WBL": [
                7791
            ], 
            "irrelevant_Noun": [
                0
            ], 
            "M1_ADJ": [
                1
            ]
        }, 
        "location1": [
            9
        ], 
        "location2": [
            18
        ], 
        "sentence": "the mk4 beetle have a dashboard made of a ridiculous rubber/plastic material that gets sticky when the sun heat it up ."
    }
}