{
    "fa9c571c17b329afb2a7548c86e3cefa": {
        "location1": [
            12
        ], 
        "location2": [
            17
        ], 
        "(12, 17)": {
            "WBF": [
                5459
            ], 
            "BM1F": [
                7268
            ], 
            "M1": [
                6667
            ], 
            "irrelevant_Adj": [
                0
            ], 
            "M2": [
                8872
            ], 
            "BM1L": [
                4376
            ], 
            "WBO": [
                8889
            ], 
            "WBL": [
                8997
            ], 
            "irrelevant_Noun": [
                0
            ], 
            "M1_ADJ": [
                1
            ]
        }, 
        "sentence": "your windshield glass is so slick that the heaviest rain just slide right off without using your wiper ."
    }
}