{
    "5ff51c24ce352ad54acce99717c0e147": {
        "(8, 18)": {
            "WBF": [
                1798
            ], 
            "BM1F": [
                8034
            ], 
            "M1": [
                6667
            ], 
            "irrelevant_Adj": [
                0
            ], 
            "M2": [
                2062
            ], 
            "BM1L": [
                4376
            ], 
            "WBO": [
                1016, 
                7395, 
                599, 
                4648, 
                8162, 
                6162
            ], 
            "WBL": [
                7433
            ], 
            "irrelevant_Noun": [
                0
            ], 
            "M1_ADJ": [
                1
            ]
        }, 
        "location1": [
            8
        ], 
        "location2": [
            18
        ], 
        "sentence": "the butyl is viscoelastic - it has just the right consistency between solid and liquid to provide maximum sound damping ."
    }
}