{
    "c4668c810bb00212974f03bebbed2dac": {
        "(18, 14)": {
            "AM2L": [
                8034
            ], 
            "AM2F": [
                5495
            ], 
            "WBF": [
                8819
            ], 
            "BM1F": [
                4925
            ], 
            "M1": [
                4570
            ], 
            "irrelevant_Adj": [
                0
            ], 
            "M2": [
                6667
            ], 
            "BM1L": [
                8
            ], 
            "WBO": [
                6209
            ], 
            "WBL": [
                4283
            ], 
            "irrelevant_Noun": [
                0
            ], 
            "M1_ADJ": [
                0
            ]
        }, 
        "location1": [
            18
        ], 
        "location2": [
            14
        ], 
        "sentence": "my vent size required this deflector to be pulled out to it 's max length which put it right on the edge of not holding together but it does and it does the job ."
    }
}