{
    "4c714419eddee9c3e634586ba14429ff": {
        "(12, 19)": {
            "WBF": [
                7230
            ], 
            "BM1F": [
                8034
            ], 
            "M1": [
                6667
            ], 
            "irrelevant_Adj": [
                0
            ], 
            "M2": [
                5483
            ], 
            "BM1L": [
                4376
            ], 
            "WBO": [
                8162, 
                3101, 
                5232
            ], 
            "WBL": [
                8262
            ], 
            "irrelevant_Noun": [
                0
            ], 
            "M1_ADJ": [
                1
            ]
        }, 
        "location1": [
            12
        ], 
        "location2": [
            19
        ], 
        "sentence": "it does have some good us though , as it is just the right size to fill my motorcycle transmission oil ."
    }
}