{
    "5b1dcc782012c643879d41c30e4b3c26": {
        "(6, 7)": {
            "AM2L": [
                5543
            ], 
            "BM1F": [
                7405
            ], 
            "M1": [
                6713
            ], 
            "irrelevant_Adj": [
                0
            ], 
            "M2": [
                6832
            ], 
            "BM1L": [
                8501
            ], 
            "WBNULL": [
                1
            ], 
            "irrelevant_Noun": [
                0
            ], 
            "AM2F": [
                3555
            ], 
            "M1_ADJ": [
                1
            ]
        }, 
        "location1": [
            6
        ], 
        "location2": [
            7
        ], 
        "sentence": "however , if you pick up some rogue sand granule or some other debris , you could cause clear coat damage ."
    }
}