{
    "5b1dcc782012c643879d41c30e4b3c26": {
        "(6, 17)": {
            "AM2F": [
                2053
            ], 
            "WBF": [
                6832
            ], 
            "BM1F": [
                7405
            ], 
            "M1": [
                6713
            ], 
            "irrelevant_Adj": [
                0
            ], 
            "M2": [
                1621
            ], 
            "BM1L": [
                8501
            ], 
            "WBO": [
                3555, 
                5543, 
                7405, 
                5566, 
                2117, 
                8991, 
                1899
            ], 
            "WBL": [
                1568
            ], 
            "irrelevant_Noun": [
                0
            ], 
            "M1_ADJ": [
                1
            ]
        }, 
        "location1": [
            6
        ], 
        "location2": [
            17
        ], 
        "sentence": "however , if you pick up some rogue sand granule or some other debris , you could cause clear coat damage ."
    }
}