{
    "640420d4397f7be746cbcd464c9031d3": {
        "(7, 8)": {
            "AM2L": [
                1026
            ], 
            "BM1F": [
                4834
            ], 
            "M1": [
                6750
            ], 
            "irrelevant_Adj": [
                0
            ], 
            "M2": [
                7942
            ], 
            "BM1L": [
                5342
            ], 
            "WBNULL": [
                1
            ], 
            "irrelevant_Noun": [
                0
            ], 
            "AM2F": [
                310
            ], 
            "M1_ADJ": [
                1
            ]
        }, 
        "location1": [
            7
        ], 
        "location2": [
            8
        ], 
        "sentence": "big ol ' thumb down for nissan making routine task a big undertaking ."
    }
}