{
    "8e1e047e9d76b82ef8d9a355eb704ecb": {
        "(23, 16)": {
            "AM2L": [
                7405
            ], 
            "AM2F": [
                6090
            ], 
            "WBF": [
                3962
            ], 
            "BM1F": [
                5458
            ], 
            "M1": [
                5343
            ], 
            "irrelevant_Adj": [
                0
            ], 
            "M2": [
                6791
            ], 
            "BM1L": [
                689
            ], 
            "WBO": [
                3886, 
                8162, 
                5387
            ], 
            "WBL": [
                8034
            ], 
            "irrelevant_Noun": [
                0
            ], 
            "M1_ADJ": [
                0
            ]
        }, 
        "location1": [
            23
        ], 
        "location2": [
            16
        ], 
        "sentence": "so far i like this lock set up , i live in the four corner area of nm , i hope to not have the rusting problem some reviewer have had in the wet slushy climate ."
    }
}