{
    "6eb9aa22b875aa176c356e0cceaccd99": {
        "(32, 59)": {
            "AM2L": [
                5164
            ], 
            "AM2F": [
                5543
            ], 
            "WBF": [
                1205
            ], 
            "BM1F": [
                2872
            ], 
            "M1": [
                6830
            ], 
            "irrelevant_Adj": [
                0
            ], 
            "M2": [
                1358
            ], 
            "BM1L": [
                8034
            ], 
            "WBO": [
                644, 
                3962, 
                566, 
                6354, 
                8603, 
                3686, 
                8887, 
                8805, 
                3962, 
                5653, 
                3252, 
                8034, 
                1303, 
                2580, 
                599, 
                8931, 
                5387, 
                3791, 
                8162, 
                6390, 
                5503, 
                8162, 
                641
            ], 
            "WBL": [
                310
            ], 
            "irrelevant_Noun": [
                0
            ], 
            "M1_ADJ": [
                1
            ]
        }, 
        "location1": [
            32
        ], 
        "location2": [
            59
        ], 
        "sentence": "although the wood handle one look classier and probably feel nicer , the plastic handle one feel plenty sturdy , for the value oriented , get the plastic handle one since it 's the exact same brush anyway ! i am really very happy with what i paid for the calfornia duster and would not hesitate to recommend one to anyone with a car or motorcycle ."
    }, 
    "4ce97cb8d6c67a38849f0b5098ccd44d": {
        "(0, 8)": {
            "WBF": [
                3508
            ], 
            "M1": [
                6830
            ], 
            "irrelevant_Adj": [
                0
            ], 
            "M2": [
                1358
            ], 
            "WBO": [
                3252, 
                6673, 
                7370, 
                5459
            ], 
            "WBL": [
                5232
            ], 
            "irrelevant_Noun": [
                0
            ], 
            "M1_ADJ": [
                1
            ]
        }, 
        "location1": [
            0
        ], 
        "location2": [
            8
        ], 
        "sentence": "same goes for rinsing soap off of my car ."
    }, 
    "ade9bb1f2e6f024eca67509448600417": {
        "location1": [
            7
        ], 
        "location2": [
            10
        ], 
        "(7, 10)": {
            "WBF": [
                4043
            ], 
            "BM1F": [
                8034
            ], 
            "M1": [
                6830
            ], 
            "irrelevant_Adj": [
                0
            ], 
            "M2": [
                1358
            ], 
            "BM1L": [
                7640
            ], 
            "WBO": [
                5232
            ], 
            "WBL": [
                5232
            ], 
            "irrelevant_Noun": [
                0
            ], 
            "M1_ADJ": [
                1
            ]
        }, 
        "sentence": "the road noise level is still the same in my car ."
    }
}