{
    "8415e8cb9ee7a6650902f4c16e9c52ef": {
        "location1": [
            6
        ], 
        "location2": [
            15
        ], 
        "(6, 15)": {
            "AM2F": [
                8169
            ], 
            "WBF": [
                8750
            ], 
            "BM1F": [
                8034
            ], 
            "M1": [
                6830
            ], 
            "irrelevant_Adj": [
                0
            ], 
            "M2": [
                6756
            ], 
            "BM1L": [
                4043
            ], 
            "WBO": [
                8028, 
                3329, 
                2445, 
                8812, 
                8368
            ], 
            "WBL": [
                7826
            ], 
            "irrelevant_Noun": [
                0
            ], 
            "M1_ADJ": [
                1
            ]
        }, 
        "sentence": "resistance translates to heat in the same way that friction does when two physical surface rub together ."
    }
}