{
    "6eb9aa22b875aa176c356e0cceaccd99": {
        "location1": [
            32
        ], 
        "location2": [
            16
        ], 
        "(32, 16)": {
            "AM2L": [
                644
            ], 
            "AM2F": [
                1205
            ], 
            "WBF": [
                7733
            ], 
            "BM1F": [
                3066
            ], 
            "M1": [
                5877
            ], 
            "irrelevant_Adj": [
                0
            ], 
            "M2": [
                6830
            ], 
            "BM1L": [
                5503
            ], 
            "WBO": [
                3252, 
                8034, 
                8570, 
                5557, 
                3459, 
                8034, 
                5862, 
                3665, 
                5503, 
                7211, 
                4283, 
                8
            ], 
            "WBL": [
                2872
            ], 
            "irrelevant_Noun": [
                0
            ], 
            "M1_ADJ": [
                0
            ]
        }, 
        "sentence": "although the wood handle one look classier and probably feel nicer , the plastic handle one feel plenty sturdy , for the value oriented , get the plastic handle one since it 's the exact same brush anyway ! i am really very happy with what i paid for the calfornia duster and would not hesitate to recommend one to anyone with a car or motorcycle ."
    }
}