{
    "c5eff8edb6109354374afadcffec8bd5": {
        "location1": [
            9
        ], 
        "location2": [
            12
        ], 
        "(9, 12)": {
            "WBF": [
                7230
            ], 
            "BM1F": [
                8034
            ], 
            "M1": [
                6830
            ], 
            "irrelevant_Adj": [
                0
            ], 
            "M2": [
                8781
            ], 
            "BM1L": [
                2873
            ], 
            "WBO": [
                599
            ], 
            "WBL": [
                599
            ], 
            "irrelevant_Noun": [
                0
            ], 
            "M1_ADJ": [
                1
            ]
        }, 
        "sentence": "the buyer one are nearly identical , are exactly the same size and weight ."
    }
}