{
    "a93ce9356fb58fe5ba4e1a3a907ef1b3": {
        "location1": [
            23
        ], 
        "location2": [
            13
        ], 
        "(23, 13)": {
            "AM2F": [
                8140
            ], 
            "WBF": [
                3205
            ], 
            "BM1F": [
                1014
            ], 
            "M1": [
                503
            ], 
            "irrelevant_Adj": [
                0
            ], 
            "M2": [
                6830
            ], 
            "BM1L": [
                5191
            ], 
            "WBO": [
                8162, 
                5232, 
                1026, 
                8558, 
                6851, 
                4940
            ], 
            "WBL": [
                8034
            ], 
            "irrelevant_Noun": [
                0
            ], 
            "M1_ADJ": [
                0
            ]
        }, 
        "sentence": "this filter fit exactly like the oem filter but will allow much better air flow to my big v8 & save me sum $ $ $ $ $ @ the same time ."
    }, 
    "33fda5a2744ad5f8840a98704ea7a462": {
        "(41, 29)": {
            "WBF": [
                3109
            ], 
            "BM1F": [
                8034
            ], 
            "M1": [
                503
            ], 
            "irrelevant_Adj": [
                0
            ], 
            "M2": [
                6830
            ], 
            "BM1L": [
                3338
            ], 
            "WBO": [
                5543, 
                8887, 
                8034, 
                9010, 
                599, 
                6629, 
                5352, 
                3705
            ], 
            "WBL": [
                8034
            ], 
            "irrelevant_Noun": [
                0
            ], 
            "M1_ADJ": [
                0
            ]
        }, 
        "location1": [
            41
        ], 
        "location2": [
            29
        ], 
        "sentence": "at this point , i have no complaint , i do feel a slight increase in power in 2nd and 3rd ( not a 100 % sure if it 's all from the air filter or with the z-tube ) , and rev noise has stayed the same ."
    }, 
    "efc98e2c5e246552dab18000f0adb963": {
        "(7, 4)": {
            "AM2L": [
                113
            ], 
            "AM2F": [
                5104
            ], 
            "WBF": [
                2162
            ], 
            "BM1F": [
                3142
            ], 
            "M1": [
                503
            ], 
            "irrelevant_Adj": [
                0
            ], 
            "M2": [
                6830
            ], 
            "BM1L": [
                5232
            ], 
            "WBO": [
                8073
            ], 
            "WBL": [
                8073
            ], 
            "irrelevant_Noun": [
                0
            ], 
            "M1_ADJ": [
                0
            ]
        }, 
        "location1": [
            7
        ], 
        "location2": [
            4
        ], 
        "sentence": "i bought my first air deflector ( this same model ) 20 year ago from lowe 's for my 4 `` x 10 `` floor register ."
    }
}