{
    "33fda5a2744ad5f8840a98704ea7a462": {
        "location1": [
            41
        ], 
        "location2": [
            2
        ], 
        "(41, 2)": {
            "WBF": [
                3962
            ], 
            "BM1F": [
                8073
            ], 
            "M1": [
                5905
            ], 
            "irrelevant_Adj": [
                0
            ], 
            "M2": [
                6830
            ], 
            "BM1L": [
                760
            ], 
            "WBO": [
                3717, 
                5344, 
                1711, 
                3962, 
                2436, 
                3066, 
                310, 
                7270, 
                4065, 
                4043, 
                5979, 
                4043, 
                159, 
                599, 
                190, 
                5387, 
                310, 
                42, 
                7824, 
                3985, 
                4283, 
                8, 
                527, 
                3338, 
                8034, 
                503, 
                3109, 
                5543, 
                8887, 
                8034, 
                9010, 
                599, 
                6629, 
                5352, 
                3705
            ], 
            "WBL": [
                8034
            ], 
            "irrelevant_Noun": [
                0
            ], 
            "M1_ADJ": [
                0
            ]
        }, 
        "sentence": "at this point , i have no complaint , i do feel a slight increase in power in 2nd and 3rd ( not a 100 % sure if it 's all from the air filter or with the z-tube ) , and rev noise has stayed the same ."
    }
}