{
    "d28b969caeaf76189d3df210803e0028": {
        "(3, 4)": {
            "AM2L": [
                8162
            ], 
            "BM1F": [
                8034
            ], 
            "M1": [
                6830
            ], 
            "irrelevant_Adj": [
                0
            ], 
            "M2": [
                4954
            ], 
            "BM1L": [
                4268
            ], 
            "WBNULL": [
                1
            ], 
            "irrelevant_Noun": [
                0
            ], 
            "AM2F": [
                8534
            ], 
            "M1_ADJ": [
                1
            ]
        }, 
        "location1": [
            3
        ], 
        "location2": [
            4
        ], 
        "sentence": "this is the same mechanism used to select the spray pattern ."
    }, 
    "78d5d9c65b4d4cfdeecd6dd9ea7a3e95": {
        "(15, 8)": {
            "WBF": [
                7362
            ], 
            "BM1F": [
                4694
            ], 
            "M1": [
                4954
            ], 
            "irrelevant_Adj": [
                0
            ], 
            "M2": [
                6830
            ], 
            "BM1L": [
                8034
            ], 
            "WBO": [
                8073, 
                8851, 
                6087
            ], 
            "WBL": [
                8034
            ], 
            "irrelevant_Noun": [
                0
            ], 
            "M1_ADJ": [
                0
            ]
        }, 
        "location1": [
            15
        ], 
        "location2": [
            8
        ], 
        "sentence": "that one built up rust inside the lock mechanism , so this will probably do the same ."
    }
}