{
    "efc98e2c5e246552dab18000f0adb963": {
        "location1": [
            7
        ], 
        "location2": [
            21
        ], 
        "(7, 21)": {
            "WBF": [
                5104
            ], 
            "BM1F": [
                8073
            ], 
            "M1": [
                6830
            ], 
            "irrelevant_Adj": [
                0
            ], 
            "M2": [
                6451
            ], 
            "BM1L": [
                2162
            ], 
            "WBO": [
                113, 
                8979, 
                491, 
                3338, 
                4755, 
                8, 
                3252, 
                5232, 
                192, 
                8956
            ], 
            "WBL": [
                3200
            ], 
            "irrelevant_Noun": [
                0
            ], 
            "M1_ADJ": [
                1
            ]
        }, 
        "sentence": "i bought my first air deflector ( this same model ) 20 year ago from lowe 's for my 4 `` x 10 `` floor register ."
    }
}