{
    "9bd114ef9ae9b3aa996384f2c7004d14": {
        "(6, 7)": {
            "AM2L": [
                3962
            ], 
            "BM1F": [
                8034
            ], 
            "M1": [
                6830
            ], 
            "irrelevant_Adj": [
                0
            ], 
            "M2": [
                8140
            ], 
            "BM1L": [
                760
            ], 
            "WBNULL": [
                1
            ], 
            "irrelevant_Noun": [
                1
            ], 
            "AM2F": [
                720
            ], 
            "M1_ADJ": [
                1
            ]
        }, 
        "location1": [
            6
        ], 
        "location2": [
            7
        ], 
        "sentence": "i put this in at the same time as i added a dynomax cat-back exhaust system ."
    }, 
    "a93ce9356fb58fe5ba4e1a3a907ef1b3": {
        "(23, 24)": {
            "BM1F": [
                8034
            ], 
            "M1": [
                6830
            ], 
            "irrelevant_Adj": [
                0
            ], 
            "M2": [
                8140
            ], 
            "BM1L": [
                7785
            ], 
            "WBNULL": [
                1
            ], 
            "irrelevant_Noun": [
                1
            ], 
            "M1_ADJ": [
                1
            ]
        }, 
        "location1": [
            23
        ], 
        "location2": [
            24
        ], 
        "sentence": "this filter fit exactly like the oem filter but will allow much better air flow to my big v8 & save me sum $ $ $ $ $ @ the same time ."
    }, 
    "6e191cd5f7aa39cc8679c0f0c4547de9": {
        "(21, 22)": {
            "BM1F": [
                8034
            ], 
            "M1": [
                6830
            ], 
            "irrelevant_Adj": [
                0
            ], 
            "M2": [
                8140
            ], 
            "BM1L": [
                760
            ], 
            "WBNULL": [
                1
            ], 
            "irrelevant_Noun": [
                1
            ], 
            "M1_ADJ": [
                1
            ]
        }, 
        "location1": [
            21
        ], 
        "location2": [
            22
        ], 
        "sentence": "five star because they are lightweight , inexpensive and have a hole for a rope ; tie two together , pull both at the same time ."
    }, 
    "1bcdc23b35cf606b0ce6914151d9c052": {
        "(13, 14)": {
            "BM1F": [
                8034
            ], 
            "M1": [
                6830
            ], 
            "irrelevant_Adj": [
                0
            ], 
            "M2": [
                8140
            ], 
            "BM1L": [
                760
            ], 
            "WBNULL": [
                1
            ], 
            "irrelevant_Noun": [
                1
            ], 
            "M1_ADJ": [
                1
            ]
        }, 
        "location1": [
            13
        ], 
        "location2": [
            14
        ], 
        "sentence": "it was difficult to have a conversation and do the dish at the same time ."
    }, 
    "2adb6f9c82d67dc7dd10aa359ad042b9": {
        "(11, 12)": {
            "BM1F": [
                8034
            ], 
            "M1": [
                6830
            ], 
            "irrelevant_Adj": [
                0
            ], 
            "M2": [
                8140
            ], 
            "BM1L": [
                760
            ], 
            "WBNULL": [
                1
            ], 
            "irrelevant_Noun": [
                1
            ], 
            "M1_ADJ": [
                1
            ]
        }, 
        "location1": [
            11
        ], 
        "location2": [
            12
        ], 
        "sentence": "i liked the concept of this , and bought two at the same time ."
    }, 
    "9186c28a3a592fb305b30f17556e9f96": {
        "(32, 33)": {
            "BM1F": [
                8034
            ], 
            "M1": [
                6830
            ], 
            "irrelevant_Adj": [
                0
            ], 
            "M2": [
                8140
            ], 
            "BM1L": [
                760
            ], 
            "WBNULL": [
                1
            ], 
            "irrelevant_Noun": [
                1
            ], 
            "M1_ADJ": [
                1
            ]
        }, 
        "location1": [
            32
        ], 
        "location2": [
            33
        ], 
        "sentence": "secondly , none of the ' jet ' part of the adjustment creates a clean jet , there is always a fine mist or errant second or third jet spraying in a different direction at the same time ."
    }
}