{
    "8415e8cb9ee7a6650902f4c16e9c52ef": {
        "(6, 7)": {
            "AM2L": [
                3329
            ], 
            "BM1F": [
                8034
            ], 
            "M1": [
                6830
            ], 
            "irrelevant_Adj": [
                0
            ], 
            "M2": [
                8750
            ], 
            "BM1L": [
                4043
            ], 
            "WBNULL": [
                1
            ], 
            "irrelevant_Noun": [
                1
            ], 
            "AM2F": [
                8028
            ], 
            "M1_ADJ": [
                1
            ]
        }, 
        "location1": [
            6
        ], 
        "location2": [
            7
        ], 
        "sentence": "resistance translates to heat in the same way that friction does when two physical surface rub together ."
    }, 
    "f14cc963e2077ea5f50c48a501bbfc8c": {
        "(8, 9)": {
            "BM1F": [
                8034
            ], 
            "M1": [
                6830
            ], 
            "irrelevant_Adj": [
                0
            ], 
            "M2": [
                8750
            ], 
            "BM1L": [
                5459
            ], 
            "WBNULL": [
                1
            ], 
            "irrelevant_Noun": [
                1
            ], 
            "M1_ADJ": [
                1
            ]
        }, 
        "location1": [
            8
        ], 
        "location2": [
            9
        ], 
        "sentence": "goes on very easy and comes off the same way ."
    }
}