{
    "6eb9aa22b875aa176c356e0cceaccd99": {
        "(32, 9)": {
            "AM2L": [
                644
            ], 
            "AM2F": [
                1205
            ], 
            "WBF": [
                5327
            ], 
            "BM1F": [
                6087
            ], 
            "M1": [
                3066
            ], 
            "irrelevant_Adj": [
                0
            ], 
            "M2": [
                6830
            ], 
            "BM1L": [
                599
            ], 
            "WBO": [
                8034, 
                5862, 
                3665, 
                5503, 
                3066, 
                5877, 
                7733, 
                3252, 
                8034, 
                8570, 
                5557, 
                3459, 
                8034, 
                5862, 
                3665, 
                5503, 
                7211, 
                4283, 
                8
            ], 
            "WBL": [
                2872
            ], 
            "irrelevant_Noun": [
                0
            ], 
            "M1_ADJ": [
                0
            ]
        }, 
        "location1": [
            32
        ], 
        "location2": [
            9, 
            15
        ], 
        "(32, 15)": {
            "AM2L": [
                644
            ], 
            "AM2F": [
                1205
            ], 
            "WBF": [
                5877
            ], 
            "BM1F": [
                5503
            ], 
            "M1": [
                3066
            ], 
            "irrelevant_Adj": [
                0
            ], 
            "M2": [
                6830
            ], 
            "BM1L": [
                3665
            ], 
            "WBO": [
                7733, 
                3252, 
                8034, 
                8570, 
                5557, 
                3459, 
                8034, 
                5862, 
                3665, 
                5503, 
                7211, 
                4283, 
                8
            ], 
            "WBL": [
                2872
            ], 
            "irrelevant_Noun": [
                0
            ], 
            "M1_ADJ": [
                0
            ]
        }, 
        "sentence": "although the wood handle one look classier and probably feel nicer , the plastic handle one feel plenty sturdy , for the value oriented , get the plastic handle one since it 's the exact same brush anyway ! i am really very happy with what i paid for the calfornia duster and would not hesitate to recommend one to anyone with a car or motorcycle ."
    }, 
    "33fda5a2744ad5f8840a98704ea7a462": {
        "(41, 9)": {
            "WBF": [
                310
            ], 
            "BM1F": [
                2436
            ], 
            "M1": [
                3066
            ], 
            "irrelevant_Adj": [
                0
            ], 
            "M2": [
                6830
            ], 
            "BM1L": [
                3962
            ], 
            "WBO": [
                7270, 
                4065, 
                4043, 
                5979, 
                4043, 
                159, 
                599, 
                190, 
                5387, 
                310, 
                42, 
                7824, 
                3985, 
                4283, 
                8, 
                527, 
                3338, 
                8034, 
                503, 
                3109, 
                5543, 
                8887, 
                8034, 
                9010, 
                599, 
                6629, 
                5352, 
                3705
            ], 
            "WBL": [
                8034
            ], 
            "irrelevant_Noun": [
                0
            ], 
            "M1_ADJ": [
                0
            ]
        }, 
        "location1": [
            41
        ], 
        "location2": [
            9
        ], 
        "sentence": "at this point , i have no complaint , i do feel a slight increase in power in 2nd and 3rd ( not a 100 % sure if it 's all from the air filter or with the z-tube ) , and rev noise has stayed the same ."
    }
}