{
    "40dfe04a0bb3eb81e2c0154cb98d49e1": {
        "(11, 12)": {
            "AM2L": [
                8034
            ], 
            "BM1F": [
                8034
            ], 
            "M1": [
                6830
            ], 
            "irrelevant_Adj": [
                0
            ], 
            "M2": [
                5846
            ], 
            "BM1L": [
                4043
            ], 
            "WBNULL": [
                1
            ], 
            "irrelevant_Noun": [
                1
            ], 
            "AM2F": [
                720
            ], 
            "M1_ADJ": [
                1
            ]
        }, 
        "location1": [
            11
        ], 
        "location2": [
            12
        ], 
        "sentence": "also note that the buyer 's one are made in the same place as the expensive race ramp branded one costing 50 % more ."
    }
}