{
    "5bda165f660d1ab03d5cd647d8280f44": {
        "(16, 24)": {
            "WBF": [
                5979
            ], 
            "BM1F": [
                3214
            ], 
            "M1": [
                6938
            ], 
            "irrelevant_Adj": [
                0
            ], 
            "M2": [
                8587
            ], 
            "BM1L": [
                310
            ], 
            "WBO": [
                5944, 
                5495, 
                8034, 
                7178
            ], 
            "WBL": [
                8034
            ], 
            "irrelevant_Noun": [
                0
            ], 
            "M1_ADJ": [
                1
            ]
        }, 
        "location1": [
            16
        ], 
        "location2": [
            24
        ], 
        "sentence": "it worked well for my application though because i mounted it in tandem with a flush-mount sealed power port on the side of the vehicle ."
    }
}