{
    "5bda165f660d1ab03d5cd647d8280f44": {
        "(16, 17)": {
            "AM2L": [
                5495
            ], 
            "BM1F": [
                3214
            ], 
            "M1": [
                6938
            ], 
            "irrelevant_Adj": [
                0
            ], 
            "M2": [
                5979
            ], 
            "BM1L": [
                310
            ], 
            "WBNULL": [
                1
            ], 
            "irrelevant_Noun": [
                0
            ], 
            "AM2F": [
                5944
            ], 
            "M1_ADJ": [
                1
            ]
        }, 
        "location1": [
            16
        ], 
        "location2": [
            17
        ], 
        "sentence": "it worked well for my application though because i mounted it in tandem with a flush-mount sealed power port on the side of the vehicle ."
    }
}