{
    "aecc66b14117f7c0f5253efeed425583": {
        "(22, 28)": {
            "WBF": [
                7871
            ], 
            "BM1F": [
                310
            ], 
            "M1": [
                6954
            ], 
            "irrelevant_Adj": [
                0
            ], 
            "M2": [
                5666
            ], 
            "BM1L": [
                8044
            ], 
            "WBO": [
                8162, 
                1715
            ], 
            "WBL": [
                8034
            ], 
            "irrelevant_Noun": [
                0
            ], 
            "M1_ADJ": [
                1
            ]
        }, 
        "location1": [
            22
        ], 
        "location2": [
            17, 
            28
        ], 
        "(22, 17)": {
            "AM2L": [
                8162
            ], 
            "AM2F": [
                7871
            ], 
            "WBF": [
                7554
            ], 
            "BM1F": [
                310
            ], 
            "M1": [
                5666
            ], 
            "irrelevant_Adj": [
                0
            ], 
            "M2": [
                6954
            ], 
            "BM1L": [
                5495
            ], 
            "WBO": [
                2545
            ], 
            "WBL": [
                310
            ], 
            "irrelevant_Noun": [
                0
            ], 
            "M1_ADJ": [
                0
            ]
        }, 
        "sentence": "i washed my minivan the other day ; and i 'd say it took one swipe on a panel , squeeze dry , then a second swipe to completely dry the panel ."
    }
}