{
    "e6da40aa1239fb7cb2c04283a9ff62b8": {
        "(4, 5)": {
            "BM1F": [
                310
            ], 
            "M1": [
                6954
            ], 
            "irrelevant_Adj": [
                0
            ], 
            "M2": [
                5503
            ], 
            "BM1L": [
                1269
            ], 
            "WBNULL": [
                1
            ], 
            "irrelevant_Noun": [
                0
            ], 
            "M1_ADJ": [
                1
            ]
        }, 
        "location1": [
            4
        ], 
        "location2": [
            5
        ], 
        "sentence": "i may buy a second one ."
    }, 
    "b2bceccbe3c3ba05e5dd3d4f74a6c512": {
        "(18, 2)": {
            "AM2L": [
                3252
            ], 
            "AM2F": [
                1057
            ], 
            "WBF": [
                5458
            ], 
            "BM1F": [
                3463
            ], 
            "M1": [
                5503
            ], 
            "irrelevant_Adj": [
                0
            ], 
            "M2": [
                6954
            ], 
            "BM1L": [
                475
            ], 
            "WBO": [
                8053, 
                4043, 
                620, 
                1649, 
                1262, 
                8034, 
                6830, 
                1160, 
                3962, 
                2129, 
                8162, 
                5810
            ], 
            "WBL": [
                310
            ], 
            "irrelevant_Noun": [
                0
            ], 
            "M1_ADJ": [
                0
            ]
        }, 
        "location1": [
            18
        ], 
        "location2": [
            2
        ], 
        "sentence": "after getting one of these in another color ( but the same brand ) , i decided to pick up a second blanket for my kid to use too while traveling ."
    }, 
    "d443b13f9baacf9064c5c272e4c814b9": {
        "(14, 4)": {
            "AM2F": [
                5503
            ], 
            "WBF": [
                5458
            ], 
            "BM1F": [
                8542
            ], 
            "M1": [
                5503
            ], 
            "irrelevant_Adj": [
                0
            ], 
            "M2": [
                6954
            ], 
            "BM1L": [
                956
            ], 
            "WBO": [
                8053, 
                3252, 
                8979, 
                599, 
                3962, 
                5
            ], 
            "WBL": [
                5232
            ], 
            "irrelevant_Noun": [
                0
            ], 
            "M1_ADJ": [
                0
            ]
        }, 
        "location1": [
            14
        ], 
        "location2": [
            4, 
            15
        ], 
        "(14, 15)": {
            "BM1F": [
                5232
            ], 
            "M1": [
                6954
            ], 
            "irrelevant_Adj": [
                0
            ], 
            "M2": [
                5503
            ], 
            "BM1L": [
                5495
            ], 
            "WBNULL": [
                1
            ], 
            "irrelevant_Noun": [
                0
            ], 
            "M1_ADJ": [
                1
            ]
        }, 
        "sentence": "i 've been using one of these for year and i 'm on my second one ."
    }, 
    "aecc66b14117f7c0f5253efeed425583": {
        "(22, 13)": {
            "AM2L": [
                8162
            ], 
            "AM2F": [
                7871
            ], 
            "WBF": [
                7871
            ], 
            "BM1F": [
                8189
            ], 
            "M1": [
                5503
            ], 
            "irrelevant_Adj": [
                0
            ], 
            "M2": [
                6954
            ], 
            "BM1L": [
                4283
            ], 
            "WBO": [
                5495, 
                310, 
                5666, 
                7554, 
                2545
            ], 
            "WBL": [
                310
            ], 
            "irrelevant_Noun": [
                0
            ], 
            "M1_ADJ": [
                0
            ]
        }, 
        "location1": [
            22
        ], 
        "location2": [
            13
        ], 
        "sentence": "i washed my minivan the other day ; and i 'd say it took one swipe on a panel , squeeze dry , then a second swipe to completely dry the panel ."
    }
}