{
    "9e416f2d130f2c2a37ee7d7d25d3cf69": {
        "location1": [
            6
        ], 
        "location2": [
            8
        ], 
        "(6, 8)": {
            "WBFL": [
                3962
            ], 
            "BM1F": [
                310
            ], 
            "M1": [
                6954
            ], 
            "irrelevant_Adj": [
                0
            ], 
            "M2": [
                3618
            ], 
            "BM1L": [
                5547
            ], 
            "irrelevant_Noun": [
                0
            ], 
            "M1_ADJ": [
                1
            ]
        }, 
        "sentence": "i will need to order a second i guess ."
    }
}