{
    "35ddac5091ecbbc2e6f4ea6d936b478e": {
        "(9, 6)": {
            "AM2L": [
                599
            ], 
            "AM2F": [
                506
            ], 
            "WBF": [
                8824
            ], 
            "BM1F": [
                310
            ], 
            "M1": [
                3331
            ], 
            "irrelevant_Adj": [
                1
            ], 
            "M2": [
                7053
            ], 
            "BM1L": [
                3338
            ], 
            "WBO": [
                5629
            ], 
            "WBL": [
                5629
            ], 
            "irrelevant_Noun": [
                0
            ], 
            "M1_ADJ": [
                0
            ]
        }, 
        "location1": [
            9
        ], 
        "location2": [
            6
        ], 
        "sentence": "i heard about it from a friend who owns several aircraft and he says it 's the best for use around aircraft ."
    }
}