{
    "37e81ff050ee5d8ac0daa280dea33754": {
        "(0, 1)": {
            "AM2L": [
                1709
            ], 
            "M1": [
                7053
            ], 
            "irrelevant_Adj": [
                1
            ], 
            "M2": [
                5751
            ], 
            "WBNULL": [
                1
            ], 
            "irrelevant_Noun": [
                1
            ], 
            "AM2F": [
                3717
            ], 
            "M1_ADJ": [
                1
            ]
        }, 
        "location1": [
            0
        ], 
        "location2": [
            1
        ], 
        "sentence": "several people have complained about the clamp ."
    }
}