{
    "3999bcb26a4c2a0bda9d3832e5658143": {
        "(10, 8)": {
            "AM2L": [
                5458
            ], 
            "WBFL": [
                4043
            ], 
            "BM1F": [
                8034
            ], 
            "M1": [
                8872
            ], 
            "irrelevant_Adj": [
                1
            ], 
            "M2": [
                7053
            ], 
            "BM1L": [
                8531
            ], 
            "AM2F": [
                2087
            ], 
            "irrelevant_Noun": [
                0
            ], 
            "M1_ADJ": [
                0
            ]
        }, 
        "location1": [
            10
        ], 
        "location2": [
            8
        ], 
        "sentence": ") the only time we needed to use the wiper in several day of rain and snow driving was when passing truck , as those covered the windshield with cloud of tiny droplet that were hard to see through ."
    }
}