{
    "ee3c228cbb36c64694c6541b9936cfc7": {
        "(12, 1)": {
            "AM2L": [
                5458
            ], 
            "AM2F": [
                1621
            ], 
            "WBF": [
                688
            ], 
            "BM1F": [
                8034
            ], 
            "M1": [
                4808
            ], 
            "irrelevant_Adj": [
                1
            ], 
            "M2": [
                7053
            ], 
            "WBO": [
                7707, 
                2767, 
                8162, 
                3851, 
                8129, 
                5495, 
                6451
            ], 
            "WBL": [
                3717
            ], 
            "irrelevant_Noun": [
                0
            ], 
            "M1_ADJ": [
                0
            ]
        }, 
        "location1": [
            12
        ], 
        "location2": [
            1
        ], 
        "sentence": "the magnet are strong enough to hold tight on register that have several coat of paint on them , too ."
    }
}