{
    "4e24d5000a0ba2517cc0a125693e0121": {
        "location1": [
            5
        ], 
        "location2": [
            8
        ], 
        "(5, 8)": {
            "AM2L": [
                5352
            ], 
            "AM2F": [
                5458
            ], 
            "WBF": [
                6103
            ], 
            "BM1F": [
                3294
            ], 
            "M1": [
                7053
            ], 
            "irrelevant_Adj": [
                1
            ], 
            "M2": [
                1551
            ], 
            "BM1L": [
                599
            ], 
            "WBO": [
                5468
            ], 
            "WBL": [
                5468
            ], 
            "irrelevant_Noun": [
                0
            ], 
            "M1_ADJ": [
                1
            ]
        }, 
        "sentence": "i searched around and found several product offering claim of noise reduction ."
    }
}