{
    "5047ec2d6ca519c3b6b1cc54655791da": {
        "(1, 2)": {
            "BM1F": [
                5548
            ], 
            "M1": [
                7053
            ], 
            "irrelevant_Adj": [
                1
            ], 
            "M2": [
                3372
            ], 
            "WBNULL": [
                1
            ], 
            "irrelevant_Noun": [
                0
            ], 
            "M1_ADJ": [
                1
            ]
        }, 
        "location1": [
            1
        ], 
        "location2": [
            2
        ], 
        "sentence": "ordered several funnel ."
    }
}