{
    "ce5f8d2f72ef043748e5341bf6d6a392": {
        "location1": [
            6
        ], 
        "location2": [
            5
        ], 
        "(6, 5)": {
            "AM2L": [
                5595
            ], 
            "BM1F": [
                83
            ], 
            "M1": [
                1095
            ], 
            "irrelevant_Adj": [
                1
            ], 
            "M2": [
                7053
            ], 
            "BM1L": [
                5232
            ], 
            "WBNULL": [
                1
            ], 
            "irrelevant_Noun": [
                0
            ], 
            "AM2F": [
                8140
            ], 
            "M1_ADJ": [
                0
            ]
        }, 
        "sentence": "enough to do my 18 ' boat several time over ... . good protection ..."
    }
}