{
    "e7fa74defbdf5f17f54c605117785142": {
        "(16, 7)": {
            "AM2F": [
                7178
            ], 
            "WBF": [
                1262
            ], 
            "BM1F": [
                5232
            ], 
            "M1": [
                8320
            ], 
            "irrelevant_Adj": [
                0
            ], 
            "M2": [
                7066
            ], 
            "BM1L": [
                3252
            ], 
            "WBO": [
                8034, 
                6219, 
                6976, 
                310, 
                4671
            ], 
            "WBL": [
                8034
            ], 
            "irrelevant_Noun": [
                0
            ], 
            "M1_ADJ": [
                0
            ]
        }, 
        "location1": [
            16
        ], 
        "location2": [
            7
        ], 
        "sentence": "these long cable work fine for my truck , but the quality seems a little on the shabby side ."
    }
}