{
    "989d02fb75aa55e3c692ee1db6df2f6c": {
        "location1": [
            7
        ], 
        "location2": [
            20
        ], 
        "(7, 20)": {
            "AM2L": [
                5502
            ], 
            "AM2F": [
                1262
            ], 
            "WBF": [
                182
            ], 
            "BM1F": [
                182
            ], 
            "M1": [
                7076
            ], 
            "irrelevant_Adj": [
                0
            ], 
            "M2": [
                6757
            ], 
            "BM1L": [
                310
            ], 
            "WBO": [
                6637, 
                945, 
                4118, 
                8073, 
                8065, 
                388, 
                4625, 
                310, 
                7098
            ], 
            "WBL": [
                5362
            ], 
            "irrelevant_Noun": [
                0
            ], 
            "M1_ADJ": [
                1
            ]
        }, 
        "sentence": "i was prepared to write a & # 34 ; sham-why & # 34 ; review because initially this thing acted like a sheet of nonabsorbent rubber , but once it started soaking water it seemed to ' open up ' and began working pretty well ."
    }
}