{
    "e7097f229eb2d0455c4e2df8c1e8767a": {
        "(4, 10)": {
            "WBF": [
                1874
            ], 
            "BM1F": [
                8034
            ], 
            "M1": [
                7138
            ], 
            "irrelevant_Adj": [
                0
            ], 
            "M2": [
                3870
            ], 
            "BM1L": [
                325
            ], 
            "WBO": [
                2304, 
                5245
            ], 
            "WBL": [
                8040
            ], 
            "irrelevant_Noun": [
                0
            ], 
            "M1_ADJ": [
                1
            ]
        }, 
        "location1": [
            4
        ], 
        "location2": [
            10
        ], 
        "sentence": "anyone complaining about the short cord did n't do their homework ."
    }
}