{
    "0976b9b71e36efe0d7fd4d2c2dcb04d6": {
        "(6, 7)": {
            "AM2L": [
                5106
            ], 
            "BM1F": [
                3510
            ], 
            "M1": [
                7138
            ], 
            "irrelevant_Adj": [
                0
            ], 
            "M2": [
                2418
            ], 
            "BM1L": [
                5512
            ], 
            "WBNULL": [
                1
            ], 
            "irrelevant_Noun": [
                0
            ], 
            "AM2F": [
                599
            ], 
            "M1_ADJ": [
                1
            ]
        }, 
        "location1": [
            6
        ], 
        "location2": [
            7
        ], 
        "sentence": "work good though if only going short distance and moderate speed ."
    }, 
    "65d4ca310df3cb7a296380727384f87f": {
        "(9, 10)": {
            "BM1F": [
                6346
            ], 
            "M1": [
                7138
            ], 
            "irrelevant_Adj": [
                0
            ], 
            "M2": [
                2418
            ], 
            "BM1L": [
                310
            ], 
            "WBNULL": [
                1
            ], 
            "irrelevant_Noun": [
                0
            ], 
            "M1_ADJ": [
                1
            ]
        }, 
        "location1": [
            9
        ], 
        "location2": [
            10
        ], 
        "sentence": "12vdc drop voltage on a circuit in a realatively short distance ."
    }
}