{
    "66805b6f23cd8773f811ca3d3d282c2c": {
        "(21, 10)": {
            "AM2L": [
                1874
            ], 
            "AM2F": [
                57
            ], 
            "WBF": [
                4268
            ], 
            "BM1F": [
                636
            ], 
            "M1": [
                8715
            ], 
            "irrelevant_Adj": [
                0
            ], 
            "M2": [
                7138
            ], 
            "BM1L": [
                8652
            ], 
            "WBO": [
                5522, 
                4283, 
                8501, 
                599, 
                2098, 
                8092, 
                8874
            ], 
            "WBL": [
                8034
            ], 
            "irrelevant_Noun": [
                0
            ], 
            "M1_ADJ": [
                0
            ]
        }, 
        "location1": [
            21
        ], 
        "location2": [
            10
        ], 
        "sentence": "the first thing i did [ i know it void any warranty ] is open it up and de-solder three wire from the short 12 `` cord and upgrade to a 14 gage 3 conductor cord of adequate single length ."
    }
}