{
    "2f046b48714fbf648fffcc426a7f6d3f": {
        "location1": [
            2
        ], 
        "location2": [
            1
        ], 
        "(2, 1)": {
            "AM2L": [
                4283
            ], 
            "BM1F": [
                4710
            ], 
            "M1": [
                7668
            ], 
            "irrelevant_Adj": [
                0
            ], 
            "M2": [
                7138
            ], 
            "AM2F": [
                3459
            ], 
            "irrelevant_Noun": [
                0
            ], 
            "WBNULL": [
                1
            ], 
            "M1_ADJ": [
                0
            ]
        }, 
        "sentence": "long story short : get it , you wo n't be disappointed ."
    }
}