{
    "715eeacbda3e59f8e0781af671ca93cc": {
        "(8, 5)": {
            "AM2L": [
                8162
            ], 
            "AM2F": [
                7331
            ], 
            "WBF": [
                8028
            ], 
            "BM1F": [
                1180
            ], 
            "M1": [
                7114
            ], 
            "irrelevant_Adj": [
                0
            ], 
            "M2": [
                7200
            ], 
            "BM1L": [
                310
            ], 
            "WBO": [
                8
            ], 
            "WBL": [
                8
            ], 
            "irrelevant_Noun": [
                0
            ], 
            "M1_ADJ": [
                0
            ]
        }, 
        "location1": [
            8
        ], 
        "location2": [
            5
        ], 
        "sentence": "buff up to a bright shine that 's silky smooth to the touch ."
    }
}