{
    "51b09f36123deda0443ed6ab49bd35fa": {
        "location1": [
            24
        ], 
        "location2": [
            17
        ], 
        "(24, 17)": {
            "AM2L": [
                4344
            ], 
            "AM2F": [
                909
            ], 
            "WBF": [
                3252
            ], 
            "BM1F": [
                310
            ], 
            "M1": [
                3288
            ], 
            "irrelevant_Adj": [
                0
            ], 
            "M2": [
                7208
            ], 
            "BM1L": [
                7484
            ], 
            "WBO": [
                7409, 
                8028, 
                2445
            ], 
            "WBL": [
                310
            ], 
            "irrelevant_Noun": [
                0
            ], 
            "M1_ADJ": [
                0
            ]
        }, 
        "sentence": "i bought these to use when parking our travel trailer and did not want to spend a fortune for something that does such a simple basic job ."
    }
}