{
    "62d9baf70f0422d98f354e155efb8449": {
        "(13, 0)": {
            "WBF": [
                4694
            ], 
            "AM2L": [
                8531
            ], 
            "M1": [
                4905
            ], 
            "irrelevant_Adj": [
                0
            ], 
            "M2": [
                7208
            ], 
            "WBO": [
                150, 
                2077, 
                1531, 
                4772, 
                5419, 
                7735, 
                7457, 
                8157, 
                4694
            ], 
            "WBL": [
                310
            ], 
            "irrelevant_Noun": [
                0
            ], 
            "AM2F": [
                8162
            ], 
            "M1_ADJ": [
                0
            ]
        }, 
        "location1": [
            13
        ], 
        "location2": [
            0
        ], 
        "sentence": "master lock 262 dat chrome lug nut style spare tire lock is a simple to use and reasonable sturdy product ."
    }
}