{
    "55c41a6cbb70fd89bddb6ee8c3b254a8": {
        "(31, 18)": {
            "AM2L": [
                2617
            ], 
            "AM2F": [
                8364
            ], 
            "WBF": [
                3338
            ], 
            "BM1F": [
                7335
            ], 
            "M1": [
                2982
            ], 
            "irrelevant_Adj": [
                0
            ], 
            "M2": [
                7208
            ], 
            "BM1L": [
                3903
            ], 
            "WBO": [
                1599, 
                8162, 
                7368, 
                8162, 
                6267, 
                8162, 
                3008, 
                8162, 
                4335
            ], 
            "WBL": [
                310
            ], 
            "irrelevant_Noun": [
                0
            ], 
            "M1_ADJ": [
                0
            ]
        }, 
        "location1": [
            31
        ], 
        "location2": [
            18
        ], 
        "sentence": "pro - very solid construction , either aluminum or steel - padded with thick rubber - look like fireman 's hose - smoothly fade from closed to soaker to rain to fan to jet with a simple twist - easy to work with wet handscons - nonenow i will tell you that the jet on this nozzle is one of the best i 've seen but i 'm not going to compare this to a pressure washer , i have one and nothing compare to a pressure washer , but the jet mode of this is pretty darn good ."
    }
}