{
    "55c41a6cbb70fd89bddb6ee8c3b254a8": {
        "(31, 49)": {
            "AM2L": [
                5503
            ], 
            "AM2F": [
                4268
            ], 
            "WBF": [
                8364
            ], 
            "BM1F": [
                310
            ], 
            "M1": [
                7208
            ], 
            "irrelevant_Adj": [
                0
            ], 
            "M2": [
                5410
            ], 
            "BM1L": [
                8887
            ], 
            "WBO": [
                2617, 
                8162, 
                8907, 
                8887, 
                8803, 
                3669, 
                5364, 
                3962, 
                8851, 
                7979, 
                8991, 
                8028, 
                8034, 
                4335
            ], 
            "WBL": [
                8073
            ], 
            "irrelevant_Noun": [
                0
            ], 
            "M1_ADJ": [
                1
            ]
        }, 
        "location1": [
            31
        ], 
        "location2": [
            49
        ], 
        "sentence": "pro - very solid construction , either aluminum or steel - padded with thick rubber - look like fireman 's hose - smoothly fade from closed to soaker to rain to fan to jet with a simple twist - easy to work with wet handscons - nonenow i will tell you that the jet on this nozzle is one of the best i 've seen but i 'm not going to compare this to a pressure washer , i have one and nothing compare to a pressure washer , but the jet mode of this is pretty darn good ."
    }
}