{
    "51b09f36123deda0443ed6ab49bd35fa": {
        "(24, 8)": {
            "AM2L": [
                4344
            ], 
            "AM2F": [
                909
            ], 
            "WBF": [
                8250
            ], 
            "BM1F": [
                5571
            ], 
            "M1": [
                8275
            ], 
            "irrelevant_Adj": [
                0
            ], 
            "M2": [
                7208
            ], 
            "BM1L": [
                5683
            ], 
            "WBO": [
                599, 
                2304, 
                5387, 
                8702, 
                8162, 
                7484, 
                310, 
                3288, 
                3252, 
                7409, 
                8028, 
                2445
            ], 
            "WBL": [
                310
            ], 
            "irrelevant_Noun": [
                0
            ], 
            "M1_ADJ": [
                0
            ]
        }, 
        "location1": [
            24
        ], 
        "location2": [
            8
        ], 
        "sentence": "i bought these to use when parking our travel trailer and did not want to spend a fortune for something that does such a simple basic job ."
    }
}