{
    "66805b6f23cd8773f811ca3d3d282c2c": {
        "(35, 29)": {
            "AM2F": [
                4570
            ], 
            "WBF": [
                161
            ], 
            "BM1F": [
                70
            ], 
            "M1": [
                3402
            ], 
            "irrelevant_Adj": [
                0
            ], 
            "M2": [
                7217
            ], 
            "BM1L": [
                310
            ], 
            "WBO": [
                1758, 
                1874
            ], 
            "WBL": [
                431
            ], 
            "irrelevant_Noun": [
                0
            ], 
            "M1_ADJ": [
                0
            ]
        }, 
        "location1": [
            35
        ], 
        "location2": [
            29
        ], 
        "sentence": "the first thing i did [ i know it void any warranty ] is open it up and de-solder three wire from the short 12 `` cord and upgrade to a 14 gage 3 conductor cord of adequate single length ."
    }
}