{
    "31f1daa2cef7ce598c0dceb62c1dbbab": {
        "location1": [
            44
        ], 
        "location2": [
            7
        ], 
        "(44, 7)": {
            "AM2L": [
                5458
            ], 
            "AM2F": [
                5699
            ], 
            "WBF": [
                5344
            ], 
            "BM1F": [
                8034
            ], 
            "M1": [
                8862
            ], 
            "irrelevant_Adj": [
                0
            ], 
            "M2": [
                7217
            ], 
            "BM1L": [
                5397
            ], 
            "WBO": [
                4713, 
                1568, 
                4290, 
                760, 
                7481, 
                8410, 
                198, 
                5185, 
                7362, 
                4283, 
                4929, 
                929, 
                2555, 
                3252, 
                620, 
                8285, 
                1262, 
                7640, 
                7609, 
                5326, 
                1568, 
                760, 
                3821, 
                7481, 
                599, 
                4268, 
                8603, 
                2617, 
                8162, 
                1568, 
                760, 
                4756, 
                7481
            ], 
            "WBL": [
                310
            ], 
            "irrelevant_Noun": [
                0
            ], 
            "M1_ADJ": [
                0
            ]
        }, 
        "sentence": "a week later , i 'm noticing the windshield no longer clear itself at speed under 40 mph , so it may be due for another treatment , but still stay nicely clear at highway speed , and is very easy to clear at lower speed with a single pass of the wiper ."
    }
}