{
    "66805b6f23cd8773f811ca3d3d282c2c": {
        "(35, 32)": {
            "AM2F": [
                4570
            ], 
            "WBF": [
                5458
            ], 
            "BM1F": [
                1758
            ], 
            "M1": [
                1874
            ], 
            "irrelevant_Adj": [
                0
            ], 
            "M2": [
                7217
            ], 
            "BM1L": [
                161
            ], 
            "WBO": [
                431
            ], 
            "WBL": [
                431
            ], 
            "irrelevant_Noun": [
                0
            ], 
            "M1_ADJ": [
                0
            ]
        }, 
        "location1": [
            35
        ], 
        "location2": [
            23, 
            32
        ], 
        "(35, 23)": {
            "AM2F": [
                4570
            ], 
            "WBF": [
                599
            ], 
            "BM1F": [
                57
            ], 
            "M1": [
                1874
            ], 
            "irrelevant_Adj": [
                0
            ], 
            "M2": [
                7217
            ], 
            "BM1L": [
                7138
            ], 
            "WBO": [
                8507, 
                8162, 
                310, 
                70, 
                3402, 
                161, 
                1758, 
                1874
            ], 
            "WBL": [
                431
            ], 
            "irrelevant_Noun": [
                0
            ], 
            "M1_ADJ": [
                0
            ]
        }, 
        "sentence": "the first thing i did [ i know it void any warranty ] is open it up and de-solder three wire from the short 12 `` cord and upgrade to a 14 gage 3 conductor cord of adequate single length ."
    }
}