{
    "66805b6f23cd8773f811ca3d3d282c2c": {
        "(35, 10)": {
            "AM2F": [
                4570
            ], 
            "WBF": [
                4268
            ], 
            "BM1F": [
                636
            ], 
            "M1": [
                8715
            ], 
            "irrelevant_Adj": [
                0
            ], 
            "M2": [
                7217
            ], 
            "BM1L": [
                8652
            ], 
            "WBO": [
                5522, 
                4283, 
                8501, 
                599, 
                2098, 
                8092, 
                8874, 
                3338, 
                8034, 
                7138, 
                57, 
                1874, 
                599, 
                8507, 
                8162, 
                310, 
                70, 
                3402, 
                161, 
                1758, 
                1874
            ], 
            "WBL": [
                431
            ], 
            "irrelevant_Noun": [
                0
            ], 
            "M1_ADJ": [
                0
            ]
        }, 
        "location1": [
            35
        ], 
        "location2": [
            10
        ], 
        "sentence": "the first thing i did [ i know it void any warranty ] is open it up and de-solder three wire from the short 12 `` cord and upgrade to a 14 gage 3 conductor cord of adequate single length ."
    }
}