{
    "9b4d51f494b94f903307891d63c5302a": {
        "(2, 15)": {
            "AM2L": [
                310
            ], 
            "AM2F": [
                6047
            ], 
            "WBF": [
                8153
            ], 
            "BM1F": [
                4710
            ], 
            "M1": [
                7242
            ], 
            "irrelevant_Adj": [
                0
            ], 
            "M2": [
                8789
            ], 
            "BM1L": [
                8034
            ], 
            "WBO": [
                5458, 
                8073, 
                3372, 
                6335, 
                527, 
                8034, 
                8750, 
                850, 
                8049
            ], 
            "WBL": [
                3149
            ], 
            "irrelevant_Noun": [
                0
            ], 
            "M1_ADJ": [
                1
            ]
        }, 
        "location1": [
            2
        ], 
        "location2": [
            15
        ], 
        "sentence": "the long skinny tip of this funnel reach all the way back there and fit well , preventing a real mess ."
    }
}