{
    "9b4d51f494b94f903307891d63c5302a": {
        "(2, 3)": {
            "AM2L": [
                8073
            ], 
            "BM1F": [
                4710
            ], 
            "M1": [
                7242
            ], 
            "irrelevant_Adj": [
                0
            ], 
            "M2": [
                8153
            ], 
            "BM1L": [
                8034
            ], 
            "WBNULL": [
                1
            ], 
            "irrelevant_Noun": [
                0
            ], 
            "AM2F": [
                5458
            ], 
            "M1_ADJ": [
                1
            ]
        }, 
        "location1": [
            2
        ], 
        "location2": [
            3
        ], 
        "sentence": "the long skinny tip of this funnel reach all the way back there and fit well , preventing a real mess ."
    }
}