{
    "c8fcb4eb478ee5273cf2a2e8307aa3a1": {
        "(4, 5)": {
            "AM2L": [
                8034
            ], 
            "BM1F": [
                310
            ], 
            "M1": [
                7270
            ], 
            "irrelevant_Adj": [
                0
            ], 
            "M2": [
                8351
            ], 
            "BM1L": [
                6560
            ], 
            "WBNULL": [
                1
            ], 
            "irrelevant_Noun": [
                0
            ], 
            "AM2F": [
                5458
            ], 
            "M1_ADJ": [
                1
            ]
        }, 
        "location1": [
            4
        ], 
        "location2": [
            5
        ], 
        "sentence": "this model requires a slight turn of the center pin to lock/unlock the ball for changing and you need to remember to re-lock it after attachment ."
    }
}