{
    "901a6751a13c90042555f1c0585c3b8e": {
        "location1": [
            34
        ], 
        "location2": [
            25
        ], 
        "(34, 25)": {
            "WBF": [
                5458
            ], 
            "BM1F": [
                599
            ], 
            "M1": [
                8979
            ], 
            "irrelevant_Adj": [
                0
            ], 
            "M2": [
                7271
            ], 
            "BM1L": [
                2730
            ], 
            "WBO": [
                340, 
                3717, 
                5245, 
                467, 
                4283
            ], 
            "WBL": [
                8034
            ], 
            "irrelevant_Noun": [
                0
            ], 
            "M1_ADJ": [
                0
            ]
        }, 
        "sentence": "it 's heavy-duty enough to drop on the concrete , it just land with a dull thud from that thick rubber ring around the end , and year of abuse have n't affected it in the slightest ."
    }
}