{
    "f68ef02d087e4a3bb0e11447f246d636": {
        "(12, 1)": {
            "AM2L": [
                8162
            ], 
            "AM2F": [
                4396
            ], 
            "WBF": [
                4268
            ], 
            "BM1F": [
                3841
            ], 
            "M1": [
                2948
            ], 
            "irrelevant_Adj": [
                0
            ], 
            "M2": [
                7281
            ], 
            "WBO": [
                3518, 
                3252, 
                4396, 
                8266, 
                599, 
                543, 
                4940
            ], 
            "WBL": [
                6960
            ], 
            "irrelevant_Noun": [
                0
            ], 
            "M1_ADJ": [
                0
            ]
        }, 
        "location1": [
            12
        ], 
        "location2": [
            1
        ], 
        "sentence": "hitch extender is good for kayak transport and allows me to secure slippery kayak to bed , with minimal effort ."
    }
}