{
    "ad393054d1eb2e0da2c3363e6842cca1": {
        "location1": [
            3
        ], 
        "location2": [
            13
        ], 
        "(3, 13)": {
            "AM2L": [
                5503
            ], 
            "AM2F": [
                599
            ], 
            "WBF": [
                8874
            ], 
            "BM1F": [
                310
            ], 
            "M1": [
                7308
            ], 
            "irrelevant_Adj": [
                0
            ], 
            "M2": [
                3752
            ], 
            "BM1L": [
                5495
            ], 
            "WBO": [
                310, 
                4501, 
                4688, 
                8851, 
                3439, 
                310
            ], 
            "WBL": [
                5458
            ], 
            "irrelevant_Noun": [
                0
            ], 
            "M1_ADJ": [
                1
            ]
        }, 
        "sentence": "basically on a small wire , a large load will generate a lot of heat and one of two thing will happen ."
    }
}