{
    "40dd41abdfb31c7641ce8bb1ba654415": {
        "(8, 9)": {
            "AM2L": [
                5759
            ], 
            "BM1F": [
                310
            ], 
            "M1": [
                7308
            ], 
            "irrelevant_Adj": [
                0
            ], 
            "M2": [
                4039
            ], 
            "BM1L": [
                4268
            ], 
            "WBNULL": [
                1
            ], 
            "irrelevant_Noun": [
                0
            ], 
            "AM2F": [
                4043
            ], 
            "M1_ADJ": [
                1
            ]
        }, 
        "location1": [
            8
        ], 
        "location2": [
            9
        ], 
        "sentence": "i have to admit that there is a small improvement in performance ."
    }, 
    "d29810efaf26a62f0243ade88940a348": {
        "(5, 2)": {
            "AM2L": [
                5641
            ], 
            "AM2F": [
                7218
            ], 
            "WBF": [
                3338
            ], 
            "BM1F": [
                3931
            ], 
            "M1": [
                4039
            ], 
            "irrelevant_Adj": [
                0
            ], 
            "M2": [
                7308
            ], 
            "BM1L": [
                310
            ], 
            "WBO": [
                8034
            ], 
            "WBL": [
                8034
            ], 
            "irrelevant_Noun": [
                0
            ], 
            "M1_ADJ": [
                0
            ]
        }, 
        "location1": [
            5
        ], 
        "location2": [
            2
        ], 
        "sentence": "a huge improvement from the small , single-use package they used to make ( or maybe they still do ) ; this is a much better value ."
    }
}