{
    "694e85fc78a8100c307341748de5ffc4": {
        "(45, 3)": {
            "AM2L": [
                8501
            ], 
            "AM2F": [
                1358
            ], 
            "WBF": [
                5589
            ], 
            "BM1F": [
                3911
            ], 
            "M1": [
                7985
            ], 
            "irrelevant_Adj": [
                0
            ], 
            "M2": [
                7308
            ], 
            "BM1L": [
                8034
            ], 
            "WBO": [
                8034, 
                2979, 
                8028, 
                4283, 
                8, 
                67, 
                599, 
                8756, 
                5284, 
                310, 
                4710, 
                1286, 
                599, 
                8028, 
                8756, 
                7, 
                8330, 
                8162, 
                7598, 
                310, 
                1358, 
                2750, 
                8819, 
                7913, 
                310, 
                4737, 
                5458, 
                5979, 
                8053, 
                688, 
                8034, 
                5512, 
                1286, 
                3962, 
                1899, 
                6365, 
                3252, 
                641
            ], 
            "WBL": [
                310
            ], 
            "irrelevant_Noun": [
                0
            ], 
            "M1_ADJ": [
                0
            ]
        }, 
        "location1": [
            45
        ], 
        "location2": [
            3
        ], 
        "sentence": "considering the hot temperature outside , the fact that it 's 12vdc and we need a long cable , and that we 're trying to start a car engine ( which takes a lot of power ) these are the only cable i could reccomend for anyone driving a small car up to a light truck ."
    }
}