{
    "c576aa15ea0d5c69b8a3a8156132ce24": {
        "(7, 26)": {
            "AM2L": [
                3880
            ], 
            "AM2F": [
                599
            ], 
            "WBF": [
                6378
            ], 
            "BM1F": [
                6229
            ], 
            "M1": [
                7308
            ], 
            "irrelevant_Adj": [
                0
            ], 
            "M2": [
                8320
            ], 
            "BM1L": [
                310
            ], 
            "WBO": [
                8057, 
                688, 
                8034, 
                5756, 
                4570, 
                8162, 
                5936, 
                5232, 
                3879, 
                6772, 
                8034, 
                1286, 
                8162, 
                8034, 
                850
            ], 
            "WBL": [
                8034
            ], 
            "irrelevant_Noun": [
                0
            ], 
            "M1_ADJ": [
                1
            ]
        }, 
        "location1": [
            7
        ], 
        "location2": [
            26
        ], 
        "sentence": "if you are in need a quick small recharge they are the perfect length to pop my hood , run the cable to the back of the truck and hook up to the battery that are on the tongue of my travel trailer ."
    }, 
    "694e85fc78a8100c307341748de5ffc4": {
        "(45, 51)": {
            "WBF": [
                1358
            ], 
            "BM1F": [
                310
            ], 
            "M1": [
                7308
            ], 
            "irrelevant_Adj": [
                0
            ], 
            "M2": [
                8320
            ], 
            "BM1L": [
                2528
            ], 
            "WBO": [
                8501, 
                8162
            ], 
            "WBL": [
                4616
            ], 
            "irrelevant_Noun": [
                0
            ], 
            "M1_ADJ": [
                1
            ]
        }, 
        "location1": [
            45
        ], 
        "location2": [
            51
        ], 
        "sentence": "considering the hot temperature outside , the fact that it 's 12vdc and we need a long cable , and that we 're trying to start a car engine ( which takes a lot of power ) these are the only cable i could reccomend for anyone driving a small car up to a light truck ."
    }
}