{
    "94aef053c12b9b9e13727aafd87c6d64": {
        "(17, 5)": {
            "AM2L": [
                5387
            ], 
            "AM2F": [
                5525
            ], 
            "WBF": [
                4268
            ], 
            "BM1F": [
                5260
            ], 
            "M1": [
                5586
            ], 
            "irrelevant_Adj": [
                0
            ], 
            "M2": [
                7308
            ], 
            "BM1L": [
                4710
            ], 
            "WBO": [
                3518, 
                3252, 
                8262, 
                3212, 
                5543, 
                5566, 
                7722, 
                7204
            ], 
            "WBL": [
                310
            ], 
            "irrelevant_Noun": [
                0
            ], 
            "M1_ADJ": [
                0
            ]
        }, 
        "location1": [
            17
        ], 
        "location2": [
            5
        ], 
        "sentence": "great little funnel , long narrow output is good for transmission fluid or other stuff similar with a small opening not easy to get to ."
    }
}