{
    "9a11c43fd939fed3db8214b446325f6c": {
        "(6, 11)": {
            "AM2F": [
                2835
            ], 
            "WBF": [
                2750
            ], 
            "BM1F": [
                3252
            ], 
            "M1": [
                7311
            ], 
            "irrelevant_Adj": [
                0
            ], 
            "M2": [
                8723
            ], 
            "BM1L": [
                554
            ], 
            "WBO": [
                4625
            ], 
            "WBL": [
                6038
            ], 
            "irrelevant_Noun": [
                0
            ], 
            "M1_ADJ": [
                1
            ]
        }, 
        "location1": [
            6
        ], 
        "location2": [
            11
        ], 
        "sentence": "the funnel is perfect also for smaller engine like my pressure washer - etc ."
    }
}