{
    "1a0982fab5181c8516a98c47a72e2b84": {
        "location1": [
            11
        ], 
        "location2": [
            3
        ], 
        "(11, 3)": {
            "AM2L": [
                3459
            ], 
            "AM2F": [
                5691
            ], 
            "WBF": [
                8162
            ], 
            "BM1F": [
                554
            ], 
            "M1": [
                3776
            ], 
            "irrelevant_Adj": [
                0
            ], 
            "M2": [
                7308
            ], 
            "BM1L": [
                5984
            ], 
            "WBO": [
                6044, 
                6918, 
                5458, 
                8034
            ], 
            "WBL": [
                8812
            ], 
            "irrelevant_Noun": [
                0
            ], 
            "M1_ADJ": [
                0
            ]
        }, 
        "sentence": "this practice also help to prevent scratching of the surface when small particle get trapped between the chamois and the paint surface and then your hand comes and push it right into the paint ."
    }
}