{
    "9a11c43fd939fed3db8214b446325f6c": {
        "(6, 1)": {
            "AM2L": [
                4625
            ], 
            "AM2F": [
                2750
            ], 
            "WBF": [
                4268
            ], 
            "BM1F": [
                8034
            ], 
            "M1": [
                3372
            ], 
            "irrelevant_Adj": [
                0
            ], 
            "M2": [
                7311
            ], 
            "WBO": [
                5756
            ], 
            "WBL": [
                3252
            ], 
            "irrelevant_Noun": [
                0
            ], 
            "M1_ADJ": [
                0
            ]
        }, 
        "location1": [
            6
        ], 
        "location2": [
            1
        ], 
        "sentence": "the funnel is perfect also for smaller engine like my pressure washer - etc ."
    }, 
    "3370868e6d86566a7ad1ff69be0a8ed2": {
        "(2, 8)": {
            "AM2L": [
                4283
            ], 
            "AM2F": [
                8987
            ], 
            "WBF": [
                8044
            ], 
            "BM1F": [
                4268
            ], 
            "M1": [
                7311
            ], 
            "irrelevant_Adj": [
                0
            ], 
            "M2": [
                3372
            ], 
            "BM1L": [
                8073
            ], 
            "WBO": [
                3962, 
                8082
            ], 
            "WBL": [
                310
            ], 
            "irrelevant_Noun": [
                0
            ], 
            "M1_ADJ": [
                1
            ]
        }, 
        "location1": [
            2
        ], 
        "location2": [
            8
        ], 
        "sentence": "this is smaller then i thought for a funnel , yet it is useful more then i thought it would be ."
    }
}