{
    "4a303e904b1d92074a31ac7d08f7c18c": {
        "(4, 10)": {
            "AM2L": [
                5566
            ], 
            "AM2F": [
                8887
            ], 
            "WBF": [
                2767
            ], 
            "BM1F": [
                688
            ], 
            "M1": [
                7308
            ], 
            "irrelevant_Adj": [
                0
            ], 
            "M2": [
                4195
            ], 
            "BM1L": [
                2730
            ], 
            "WBO": [
                7362, 
                8049
            ], 
            "WBL": [
                5344
            ], 
            "irrelevant_Noun": [
                0
            ], 
            "M1_ADJ": [
                1
            ]
        }, 
        "location1": [
            4
        ], 
        "location2": [
            10
        ], 
        "sentence": "but the end are small enough so there 's no interference with other hardware ."
    }
}