{
    "6ced17140eb76ea44baaf8adc2ec5167": {
        "location1": [
            2
        ], 
        "location2": [
            10
        ], 
        "(2, 10)": {
            "WBF": [
                2750
            ], 
            "BM1F": [
                310
            ], 
            "M1": [
                7308
            ], 
            "irrelevant_Adj": [
                0
            ], 
            "M2": [
                584
            ], 
            "BM1L": [
                2847
            ], 
            "WBO": [
                1323, 
                929, 
                8789, 
                5595
            ], 
            "WBL": [
                1937
            ], 
            "irrelevant_Noun": [
                0
            ], 
            "M1_ADJ": [
                1
            ]
        }, 
        "sentence": "even a small engine can be well over 300 cranking amp ."
    }
}