{
    "c576aa15ea0d5c69b8a3a8156132ce24": {
        "location1": [
            7
        ], 
        "location2": [
            40
        ], 
        "(7, 40)": {
            "AM2F": [
                8250
            ], 
            "WBF": [
                6378
            ], 
            "BM1F": [
                6229
            ], 
            "M1": [
                7308
            ], 
            "irrelevant_Adj": [
                0
            ], 
            "M2": [
                8275
            ], 
            "BM1L": [
                310
            ], 
            "WBO": [
                8057, 
                688, 
                8034, 
                5756, 
                4570, 
                8162, 
                5936, 
                5232, 
                3879, 
                6772, 
                8034, 
                1286, 
                8162, 
                8034, 
                850, 
                5458, 
                8034, 
                8320, 
                599, 
                3880, 
                8501, 
                8162, 
                8034, 
                921, 
                8028, 
                688, 
                5495, 
                8034, 
                8186
            ], 
            "WBL": [
                5232
            ], 
            "irrelevant_Noun": [
                0
            ], 
            "M1_ADJ": [
                1
            ]
        }, 
        "sentence": "if you are in need a quick small recharge they are the perfect length to pop my hood , run the cable to the back of the truck and hook up to the battery that are on the tongue of my travel trailer ."
    }
}