{
    "94aef053c12b9b9e13727aafd87c6d64": {
        "location1": [
            17
        ], 
        "location2": [
            9
        ], 
        "(17, 9)": {
            "AM2L": [
                5387
            ], 
            "AM2F": [
                5525
            ], 
            "WBF": [
                3212
            ], 
            "BM1F": [
                3252
            ], 
            "M1": [
                8262
            ], 
            "irrelevant_Adj": [
                0
            ], 
            "M2": [
                7308
            ], 
            "BM1L": [
                3518
            ], 
            "WBO": [
                5543, 
                5566, 
                7722, 
                7204
            ], 
            "WBL": [
                310
            ], 
            "irrelevant_Noun": [
                0
            ], 
            "M1_ADJ": [
                0
            ]
        }, 
        "sentence": "great little funnel , long narrow output is good for transmission fluid or other stuff similar with a small opening not easy to get to ."
    }, 
    "205f3631922808665e6617fc99f39b53": {
        "(16, 7)": {
            "AM2L": [
                7362
            ], 
            "AM2F": [
                2767
            ], 
            "WBF": [
                2345
            ], 
            "BM1F": [
                8997
            ], 
            "M1": [
                8262
            ], 
            "irrelevant_Adj": [
                0
            ], 
            "M2": [
                7308
            ], 
            "BM1L": [
                4216
            ], 
            "WBO": [
                7630, 
                8333, 
                7362, 
                4283, 
                3705
            ], 
            "WBL": [
                929
            ], 
            "irrelevant_Noun": [
                0
            ], 
            "M1_ADJ": [
                0
            ]
        }, 
        "location1": [
            16
        ], 
        "location2": [
            7
        ], 
        "sentence": "it 's able to fit into your transmission dip stick tube , so it has to be small enough , so you can just dump a bunch a fluid into it at once ! ! !"
    }
}