{
    "46d5fc34a1afa377119a7e897fc27cbf": {
        "(12, 1)": {
            "AM2L": [
                8887
            ], 
            "AM2F": [
                5525
            ], 
            "WBF": [
                3962
            ], 
            "BM1F": [
                3252
            ], 
            "M1": [
                2877
            ], 
            "irrelevant_Adj": [
                0
            ], 
            "M2": [
                7308
            ], 
            "WBO": [
                1323, 
                5974, 
                310, 
                4648, 
                4216, 
                310, 
                1821
            ], 
            "WBL": [
                310
            ], 
            "irrelevant_Noun": [
                0
            ], 
            "M1_ADJ": [
                0
            ]
        }, 
        "location1": [
            12
        ], 
        "location2": [
            1
        ], 
        "sentence": "for example i can pour a liquid into a container with a small opening with great ease ."
    }
}