{
    "81150aab3addb4094fd2ffef3540f5fc": {
        "location1": [
            15
        ], 
        "location2": [
            21
        ], 
        "(15, 21)": {
            "AM2L": [
                8028
            ], 
            "AM2F": [
                5387
            ], 
            "WBF": [
                2447
            ], 
            "BM1F": [
                310
            ], 
            "M1": [
                7308
            ], 
            "irrelevant_Adj": [
                0
            ], 
            "M2": [
                2527
            ], 
            "BM1L": [
                6718
            ], 
            "WBO": [
                5543, 
                1399
            ], 
            "WBL": [
                8997
            ], 
            "irrelevant_Noun": [
                0
            ], 
            "M1_ADJ": [
                1
            ]
        }, 
        "sentence": "if you have the water pressure , using this will probably allow you to roll a small dog or cat down your driveway ( not that you should , but you 'd be able to ) !"
    }
}