{
    "ef1d109d225ed5682b9ffb33c8e3b985": {
        "(9, 11)": {
            "AM2L": [
                8053
            ], 
            "WBFL": [
                4369
            ], 
            "BM1F": [
                2454
            ], 
            "M1": [
                7342
            ], 
            "irrelevant_Adj": [
                0
            ], 
            "M2": [
                1286
            ], 
            "BM1L": [
                116
            ], 
            "AM2F": [
                1262
            ], 
            "irrelevant_Noun": [
                0
            ], 
            "M1_ADJ": [
                1
            ]
        }, 
        "location1": [
            9
        ], 
        "location2": [
            11
        ], 
        "sentence": "for the money i was not expecting 200 dollar snap-on jumper cable but these seem more like what you would see at a chinese knock off shop like harbor freight for 30 buck ."
    }
}