{
    "193b581e9237dcb507d29182203a8cd4": {
        "(6, 7)": {
            "BM1F": [
                8034
            ], 
            "M1": [
                7364
            ], 
            "irrelevant_Adj": [
                0
            ], 
            "M2": [
                5751
            ], 
            "BM1L": [
                8887
            ], 
            "WBNULL": [
                1
            ], 
            "irrelevant_Noun": [
                1
            ], 
            "AM2F": [
                3783
            ], 
            "M1_ADJ": [
                1
            ]
        }, 
        "location1": [
            6
        ], 
        "location2": [
            7
        ], 
        "sentence": "i have to go with the `` so-so `` people here ."
    }
}