{
    "195240abbbd59e26d9cdbd21fe256af3": {
        "(5, 19)": {
            "AM2L": [
                8860
            ], 
            "AM2F": [
                599
            ], 
            "WBF": [
                8736
            ], 
            "BM1F": [
                310
            ], 
            "M1": [
                7383
            ], 
            "irrelevant_Adj": [
                0
            ], 
            "M2": [
                689
            ], 
            "BM1L": [
                6390
            ], 
            "WBO": [
                1054, 
                8162, 
                8531, 
                3142, 
                475, 
                6673, 
                8997, 
                8587, 
                8162, 
                2436
            ], 
            "WBL": [
                4501
            ], 
            "irrelevant_Noun": [
                0
            ], 
            "M1_ADJ": [
                1
            ]
        }, 
        "location1": [
            5
        ], 
        "location2": [
            19
        ], 
        "sentence": "i would also recommend a soft water blade to use first after rinsing your vehicle to do the large area and window ."
    }
}