{
    "195240abbbd59e26d9cdbd21fe256af3": {
        "(5, 14)": {
            "AM2L": [
                2436
            ], 
            "AM2F": [
                8162
            ], 
            "WBF": [
                8736
            ], 
            "BM1F": [
                310
            ], 
            "M1": [
                7383
            ], 
            "irrelevant_Adj": [
                0
            ], 
            "M2": [
                8587
            ], 
            "BM1L": [
                6390
            ], 
            "WBO": [
                1054, 
                8162, 
                8531, 
                3142, 
                475
            ], 
            "WBL": [
                8997
            ], 
            "irrelevant_Noun": [
                0
            ], 
            "M1_ADJ": [
                1
            ]
        }, 
        "location1": [
            5
        ], 
        "location2": [
            14
        ], 
        "sentence": "i would also recommend a soft water blade to use first after rinsing your vehicle to do the large area and window ."
    }
}