{
    "be0e736e9f91f703cbe08ee038215902": {
        "(17, 56)": {
            "WBF": [
                4625
            ], 
            "BM1F": [
                2548
            ], 
            "M1": [
                7383
            ], 
            "irrelevant_Adj": [
                0
            ], 
            "M2": [
                7826
            ], 
            "BM1L": [
                1262
            ], 
            "WBO": [
                1262, 
                4283, 
                1668, 
                5459, 
                5325, 
                8044, 
                3962, 
                3233, 
                8887, 
                159, 
                2545, 
                1605, 
                8162, 
                4829, 
                7824, 
                4289, 
                1719, 
                5459, 
                599, 
                7116, 
                599, 
                4283, 
                2445, 
                1663, 
                5459, 
                2617, 
                599, 
                4283, 
                2445, 
                1564, 
                3128, 
                8501, 
                4556, 
                310, 
                5325
            ], 
            "WBL": [
                3486
            ], 
            "irrelevant_Noun": [
                0
            ], 
            "M1_ADJ": [
                1
            ]
        }, 
        "location1": [
            17
        ], 
        "location2": [
            56
        ], 
        "sentence": "1st off it does go on easy , once on its stay kind of moist like but drys soft like but it comes off nice , then i follow with 2nd dry cloth to make sure its completly off and shiny and it does come off easy and it does clean finish up leaving a nice shiny glazed surface ."
    }, 
    "6f895168900b1766f912d5634be2a455": {
        "(7, 13)": {
            "AM2L": [
                8034
            ], 
            "AM2F": [
                5458
            ], 
            "WBF": [
                3089
            ], 
            "BM1F": [
                8034
            ], 
            "M1": [
                7383
            ], 
            "irrelevant_Adj": [
                0
            ], 
            "M2": [
                7826
            ], 
            "BM1L": [
                599
            ], 
            "WBO": [
                3196, 
                5595
            ], 
            "WBL": [
                8429
            ], 
            "irrelevant_Noun": [
                0
            ], 
            "M1_ADJ": [
                1
            ]
        }, 
        "location1": [
            7
        ], 
        "location2": [
            13
        ], 
        "sentence": "this pick up the dust and the soft fiber float over the uneven surface of the car interior , picking it all up in one swipe ."
    }
}