{
    "4c6acdef23675a5d898f42e51fcf2413": {
        "(63, 32)": {
            "AM2L": [
                3962
            ], 
            "AM2F": [
                3985
            ], 
            "WBF": [
                4929
            ], 
            "BM1F": [
                228
            ], 
            "M1": [
                4243
            ], 
            "irrelevant_Adj": [
                0
            ], 
            "M2": [
                7395
            ], 
            "BM1L": [
                5232
            ], 
            "WBO": [
                929, 
                1014, 
                7037, 
                8887, 
                310, 
                3762, 
                2583, 
                3410, 
                8810, 
                1515, 
                8028, 
                8901, 
                3479, 
                4043, 
                599, 
                2847, 
                4583, 
                4940, 
                5176, 
                5595, 
                4283, 
                1275, 
                5077, 
                599, 
                4583, 
                4940, 
                4465
            ], 
            "WBL": [
                3854
            ], 
            "irrelevant_Noun": [
                0
            ], 
            "M1_ADJ": [
                0
            ]
        }, 
        "location1": [
            63
        ], 
        "location2": [
            32
        ], 
        "sentence": "one day i forgot to remove it when pulling out and it seems to take very little pressure moving forward to flatten it like a pan cake so i though my 50,000 investment may be better served with a heavy duty galvanized wheel chock that wont give in and even let me move over it by mistake and let me know its holding solid if i ever did again roll forward over it ."
    }
}