{
    "fbb8c8107c397d23ef2d34e50cc27363": {
        "(0, 1)": {
            "AM2L": [
                2812
            ], 
            "M1": [
                7395
            ], 
            "irrelevant_Adj": [
                0
            ], 
            "M2": [
                5820
            ], 
            "WBNULL": [
                1
            ], 
            "irrelevant_Noun": [
                0
            ], 
            "AM2F": [
                5458
            ], 
            "M1_ADJ": [
                1
            ]
        }, 
        "location1": [
            0
        ], 
        "location2": [
            1
        ], 
        "sentence": "solid piece of equipment , i do n't think i 'll ever buy the other `` garden `` variety hose head anymore ."
    }, 
    "30703b1c7be7050aa1917659c8a04921": {
        "(19, 20)": {
            "AM2L": [
                8162
            ], 
            "BM1F": [
                310
            ], 
            "M1": [
                7395
            ], 
            "irrelevant_Adj": [
                0
            ], 
            "M2": [
                5820
            ], 
            "BM1L": [
                4268
            ], 
            "WBNULL": [
                1
            ], 
            "irrelevant_Noun": [
                0
            ], 
            "AM2F": [
                7473
            ], 
            "M1_ADJ": [
                1
            ]
        }, 
        "location1": [
            19
        ], 
        "location2": [
            20
        ], 
        "sentence": "spinning ball hitch for different size wo n't work in my case because the adjustable hitch height is a solid piece specific to the entire hitch ."
    }
}