{
    "3c1c64e9bba60f9241c3c51d4d06e84e": {
        "(9, 14)": {
            "AM2L": [
                4283
            ], 
            "AM2F": [
                5495
            ], 
            "WBF": [
                1177
            ], 
            "BM1F": [
                310
            ], 
            "M1": [
                7395
            ], 
            "irrelevant_Adj": [
                0
            ], 
            "M2": [
                7932
            ], 
            "BM1L": [
                4625
            ], 
            "WBO": [
                8693
            ], 
            "WBL": [
                8377
            ], 
            "irrelevant_Noun": [
                0
            ], 
            "M1_ADJ": [
                1
            ]
        }, 
        "location1": [
            9
        ], 
        "location2": [
            14
        ], 
        "sentence": "now the hatch of my suv is like a solid brick wall when u tap on it , and all the bass stay inside ."
    }
}