{
    "1344c236d27aaf422545e1e95a1fe11d": {
        "(9, 23)": {
            "AM2L": [
                8140
            ], 
            "AM2F": [
                5458
            ], 
            "WBF": [
                4043
            ], 
            "BM1F": [
                6976
            ], 
            "M1": [
                7395
            ], 
            "irrelevant_Adj": [
                0
            ], 
            "M2": [
                1907
            ], 
            "BM1L": [
                4283
            ], 
            "WBO": [
                5232, 
                3661, 
                3962, 
                8067, 
                8073, 
                8851, 
                4509, 
                599, 
                4293, 
                2534
            ], 
            "WBL": [
                310
            ], 
            "irrelevant_Noun": [
                0
            ], 
            "M1_ADJ": [
                1
            ]
        }, 
        "location1": [
            9
        ], 
        "location2": [
            23
        ], 
        "sentence": "does not leak while in use and it seems solid in my hand , i think this will last and ive dropped it a couple of time already ."
    }
}