{
    "55c41a6cbb70fd89bddb6ee8c3b254a8": {
        "(2, 5)": {
            "AM2L": [
                7615
            ], 
            "AM2F": [
                5543
            ], 
            "WBF": [
                1811
            ], 
            "BM1F": [
                8603
            ], 
            "M1": [
                7395
            ], 
            "irrelevant_Adj": [
                0
            ], 
            "M2": [
                563
            ], 
            "BM1L": [
                6082
            ], 
            "WBO": [
                2660
            ], 
            "WBL": [
                2660
            ], 
            "irrelevant_Noun": [
                0
            ], 
            "M1_ADJ": [
                1
            ]
        }, 
        "location1": [
            2
        ], 
        "location2": [
            5
        ], 
        "sentence": "pro - very solid construction , either aluminum or steel - padded with thick rubber - look like fireman 's hose - smoothly fade from closed to soaker to rain to fan to jet with a simple twist - easy to work with wet handscons - nonenow i will tell you that the jet on this nozzle is one of the best i 've seen but i 'm not going to compare this to a pressure washer , i have one and nothing compare to a pressure washer , but the jet mode of this is pretty darn good ."
    }
}