{
    "16632324bbe3060d459c5f4c7f0a7ac3": {
        "location1": [
            0
        ], 
        "location2": [
            16
        ], 
        "(0, 16)": {
            "WBF": [
                1553
            ], 
            "AM2L": [
                8887
            ], 
            "M1": [
                7395
            ], 
            "irrelevant_Adj": [
                0
            ], 
            "M2": [
                5685
            ], 
            "WBO": [
                8457, 
                7405, 
                5458, 
                8034, 
                5566, 
                6637, 
                3962, 
                2436, 
                5245, 
                3717, 
                310, 
                6090
            ], 
            "WBL": [
                5232
            ], 
            "irrelevant_Noun": [
                0
            ], 
            "AM2F": [
                1553
            ], 
            "M1_ADJ": [
                1
            ]
        }, 
        "sentence": "-- solid clamp - unlike some of the other review , i do n't have a problem opening my parrot clamp with one hand ."
    }
}