{
    "30703b1c7be7050aa1917659c8a04921": {
        "(19, 25)": {
            "WBF": [
                5820
            ], 
            "BM1F": [
                310
            ], 
            "M1": [
                7395
            ], 
            "irrelevant_Adj": [
                0
            ], 
            "M2": [
                3841
            ], 
            "BM1L": [
                4268
            ], 
            "WBO": [
                7473, 
                8162
            ], 
            "WBL": [
                2787
            ], 
            "irrelevant_Noun": [
                0
            ], 
            "M1_ADJ": [
                1
            ]
        }, 
        "sentence": "spinning ball hitch for different size wo n't work in my case because the adjustable hitch height is a solid piece specific to the entire hitch .", 
        "location2": [
            2, 
            15, 
            25
        ], 
        "location1": [
            19
        ], 
        "(19, 2)": {
            "AM2L": [
                7473
            ], 
            "AM2F": [
                5820
            ], 
            "WBF": [
                3252
            ], 
            "BM1F": [
                879
            ], 
            "M1": [
                3841
            ], 
            "irrelevant_Adj": [
                0
            ], 
            "M2": [
                7395
            ], 
            "BM1L": [
                7499
            ], 
            "WBO": [
                2313, 
                7230, 
                8893, 
                5245, 
                8907, 
                4043, 
                5232, 
                1389, 
                945, 
                8034, 
                435, 
                3841, 
                3771
            ], 
            "WBL": [
                310
            ], 
            "irrelevant_Noun": [
                0
            ], 
            "M1_ADJ": [
                0
            ]
        }, 
        "(19, 15)": {
            "AM2L": [
                7473
            ], 
            "AM2F": [
                5820
            ], 
            "WBF": [
                3771
            ], 
            "BM1F": [
                435
            ], 
            "M1": [
                3841
            ], 
            "irrelevant_Adj": [
                0
            ], 
            "M2": [
                7395
            ], 
            "BM1L": [
                8034
            ], 
            "WBO": [
                4268
            ], 
            "WBL": [
                310
            ], 
            "irrelevant_Noun": [
                0
            ], 
            "M1_ADJ": [
                0
            ]
        }
    }
}