{
    "55c41a6cbb70fd89bddb6ee8c3b254a8": {
        "location1": [
            2
        ], 
        "location2": [
            32
        ], 
        "(2, 32)": {
            "AM2L": [
                8162
            ], 
            "AM2F": [
                2617
            ], 
            "WBF": [
                1811
            ], 
            "BM1F": [
                8603
            ], 
            "M1": [
                7395
            ], 
            "irrelevant_Adj": [
                0
            ], 
            "M2": [
                8364
            ], 
            "BM1L": [
                6082
            ], 
            "WBO": [
                2660, 
                563, 
                5543, 
                7615, 
                5648, 
                8887, 
                8058, 
                6757, 
                4717, 
                4625, 
                3135, 
                8, 
                3903, 
                7335, 
                2982, 
                3338, 
                1599, 
                8162, 
                7368, 
                8162, 
                6267, 
                8162, 
                3008, 
                8162, 
                4335, 
                8887
            ], 
            "WBL": [
                7208
            ], 
            "irrelevant_Noun": [
                0
            ], 
            "M1_ADJ": [
                1
            ]
        }, 
        "sentence": "pro - very solid construction , either aluminum or steel - padded with thick rubber - look like fireman 's hose - smoothly fade from closed to soaker to rain to fan to jet with a simple twist - easy to work with wet handscons - nonenow i will tell you that the jet on this nozzle is one of the best i 've seen but i 'm not going to compare this to a pressure washer , i have one and nothing compare to a pressure washer , but the jet mode of this is pretty darn good ."
    }
}