{
    "fbb8c8107c397d23ef2d34e50cc27363": {
        "(0, 3)": {
            "WBF": [
                5820
            ], 
            "AM2L": [
                2436
            ], 
            "M1": [
                7395
            ], 
            "irrelevant_Adj": [
                0
            ], 
            "M2": [
                2812
            ], 
            "WBO": [
                5458
            ], 
            "WBL": [
                5458
            ], 
            "irrelevant_Noun": [
                0
            ], 
            "AM2F": [
                3962
            ], 
            "M1_ADJ": [
                1
            ]
        }, 
        "location1": [
            0
        ], 
        "location2": [
            3
        ], 
        "sentence": "solid piece of equipment , i do n't think i 'll ever buy the other `` garden `` variety hose head anymore ."
    }, 
    "1d03ac92a7e85756ac441e67d3467456": {
        "(18, 16)": {
            "WBFL": [
                3459
            ], 
            "BM1F": [
                3019
            ], 
            "M1": [
                2812
            ], 
            "irrelevant_Adj": [
                0
            ], 
            "M2": [
                7395
            ], 
            "BM1L": [
                599
            ], 
            "AM2F": [
                1872
            ], 
            "irrelevant_Noun": [
                0
            ], 
            "M1_ADJ": [
                0
            ]
        }, 
        "location1": [
            18
        ], 
        "location2": [
            16
        ], 
        "sentence": "these are good enough to get most motorized vehicle up and running , for semi and farm equipment , get solid copper ."
    }
}