{
    "db1d3fa3cd3672ea83a8d3cec64b1cf7": {
        "(4, 22)": {
            "AM2L": [
                5543
            ], 
            "AM2F": [
                703
            ], 
            "WBF": [
                5325
            ], 
            "BM1F": [
                1232
            ], 
            "M1": [
                7395
            ], 
            "irrelevant_Adj": [
                0
            ], 
            "M2": [
                1358
            ], 
            "BM1L": [
                688
            ], 
            "WBO": [
                8218, 
                1026, 
                3688, 
                1553, 
                599, 
                4746, 
                3719, 
                310, 
                4710, 
                1286, 
                7362, 
                3962, 
                5311, 
                3717
            ], 
            "WBL": [
                5176
            ], 
            "irrelevant_Noun": [
                0
            ], 
            "M1_ADJ": [
                1
            ]
        }, 
        "location1": [
            4
        ], 
        "location2": [
            22
        ], 
        "sentence": "but they are built solid , nice tough big hard clamp and love having a long cable so i never have to move car around or anything if needed ."
    }
}