{
    "30703b1c7be7050aa1917659c8a04921": {
        "(19, 11)": {
            "AM2L": [
                7473
            ], 
            "AM2F": [
                5820
            ], 
            "WBF": [
                945
            ], 
            "BM1F": [
                5232
            ], 
            "M1": [
                1389
            ], 
            "irrelevant_Adj": [
                0
            ], 
            "M2": [
                7395
            ], 
            "BM1L": [
                4043
            ], 
            "WBO": [
                8034, 
                435, 
                3841, 
                3771
            ], 
            "WBL": [
                310
            ], 
            "irrelevant_Noun": [
                0
            ], 
            "M1_ADJ": [
                0
            ]
        }, 
        "location1": [
            19
        ], 
        "location2": [
            11
        ], 
        "sentence": "spinning ball hitch for different size wo n't work in my case because the adjustable hitch height is a solid piece specific to the entire hitch ."
    }
}