{
    "a42aef0f17b28024774cb724ec46dd82": {
        "(9, 2)": {
            "WBF": [
                599
            ], 
            "BM1F": [
                4268
            ], 
            "M1": [
                8902
            ], 
            "irrelevant_Adj": [
                0
            ], 
            "M2": [
                7395
            ], 
            "BM1L": [
                8073
            ], 
            "WBO": [
                4283, 
                3066, 
                310
            ], 
            "WBL": [
                5148
            ], 
            "irrelevant_Noun": [
                0
            ], 
            "M1_ADJ": [
                0
            ]
        }, 
        "location1": [
            9
        ], 
        "location2": [
            2
        ], 
        "sentence": "this is wood and it feel a lot more solid ."
    }
}