{
    "35a5504bc8305ada41cbed2fbf371a9f": {
        "location1": [
            5
        ], 
        "location2": [
            20
        ], 
        "(5, 20)": {
            "AM2L": [
                2445
            ], 
            "AM2F": [
                8824
            ], 
            "WBF": [
                599
            ], 
            "BM1F": [
                5148
            ], 
            "M1": [
                7425
            ], 
            "irrelevant_Adj": [
                0
            ], 
            "M2": [
                7408
            ], 
            "BM1L": [
                310
            ], 
            "WBO": [
                5191, 
                5148, 
                2917, 
                5432, 
                6867, 
                4043, 
                3835, 
                2087, 
                8162, 
                2087, 
                8907
            ], 
            "WBL": [
                3252
            ], 
            "irrelevant_Noun": [
                0
            ], 
            "M1_ADJ": [
                1
            ]
        }, 
        "sentence": "my mechanic us a more sophisticated ( and much more expensive ) obd scanner in his day to day work , but for someone who does occasional maintenance on his own car , this tool is worth the $ 89 investment ."
    }
}