{
    "ca11d17a98039216ccd4d0854902b81f": {
        "(18, 7)": {
            "AM2L": [
                5495
            ], 
            "AM2F": [
                2062
            ], 
            "WBF": [
                3442
            ], 
            "BM1F": [
                3691
            ], 
            "M1": [
                7663
            ], 
            "irrelevant_Adj": [
                1
            ], 
            "M2": [
                7433
            ], 
            "BM1L": [
                636
            ], 
            "WBO": [
                4914, 
                8028, 
                4268, 
                720, 
                3518, 
                720, 
                2590
            ], 
            "WBL": [
                3252
            ], 
            "irrelevant_Noun": [
                0
            ], 
            "M1_ADJ": [
                0
            ]
        }, 
        "location1": [
            18
        ], 
        "location2": [
            7
        ], 
        "sentence": "overall i have n't found any hardware store generic material that is as good as dynamat xtreme for sound damping on large panel ."
    }
}