{
    "0fc43446e5faaefa25ac5aad6f6f4e66": {
        "(9, 8)": {
            "AM2L": [
                2528
            ], 
            "BM1F": [
                310
            ], 
            "M1": [
                3216
            ], 
            "irrelevant_Adj": [
                1
            ], 
            "M2": [
                7433
            ], 
            "BM1L": [
                4829
            ], 
            "WBNULL": [
                1
            ], 
            "irrelevant_Noun": [
                0
            ], 
            "AM2F": [
                8812
            ], 
            "M1_ADJ": [
                0
            ]
        }, 
        "location1": [
            9
        ], 
        "location2": [
            8
        ], 
        "sentence": "the top of my pt would make a flutering sound when driving , not no more ."
    }
}