{
    "1cce9680e886ff867c87f2902afa2814": {
        "(26, 3)": {
            "WBF": [
                5458
            ], 
            "BM1F": [
                310
            ], 
            "M1": [
                7098
            ], 
            "irrelevant_Adj": [
                1
            ], 
            "M2": [
                7433
            ], 
            "BM1L": [
                8534
            ], 
            "WBO": [
                4283, 
                5495, 
                8034, 
                2549, 
                969, 
                4045, 
                7465, 
                8162, 
                2030, 
                8034, 
                583, 
                5458, 
                7433, 
                6257, 
                8105, 
                8034, 
                850, 
                8693, 
                599
            ], 
            "WBL": [
                8034
            ], 
            "irrelevant_Noun": [
                0
            ], 
            "M1_ADJ": [
                0
            ]
        }, 
        "location1": [
            17, 
            26
        ], 
        "location2": [
            3
        ], 
        "(17, 3)": {
            "AM2L": [
                8105
            ], 
            "AM2F": [
                6257
            ], 
            "WBF": [
                5458
            ], 
            "BM1F": [
                310
            ], 
            "M1": [
                7098
            ], 
            "irrelevant_Adj": [
                1
            ], 
            "M2": [
                7433
            ], 
            "BM1L": [
                8534
            ], 
            "WBO": [
                4283, 
                5495, 
                8034, 
                2549, 
                969, 
                4045, 
                7465, 
                8162, 
                2030, 
                8034
            ], 
            "WBL": [
                5458
            ], 
            "irrelevant_Noun": [
                0
            ], 
            "M1_ADJ": [
                0
            ]
        }, 
        "sentence": "i used a sheet of it on the drywall behind in-wall speaker to cut the amount of sound radiating through the back wall and tighten the sound ."
    }, 
    "5826732bec13242337b3e6e56e152c4f": {
        "(26, 3)": {
            "WBF": [
                5458
            ], 
            "BM1F": [
                310
            ], 
            "M1": [
                7098
            ], 
            "irrelevant_Adj": [
                1
            ], 
            "M2": [
                7433
            ], 
            "BM1L": [
                8534
            ], 
            "WBO": [
                4283, 
                5495, 
                8034, 
                2549, 
                969, 
                4045, 
                7465, 
                8162, 
                2030, 
                8034, 
                583, 
                5458, 
                7433, 
                6257, 
                8105, 
                8034, 
                850, 
                8693, 
                599
            ], 
            "WBL": [
                8034
            ], 
            "irrelevant_Noun": [
                0
            ], 
            "M1_ADJ": [
                0
            ]
        }, 
        "location1": [
            17, 
            26
        ], 
        "location2": [
            3
        ], 
        "(17, 3)": {
            "AM2L": [
                8105
            ], 
            "AM2F": [
                6257
            ], 
            "WBF": [
                5458
            ], 
            "BM1F": [
                310
            ], 
            "M1": [
                7098
            ], 
            "irrelevant_Adj": [
                1
            ], 
            "M2": [
                7433
            ], 
            "BM1L": [
                8534
            ], 
            "WBO": [
                4283, 
                5495, 
                8034, 
                2549, 
                969, 
                4045, 
                7465, 
                8162, 
                2030, 
                8034
            ], 
            "WBL": [
                5458
            ], 
            "irrelevant_Noun": [
                0
            ], 
            "M1_ADJ": [
                0
            ]
        }, 
        "sentence": "i used a sheet of it on the drywall behind in-wall speaker to cut the amount of sound radiating through the back wall and tighten the sound ."
    }
}