{
    "3eef3a62c0aa2cf0019e89074afcbe39": {
        "(16, 10)": {
            "AM2L": [
                4403
            ], 
            "AM2F": [
                599
            ], 
            "WBF": [
                5640
            ], 
            "BM1F": [
                8034
            ], 
            "M1": [
                1235
            ], 
            "irrelevant_Adj": [
                1
            ], 
            "M2": [
                7433
            ], 
            "BM1L": [
                8887
            ], 
            "WBO": [
                2445, 
                8896
            ], 
            "WBL": [
                2061
            ], 
            "irrelevant_Noun": [
                0
            ], 
            "M1_ADJ": [
                0
            ]
        }, 
        "location1": [
            16
        ], 
        "location2": [
            10
        ], 
        "sentence": "used these for my civic speaker and bundled with the bulk pack does wonder for dampening sound and keeping out road noise !"
    }
}