{
    "1cce9680e886ff867c87f2902afa2814": {
        "(26, 22)": {
            "WBF": [
                599
            ], 
            "BM1F": [
                850
            ], 
            "M1": [
                8693
            ], 
            "irrelevant_Adj": [
                1
            ], 
            "M2": [
                7433
            ], 
            "BM1L": [
                8034
            ], 
            "WBO": [
                8130
            ], 
            "WBL": [
                8034
            ], 
            "irrelevant_Noun": [
                0
            ], 
            "M1_ADJ": [
                0
            ]
        }, 
        "location1": [
            17, 
            26
        ], 
        "location2": [
            22
        ], 
        "(17, 22)": {
            "AM2L": [
                8130
            ], 
            "AM2F": [
                599
            ], 
            "WBF": [
                6257
            ], 
            "BM1F": [
                5458
            ], 
            "M1": [
                7433
            ], 
            "irrelevant_Adj": [
                1
            ], 
            "M2": [
                8693
            ], 
            "BM1L": [
                583
            ], 
            "WBO": [
                8105
            ], 
            "WBL": [
                850
            ], 
            "irrelevant_Noun": [
                0
            ], 
            "M1_ADJ": [
                1
            ]
        }, 
        "sentence": "i used a sheet of it on the drywall behind in-wall speaker to cut the amount of sound radiating through the back wall and tighten the sound ."
    }, 
    "5826732bec13242337b3e6e56e152c4f": {
        "(26, 22)": {
            "WBF": [
                599
            ], 
            "BM1F": [
                850
            ], 
            "M1": [
                8693
            ], 
            "irrelevant_Adj": [
                1
            ], 
            "M2": [
                7433
            ], 
            "BM1L": [
                8034
            ], 
            "WBO": [
                8130
            ], 
            "WBL": [
                8034
            ], 
            "irrelevant_Noun": [
                0
            ], 
            "M1_ADJ": [
                0
            ]
        }, 
        "location1": [
            17, 
            26
        ], 
        "location2": [
            22
        ], 
        "(17, 22)": {
            "AM2L": [
                8130
            ], 
            "AM2F": [
                599
            ], 
            "WBF": [
                6257
            ], 
            "BM1F": [
                5458
            ], 
            "M1": [
                7433
            ], 
            "irrelevant_Adj": [
                1
            ], 
            "M2": [
                8693
            ], 
            "BM1L": [
                583
            ], 
            "WBO": [
                8105
            ], 
            "WBL": [
                850
            ], 
            "irrelevant_Noun": [
                0
            ], 
            "M1_ADJ": [
                1
            ]
        }, 
        "sentence": "i used a sheet of it on the drywall behind in-wall speaker to cut the amount of sound radiating through the back wall and tighten the sound ."
    }
}