{
    "6548155d95e6207536240edab7f397cf": {
        "(2, 8)": {
            "AM2L": [
                7331
            ], 
            "AM2F": [
                8603
            ], 
            "WBF": [
                2060
            ], 
            "BM1F": [
                3518
            ], 
            "M1": [
                7433
            ], 
            "irrelevant_Adj": [
                1
            ], 
            "M2": [
                7433
            ], 
            "BM1L": [
                8603
            ], 
            "WBO": [
                4283, 
                4831
            ], 
            "WBL": [
                8324
            ], 
            "irrelevant_Noun": [
                0
            ], 
            "M1_ADJ": [
                1
            ]
        }, 
        "location1": [
            2, 
            8
        ], 
        "location2": [
            2, 
            8
        ], 
        "(8, 2)": {
            "AM2L": [
                7331
            ], 
            "AM2F": [
                8603
            ], 
            "WBF": [
                2060
            ], 
            "BM1F": [
                3518
            ], 
            "M1": [
                7433
            ], 
            "irrelevant_Adj": [
                1
            ], 
            "M2": [
                7433
            ], 
            "BM1L": [
                8603
            ], 
            "WBO": [
                4283, 
                4831
            ], 
            "WBL": [
                8324
            ], 
            "irrelevant_Noun": [
                0
            ], 
            "M1_ADJ": [
                0
            ]
        }, 
        "sentence": "very good sound dampener it makes my trunk sound very smooth and not rattly ."
    }, 
    "5826732bec13242337b3e6e56e152c4f": {
        "(17, 26)": {
            "WBF": [
                6257
            ], 
            "BM1F": [
                5458
            ], 
            "M1": [
                7433
            ], 
            "irrelevant_Adj": [
                1
            ], 
            "M2": [
                7433
            ], 
            "BM1L": [
                583
            ], 
            "WBO": [
                8105, 
                8034, 
                850, 
                8693, 
                599
            ], 
            "WBL": [
                8034
            ], 
            "irrelevant_Noun": [
                0
            ], 
            "M1_ADJ": [
                1
            ]
        }, 
        "location1": [
            17, 
            26
        ], 
        "location2": [
            17, 
            26
        ], 
        "(26, 17)": {
            "WBF": [
                6257
            ], 
            "BM1F": [
                5458
            ], 
            "M1": [
                7433
            ], 
            "irrelevant_Adj": [
                1
            ], 
            "M2": [
                7433
            ], 
            "BM1L": [
                583
            ], 
            "WBO": [
                8105, 
                8034, 
                850, 
                8693, 
                599
            ], 
            "WBL": [
                8034
            ], 
            "irrelevant_Noun": [
                0
            ], 
            "M1_ADJ": [
                0
            ]
        }, 
        "sentence": "i used a sheet of it on the drywall behind in-wall speaker to cut the amount of sound radiating through the back wall and tighten the sound ."
    }, 
    "1cce9680e886ff867c87f2902afa2814": {
        "(17, 26)": {
            "WBF": [
                6257
            ], 
            "BM1F": [
                5458
            ], 
            "M1": [
                7433
            ], 
            "irrelevant_Adj": [
                1
            ], 
            "M2": [
                7433
            ], 
            "BM1L": [
                583
            ], 
            "WBO": [
                8105, 
                8034, 
                850, 
                8693, 
                599
            ], 
            "WBL": [
                8034
            ], 
            "irrelevant_Noun": [
                0
            ], 
            "M1_ADJ": [
                1
            ]
        }, 
        "location1": [
            17, 
            26
        ], 
        "location2": [
            17, 
            26
        ], 
        "(26, 17)": {
            "WBF": [
                6257
            ], 
            "BM1F": [
                5458
            ], 
            "M1": [
                7433
            ], 
            "irrelevant_Adj": [
                1
            ], 
            "M2": [
                7433
            ], 
            "BM1L": [
                583
            ], 
            "WBO": [
                8105, 
                8034, 
                850, 
                8693, 
                599
            ], 
            "WBL": [
                8034
            ], 
            "irrelevant_Noun": [
                0
            ], 
            "M1_ADJ": [
                0
            ]
        }, 
        "sentence": "i used a sheet of it on the drywall behind in-wall speaker to cut the amount of sound radiating through the back wall and tighten the sound ."
    }
}