{
    "f9332ca718a53df503287582fee520f8": {
        "location1": [
            6
        ], 
        "location2": [
            12
        ], 
        "(6, 12)": {
            "WBF": [
                8157
            ], 
            "BM1F": [
                8997
            ], 
            "M1": [
                7457
            ], 
            "irrelevant_Adj": [
                0
            ], 
            "M2": [
                1244
            ], 
            "BM1L": [
                6960
            ], 
            "WBO": [
                8162, 
                8157
            ], 
            "WBL": [
                5543
            ], 
            "irrelevant_Noun": [
                0
            ], 
            "M1_ADJ": [
                1
            ]
        }, 
        "sentence": "it is perfect to secure your spare tire to tire carrier or bumper ."
    }
}