{
    "bce87c38d4dfd4ebc1dff566b70b9cc9": {
        "(13, 6)": {
            "AM2L": [
                945
            ], 
            "AM2F": [
                8157
            ], 
            "WBF": [
                1598
            ], 
            "BM1F": [
                7144
            ], 
            "M1": [
                1890
            ], 
            "irrelevant_Adj": [
                0
            ], 
            "M2": [
                7457
            ], 
            "BM1L": [
                1286
            ], 
            "WBO": [
                8162, 
                720, 
                5191
            ], 
            "WBL": [
                8997
            ], 
            "irrelevant_Noun": [
                0
            ], 
            "M1_ADJ": [
                0
            ]
        }, 
        "(13, 25)": {
            "AM2L": [
                1872
            ], 
            "AM2F": [
                5458
            ], 
            "WBF": [
                8157
            ], 
            "BM1F": [
                8997
            ], 
            "M1": [
                7457
            ], 
            "irrelevant_Adj": [
                0
            ], 
            "M2": [
                1890
            ], 
            "BM1L": [
                720
            ], 
            "WBO": [
                945, 
                8028, 
                8, 
                8805, 
                8991, 
                5284, 
                4376, 
                4717
            ], 
            "WBL": [
                8034
            ], 
            "irrelevant_Noun": [
                0
            ], 
            "M1_ADJ": [
                1
            ]
        }, 
        "location1": [
            13
        ], 
        "location2": [
            6, 
            25
        ], 
        "sentence": "and yes , your jumper cable should cost close to as much as your spare tire because that 's what you need -- - just look up the cost of copper on the market ( that stuff is expensive ) ."
    }
}