{
    "62d9baf70f0422d98f354e155efb8449": {
        "(8, 19)": {
            "WBF": [
                8157
            ], 
            "BM1F": [
                7735
            ], 
            "M1": [
                7457
            ], 
            "irrelevant_Adj": [
                0
            ], 
            "M2": [
                6103
            ], 
            "BM1L": [
                5419
            ], 
            "WBO": [
                4694, 
                4268, 
                310, 
                7208, 
                8162, 
                8531, 
                599
            ], 
            "WBL": [
                7733
            ], 
            "irrelevant_Noun": [
                0
            ], 
            "M1_ADJ": [
                1
            ]
        }, 
        "location1": [
            8
        ], 
        "location2": [
            19
        ], 
        "sentence": "master lock 262 dat chrome lug nut style spare tire lock is a simple to use and reasonable sturdy product ."
    }
}