{
    "62d9baf70f0422d98f354e155efb8449": {
        "(8, 4)": {
            "AM2L": [
                4694
            ], 
            "AM2F": [
                8157
            ], 
            "WBF": [
                4772
            ], 
            "BM1F": [
                2077
            ], 
            "M1": [
                1531
            ], 
            "irrelevant_Adj": [
                0
            ], 
            "M2": [
                7457
            ], 
            "BM1L": [
                150
            ], 
            "WBO": [
                5419
            ], 
            "WBL": [
                7735
            ], 
            "irrelevant_Noun": [
                0
            ], 
            "M1_ADJ": [
                0
            ]
        }, 
        "location1": [
            8
        ], 
        "location2": [
            4
        ], 
        "sentence": "master lock 262 dat chrome lug nut style spare tire lock is a simple to use and reasonable sturdy product ."
    }
}