{
    "2871a6710e2588f100d8a6b3b1ef2f5e": {
        "(11, 34)": {
            "AM2L": [
                3319
            ], 
            "AM2F": [
                4515
            ], 
            "WBF": [
                921
            ], 
            "BM1F": [
                310
            ], 
            "M1": [
                7457
            ], 
            "irrelevant_Adj": [
                0
            ], 
            "M2": [
                3915
            ], 
            "BM1L": [
                3717
            ], 
            "WBO": [
                8028, 
                8991, 
                8531, 
                3252, 
                8065, 
                4625, 
                8073, 
                599, 
                2911, 
                8991, 
                8162, 
                4401, 
                8991, 
                8709, 
                527, 
                5333, 
                8991, 
                4, 
                8686
            ], 
            "WBL": [
                591
            ], 
            "irrelevant_Noun": [
                0
            ], 
            "M1_ADJ": [
                1
            ]
        }, 
        "location1": [
            11
        ], 
        "location2": [
            34
        ], 
        "sentence": "if you camp in your van at night and have a spare battery that you use for thing like this and expect you to keep you warm all night you 'll wake up an hour later freezing ."
    }
}