{
    "62d9baf70f0422d98f354e155efb8449": {
        "location1": [
            8
        ], 
        "location2": [
            7
        ], 
        "(8, 7)": {
            "AM2L": [
                4694
            ], 
            "BM1F": [
                5419
            ], 
            "M1": [
                7735
            ], 
            "irrelevant_Adj": [
                0
            ], 
            "M2": [
                7457
            ], 
            "BM1L": [
                4772
            ], 
            "WBNULL": [
                1
            ], 
            "irrelevant_Noun": [
                0
            ], 
            "AM2F": [
                8157
            ], 
            "M1_ADJ": [
                0
            ]
        }, 
        "sentence": "master lock 262 dat chrome lug nut style spare tire lock is a simple to use and reasonable sturdy product ."
    }
}