{
    "d3fcafac577fb0fef79a2857d19134ab": {
        "location1": [
            4
        ], 
        "location2": [
            8
        ], 
        "(4, 8)": {
            "AM2F": [
                8250
            ], 
            "WBF": [
                8157
            ], 
            "BM1F": [
                5232
            ], 
            "M1": [
                7457
            ], 
            "irrelevant_Adj": [
                0
            ], 
            "M2": [
                8549
            ], 
            "BM1L": [
                3252
            ], 
            "WBO": [
                5495
            ], 
            "WBL": [
                5232
            ], 
            "irrelevant_Noun": [
                0
            ], 
            "M1_ADJ": [
                1
            ]
        }, 
        "sentence": "bought this for my spare tire on my utility trailer ."
    }, 
    "3e39dd0b2e7295fa70e6dc6745611eee": {
        "location1": [
            7
        ], 
        "location2": [
            11
        ], 
        "(7, 11)": {
            "AM2F": [
                8250
            ], 
            "WBF": [
                8157
            ], 
            "BM1F": [
                8034
            ], 
            "M1": [
                7457
            ], 
            "irrelevant_Adj": [
                0
            ], 
            "M2": [
                8549
            ], 
            "BM1L": [
                6960
            ], 
            "WBO": [
                5495
            ], 
            "WBL": [
                5232
            ], 
            "irrelevant_Noun": [
                0
            ], 
            "M1_ADJ": [
                1
            ]
        }, 
        "sentence": "i 'm using this to secure the spare tire on my utility trailer ."
    }
}