{
    "e183ee35b1972ddccacf28d8607ef1e3": {
        "(5, 1)": {
            "AM2L": [
                688
            ], 
            "AM2F": [
                8190
            ], 
            "WBF": [
                8028
            ], 
            "BM1F": [
                4772
            ], 
            "M1": [
                5419
            ], 
            "irrelevant_Adj": [
                0
            ], 
            "M2": [
                7468
            ], 
            "WBO": [
                6557
            ], 
            "WBL": [
                310
            ], 
            "irrelevant_Noun": [
                0
            ], 
            "M1_ADJ": [
                0
            ]
        }, 
        "location1": [
            5
        ], 
        "location2": [
            1
        ], 
        "sentence": "lug nut that require a special tool are more secure ."
    }
}