{
    "e183ee35b1972ddccacf28d8607ef1e3": {
        "(5, 9)": {
            "WBF": [
                8190
            ], 
            "BM1F": [
                310
            ], 
            "M1": [
                7468
            ], 
            "irrelevant_Adj": [
                0
            ], 
            "M2": [
                6960
            ], 
            "BM1L": [
                6557
            ], 
            "WBO": [
                688
            ], 
            "WBL": [
                5148
            ], 
            "irrelevant_Noun": [
                0
            ], 
            "M1_ADJ": [
                1
            ]
        }, 
        "location1": [
            5
        ], 
        "location2": [
            9
        ], 
        "sentence": "lug nut that require a special tool are more secure ."
    }
}