{
    "104f9d82e3047049294beaada8f21bcf": {
        "location1": [
            10
        ], 
        "location2": [
            4
        ], 
        "(10, 4)": {
            "AM2F": [
                3248
            ], 
            "WBF": [
                8029
            ], 
            "BM1F": [
                5458
            ], 
            "M1": [
                642
            ], 
            "irrelevant_Adj": [
                0
            ], 
            "M2": [
                7544
            ], 
            "BM1L": [
                8067
            ], 
            "WBO": [
                8927, 
                73
            ], 
            "WBL": [
                310
            ], 
            "irrelevant_Noun": [
                0
            ], 
            "M1_ADJ": [
                0
            ]
        }, 
        "sentence": ") can u think of anything thats worth 15 dollar a square foot ?"
    }
}