{
    "aae3a25c7393500867c8407cd178e146": {
        "(11, 4)": {
            "AM2F": [
                3248
            ], 
            "WBF": [
                7210
            ], 
            "BM1F": [
                8053
            ], 
            "M1": [
                6103
            ], 
            "irrelevant_Adj": [
                0
            ], 
            "M2": [
                7544
            ], 
            "BM1L": [
                760
            ], 
            "WBO": [
                1301, 
                8034, 
                401
            ], 
            "WBL": [
                5752
            ], 
            "irrelevant_Noun": [
                0
            ], 
            "M1_ADJ": [
                0
            ]
        }, 
        "location1": [
            11
        ], 
        "location2": [
            4
        ], 
        "sentence": "when looking at these product , simply calculate the actual cost per square foot ."
    }
}