{
    "36994080f91fc8594989c3644f2006fe": {
        "(1, 6)": {
            "AM2L": [
                3217
            ], 
            "AM2F": [
                6054
            ], 
            "WBF": [
                3248
            ], 
            "BM1F": [
                188
            ], 
            "M1": [
                7544
            ], 
            "irrelevant_Adj": [
                0
            ], 
            "M2": [
                1214
            ], 
            "WBO": [
                3252
            ], 
            "WBL": [
                138
            ], 
            "irrelevant_Noun": [
                0
            ], 
            "M1_ADJ": [
                1
            ]
        }, 
        "location1": [
            1
        ], 
        "location2": [
            6
        ], 
        "sentence": "38 square foot , for around 22 buck ( price fluxuates like its a stock or something ?"
    }
}