{
    "fa8f63f7ecc50796fd91a0680e3dae42": {
        "(24, 11)": {
            "AM2L": [
                8162
            ], 
            "AM2F": [
                7615
            ], 
            "WBF": [
                8162
            ], 
            "BM1F": [
                6757
            ], 
            "M1": [
                1339
            ], 
            "irrelevant_Adj": [
                0
            ], 
            "M2": [
                7569
            ], 
            "BM1L": [
                4671
            ], 
            "WBO": [
                4401, 
                8034, 
                3591, 
                5574, 
                5458, 
                8034, 
                4694, 
                4954, 
                599
            ], 
            "WBL": [
                8
            ], 
            "irrelevant_Noun": [
                0
            ], 
            "M1_ADJ": [
                0
            ]
        }, 
        "location1": [
            24
        ], 
        "location2": [
            11
        ], 
        "sentence": "there 's a little anodized flare , and a decent little rubber cap to keep the grit out of the lock mechanism and it 's stainless steel to boot !"
    }
}