{
    "fa8f63f7ecc50796fd91a0680e3dae42": {
        "location1": [
            24
        ], 
        "location2": [
            25
        ], 
        "(24, 25)": {
            "AM2L": [
                1121
            ], 
            "BM1F": [
                8
            ], 
            "M1": [
                7569
            ], 
            "irrelevant_Adj": [
                0
            ], 
            "M2": [
                7615
            ], 
            "BM1L": [
                4283
            ], 
            "WBNULL": [
                1
            ], 
            "irrelevant_Noun": [
                0
            ], 
            "AM2F": [
                8162
            ], 
            "M1_ADJ": [
                1
            ]
        }, 
        "sentence": "there 's a little anodized flare , and a decent little rubber cap to keep the grit out of the lock mechanism and it 's stainless steel to boot !"
    }, 
    "0339f6d544f578bb4f697b5607e82537": {
        "location1": [
            14
        ], 
        "location2": [
            15
        ], 
        "(14, 15)": {
            "AM2L": [
                7219
            ], 
            "BM1F": [
                310
            ], 
            "M1": [
                7569
            ], 
            "irrelevant_Adj": [
                0
            ], 
            "M2": [
                7615
            ], 
            "BM1L": [
                8410
            ], 
            "WBNULL": [
                1
            ], 
            "irrelevant_Noun": [
                0
            ], 
            "AM2F": [
                4440
            ], 
            "M1_ADJ": [
                1
            ]
        }, 
        "sentence": "i have used dynamat to combat noise in automobile , dishwasher and even under a stainless steel kitchen sink ."
    }, 
    "09ac83785de0bf2d05db518830a28ecf": {
        "(5, 6)": {
            "BM1F": [
                5325
            ], 
            "M1": [
                7569
            ], 
            "irrelevant_Adj": [
                0
            ], 
            "M2": [
                7615
            ], 
            "BM1L": [
                8603
            ], 
            "WBNULL": [
                1
            ], 
            "irrelevant_Noun": [
                0
            ], 
            "AM2F": [
                2239
            ], 
            "M1_ADJ": [
                1
            ]
        }, 
        "location1": [
            5
        ], 
        "location2": [
            6
        ], 
        "sentence": "this is a very nice stainless steel design ."
    }
}