{
    "0339f6d544f578bb4f697b5607e82537": {
        "location1": [
            14
        ], 
        "location2": [
            9
        ], 
        "(14, 9)": {
            "AM2L": [
                4440
            ], 
            "AM2F": [
                7615
            ], 
            "WBF": [
                599
            ], 
            "BM1F": [
                803
            ], 
            "M1": [
                2395
            ], 
            "irrelevant_Adj": [
                0
            ], 
            "M2": [
                7569
            ], 
            "BM1L": [
                4043
            ], 
            "WBO": [
                2847
            ], 
            "WBL": [
                310
            ], 
            "irrelevant_Noun": [
                0
            ], 
            "M1_ADJ": [
                0
            ]
        }, 
        "sentence": "i have used dynamat to combat noise in automobile , dishwasher and even under a stainless steel kitchen sink ."
    }
}