{
    "1634ecc9737304dbeed723386234c63e": {
        "location1": [
            24
        ], 
        "location2": [
            2
        ], 
        "(24, 2)": {
            "AM2L": [
                5543
            ], 
            "AM2F": [
                8227
            ], 
            "WBF": [
                2547
            ], 
            "BM1F": [
                2030
            ], 
            "M1": [
                1358
            ], 
            "irrelevant_Adj": [
                0
            ], 
            "M2": [
                7579
            ], 
            "BM1L": [
                4283
            ], 
            "WBO": [
                8140, 
                760, 
                4553, 
                4043, 
                3651, 
                4930, 
                5148, 
                5894, 
                8034, 
                2653, 
                8162, 
                2545, 
                8887, 
                8073, 
                8227, 
                4268, 
                4578, 
                8024
            ], 
            "WBL": [
                310
            ], 
            "irrelevant_Noun": [
                0
            ], 
            "M1_ADJ": [
                0
            ]
        }, 
        "sentence": "it cut car drying time at least in half , maybe more , plus the effort to dry with this towel is less than with a standard towel or chamois ."
    }
}