{
    "77fe0d15aaf64c6c1215082a29765665": {
        "(17, 12)": {
            "AM2L": [
                823
            ], 
            "AM2F": [
                8108
            ], 
            "WBF": [
                8162
            ], 
            "BM1F": [
                1014
            ], 
            "M1": [
                508
            ], 
            "irrelevant_Adj": [
                0
            ], 
            "M2": [
                7579
            ], 
            "BM1L": [
                5191
            ], 
            "WBO": [
                8034
            ], 
            "WBL": [
                8024
            ], 
            "irrelevant_Noun": [
                0
            ], 
            "M1_ADJ": [
                0
            ]
        }, 
        "location1": [
            17
        ], 
        "location2": [
            12
        ], 
        "sentence": "it adds a throating sound to your vehicle while delivering much better airflow to the engine than standard throw away filter ."
    }
}