{
    "1634ecc9737304dbeed723386234c63e": {
        "(24, 8)": {
            "AM2L": [
                5543
            ], 
            "AM2F": [
                8227
            ], 
            "WBF": [
                4930
            ], 
            "BM1F": [
                4043
            ], 
            "M1": [
                3651
            ], 
            "irrelevant_Adj": [
                0
            ], 
            "M2": [
                7579
            ], 
            "BM1L": [
                4553
            ], 
            "WBO": [
                5148, 
                5894, 
                8034, 
                2653, 
                8162, 
                2545, 
                8887, 
                8073, 
                8227, 
                4268, 
                4578, 
                8024
            ], 
            "WBL": [
                310
            ], 
            "irrelevant_Noun": [
                0
            ], 
            "M1_ADJ": [
                0
            ]
        }, 
        "location1": [
            24
        ], 
        "location2": [
            8
        ], 
        "sentence": "it cut car drying time at least in half , maybe more , plus the effort to dry with this towel is less than with a standard towel or chamois ."
    }
}