{
    "b3b001cd48e2731f5fdd0bdd509ffd8d": {
        "(5, 6)": {
            "AM2L": [
                4043
            ], 
            "BM1F": [
                5495
            ], 
            "M1": [
                7579
            ], 
            "irrelevant_Adj": [
                0
            ], 
            "M2": [
                3951
            ], 
            "BM1L": [
                8053
            ], 
            "WBNULL": [
                1
            ], 
            "irrelevant_Noun": [
                0
            ], 
            "AM2F": [
                6451
            ], 
            "M1_ADJ": [
                1
            ]
        }, 
        "location1": [
            5
        ], 
        "location2": [
            6
        ], 
        "sentence": "i am using these on standard hvac register in our new house ."
    }
}