{
    "e1e90cc5c719ce5aee7b46ed722a1251": {
        "location1": [
            12
        ], 
        "location2": [
            6
        ], 
        "(12, 6)": {
            "AM2F": [
                7690
            ], 
            "WBF": [
                3338
            ], 
            "BM1F": [
                8736
            ], 
            "M1": [
                5714
            ], 
            "irrelevant_Adj": [
                0
            ], 
            "M2": [
                7613
            ], 
            "BM1L": [
                5458
            ], 
            "WBO": [
                3352, 
                7369
            ], 
            "WBL": [
                3688
            ], 
            "irrelevant_Noun": [
                0
            ], 
            "M1_ADJ": [
                0
            ]
        }, 
        "sentence": "it has a variety of water pattern from full soaking to hard steady stream ."
    }
}