{
    "696e5a7615ea326d46187cafdc636932": {
        "(20, 8)": {
            "AM2L": [
                969
            ], 
            "AM2F": [
                7937
            ], 
            "WBF": [
                599
            ], 
            "BM1F": [
                5579
            ], 
            "M1": [
                1914
            ], 
            "irrelevant_Adj": [
                0
            ], 
            "M2": [
                7634
            ], 
            "BM1L": [
                3228
            ], 
            "WBO": [
                8330, 
                8162, 
                3459, 
                4283, 
                5459, 
                4376, 
                4542, 
                310
            ], 
            "WBL": [
                5458
            ], 
            "irrelevant_Noun": [
                0
            ], 
            "M1_ADJ": [
                0
            ]
        }, 
        "location1": [
            20
        ], 
        "location2": [
            8
        ], 
        "sentence": "it is essentially tar with a foil outer cover , and trying to get it off just leaf a bunch of sticky tar behind ."
    }, 
    "c39f9dbb8abe5b0ab6bb7d508a129d19": {
        "(20, 8)": {
            "AM2L": [
                969
            ], 
            "AM2F": [
                7937
            ], 
            "WBF": [
                599
            ], 
            "BM1F": [
                5579
            ], 
            "M1": [
                1914
            ], 
            "irrelevant_Adj": [
                0
            ], 
            "M2": [
                7634
            ], 
            "BM1L": [
                3228
            ], 
            "WBO": [
                8330, 
                8162, 
                3459, 
                4283, 
                5459, 
                4376, 
                4542, 
                310
            ], 
            "WBL": [
                5458
            ], 
            "irrelevant_Noun": [
                0
            ], 
            "M1_ADJ": [
                0
            ]
        }, 
        "location1": [
            20
        ], 
        "location2": [
            8
        ], 
        "sentence": "it is essentially tar with a foil outer cover , and trying to get it off just leaf a bunch of sticky tar behind ."
    }
}