{
    "93762dab4376c15deb531b2448620ba2": {
        "(14, 20)": {
            "AM2L": [
                8034
            ], 
            "AM2F": [
                5543
            ], 
            "WBF": [
                6413
            ], 
            "BM1F": [
                8887
            ], 
            "M1": [
                7686
            ], 
            "irrelevant_Adj": [
                0
            ], 
            "M2": [
                5846
            ], 
            "BM1L": [
                4279
            ], 
            "WBO": [
                3089, 
                527
            ], 
            "WBL": [
                8034
            ], 
            "irrelevant_Noun": [
                1
            ], 
            "M1_ADJ": [
                1
            ]
        }, 
        "location1": [
            14
        ], 
        "location2": [
            20
        ], 
        "sentence": "that seemed to do the trick because i have n't had any issue with stray red fiber all over the place or the pad falling apart as i 've read in previous review ."
    }
}