{
    "a7b35a0573c9d26454ba822295eb3376": {
        "(4, 5)": {
            "AM2L": [
                8756
            ], 
            "BM1F": [
                310
            ], 
            "M1": [
                7707
            ], 
            "irrelevant_Adj": [
                0
            ], 
            "M2": [
                6583
            ], 
            "BM1L": [
                3705
            ], 
            "WBNULL": [
                1
            ], 
            "irrelevant_Noun": [
                0
            ], 
            "AM2F": [
                7362
            ], 
            "M1_ADJ": [
                1
            ]
        }, 
        "location1": [
            4
        ], 
        "location2": [
            5
        ], 
        "sentence": "this thing has a strong resonance , so we can still hear it in other space ."
    }
}