{
    "639f682aa2374827ca28e34fc5b9b5f5": {
        "(4, 9)": {
            "WBF": [
                599
            ], 
            "BM1F": [
                7795
            ], 
            "M1": [
                7707
            ], 
            "irrelevant_Adj": [
                0
            ], 
            "M2": [
                1568
            ], 
            "BM1L": [
                688
            ], 
            "WBO": [
                8034
            ], 
            "WBL": [
                7795
            ], 
            "irrelevant_Noun": [
                0
            ], 
            "M1_ADJ": [
                1
            ]
        }, 
        "location1": [
            4
        ], 
        "location2": [
            9
        ], 
        "sentence": "the magnet are super strong and the material super clear ."
    }
}