{
    "f1a0b41a47e8494cac2e10b7f80e3bb5": {
        "(4, 7)": {
            "AM2L": [
                8501
            ], 
            "AM2F": [
                8053
            ], 
            "WBF": [
                8812
            ], 
            "BM1F": [
                8603
            ], 
            "M1": [
                7707
            ], 
            "irrelevant_Adj": [
                0
            ], 
            "M2": [
                4612
            ], 
            "BM1L": [
                688
            ], 
            "WBO": [
                3962
            ], 
            "WBL": [
                3962
            ], 
            "irrelevant_Noun": [
                0
            ], 
            "M1_ADJ": [
                1
            ]
        }, 
        "location1": [
            4
        ], 
        "location2": [
            7
        ], 
        "sentence": "the magnet are very strong , when i lift these up for cleaning , i pull the entire metal register out of the floor ."
    }
}