{
    "f1a0b41a47e8494cac2e10b7f80e3bb5": {
        "location1": [
            4
        ], 
        "location2": [
            21
        ], 
        "(4, 21)": {
            "WBF": [
                8812
            ], 
            "BM1F": [
                8603
            ], 
            "M1": [
                7707
            ], 
            "irrelevant_Adj": [
                0
            ], 
            "M2": [
                3200
            ], 
            "BM1L": [
                688
            ], 
            "WBO": [
                3962, 
                4612, 
                8053, 
                8501, 
                3252, 
                1567, 
                3962, 
                6181, 
                8034, 
                2787, 
                5001, 
                6451, 
                5574
            ], 
            "WBL": [
                8034
            ], 
            "irrelevant_Noun": [
                0
            ], 
            "M1_ADJ": [
                1
            ]
        }, 
        "sentence": "the magnet are very strong , when i lift these up for cleaning , i pull the entire metal register out of the floor ."
    }
}