{
    "88db01cc833235aeca41d76b05510159": {
        "(4, 1)": {
            "AM2L": [
                898
            ], 
            "AM2F": [
                1262
            ], 
            "WBF": [
                688
            ], 
            "BM1F": [
                8034
            ], 
            "M1": [
                4808
            ], 
            "irrelevant_Adj": [
                0
            ], 
            "M2": [
                7707
            ], 
            "WBO": [
                5245
            ], 
            "WBL": [
                5245
            ], 
            "irrelevant_Noun": [
                0
            ], 
            "M1_ADJ": [
                0
            ]
        }, 
        "location1": [
            4, 
            7
        ], 
        "location2": [
            1
        ], 
        "(7, 1)": {
            "AM2L": [
                8162
            ], 
            "AM2F": [
                2767
            ], 
            "WBF": [
                688
            ], 
            "BM1F": [
                8034
            ], 
            "M1": [
                4808
            ], 
            "irrelevant_Adj": [
                0
            ], 
            "M2": [
                7707
            ], 
            "WBO": [
                5245, 
                7707
            ], 
            "WBL": [
                898
            ], 
            "irrelevant_Noun": [
                0
            ], 
            "M1_ADJ": [
                0
            ]
        }, 
        "sentence": "the magnet are n't strong but - barely strong enough to hold on the ceiling ."
    }, 
    "639f682aa2374827ca28e34fc5b9b5f5": {
        "(4, 1)": {
            "AM2L": [
                8034
            ], 
            "AM2F": [
                599
            ], 
            "WBF": [
                688
            ], 
            "BM1F": [
                8034
            ], 
            "M1": [
                4808
            ], 
            "irrelevant_Adj": [
                0
            ], 
            "M2": [
                7707
            ], 
            "WBO": [
                7795
            ], 
            "WBL": [
                7795
            ], 
            "irrelevant_Noun": [
                0
            ], 
            "M1_ADJ": [
                0
            ]
        }, 
        "location1": [
            4
        ], 
        "location2": [
            1
        ], 
        "sentence": "the magnet are super strong and the material super clear ."
    }, 
    "17b598d69c2ddf0ba3acbe68b69b911e": {
        "(4, 5)": {
            "AM2L": [
                8034
            ], 
            "BM1F": [
                4501
            ], 
            "M1": [
                7707
            ], 
            "irrelevant_Adj": [
                0
            ], 
            "M2": [
                4808
            ], 
            "BM1L": [
                5862
            ], 
            "WBNULL": [
                1
            ], 
            "irrelevant_Noun": [
                0
            ], 
            "AM2F": [
                5495
            ], 
            "M1_ADJ": [
                1
            ]
        }, 
        "location1": [
            4
        ], 
        "location2": [
            5
        ], 
        "sentence": "heavy duty plastic , large strong magnet on the side and they work perfectly ."
    }, 
    "f1a0b41a47e8494cac2e10b7f80e3bb5": {
        "(4, 1)": {
            "AM2L": [
                3962
            ], 
            "AM2F": [
                8812
            ], 
            "WBF": [
                688
            ], 
            "BM1F": [
                8034
            ], 
            "M1": [
                4808
            ], 
            "irrelevant_Adj": [
                0
            ], 
            "M2": [
                7707
            ], 
            "WBO": [
                8603
            ], 
            "WBL": [
                8603
            ], 
            "irrelevant_Noun": [
                0
            ], 
            "M1_ADJ": [
                0
            ]
        }, 
        "location1": [
            4
        ], 
        "location2": [
            1
        ], 
        "sentence": "the magnet are very strong , when i lift these up for cleaning , i pull the entire metal register out of the floor ."
    }, 
    "ee3c228cbb36c64694c6541b9936cfc7": {
        "(3, 1)": {
            "AM2L": [
                8162
            ], 
            "WBFL": [
                688
            ], 
            "BM1F": [
                8034
            ], 
            "M1": [
                4808
            ], 
            "irrelevant_Adj": [
                0
            ], 
            "M2": [
                7707
            ], 
            "AM2F": [
                2767
            ], 
            "irrelevant_Noun": [
                0
            ], 
            "M1_ADJ": [
                0
            ]
        }, 
        "location1": [
            3
        ], 
        "location2": [
            1
        ], 
        "sentence": "the magnet are strong enough to hold tight on register that have several coat of paint on them , too ."
    }
}