{
    "2b6a93f79c2479930d4f80f947b9f852": {
        "(9, 10)": {
            "BM1F": [
                599
            ], 
            "M1": [
                7733
            ], 
            "irrelevant_Adj": [
                0
            ], 
            "M2": [
                1811
            ], 
            "BM1L": [
                8781
            ], 
            "WBNULL": [
                1
            ], 
            "irrelevant_Noun": [
                0
            ], 
            "M1_ADJ": [
                1
            ]
        }, 
        "location1": [
            9
        ], 
        "location2": [
            10
        ], 
        "sentence": "i am really surprised by the light weight and sturdy construction ."
    }
}