{
    "b042107adaa0a45a3268235a5758bdf5": {
        "location1": [
            1
        ], 
        "location2": [
            26
        ], 
        "(1, 26)": {
            "WBF": [
                3962
            ], 
            "BM1F": [
                720
            ], 
            "M1": [
                7760
            ], 
            "irrelevant_Adj": [
                0
            ], 
            "M2": [
                8979
            ], 
            "WBO": [
                4929, 
                5387, 
                3717, 
                310, 
                4737, 
                5458, 
                4106, 
                8162, 
                412, 
                2883, 
                3252, 
                8034, 
                2979, 
                8028, 
                3962, 
                10, 
                3646, 
                8073, 
                5410, 
                3252, 
                760
            ], 
            "WBL": [
                3154
            ], 
            "irrelevant_Noun": [
                0
            ], 
            "M1_ADJ": [
                1
            ]
        }, 
        "sentence": "as such , i may not have a lot of information to add , except for the fact that i 've had this nozzle for at least five year ."
    }
}