{
    "3357b99e51e4e42a9c9e239717e7e250": {
        "location1": [
            6
        ], 
        "location2": [
            5
        ], 
        "(6, 5)": {
            "AM2L": [
                6935
            ], 
            "BM1F": [
                3349
            ], 
            "M1": [
                422
            ], 
            "irrelevant_Adj": [
                0
            ], 
            "M2": [
                7760
            ], 
            "BM1L": [
                3252
            ], 
            "WBNULL": [
                1
            ], 
            "irrelevant_Noun": [
                0
            ], 
            "AM2F": [
                720
            ], 
            "M1_ADJ": [
                0
            ]
        }, 
        "sentence": "i use mine for fuel additive such as seafoam , which is a good product but the container is difficult to pour into most car/truck fuel tank ."
    }
}