{
    "ac1cdf3f2bd4d6906d5ddb23c37bfc27": {
        "(15, 2)": {
            "AM2L": [
                599
            ], 
            "AM2F": [
                5455
            ], 
            "WBF": [
                8851
            ], 
            "BM1F": [
                8028
            ], 
            "M1": [
                7722
            ], 
            "irrelevant_Adj": [
                0
            ], 
            "M2": [
                7760
            ], 
            "BM1L": [
                3924
            ], 
            "WBO": [
                7318, 
                865, 
                8812, 
                4283, 
                3752, 
                8501, 
                8815, 
                1267, 
                2445
            ], 
            "WBL": [
                3717
            ], 
            "irrelevant_Noun": [
                0
            ], 
            "M1_ADJ": [
                0
            ]
        }, 
        "location1": [
            15
        ], 
        "location2": [
            2
        ], 
        "sentence": "however that stuff will smell bad when it heat up ( whereas butyl does n't have such odor ) and it does n't have an aluminum layer so it 's more dangerous if it were to catch fire , and asphalt can ooze into a liquid ."
    }
}