{
    "ac1cdf3f2bd4d6906d5ddb23c37bfc27": {
        "location1": [
            15
        ], 
        "location2": [
            11
        ], 
        "(15, 11)": {
            "AM2L": [
                599
            ], 
            "AM2F": [
                5455
            ], 
            "WBF": [
                2445
            ], 
            "BM1F": [
                8815
            ], 
            "M1": [
                1267
            ], 
            "irrelevant_Adj": [
                0
            ], 
            "M2": [
                7760
            ], 
            "BM1L": [
                8501
            ], 
            "WBO": [
                5245
            ], 
            "WBL": [
                3717
            ], 
            "irrelevant_Noun": [
                0
            ], 
            "M1_ADJ": [
                0
            ]
        }, 
        "sentence": "however that stuff will smell bad when it heat up ( whereas butyl does n't have such odor ) and it does n't have an aluminum layer so it 's more dangerous if it were to catch fire , and asphalt can ooze into a liquid ."
    }
}