{
    "639f682aa2374827ca28e34fc5b9b5f5": {
        "(8, 1)": {
            "WBF": [
                688
            ], 
            "BM1F": [
                8034
            ], 
            "M1": [
                4808
            ], 
            "irrelevant_Adj": [
                0
            ], 
            "M2": [
                7795
            ], 
            "WBO": [
                7795, 
                7707, 
                599
            ], 
            "WBL": [
                4914
            ], 
            "irrelevant_Noun": [
                0
            ], 
            "AM2F": [
                1568
            ], 
            "M1_ADJ": [
                0
            ]
        }, 
        "(3, 1)": {
            "AM2L": [
                599
            ], 
            "WBFL": [
                688
            ], 
            "BM1F": [
                8034
            ], 
            "M1": [
                4808
            ], 
            "irrelevant_Adj": [
                0
            ], 
            "M2": [
                7795
            ], 
            "AM2F": [
                7707
            ], 
            "irrelevant_Noun": [
                0
            ], 
            "M1_ADJ": [
                0
            ]
        }, 
        "location1": [
            3, 
            8
        ], 
        "location2": [
            1
        ], 
        "sentence": "the magnet are super strong and the material super clear ."
    }
}