{
    "88632ff52306e1f5abf620c2e2ef786e": {
        "(23, 20)": {
            "AM2L": [
                1445
            ], 
            "AM2F": [
                334
            ], 
            "WBF": [
                4625
            ], 
            "BM1F": [
                929
            ], 
            "M1": [
                7409
            ], 
            "irrelevant_Adj": [
                0
            ], 
            "M2": [
                7795
            ], 
            "BM1L": [
                8931
            ], 
            "WBO": [
                310
            ], 
            "WBL": [
                310
            ], 
            "irrelevant_Noun": [
                0
            ], 
            "M1_ADJ": [
                0
            ]
        }, 
        "location1": [
            23
        ], 
        "location2": [
            20
        ], 
        "sentence": "`` i bought two actually , one for her and one for me to use on my bicycle -- thinking it would be something like a super absorbant chamois rather than a gum towel ."
    }
}