{
    "9a170ed254fd773f7757fad6e0d9cb69": {
        "(14, 23)": {
            "AM2L": [
                8034
            ], 
            "AM2F": [
                8162
            ], 
            "WBF": [
                8810
            ], 
            "BM1F": [
                6793
            ], 
            "M1": [
                7795
            ], 
            "irrelevant_Adj": [
                0
            ], 
            "M2": [
                775
            ], 
            "BM1L": [
                201
            ], 
            "WBO": [
                1516, 
                1141, 
                8073, 
                5387, 
                5724
            ], 
            "WBL": [
                1598
            ], 
            "irrelevant_Noun": [
                0
            ], 
            "M1_ADJ": [
                1
            ]
        }, 
        "location1": [
            14
        ], 
        "location2": [
            23
        ], 
        "sentence": "this is not the heavy duty wheel chock that camco also sellscamco 44492 rv super wheel chocki bought this not paying very close attention to the detail ."
    }
}