{
    "9a170ed254fd773f7757fad6e0d9cb69": {
        "location1": [
            14
        ], 
        "location2": [
            6, 
            15
        ], 
        "(14, 15)": {
            "AM2L": [
                1141
            ], 
            "BM1F": [
                6793
            ], 
            "M1": [
                7795
            ], 
            "irrelevant_Adj": [
                0
            ], 
            "M2": [
                8810
            ], 
            "BM1L": [
                201
            ], 
            "WBNULL": [
                1
            ], 
            "irrelevant_Noun": [
                0
            ], 
            "AM2F": [
                1516
            ], 
            "M1_ADJ": [
                1
            ]
        }, 
        "(14, 6)": {
            "AM2L": [
                1516
            ], 
            "AM2F": [
                8810
            ], 
            "WBF": [
                1515
            ], 
            "BM1F": [
                2583
            ], 
            "M1": [
                8810
            ], 
            "irrelevant_Adj": [
                0
            ], 
            "M2": [
                7795
            ], 
            "BM1L": [
                3762
            ], 
            "WBO": [
                8028, 
                1312, 
                554, 
                6996
            ], 
            "WBL": [
                6793
            ], 
            "irrelevant_Noun": [
                0
            ], 
            "M1_ADJ": [
                0
            ]
        }, 
        "sentence": "this is not the heavy duty wheel chock that camco also sellscamco 44492 rv super wheel chocki bought this not paying very close attention to the detail ."
    }
}