{
    "1c81fabb3bfc9cc2630671fe607b2ddd": {
        "location1": [
            63
        ], 
        "location2": [
            76
        ], 
        "(63, 76)": {
            "WBF": [
                1637
            ], 
            "BM1F": [
                8080
            ], 
            "M1": [
                7795
            ], 
            "irrelevant_Adj": [
                0
            ], 
            "M2": [
                3754
            ], 
            "BM1L": [
                5495
            ], 
            "WBO": [
                5333, 
                8812, 
                3962, 
                554, 
                5887, 
                4043, 
                5232, 
                921, 
                1057
            ], 
            "WBL": [
                5483
            ], 
            "irrelevant_Noun": [
                0
            ], 
            "M1_ADJ": [
                1
            ]
        }, 
        "sentence": "i ordered four to start , one for dad [ has a truck he rarely drive ] , one for car i `` baby-sit `` , one of wife 's jeep it sometimes does not get driven for day which is only a concern during cold illinois winter , and my truck which always is outside [ does not fit in garage ] and thought it would be a good idea on those super cold night when i also plug in my battery blanket and oil heater ."
    }
}