{
    "9a170ed254fd773f7757fad6e0d9cb69": {
        "(14, 16)": {
            "AM2L": [
                8073
            ], 
            "WBFL": [
                8810
            ], 
            "BM1F": [
                6793
            ], 
            "M1": [
                7795
            ], 
            "irrelevant_Adj": [
                0
            ], 
            "M2": [
                1516
            ], 
            "BM1L": [
                201
            ], 
            "AM2F": [
                1141
            ], 
            "irrelevant_Noun": [
                0
            ], 
            "M1_ADJ": [
                1
            ]
        }, 
        "location1": [
            14
        ], 
        "location2": [
            16
        ], 
        "sentence": "this is not the heavy duty wheel chock that camco also sellscamco 44492 rv super wheel chocki bought this not paying very close attention to the detail ."
    }
}