{
    "2b2adc19e8f34456396060fdf6894024": {
        "(3, 11)": {
            "AM2L": [
                8931
            ], 
            "AM2F": [
                3962
            ], 
            "WBF": [
                334
            ], 
            "BM1F": [
                1434
            ], 
            "M1": [
                7795
            ], 
            "irrelevant_Adj": [
                0
            ], 
            "M2": [
                6219
            ], 
            "BM1L": [
                8
            ], 
            "WBO": [
                1262, 
                2445, 
                5245, 
                3717
            ], 
            "WBL": [
                1445
            ], 
            "irrelevant_Noun": [
                0
            ], 
            "M1_ADJ": [
                1
            ]
        }, 
        "location1": [
            3
        ], 
        "location2": [
            11
        ], 
        "sentence": "it 's certainly super absorbant , but does n't have the chamois quality i would need to , say , polish my bike frame ."
    }
}