{
    "1c81fabb3bfc9cc2630671fe607b2ddd": {
        "(63, 36)": {
            "AM2L": [
                5333
            ], 
            "AM2F": [
                1637
            ], 
            "WBF": [
                2576
            ], 
            "BM1F": [
                310
            ], 
            "M1": [
                1743
            ], 
            "irrelevant_Adj": [
                0
            ], 
            "M2": [
                7795
            ], 
            "BM1L": [
                5512
            ], 
            "WBO": [
                1637, 
                3995, 
                8869, 
                599, 
                5232, 
                8320, 
                8819, 
                565, 
                4268, 
                5589, 
                2445, 
                5387, 
                3149, 
                4043, 
                3416, 
                599, 
                8082, 
                4283, 
                8931, 
                929, 
                310, 
                3518, 
                3976
            ], 
            "WBL": [
                8080
            ], 
            "irrelevant_Noun": [
                0
            ], 
            "M1_ADJ": [
                0
            ]
        }, 
        "location1": [
            63
        ], 
        "location2": [
            36
        ], 
        "sentence": "i ordered four to start , one for dad [ has a truck he rarely drive ] , one for car i `` baby-sit `` , one of wife 's jeep it sometimes does not get driven for day which is only a concern during cold illinois winter , and my truck which always is outside [ does not fit in garage ] and thought it would be a good idea on those super cold night when i also plug in my battery blanket and oil heater ."
    }
}