{
    "88632ff52306e1f5abf620c2e2ef786e": {
        "(23, 30)": {
            "WBF": [
                334
            ], 
            "BM1F": [
                310
            ], 
            "M1": [
                7795
            ], 
            "irrelevant_Adj": [
                0
            ], 
            "M2": [
                8227
            ], 
            "BM1L": [
                4625
            ], 
            "WBO": [
                1445, 
                6303, 
                8024
            ], 
            "WBL": [
                3626
            ], 
            "irrelevant_Noun": [
                0
            ], 
            "M1_ADJ": [
                1
            ]
        }, 
        "location1": [
            23
        ], 
        "location2": [
            30
        ], 
        "sentence": "`` i bought two actually , one for her and one for me to use on my bicycle -- thinking it would be something like a super absorbant chamois rather than a gum towel ."
    }
}