{
    "718377d4af99ca7994cf8414caf6f2a7": {
        "(7, 17)": {
            "AM2L": [
                8034
            ], 
            "AM2F": [
                4043
            ], 
            "WBF": [
                1262
            ], 
            "BM1F": [
                3252
            ], 
            "M1": [
                7824
            ], 
            "irrelevant_Adj": [
                0
            ], 
            "M2": [
                5410
            ], 
            "BM1L": [
                4283
            ], 
            "WBO": [
                3962, 
                1434, 
                8931, 
                5387, 
                1791, 
                4283
            ], 
            "WBL": [
                2512
            ], 
            "irrelevant_Noun": [
                0
            ], 
            "M1_ADJ": [
                1
            ]
        }, 
        "location1": [
            7
        ], 
        "location2": [
            17
        ], 
        "sentence": "there is a use for it for sure , but i certainly would not consider it a `` dream `` nozzle in the least ."
    }, 
    "7e4a4e2a908930485270204e119812ec": {
        "location1": [
            4
        ], 
        "location2": [
            8
        ], 
        "(4, 8)": {
            "AM2L": [
                2985
            ], 
            "AM2F": [
                3646
            ], 
            "WBF": [
                2767
            ], 
            "BM1F": [
                599
            ], 
            "M1": [
                7824
            ], 
            "irrelevant_Adj": [
                0
            ], 
            "M2": [
                5410
            ], 
            "BM1L": [
                703
            ], 
            "WBO": [
                5232
            ], 
            "WBL": [
                5488
            ], 
            "irrelevant_Noun": [
                0
            ], 
            "M1_ADJ": [
                1
            ]
        }, 
        "sentence": "i looked around and sure enough , my old nozzle had failed ."
    }
}