{
    "a8c09772ca22dda7b9a5b32047b2096c": {
        "(5, 6)": {
            "AM2L": [
                7362
            ], 
            "BM1F": [
                310
            ], 
            "M1": [
                7886
            ], 
            "irrelevant_Adj": [
                0
            ], 
            "M2": [
                1445
            ], 
            "BM1L": [
                8534
            ], 
            "WBNULL": [
                1
            ], 
            "irrelevant_Noun": [
                0
            ], 
            "AM2F": [
                959
            ], 
            "M1_ADJ": [
                1
            ]
        }, 
        "location1": [
            5
        ], 
        "location2": [
            6
        ], 
        "sentence": "i 've never used a synthetic chamois before , so i 'm not sure how well they are supposed to work ."
    }
}