{
    "ee9395135b0f6e50058a71cf75e6f45d": {
        "(2, 3)": {
            "AM2L": [
                8991
            ], 
            "BM1F": [
                4831
            ], 
            "M1": [
                8006
            ], 
            "irrelevant_Adj": [
                0
            ], 
            "M2": [
                8872
            ], 
            "BM1L": [
                6268
            ], 
            "WBNULL": [
                1
            ], 
            "irrelevant_Noun": [
                0
            ], 
            "AM2F": [
                1262
            ], 
            "M1_ADJ": [
                1
            ]
        }, 
        "location1": [
            2
        ], 
        "location2": [
            3
        ], 
        "sentence": "rain-x makes terrible wiper , but you do n't need them if you put enough of this on ."
    }
}