{
    "894de8b5638acc34c0b4a2ec6a232c36": {
        "(9, 10)": {
            "BM1F": [
                5458
            ], 
            "M1": [
                8048
            ], 
            "irrelevant_Adj": [
                0
            ], 
            "M2": [
                2286
            ], 
            "BM1L": [
                6219
            ], 
            "WBNULL": [
                1
            ], 
            "irrelevant_Noun": [
                0
            ], 
            "AM2F": [
                5568
            ], 
            "M1_ADJ": [
                1
            ]
        }, 
        "location1": [
            9
        ], 
        "location2": [
            10
        ], 
        "sentence": "i will give full mark for the quality of thephysical device otherwise ."
    }
}