{
    "901a6751a13c90042555f1c0585c3b8e": {
        "location1": [
            18
        ], 
        "location2": [
            20
        ], 
        "(18, 20)": {
            "AM2L": [
                8034
            ], 
            "WBFL": [
                6757
            ], 
            "BM1F": [
                8028
            ], 
            "M1": [
                8058
            ], 
            "irrelevant_Adj": [
                0
            ], 
            "M2": [
                6669
            ], 
            "BM1L": [
                3338
            ], 
            "AM2F": [
                703
            ], 
            "irrelevant_Noun": [
                0
            ], 
            "M1_ADJ": [
                1
            ]
        }, 
        "sentence": "it 's heavy-duty enough to drop on the concrete , it just land with a dull thud from that thick rubber ring around the end , and year of abuse have n't affected it in the slightest ."
    }
}