{
    "ea50f9b3d3244e754d585833a8a64404": {
        "(2, 16)": {
            "AM2L": [
                4929
            ], 
            "AM2F": [
                6038
            ], 
            "WBF": [
                7690
            ], 
            "BM1F": [
                310
            ], 
            "M1": [
                8058
            ], 
            "irrelevant_Adj": [
                0
            ], 
            "M2": [
                8736
            ], 
            "BM1L": [
                7411
            ], 
            "WBO": [
                4268, 
                453, 
                1262, 
                8991, 
                8851, 
                929, 
                8542, 
                5148, 
                8736, 
                599
            ], 
            "WBL": [
                4066
            ], 
            "irrelevant_Noun": [
                0
            ], 
            "M1_ADJ": [
                1
            ]
        }, 
        "(2, 12)": {
            "AM2L": [
                8034
            ], 
            "AM2F": [
                599
            ], 
            "WBF": [
                7690
            ], 
            "BM1F": [
                310
            ], 
            "M1": [
                8058
            ], 
            "irrelevant_Adj": [
                0
            ], 
            "M2": [
                8736
            ], 
            "BM1L": [
                7411
            ], 
            "WBO": [
                4268, 
                453, 
                1262, 
                8991, 
                8851, 
                929
            ], 
            "WBL": [
                5148
            ], 
            "irrelevant_Noun": [
                0
            ], 
            "M1_ADJ": [
                1
            ]
        }, 
        "location1": [
            2
        ], 
        "location2": [
            12, 
            16
        ], 
        "sentence": "sometimes a thick stream is advantageous , but you will be using more water , and the increased water pressure may stress your plumbing ."
    }
}