{
    "d102132ed156445bd0c31ed170163111": {
        "location1": [
            25
        ], 
        "location2": [
            11
        ], 
        "(25, 11)": {
            "WBF": [
                5543
            ], 
            "BM1F": [
                310
            ], 
            "M1": [
                5140
            ], 
            "irrelevant_Adj": [
                0
            ], 
            "M2": [
                8060
            ], 
            "BM1L": [
                1141
            ], 
            "WBO": [
                7362, 
                850, 
                3252, 
                5232, 
                1358, 
                8057, 
                2436, 
                5245, 
                6354, 
                6972
            ], 
            "WBL": [
                5191
            ], 
            "irrelevant_Noun": [
                0
            ], 
            "M1_ADJ": [
                0
            ]
        }, 
        "sentence": "( update : after compairing them to the 4ga cable i bought a month or so back for my car , they do n't really seem that much thicker ."
    }
}