{
    "55c41a6cbb70fd89bddb6ee8c3b254a8": {
        "location1": [
            10
        ], 
        "location2": [
            18
        ], 
        "(10, 18)": {
            "AM2L": [
                1599
            ], 
            "AM2F": [
                3338
            ], 
            "WBF": [
                6757
            ], 
            "BM1F": [
                8887
            ], 
            "M1": [
                8058
            ], 
            "irrelevant_Adj": [
                0
            ], 
            "M2": [
                2982
            ], 
            "BM1L": [
                5648
            ], 
            "WBO": [
                4717, 
                4625, 
                3135, 
                8
            ], 
            "WBL": [
                7335
            ], 
            "irrelevant_Noun": [
                0
            ], 
            "M1_ADJ": [
                1
            ]
        }, 
        "sentence": "pro - very solid construction , either aluminum or steel - padded with thick rubber - look like fireman 's hose - smoothly fade from closed to soaker to rain to fan to jet with a simple twist - easy to work with wet handscons - nonenow i will tell you that the jet on this nozzle is one of the best i 've seen but i 'm not going to compare this to a pressure washer , i have one and nothing compare to a pressure washer , but the jet mode of this is pretty darn good ."
    }
}