{
    "3df6fed2efd6cd12e8e459d3c8a6ec42": {
        "location1": [
            2
        ], 
        "location2": [
            11
        ], 
        "(2, 11)": {
            "AM2L": [
                8991
            ], 
            "AM2F": [
                599
            ], 
            "WBF": [
                1621
            ], 
            "BM1F": [
                310
            ], 
            "M1": [
                8064
            ], 
            "irrelevant_Adj": [
                0
            ], 
            "M2": [
                6936
            ], 
            "BM1L": [
                6209
            ], 
            "WBO": [
                5458, 
                4382, 
                5244, 
                3563, 
                5495
            ], 
            "WBL": [
                5298
            ], 
            "irrelevant_Noun": [
                0
            ], 
            "M1_ADJ": [
                1
            ]
        }, 
        "sentence": "put a thin coat of k & n grease on the neoprene seal and you are ready again ."
    }
}