{
    "3df6fed2efd6cd12e8e459d3c8a6ec42": {
        "(2, 3)": {
            "AM2L": [
                4382
            ], 
            "BM1F": [
                310
            ], 
            "M1": [
                8064
            ], 
            "irrelevant_Adj": [
                0
            ], 
            "M2": [
                1621
            ], 
            "BM1L": [
                6209
            ], 
            "WBNULL": [
                1
            ], 
            "irrelevant_Noun": [
                0
            ], 
            "AM2F": [
                5458
            ], 
            "M1_ADJ": [
                1
            ]
        }, 
        "location1": [
            2
        ], 
        "location2": [
            3
        ], 
        "sentence": "put a thin coat of k & n grease on the neoprene seal and you are ready again ."
    }
}