{
    "77fe0d15aaf64c6c1215082a29765665": {
        "(3, 4)": {
            "AM2L": [
                8997
            ], 
            "BM1F": [
                310
            ], 
            "M1": [
                8103
            ], 
            "irrelevant_Adj": [
                0
            ], 
            "M2": [
                7433
            ], 
            "BM1L": [
                427
            ], 
            "WBNULL": [
                1
            ], 
            "irrelevant_Noun": [
                0
            ], 
            "AM2F": [
                8162
            ], 
            "M1_ADJ": [
                1
            ]
        }, 
        "location1": [
            3
        ], 
        "location2": [
            4
        ], 
        "sentence": "it adds a throating sound to your vehicle while delivering much better airflow to the engine than standard throw away filter ."
    }
}