{
    "e6d928db0c450cd4275a3875f0a16cf5": {
        "location1": [
            1
        ], 
        "location2": [
            4
        ], 
        "(1, 4)": {
            "AM2L": [
                8887
            ], 
            "AM2F": [
                5459
            ], 
            "WBF": [
                2445
            ], 
            "BM1F": [
                3149
            ], 
            "M1": [
                8129
            ], 
            "irrelevant_Adj": [
                0
            ], 
            "M2": [
                2998
            ], 
            "WBO": [
                5245
            ], 
            "WBL": [
                5245
            ], 
            "irrelevant_Noun": [
                0
            ], 
            "M1_ADJ": [
                1
            ]
        }, 
        "sentence": "fit tight does n't fall off with road vibration ."
    }
}