{
    "28fd067761c7fda1660629a178a5ff0d": {
        "(23, 8)": {
            "AM2F": [
                7528
            ], 
            "WBF": [
                8887
            ], 
            "BM1F": [
                5148
            ], 
            "M1": [
                8736
            ], 
            "irrelevant_Adj": [
                0
            ], 
            "M2": [
                8154
            ], 
            "BM1L": [
                3459
            ], 
            "WBO": [
                8034, 
                1105, 
                1262, 
                5387, 
                8034, 
                3564, 
                6038, 
                3962, 
                3717, 
                2921, 
                3338
            ], 
            "WBL": [
                4671
            ], 
            "irrelevant_Noun": [
                0
            ], 
            "M1_ADJ": [
                0
            ]
        }, 
        "location1": [
            23
        ], 
        "location2": [
            8
        ], 
        "sentence": "( not to mention the price ) you get more water with the bon-aire , but not the great pressure i have experienced from the little tip-style sprayer ."
    }
}