{
    "d09357fce67d684bbb30a0bd6c475546": {
        "(12, 11)": {
            "AM2L": [
                1262
            ], 
            "BM1F": [
                24
            ], 
            "M1": [
                1162
            ], 
            "irrelevant_Adj": [
                0
            ], 
            "M2": [
                8154
            ], 
            "BM1L": [
                4671
            ], 
            "WBNULL": [
                1
            ], 
            "irrelevant_Noun": [
                0
            ], 
            "AM2F": [
                5410
            ], 
            "M1_ADJ": [
                0
            ]
        }, 
        "location1": [
            12
        ], 
        "location2": [
            11
        ], 
        "sentence": "for year i have been a fan of the little 1 `` brass tip-style nozzle but all of a sudden ca n't find them anymore ."
    }
}