{
    "449c21808d8fffd913944b1b7fbcd651": {
        "(7, 3)": {
            "AM2L": [
                73
            ], 
            "AM2F": [
                475
            ], 
            "WBF": [
                5325
            ], 
            "BM1F": [
                104
            ], 
            "M1": [
                5062
            ], 
            "irrelevant_Adj": [
                0
            ], 
            "M2": [
                8163
            ], 
            "BM1L": [
                475
            ], 
            "WBO": [
                475
            ], 
            "WBL": [
                248
            ], 
            "irrelevant_Noun": [
                0
            ], 
            "M1_ADJ": [
                0
            ]
        }, 
        "location1": [
            7
        ], 
        "location2": [
            3
        ], 
        "sentence": "warm after 2 minute , nice after 6 , toasty after 15 . paper say 4a / 48w , and it comes with a spare 7a fuse for the plug ."
    }
}