{
    "774660f6f72e116df3dff2b9a0b412c1": {
        "sentence": "yes it is true that you can put it right back into the tube wet ( well to get it back in the tube , you must , because you ca n't roll it once it dry ) , but i like to leave the top off of the tube to allow air in there to dry it out before i close it up and that musty gross smell comes back .", 
        "(40, 44)": {
            "AM2L": [
                540
            ], 
            "AM2F": [
                8162
            ], 
            "WBF": [
                5459
            ], 
            "BM1F": [
                8034
            ], 
            "M1": [
                8195
            ], 
            "irrelevant_Adj": [
                0
            ], 
            "M2": [
                8333
            ], 
            "BM1L": [
                4555
            ], 
            "WBO": [
                5458
            ], 
            "WBL": [
                8034
            ], 
            "irrelevant_Noun": [
                0
            ], 
            "M1_ADJ": [
                1
            ]
        }, 
        "location2": [
            13, 
            22, 
            44
        ], 
        "location1": [
            40
        ], 
        "(40, 13)": {
            "AM2L": [
                5458
            ], 
            "AM2F": [
                5459
            ], 
            "WBF": [
                8803
            ], 
            "BM1F": [
                8034
            ], 
            "M1": [
                8333
            ], 
            "irrelevant_Adj": [
                0
            ], 
            "M2": [
                8195
            ], 
            "BM1L": [
                4216
            ], 
            "WBO": [
                8789, 
                8162, 
                3459, 
                4283, 
                850, 
                4043, 
                8034, 
                8333, 
                8991, 
                5222, 
                945, 
                8991, 
                1282, 
                5245, 
                6718, 
                4283, 
                5502, 
                4283, 
                2545, 
                1262, 
                3962, 
                4625, 
                8162
            ], 
            "WBL": [
                8034
            ], 
            "irrelevant_Noun": [
                0
            ], 
            "M1_ADJ": [
                0
            ]
        }, 
        "(40, 22)": {
            "AM2L": [
                5458
            ], 
            "AM2F": [
                5459
            ], 
            "WBF": [
                8991
            ], 
            "BM1F": [
                8034
            ], 
            "M1": [
                8333
            ], 
            "irrelevant_Adj": [
                0
            ], 
            "M2": [
                8195
            ], 
            "BM1L": [
                4043
            ], 
            "WBO": [
                5222, 
                945, 
                8991, 
                1282, 
                5245, 
                6718, 
                4283, 
                5502, 
                4283, 
                2545, 
                1262, 
                3962, 
                4625, 
                8162
            ], 
            "WBL": [
                8034
            ], 
            "irrelevant_Noun": [
                0
            ], 
            "M1_ADJ": [
                0
            ]
        }
    }
}