{
    "ab847bc1a1e76907b2bdf26f1be6a31e": {
        "(8, 9)": {
            "AM2L": [
                5546
            ], 
            "BM1F": [
                310
            ], 
            "M1": [
                8195
            ], 
            "irrelevant_Adj": [
                0
            ], 
            "M2": [
                6219
            ], 
            "BM1L": [
                6390
            ], 
            "WBNULL": [
                1
            ], 
            "irrelevant_Noun": [
                0
            ], 
            "AM2F": [
                6288
            ], 
            "M1_ADJ": [
                1
            ]
        }, 
        "location1": [
            8
        ], 
        "location2": [
            9
        ], 
        "sentence": "with something that big , i also recommend a top quality random orbital , like griot 10765lngcrd"
    }, 
    "f0e7c7508d6aa8cb010bb6d2d6978e36": {
        "location1": [
            4
        ], 
        "location2": [
            6
        ], 
        "(4, 6)": {
            "WBFL": [
                5389
            ], 
            "BM1F": [
                599
            ], 
            "M1": [
                8195
            ], 
            "irrelevant_Adj": [
                0
            ], 
            "M2": [
                6219
            ], 
            "BM1L": [
                4094
            ], 
            "irrelevant_Noun": [
                0
            ], 
            "M1_ADJ": [
                1
            ]
        }, 
        "sentence": "they are inexpensive and top notch quality !"
    }
}