{
    "a65447f8d8c8a564dcb876103cfd66d1": {
        "(4, 17)": {
            "WBF": [
                2481
            ], 
            "BM1F": [
                8034
            ], 
            "M1": [
                8195
            ], 
            "irrelevant_Adj": [
                0
            ], 
            "M2": [
                8869
            ], 
            "BM1L": [
                6210
            ], 
            "WBO": [
                4043, 
                5232, 
                1856, 
                2576, 
                8034, 
                2998, 
                599, 
                2847, 
                8789
            ], 
            "WBL": [
                8034
            ], 
            "irrelevant_Noun": [
                0
            ], 
            "M1_ADJ": [
                1
            ]
        }, 
        "location1": [
            4
        ], 
        "location2": [
            17
        ], 
        "sentence": "i love putting the top down in my convertible during the fall and even well into the winter ."
    }
}