{
    "5795a0a7bb0634ff74a2093b20c7498e": {
        "(11, 9)": {
            "AM2L": [
                310
            ], 
            "WBFL": [
                5595
            ], 
            "BM1F": [
                5846
            ], 
            "M1": [
                3378
            ], 
            "irrelevant_Adj": [
                0
            ], 
            "M2": [
                8195
            ], 
            "BM1L": [
                8162
            ], 
            "AM2F": [
                5458
            ], 
            "irrelevant_Noun": [
                0
            ], 
            "M1_ADJ": [
                0
            ]
        }, 
        "location1": [
            11
        ], 
        "location2": [
            9
        ], 
        "sentence": "in two place we ended up needing to place furniture over top of a register ."
    }
}