{
    "9a390c045eb5999cb513247ecdbbce94": {
        "(17, 4)": {
            "AM2F": [
                5948
            ], 
            "WBF": [
                5458
            ], 
            "BM1F": [
                8034
            ], 
            "M1": [
                1140
            ], 
            "irrelevant_Adj": [
                0
            ], 
            "M2": [
                8195
            ], 
            "BM1L": [
                5495
            ], 
            "WBO": [
                8034, 
                5878, 
                8814, 
                8034, 
                1865, 
                503, 
                3508, 
                4043, 
                5387
            ], 
            "WBL": [
                8034
            ], 
            "irrelevant_Noun": [
                0
            ], 
            "M1_ADJ": [
                0
            ]
        }, 
        "location1": [
            17
        ], 
        "location2": [
            4
        ], 
        "sentence": "it is on the bottom of the plenum where the cool air goes in , not in the top portion ."
    }
}