{
    "34d93b8f0c1c77503d8cbb7a7dd67b64": {
        "(17, 14)": {
            "AM2L": [
                8034
            ], 
            "AM2F": [
                7362
            ], 
            "WBF": [
                5495
            ], 
            "BM1F": [
                310
            ], 
            "M1": [
                4647
            ], 
            "irrelevant_Adj": [
                0
            ], 
            "M2": [
                8195
            ], 
            "BM1L": [
                3705
            ], 
            "WBO": [
                8034
            ], 
            "WBL": [
                8034
            ], 
            "irrelevant_Noun": [
                0
            ], 
            "M1_ADJ": [
                0
            ]
        }, 
        "location1": [
            17
        ], 
        "location2": [
            14
        ], 
        "sentence": "work great in refilling oil in my generator and lawnmower ! it even has a lip on the top so the oil wo n't go out of the funnel ."
    }
}