{
    "33059ad536a353ac0413180943d55f56": {
        "(5, 2)": {
            "AM2L": [
                7494
            ], 
            "AM2F": [
                3252
            ], 
            "WBF": [
                5495
            ], 
            "BM1F": [
                310
            ], 
            "M1": [
                3614
            ], 
            "irrelevant_Adj": [
                0
            ], 
            "M2": [
                8195
            ], 
            "BM1L": [
                3705
            ], 
            "WBO": [
                8034
            ], 
            "WBL": [
                8034
            ], 
            "irrelevant_Noun": [
                0
            ], 
            "M1_ADJ": [
                0
            ]
        }, 
        "location1": [
            5
        ], 
        "location2": [
            2
        ], 
        "sentence": "has a guard on the top for spill prevention , feel sturdy and durable , and the price is more than fair ."
    }
}