{
    "e16c02ab969804787d12932c048f9d77": {
        "location1": [
            3
        ], 
        "location2": [
            15
        ], 
        "(3, 15)": {
            "AM2L": [
                4145
            ], 
            "AM2F": [
                599
            ], 
            "WBF": [
                5389
            ], 
            "BM1F": [
                688
            ], 
            "M1": [
                8195
            ], 
            "irrelevant_Adj": [
                0
            ], 
            "M2": [
                6509
            ], 
            "BM1L": [
                4914
            ], 
            "WBO": [
                599, 
                4283, 
                4268, 
                2617, 
                8162, 
                351, 
                8887, 
                8034
            ], 
            "WBL": [
                3252
            ], 
            "irrelevant_Noun": [
                0
            ], 
            "M1_ADJ": [
                1
            ]
        }, 
        "sentence": "the material are top notch , and it is easy to access with the key for removal and installation ."
    }
}