{
    "9a390c045eb5999cb513247ecdbbce94": {
        "(17, 18)": {
            "BM1F": [
                8034
            ], 
            "M1": [
                8195
            ], 
            "irrelevant_Adj": [
                0
            ], 
            "M2": [
                5948
            ], 
            "BM1L": [
                4043
            ], 
            "WBNULL": [
                1
            ], 
            "irrelevant_Noun": [
                0
            ], 
            "M1_ADJ": [
                1
            ]
        }, 
        "location1": [
            17
        ], 
        "location2": [
            18
        ], 
        "sentence": "it is on the bottom of the plenum where the cool air goes in , not in the top portion ."
    }
}