{
    "e16c02ab969804787d12932c048f9d77": {
        "(3, 1)": {
            "AM2L": [
                599
            ], 
            "WBFL": [
                688
            ], 
            "BM1F": [
                8034
            ], 
            "M1": [
                4914
            ], 
            "irrelevant_Adj": [
                0
            ], 
            "M2": [
                8195
            ], 
            "AM2F": [
                5389
            ], 
            "irrelevant_Noun": [
                0
            ], 
            "M1_ADJ": [
                0
            ]
        }, 
        "location1": [
            3
        ], 
        "location2": [
            1
        ], 
        "sentence": "the material are top notch , and it is easy to access with the key for removal and installation ."
    }
}