{
    "664d8d0a63ae2e29fdcad89851351001": {
        "(29, 34)": {
            "AM2L": [
                4268
            ], 
            "AM2F": [
                227
            ], 
            "WBF": [
                3342
            ], 
            "BM1F": [
                8034
            ], 
            "M1": [
                8212
            ], 
            "irrelevant_Adj": [
                0
            ], 
            "M2": [
                5046
            ], 
            "BM1L": [
                5458
            ], 
            "WBO": [
                7826
            ], 
            "WBL": [
                4043
            ], 
            "irrelevant_Noun": [
                0
            ], 
            "M1_ADJ": [
                1
            ]
        }, 
        "location1": [
            29
        ], 
        "location2": [
            34
        ], 
        "sentence": "i applied this to all accessible ( front face ) surface , and only the spot where there was not a decal or other item present , probably less than 30 % of the total frontal surface ( keep in mind 50 % is the evaporator and blower vent ) , and the available space on the front cover ."
    }
}