{
    "94d96c710115153938d2da3011f49afc": {
        "location1": [
            0
        ], 
        "location2": [
            14
        ], 
        "(0, 14)": {
            "WBF": [
                8140
            ], 
            "AM2L": [
                1899
            ], 
            "M1": [
                8212
            ], 
            "irrelevant_Adj": [
                0
            ], 
            "M2": [
                3618
            ], 
            "WBO": [
                325, 
                591, 
                3915, 
                599, 
                310, 
                3651, 
                3985, 
                8991, 
                688, 
                4578
            ], 
            "WBL": [
                3962
            ], 
            "irrelevant_Noun": [
                0
            ], 
            "AM2F": [
                8991
            ], 
            "M1_ADJ": [
                1
            ]
        }, 
        "sentence": "total time about an hour and a half , if you are less particular i guess you could toss it in and be up and running in 10 minute ."
    }
}