{
    "664d8d0a63ae2e29fdcad89851351001": {
        "location1": [
            29
        ], 
        "location2": [
            41
        ], 
        "(29, 41)": {
            "AM2L": [
                8034
            ], 
            "AM2F": [
                599
            ], 
            "WBF": [
                3342
            ], 
            "BM1F": [
                8034
            ], 
            "M1": [
                8212
            ], 
            "irrelevant_Adj": [
                0
            ], 
            "M2": [
                8591
            ], 
            "BM1L": [
                5458
            ], 
            "WBO": [
                7826, 
                4401, 
                4043, 
                5046, 
                227, 
                4268, 
                8034, 
                2845
            ], 
            "WBL": [
                1084
            ], 
            "irrelevant_Noun": [
                0
            ], 
            "M1_ADJ": [
                1
            ]
        }, 
        "sentence": "i applied this to all accessible ( front face ) surface , and only the spot where there was not a decal or other item present , probably less than 30 % of the total frontal surface ( keep in mind 50 % is the evaporator and blower vent ) , and the available space on the front cover ."
    }
}