{
    "94d96c710115153938d2da3011f49afc": {
        "(0, 27)": {
            "WBF": [
                8140
            ], 
            "M1": [
                8212
            ], 
            "irrelevant_Adj": [
                0
            ], 
            "M2": [
                5062
            ], 
            "WBO": [
                325, 
                591, 
                3915, 
                599, 
                310, 
                3651, 
                3985, 
                8991, 
                688, 
                4578, 
                5692, 
                3962, 
                3618, 
                8991, 
                1899, 
                8208, 
                4283, 
                4043, 
                599, 
                929, 
                8501, 
                599, 
                6776
            ], 
            "WBL": [
                34
            ], 
            "irrelevant_Noun": [
                0
            ], 
            "M1_ADJ": [
                1
            ]
        }, 
        "location1": [
            0
        ], 
        "location2": [
            27
        ], 
        "sentence": "total time about an hour and a half , if you are less particular i guess you could toss it in and be up and running in 10 minute ."
    }, 
    "e46cff3da4fd20b0ee6aef7d28a573be": {
        "(3, 8)": {
            "AM2L": [
                2577
            ], 
            "AM2F": [
                8162
            ], 
            "WBF": [
                5458
            ], 
            "BM1F": [
                310
            ], 
            "M1": [
                8212
            ], 
            "irrelevant_Adj": [
                0
            ], 
            "M2": [
                5062
            ], 
            "BM1L": [
                7913
            ], 
            "WBO": [
                4578
            ], 
            "WBL": [
                104
            ], 
            "irrelevant_Noun": [
                0
            ], 
            "M1_ADJ": [
                1
            ]
        }, 
        "location1": [
            3
        ], 
        "location2": [
            8
        ], 
        "sentence": "it takes a total of less than 2 minute to dust off an entire car , yet the result makes your car look like you just washed it ."
    }
}