{
    "a2ac7fa9a1803310291b49e2d98be154": {
        "location1": [
            0
        ], 
        "location2": [
            2
        ], 
        "(0, 2)": {
            "AM2L": [
                8073
            ], 
            "WBFL": [
                6772
            ], 
            "M1": [
                8212
            ], 
            "irrelevant_Adj": [
                0
            ], 
            "M2": [
                4570
            ], 
            "AM2F": [
                3252
            ], 
            "irrelevant_Noun": [
                0
            ], 
            "M1_ADJ": [
                1
            ]
        }, 
        "sentence": "total run length for this circut is 50 ' ."
    }
}