{
    "db1d3fa3cd3672ea83a8d3cec64b1cf7": {
        "(6, 9)": {
            "AM2L": [
                4746
            ], 
            "AM2F": [
                599
            ], 
            "WBF": [
                1026
            ], 
            "BM1F": [
                5325
            ], 
            "M1": [
                8218
            ], 
            "irrelevant_Adj": [
                0
            ], 
            "M2": [
                1553
            ], 
            "BM1L": [
                7395
            ], 
            "WBO": [
                3688
            ], 
            "WBL": [
                3688
            ], 
            "irrelevant_Noun": [
                0
            ], 
            "M1_ADJ": [
                1
            ]
        }, 
        "location1": [
            6
        ], 
        "location2": [
            9
        ], 
        "sentence": "but they are built solid , nice tough big hard clamp and love having a long cable so i never have to move car around or anything if needed ."
    }
}