{
    "7cfe216683591f446e5be988441e0b95": {
        "(8, 9)": {
            "AM2L": [
                3962
            ], 
            "BM1F": [
                8034
            ], 
            "M1": [
                8311
            ], 
            "irrelevant_Adj": [
                0
            ], 
            "M2": [
                879
            ], 
            "BM1L": [
                8887
            ], 
            "WBNULL": [
                1
            ], 
            "irrelevant_Noun": [
                0
            ], 
            "AM2F": [
                8044
            ], 
            "M1_ADJ": [
                1
            ]
        }, 
        "location1": [
            8
        ], 
        "location2": [
            9
        ], 
        "sentence": "or buy another one of these with the triple ball then i would have another shank to mount on another vehicle"
    }
}