{
    "054e9f5c8e8f70fab676c835cd631653": {
        "(11, 12)": {
            "AM2L": [
                5512
            ], 
            "BM1F": [
                8034
            ], 
            "M1": [
                8335
            ], 
            "irrelevant_Adj": [
                0
            ], 
            "M2": [
                6959
            ], 
            "BM1L": [
                1734
            ], 
            "WBNULL": [
                1
            ], 
            "irrelevant_Noun": [
                0
            ], 
            "AM2F": [
                4268
            ], 
            "M1_ADJ": [
                1
            ]
        }, 
        "(11, 7)": {
            "AM2L": [
                4268
            ], 
            "AM2F": [
                6959
            ], 
            "WBF": [
                8028
            ], 
            "BM1F": [
                8034
            ], 
            "M1": [
                6959
            ], 
            "irrelevant_Adj": [
                0
            ], 
            "M2": [
                8335
            ], 
            "BM1L": [
                1262
            ], 
            "WBO": [
                1734
            ], 
            "WBL": [
                8034
            ], 
            "irrelevant_Noun": [
                0
            ], 
            "M1_ADJ": [
                0
            ]
        }, 
        "location1": [
            11
        ], 
        "location2": [
            7, 
            12
        ], 
        "sentence": "the funnel is 10 `` long but the section that comprises the tubular section is only 6 `` long ."
    }
}