{
    "16fbbdc76d87fc89dae7b95a4d386bce": {
        "(0, 15)": {
            "WBF": [
                4694
            ], 
            "AM2L": [
                8034
            ], 
            "M1": [
                8335
            ], 
            "irrelevant_Adj": [
                0
            ], 
            "M2": [
                2274
            ], 
            "WBO": [
                688, 
                5387, 
                5232, 
                3041, 
                1262, 
                5602, 
                8073, 
                2286, 
                6976, 
                4625, 
                310
            ], 
            "WBL": [
                3518
            ], 
            "irrelevant_Noun": [
                0
            ], 
            "AM2F": [
                3252
            ], 
            "M1_ADJ": [
                1
            ]
        }, 
        "location1": [
            0
        ], 
        "location2": [
            15
        ], 
        "sentence": "tubular lock are not my favorite , but overall this device seems like a pretty good deterrent for the casual thief ."
    }
}