{
    "054e9f5c8e8f70fab676c835cd631653": {
        "(11, 1)": {
            "AM2L": [
                4268
            ], 
            "AM2F": [
                6959
            ], 
            "WBF": [
                4268
            ], 
            "BM1F": [
                8034
            ], 
            "M1": [
                3372
            ], 
            "irrelevant_Adj": [
                0
            ], 
            "M2": [
                8335
            ], 
            "WBO": [
                34, 
                4710, 
                1262, 
                8034, 
                6959, 
                8028
            ], 
            "WBL": [
                8034
            ], 
            "irrelevant_Noun": [
                0
            ], 
            "M1_ADJ": [
                0
            ]
        }, 
        "location1": [
            11
        ], 
        "location2": [
            1
        ], 
        "sentence": "the funnel is 10 `` long but the section that comprises the tubular section is only 6 `` long ."
    }
}