{
    "16fbbdc76d87fc89dae7b95a4d386bce": {
        "(0, 9)": {
            "WBF": [
                4694
            ], 
            "AM2L": [
                4625
            ], 
            "M1": [
                8335
            ], 
            "irrelevant_Adj": [
                0
            ], 
            "M2": [
                2286
            ], 
            "WBO": [
                688, 
                5387, 
                5232, 
                3041, 
                1262
            ], 
            "WBL": [
                8073
            ], 
            "irrelevant_Noun": [
                0
            ], 
            "AM2F": [
                6976
            ], 
            "M1_ADJ": [
                1
            ]
        }, 
        "location1": [
            0
        ], 
        "location2": [
            9
        ], 
        "sentence": "tubular lock are not my favorite , but overall this device seems like a pretty good deterrent for the casual thief ."
    }
}