{
    "1d0cb82131e537b7291a071413dc08d1": {
        "(13, 1)": {
            "AM2L": [
                5410
            ], 
            "AM2F": [
                1478
            ], 
            "WBF": [
                4043
            ], 
            "BM1F": [
                57
            ], 
            "M1": [
                4053
            ], 
            "irrelevant_Adj": [
                0
            ], 
            "M2": [
                8375
            ], 
            "WBO": [
                2301, 
                8819, 
                6099, 
                310, 
                8060, 
                7690, 
                5458, 
                8736
            ], 
            "WBL": [
                8997
            ], 
            "irrelevant_Noun": [
                0
            ], 
            "M1_ADJ": [
                0
            ]
        }, 
        "location1": [
            13
        ], 
        "location2": [
            1
        ], 
        "sentence": "12 inch in diameter , which produce a thicker stream of water than your typical cheapo nozzle ."
    }
}