{
    "ec633d33615b3d2d8ee9b540dbdaac3e": {
        "location1": [
            40
        ], 
        "location2": [
            28
        ], 
        "(40, 28)": {
            "AM2L": [
                8049
            ], 
            "AM2F": [
                5410
            ], 
            "WBF": [
                599
            ], 
            "BM1F": [
                2660
            ], 
            "M1": [
                2352
            ], 
            "irrelevant_Adj": [
                0
            ], 
            "M2": [
                8375
            ], 
            "BM1L": [
                3510
            ], 
            "WBO": [
                104, 
                2847, 
                3985, 
                4289, 
                5387, 
                5191, 
                5148, 
                5980
            ], 
            "WBL": [
                8997
            ], 
            "irrelevant_Noun": [
                0
            ], 
            "M1_ADJ": [
                0
            ]
        }, 
        "sentence": "its much wider and useful than just the hose without a nozzlei would say the best 2 feature are 1 . the ability to shut it off going either direction and 2 . even if its not much more powerful than your typical nozzle there is no holding a handle , or holding your finger over the hose to get pressure ."
    }
}