{
    "ec633d33615b3d2d8ee9b540dbdaac3e": {
        "(40, 47)": {
            "AM2L": [
                3854
            ], 
            "AM2F": [
                5543
            ], 
            "WBF": [
                5410
            ], 
            "BM1F": [
                8997
            ], 
            "M1": [
                8375
            ], 
            "irrelevant_Adj": [
                0
            ], 
            "M2": [
                3665
            ], 
            "BM1L": [
                8024
            ], 
            "WBO": [
                8049, 
                4268, 
                5344
            ], 
            "WBL": [
                310
            ], 
            "irrelevant_Noun": [
                0
            ], 
            "M1_ADJ": [
                1
            ]
        }, 
        "location1": [
            40
        ], 
        "location2": [
            47
        ], 
        "sentence": "its much wider and useful than just the hose without a nozzlei would say the best 2 feature are 1 . the ability to shut it off going either direction and 2 . even if its not much more powerful than your typical nozzle there is no holding a handle , or holding your finger over the hose to get pressure ."
    }
}