{
    "eb4417180421f022376a05a4a2631724": {
        "(8, 14)": {
            "AM2L": [
                5495
            ], 
            "AM2F": [
                5459
            ], 
            "WBF": [
                599
            ], 
            "BM1F": [
                5559
            ], 
            "M1": [
                8387
            ], 
            "irrelevant_Adj": [
                0
            ], 
            "M2": [
                7910
            ], 
            "BM1L": [
                1105
            ], 
            "WBO": [
                4283, 
                7437
            ], 
            "WBL": [
                310
            ], 
            "irrelevant_Noun": [
                0
            ], 
            "M1_ADJ": [
                1
            ]
        }, 
        "location1": [
            8
        ], 
        "location2": [
            14
        ], 
        "sentence": "i read the review of the bon-aire original ultimate and it sounded like a take off on nyc 's famous original ray 's pizza ."
    }
}