{
    "1240aeb99b0efa15432488e1a5ff7284": {
        "(4, 37)": {
            "WBF": [
                319
            ], 
            "BM1F": [
                310
            ], 
            "M1": [
                8450
            ], 
            "irrelevant_Adj": [
                0
            ], 
            "M2": [
                8750
            ], 
            "BM1L": [
                3705
            ], 
            "WBO": [
                8162, 
                6099, 
                310, 
                3120, 
                7526, 
                599, 
                310, 
                3133, 
                3903, 
                4431, 
                5458, 
                2647, 
                1262, 
                8812, 
                7878, 
                1016, 
                5714, 
                4283, 
                5699, 
                5159, 
                8105, 
                8581, 
                7690, 
                5458, 
                1741, 
                8736, 
                8028, 
                2196, 
                642
            ], 
            "WBL": [
                4289
            ], 
            "irrelevant_Noun": [
                1
            ], 
            "M1_ADJ": [
                1
            ]
        }, 
        "location1": [
            4
        ], 
        "location2": [
            37
        ], 
        "sentence": "sure , it has a unique ability to produce a fine spray and a fire hose kind of effect , but when switching between pattern it pass mostly through various stream of concentrated water that dench anything in its way ."
    }
}