{
    "c68138bc9dc1c6291832914c16b03ee4": {
        "location1": [
            28
        ], 
        "location2": [
            18
        ], 
        "(28, 18)": {
            "AM2L": [
                4376
            ], 
            "AM2F": [
                8162
            ], 
            "WBF": [
                3840
            ], 
            "BM1F": [
                8034
            ], 
            "M1": [
                3372
            ], 
            "irrelevant_Adj": [
                0
            ], 
            "M2": [
                8487
            ], 
            "BM1L": [
                5458
            ], 
            "WBO": [
                8034, 
                8572, 
                3730, 
                959, 
                642, 
                2692
            ], 
            "WBL": [
                4289
            ], 
            "irrelevant_Noun": [
                0
            ], 
            "M1_ADJ": [
                0
            ]
        }, 
        "sentence": "it is awkward for filling my car engine oil because its so long that the bottom of the funnel hit the valve head before anything else , so its unstable to just sit in there ."
    }
}