{
    "a689067ee47c6ebd8c416c285d1a2af5": {
        "location1": [
            25
        ], 
        "location2": [
            20
        ], 
        "(25, 20)": {
            "AM2F": [
                8860
            ], 
            "WBF": [
                3252
            ], 
            "BM1F": [
                5410
            ], 
            "M1": [
                7795
            ], 
            "irrelevant_Adj": [
                0
            ], 
            "M2": [
                8512
            ], 
            "BM1L": [
                8073
            ], 
            "WBO": [
                3463
            ], 
            "WBL": [
                8034
            ], 
            "irrelevant_Noun": [
                0
            ], 
            "M1_ADJ": [
                0
            ]
        }, 
        "sentence": "while the stream was not a great as i would like it at least got there thusly making this nozzle super for getting at the upper window ."
    }
}