{
    "19b32e74ad59cdfe1e64882268d23774": {
        "location1": [
            12
        ], 
        "location2": [
            17
        ], 
        "(12, 17)": {
            "WBF": [
                1478
            ], 
            "BM1F": [
                8034
            ], 
            "M1": [
                8581
            ], 
            "irrelevant_Adj": [
                0
            ], 
            "M2": [
                3629
            ], 
            "BM1L": [
                8024
            ], 
            "WBO": [
                5410
            ], 
            "WBL": [
                7526
            ], 
            "irrelevant_Noun": [
                0
            ], 
            "M1_ADJ": [
                1
            ]
        }, 
        "sentence": "it does a good job , but not that much better than the various cheapo nozzle and spray gun ."
    }
}