{
    "1240aeb99b0efa15432488e1a5ff7284": {
        "(27, 13)": {
            "AM2L": [
                5458
            ], 
            "AM2F": [
                7690
            ], 
            "WBF": [
                3903
            ], 
            "BM1F": [
                310
            ], 
            "M1": [
                3133
            ], 
            "irrelevant_Adj": [
                0
            ], 
            "M2": [
                8581
            ], 
            "BM1L": [
                599
            ], 
            "WBO": [
                4431, 
                5458, 
                2647, 
                1262, 
                8812, 
                7878, 
                1016, 
                5714, 
                4283, 
                5699
            ], 
            "WBL": [
                8105
            ], 
            "irrelevant_Noun": [
                0
            ], 
            "M1_ADJ": [
                0
            ]
        }, 
        "location1": [
            27
        ], 
        "location2": [
            13
        ], 
        "sentence": "sure , it has a unique ability to produce a fine spray and a fire hose kind of effect , but when switching between pattern it pass mostly through various stream of concentrated water that dench anything in its way ."
    }
}