{
    "0ec3dbffb5da4b3f80541e4a5246f826": {
        "(23, 24)": {
            "AM2L": [
                310
            ], 
            "BM1F": [
                310
            ], 
            "M1": [
                8602
            ], 
            "irrelevant_Adj": [
                0
            ], 
            "M2": [
                8591
            ], 
            "BM1L": [
                5495
            ], 
            "WBNULL": [
                1
            ], 
            "irrelevant_Noun": [
                0
            ], 
            "AM2F": [
                4043
            ], 
            "M1_ADJ": [
                1
            ]
        }, 
        "location1": [
            23
        ], 
        "location2": [
            24
        ], 
        "sentence": "the deflector does a good job navigating the air in the direction desired and the magnet reliably hold it in place on a vertical vent in a wall ."
    }
}