{
    "f7f95241db80eeb91d9dfe3d44027024": {
        "(13, 6)": {
            "AM2L": [
                720
            ], 
            "AM2F": [
                5503
            ], 
            "WBF": [
                1262
            ], 
            "BM1F": [
                3893
            ], 
            "M1": [
                7826
            ], 
            "irrelevant_Adj": [
                0
            ], 
            "M2": [
                8602
            ], 
            "BM1L": [
                5495
            ], 
            "WBO": [
                7640, 
                3518, 
                2767
            ], 
            "WBL": [
                8034
            ], 
            "irrelevant_Noun": [
                0
            ], 
            "M1_ADJ": [
                0
            ]
        }, 
        "location1": [
            13
        ], 
        "location2": [
            6
        ], 
        "sentence": "this work especially well on horizontal surface , but still good enough on the vertical one as well ."
    }
}