{
    "0ec3dbffb5da4b3f80541e4a5246f826": {
        "(23, 5)": {
            "AM2L": [
                4043
            ], 
            "AM2F": [
                8591
            ], 
            "WBF": [
                5269
            ], 
            "BM1F": [
                3518
            ], 
            "M1": [
                4344
            ], 
            "irrelevant_Adj": [
                0
            ], 
            "M2": [
                8602
            ], 
            "BM1L": [
                310
            ], 
            "WBO": [
                8034, 
                503, 
                4043, 
                8034, 
                2352, 
                2244, 
                599, 
                8034, 
                4808, 
                6484, 
                3851, 
                4283, 
                4043, 
                5846
            ], 
            "WBL": [
                310
            ], 
            "irrelevant_Noun": [
                0
            ], 
            "M1_ADJ": [
                0
            ]
        }, 
        "location1": [
            23
        ], 
        "location2": [
            5
        ], 
        "sentence": "the deflector does a good job navigating the air in the direction desired and the magnet reliably hold it in place on a vertical vent in a wall ."
    }
}