{
    "421b646afe71fddb7e029998d63c2b84": {
        "location1": [
            47
        ], 
        "location2": [
            36
        ], 
        "(47, 36)": {
            "AM2L": [
                4650
            ], 
            "AM2F": [
                182
            ], 
            "WBF": [
                2580
            ], 
            "BM1F": [
                620
            ], 
            "M1": [
                1305
            ], 
            "irrelevant_Adj": [
                0
            ], 
            "M2": [
                8702
            ], 
            "BM1L": [
                599
            ], 
            "WBO": [
                3705, 
                956, 
                8225, 
                8034, 
                8195, 
                5458, 
                8034
            ], 
            "WBL": [
                6354
            ], 
            "irrelevant_Noun": [
                0
            ], 
            "M1_ADJ": [
                0
            ]
        }, 
        "sentence": "i had gotten away from super-anal car care the last few year but with a recent purchase of a brand new 2014 subaru xv crosstrek , my automotive wishlist her on amazon has been growing and another california duster has been towards the top of the & # 34 ; really want & # 34 ; list ."
    }
}