{
    "421b646afe71fddb7e029998d63c2b84": {
        "(47, 42)": {
            "AM2L": [
                4650
            ], 
            "AM2F": [
                182
            ], 
            "WBF": [
                5458
            ], 
            "BM1F": [
                8034
            ], 
            "M1": [
                8195
            ], 
            "irrelevant_Adj": [
                0
            ], 
            "M2": [
                8702
            ], 
            "BM1L": [
                8225
            ], 
            "WBO": [
                8034
            ], 
            "WBL": [
                6354
            ], 
            "irrelevant_Noun": [
                0
            ], 
            "M1_ADJ": [
                0
            ]
        }, 
        "location1": [
            47
        ], 
        "location2": [
            42
        ], 
        "sentence": "i had gotten away from super-anal car care the last few year but with a recent purchase of a brand new 2014 subaru xv crosstrek , my automotive wishlist her on amazon has been growing and another california duster has been towards the top of the & # 34 ; really want & # 34 ; list ."
    }
}