{
    "1fd15875b581c48f787e97deeaa1ce23": {
        "(3, 26)": {
            "WBF": [
                1623
            ], 
            "BM1F": [
                310
            ], 
            "M1": [
                8749
            ], 
            "irrelevant_Adj": [
                0
            ], 
            "M2": [
                8531
            ], 
            "BM1L": [
                3705
            ], 
            "WBO": [
                5495, 
                8034, 
                3089, 
                527, 
                8034, 
                5148, 
                6361, 
                4283, 
                2445, 
                5387, 
                6915, 
                8034, 
                3128, 
                599, 
                4283, 
                3705, 
                8162, 
                2545, 
                5574
            ], 
            "WBL": [
                4117
            ], 
            "irrelevant_Noun": [
                0
            ], 
            "M1_ADJ": [
                1
            ]
        }, 
        "location1": [
            3
        ], 
        "location2": [
            26
        ], 
        "sentence": "it has a waxy coating on the fiber ( all the more reason it does not scratch the finish ) and it has to dry out before initial use ."
    }
}