{
    "db65e4557b60fda88ace98ea9317dab0": {
        "(14, 4)": {
            "AM2L": [
                599
            ], 
            "AM2F": [
                1623
            ], 
            "WBF": [
                6859
            ], 
            "BM1F": [
                8819
            ], 
            "M1": [
                4830
            ], 
            "irrelevant_Adj": [
                0
            ], 
            "M2": [
                8749
            ], 
            "BM1L": [
                5502
            ], 
            "WBO": [
                8991, 
                1323, 
                2436, 
                1262, 
                6976, 
                8162
            ], 
            "WBL": [
                8034
            ], 
            "irrelevant_Noun": [
                0
            ], 
            "M1_ADJ": [
                0
            ]
        }, 
        "location1": [
            14
        ], 
        "location2": [
            4
        ], 
        "sentence": "tried washing once , which maker says you can do , but seems to remove the waxy coating and defeat the effectiveness ."
    }
}