{
    "4648beb98c3ff45a06716c4cb40ae366": {
        "(6, 7)": {
            "AM2L": [
                768
            ], 
            "BM1F": [
                310
            ], 
            "M1": [
                8792
            ], 
            "irrelevant_Adj": [
                0
            ], 
            "M2": [
                1160
            ], 
            "BM1L": [
                8887
            ], 
            "WBNULL": [
                1
            ], 
            "irrelevant_Noun": [
                0
            ], 
            "AM2F": [
                5251
            ], 
            "M1_ADJ": [
                1
            ]
        }, 
        "location1": [
            6
        ], 
        "location2": [
            7
        ], 
        "sentence": "for a quality item with a well-known brand name attached , it 's an outstanding buy , and i 'm very pleased to have found it ."
    }
}