{
    "6278bd0491dec24c2966fd35205a8ec2": {
        "location1": [
            14
        ], 
        "location2": [
            24
        ], 
        "(14, 24)": {
            "AM2L": [
                8162
            ], 
            "AM2F": [
                7526
            ], 
            "WBF": [
                599
            ], 
            "BM1F": [
                1358
            ], 
            "M1": [
                8803
            ], 
            "irrelevant_Adj": [
                0
            ], 
            "M2": [
                6038
            ], 
            "BM1L": [
                8034
            ], 
            "WBO": [
                8162, 
                6671, 
                5459, 
                8034, 
                7370, 
                599
            ], 
            "WBL": [
                3808
            ], 
            "irrelevant_Noun": [
                0
            ], 
            "M1_ADJ": [
                1
            ]
        }, 
        "sentence": "perfect for cleaning car ( using a medium fan of water to get the car wet and to rinse off the soap , and a high pressure spray to remove road grime from the wheel and underside ) ."
    }, 
    "55c41a6cbb70fd89bddb6ee8c3b254a8": {
        "(37, 78)": {
            "AM2L": [
                1262
            ], 
            "AM2F": [
                8723
            ], 
            "WBF": [
                3669
            ], 
            "BM1F": [
                8887
            ], 
            "M1": [
                8803
            ], 
            "irrelevant_Adj": [
                0
            ], 
            "M2": [
                6038
            ], 
            "BM1L": [
                8907
            ], 
            "WBO": [
                5364, 
                3962, 
                8851, 
                7979, 
                8991, 
                8028, 
                8034, 
                4335, 
                5495, 
                8073, 
                5410, 
                4268, 
                5503, 
                5458, 
                8034, 
                1005, 
                3962, 
                10, 
                6977, 
                1262, 
                3962, 
                5, 
                5387, 
                3510, 
                8162, 
                1696, 
                8073, 
                8162, 
                310, 
                6038, 
                8723, 
                3962, 
                3717, 
                5503, 
                599, 
                5392, 
                1696
            ], 
            "WBL": [
                310
            ], 
            "irrelevant_Noun": [
                0
            ], 
            "M1_ADJ": [
                1
            ]
        }, 
        "(37, 68)": {
            "AM2L": [
                3962
            ], 
            "AM2F": [
                8723
            ], 
            "WBF": [
                3669
            ], 
            "BM1F": [
                8887
            ], 
            "M1": [
                8803
            ], 
            "irrelevant_Adj": [
                0
            ], 
            "M2": [
                6038
            ], 
            "BM1L": [
                8907
            ], 
            "WBO": [
                5364, 
                3962, 
                8851, 
                7979, 
                8991, 
                8028, 
                8034, 
                4335, 
                5495, 
                8073, 
                5410, 
                4268, 
                5503, 
                5458, 
                8034, 
                1005, 
                3962, 
                10, 
                6977, 
                1262, 
                3962, 
                5, 
                5387, 
                3510, 
                8162, 
                1696, 
                8073
            ], 
            "WBL": [
                310
            ], 
            "irrelevant_Noun": [
                0
            ], 
            "M1_ADJ": [
                1
            ]
        }, 
        "location1": [
            37
        ], 
        "location2": [
            68, 
            78
        ], 
        "sentence": "pro - very solid construction , either aluminum or steel - padded with thick rubber - look like fireman 's hose - smoothly fade from closed to soaker to rain to fan to jet with a simple twist - easy to work with wet handscons - nonenow i will tell you that the jet on this nozzle is one of the best i 've seen but i 'm not going to compare this to a pressure washer , i have one and nothing compare to a pressure washer , but the jet mode of this is pretty darn good ."
    }
}