{
    "92a0419b644390fd062d95714d39de00": {
        "(8, 9)": {
            "BM1F": [
                310
            ], 
            "M1": [
                8803
            ], 
            "irrelevant_Adj": [
                0
            ], 
            "M2": [
                8559
            ], 
            "BM1L": [
                8024
            ], 
            "WBNULL": [
                1
            ], 
            "irrelevant_Noun": [
                0
            ], 
            "AM2F": [
                8081
            ], 
            "M1_ADJ": [
                1
            ]
        }, 
        "location1": [
            8
        ], 
        "location2": [
            9
        ], 
        "sentence": "it actually does a better job than a wet vac though ."
    }, 
    "586512bd5eff88693fe559fa5fb43766": {
        "(12, 13)": {
            "BM1F": [
                310
            ], 
            "M1": [
                8803
            ], 
            "irrelevant_Adj": [
                0
            ], 
            "M2": [
                8559
            ], 
            "BM1L": [
                8531
            ], 
            "WBNULL": [
                1
            ], 
            "irrelevant_Noun": [
                0
            ], 
            "M1_ADJ": [
                1
            ]
        }, 
        "location1": [
            12
        ], 
        "location2": [
            13
        ], 
        "sentence": "we use my far more grungy one as you might use a wet vac ."
    }
}