{
    "8e1e047e9d76b82ef8d9a355eb704ecb": {
        "location1": [
            31
        ], 
        "location2": [
            24
        ], 
        "(31, 24)": {
            "AM2L": [
                1585
            ], 
            "AM2F": [
                7294
            ], 
            "WBF": [
                7405
            ], 
            "BM1F": [
                6791
            ], 
            "M1": [
                6090
            ], 
            "irrelevant_Adj": [
                0
            ], 
            "M2": [
                8803
            ], 
            "BM1L": [
                8034
            ], 
            "WBO": [
                6639, 
                3717, 
                3646
            ], 
            "WBL": [
                8034
            ], 
            "irrelevant_Noun": [
                0
            ], 
            "M1_ADJ": [
                0
            ]
        }, 
        "sentence": "so far i like this lock set up , i live in the four corner area of nm , i hope to not have the rusting problem some reviewer have had in the wet slushy climate ."
    }
}