{
    "18235b48b5f2f9d36397f0a99b65c916": {
        "(19, 21)": {
            "WBFL": [
                3815
            ], 
            "BM1F": [
                310
            ], 
            "M1": [
                8826
            ], 
            "irrelevant_Adj": [
                0
            ], 
            "M2": [
                4587
            ], 
            "BM1L": [
                8162
            ], 
            "irrelevant_Noun": [
                0
            ], 
            "M1_ADJ": [
                1
            ]
        }, 
        "location1": [
            19
        ], 
        "location2": [
            21
        ], 
        "sentence": "well after applying this flagship wax to my already clean and shiny rv it took the shine to a whole higher level ."
    }
}