{
    "18235b48b5f2f9d36397f0a99b65c916": {
        "(19, 16)": {
            "AM2L": [
                4587
            ], 
            "AM2F": [
                3815
            ], 
            "WBF": [
                8162
            ], 
            "BM1F": [
                8034
            ], 
            "M1": [
                7114
            ], 
            "irrelevant_Adj": [
                0
            ], 
            "M2": [
                8826
            ], 
            "BM1L": [
                8189
            ], 
            "WBO": [
                310
            ], 
            "WBL": [
                310
            ], 
            "irrelevant_Noun": [
                0
            ], 
            "M1_ADJ": [
                0
            ]
        }, 
        "location1": [
            19
        ], 
        "location2": [
            16
        ], 
        "sentence": "well after applying this flagship wax to my already clean and shiny rv it took the shine to a whole higher level ."
    }
}