{
    "397f3bc0bc504facf77bebbe00e6ddd1": {
        "(24, 11)": {
            "AM2L": [
                599
            ], 
            "AM2F": [
                7526
            ], 
            "WBF": [
                720
            ], 
            "BM1F": [
                8034
            ], 
            "M1": [
                6289
            ], 
            "irrelevant_Adj": [
                0
            ], 
            "M2": [
                8835
            ], 
            "BM1L": [
                5458
            ], 
            "WBO": [
                8034, 
                3205, 
                5714, 
                3508, 
                3338, 
                5459, 
                8162, 
                310, 
                3450
            ], 
            "WBL": [
                8162
            ], 
            "irrelevant_Noun": [
                0
            ], 
            "M1_ADJ": [
                0
            ]
        }, 
        "location1": [
            24
        ], 
        "location2": [
            11
        ], 
        "sentence": "water flow can be cut off at either end of the range , as the flow pattern goes from off , to a gentle sprinkle , to wide spray , and then narrowing into a beam , and then off again ."
    }
}