{
    "3c7c641c2d7fe52a07f8931b7b9c17a9": {
        "location1": [
            9
        ], 
        "location2": [
            1
        ], 
        "(9, 1)": {
            "AM2L": [
                8814
            ], 
            "AM2F": [
                2730
            ], 
            "WBF": [
                4283
            ], 
            "BM1F": [
                3252
            ], 
            "M1": [
                1848
            ], 
            "irrelevant_Adj": [
                0
            ], 
            "M2": [
                8835
            ], 
            "WBO": [
                2847, 
                3705, 
                310, 
                4720
            ], 
            "WBL": [
                8034
            ], 
            "irrelevant_Noun": [
                0
            ], 
            "M1_ADJ": [
                0
            ]
        }, 
        "sentence": "for convenience it even has a loop on the wide end where i can insert a chain or rope to hang around my neck ."
    }
}