{
    "23a2baf50db573658a69a05d115cd9f8": {
        "location1": [
            7
        ], 
        "location2": [
            18
        ], 
        "(7, 18)": {
            "AM2L": [
                8819
            ], 
            "AM2F": [
                7071
            ], 
            "WBF": [
                2767
            ], 
            "BM1F": [
                4376
            ], 
            "M1": [
                8835
            ], 
            "irrelevant_Adj": [
                0
            ], 
            "M2": [
                4694
            ], 
            "BM1L": [
                4268
            ], 
            "WBO": [
                5589, 
                8028, 
                8049, 
                8, 
                546, 
                8162, 
                2731
            ], 
            "WBL": [
                8034
            ], 
            "irrelevant_Noun": [
                0
            ], 
            "M1_ADJ": [
                1
            ]
        }, 
        "sentence": "the hitch on my truck is just wide enough outside that there 's almost to end-play on the lock shaft which makes getting the end on even more difficult ."
    }
}