{
    "397f3bc0bc504facf77bebbe00e6ddd1": {
        "location1": [
            24
        ], 
        "location2": [
            31
        ], 
        "(24, 31)": {
            "AM2L": [
                8044
            ], 
            "AM2F": [
                599
            ], 
            "WBF": [
                7526
            ], 
            "BM1F": [
                8162
            ], 
            "M1": [
                8835
            ], 
            "irrelevant_Adj": [
                0
            ], 
            "M2": [
                934
            ], 
            "BM1L": [
                7533
            ], 
            "WBO": [
                599, 
                8044, 
                5262
            ], 
            "WBL": [
                310
            ], 
            "irrelevant_Noun": [
                0
            ], 
            "M1_ADJ": [
                1
            ]
        }, 
        "sentence": "water flow can be cut off at either end of the range , as the flow pattern goes from off , to a gentle sprinkle , to wide spray , and then narrowing into a beam , and then off again ."
    }
}