{
    "4c6acdef23675a5d898f42e51fcf2413": {
        "(45, 56)": {
            "AM2L": [
                4583
            ], 
            "AM2F": [
                599
            ], 
            "WBF": [
                3479
            ], 
            "BM1F": [
                8028
            ], 
            "M1": [
                8901
            ], 
            "irrelevant_Adj": [
                0
            ], 
            "M2": [
                5077
            ], 
            "BM1L": [
                1515
            ], 
            "WBO": [
                4043, 
                599, 
                2847, 
                4583, 
                4940, 
                5176, 
                5595
            ], 
            "WBL": [
                1275
            ], 
            "irrelevant_Noun": [
                0
            ], 
            "M1_ADJ": [
                1
            ]
        }, 
        "location1": [
            45
        ], 
        "location2": [
            56
        ], 
        "sentence": "one day i forgot to remove it when pulling out and it seems to take very little pressure moving forward to flatten it like a pan cake so i though my 50,000 investment may be better served with a heavy duty galvanized wheel chock that wont give in and even let me move over it by mistake and let me know its holding solid if i ever did again roll forward over it ."
    }
}