{
    "0567e4074c54d206c374e3bf96316912": {
        "(22, 3)": {
            "AM2L": [
                8997
            ], 
            "AM2F": [
                7614
            ], 
            "WBF": [
                599
            ], 
            "BM1F": [
                310
            ], 
            "M1": [
                2965
            ], 
            "irrelevant_Adj": [
                0
            ], 
            "M2": [
                8901
            ], 
            "BM1L": [
                5387
            ], 
            "WBO": [
                6976, 
                8789, 
                4800, 
                3962, 
                3819, 
                6390, 
                8073, 
                8162, 
                4401, 
                8063, 
                3874, 
                4283, 
                8901, 
                3617, 
                310
            ], 
            "WBL": [
                8063
            ], 
            "irrelevant_Noun": [
                0
            ], 
            "M1_ADJ": [
                0
            ]
        }, 
        "location1": [
            17, 
            22
        ], 
        "location2": [
            3
        ], 
        "(17, 3)": {
            "AM2L": [
                310
            ], 
            "AM2F": [
                3617
            ], 
            "WBF": [
                599
            ], 
            "BM1F": [
                310
            ], 
            "M1": [
                2965
            ], 
            "irrelevant_Adj": [
                0
            ], 
            "M2": [
                8901
            ], 
            "BM1L": [
                5387
            ], 
            "WBO": [
                6976, 
                8789, 
                4800, 
                3962, 
                3819, 
                6390, 
                8073, 
                8162, 
                4401, 
                8063
            ], 
            "WBL": [
                4283
            ], 
            "irrelevant_Noun": [
                0
            ], 
            "M1_ADJ": [
                0
            ]
        }, 
        "sentence": "is not a eyesore , and seems well made , i highly recommend this to keep thief honest , it wont guarentee a determined thief wont steal your expensive wheel/tire , but when the thief see 's the steel cable wrapped through the wheel , it wo n't be so much a snatch and grab ."
    }
}