{
    "02372f59de4e8c44d2f54d748122ae7a": {
        "(1, 2)": {
            "AM2L": [
                1323
            ], 
            "BM1F": [
                8034
            ], 
            "M1": [
                8925
            ], 
            "irrelevant_Adj": [
                0
            ], 
            "M2": [
                8065
            ], 
            "AM2F": [
                3962
            ], 
            "irrelevant_Noun": [
                1
            ], 
            "WBNULL": [
                1
            ], 
            "M1_ADJ": [
                1
            ]
        }, 
        "location1": [
            1
        ], 
        "location2": [
            2
        ], 
        "sentence": "the worst thing i can say about it is it 's tricky to fit under some car wheel well but that 's fine for having a functional nozzle that does what it is supposed to do year and year ."
    }
}