{
    "104f9d82e3047049294beaada8f21bcf": {
        "(6, 4)": {
            "AM2L": [
                2454
            ], 
            "WBFL": [
                8029
            ], 
            "BM1F": [
                5458
            ], 
            "M1": [
                642
            ], 
            "irrelevant_Adj": [
                0
            ], 
            "M2": [
                8927
            ], 
            "BM1L": [
                8067
            ], 
            "AM2F": [
                73
            ], 
            "irrelevant_Noun": [
                0
            ], 
            "M1_ADJ": [
                0
            ]
        }, 
        "location1": [
            6
        ], 
        "location2": [
            4
        ], 
        "sentence": ") can u think of anything thats worth 15 dollar a square foot ?"
    }
}