{
    "f46f5348eeff91738602f53c6d9a1b8a": {
        "location1": [
            19
        ], 
        "location2": [
            14
        ], 
        "(19, 14)": {
            "AM2F": [
                1649
            ], 
            "WBF": [
                945
            ], 
            "BM1F": [
                8034
            ], 
            "M1": [
                3559
            ], 
            "irrelevant_Adj": [
                0
            ], 
            "M2": [
                8984
            ], 
            "BM1L": [
                4043
            ], 
            "WBO": [
                5458
            ], 
            "WBL": [
                1180
            ], 
            "irrelevant_Noun": [
                0
            ], 
            "M1_ADJ": [
                0
            ]
        }, 
        "sentence": "they hold-up great , are dirt cheap and you ca n't lose them in the grass because of the bright yellow color ."
    }
}