{
    "01ff2bc9ceaf6574c463094d8144afb1": {
        "(8, 1)": {
            "AM2L": [
                310
            ], 
            "AM2F": [
                5943
            ], 
            "WBF": [
                3776
            ], 
            "BM1F": [
                8034
            ], 
            "M1": [
                2239
            ], 
            "irrelevant_Adj": [
                1
            ], 
            "M2": [
                8997
            ], 
            "WBO": [
                4401, 
                8991, 
                3338
            ], 
            "WBL": [
                8812
            ], 
            "irrelevant_Noun": [
                0
            ], 
            "M1_ADJ": [
                0
            ]
        }, 
        "location1": [
            8
        ], 
        "location2": [
            1
        ], 
        "sentence": "the design help keep you from spilling when your poring a fluid into it !"
    }
}