{
    "a8ad7c3994f57e804ad404cbe98e037e": {
        "(5, 7)": {
            "AM2L": [
                8719
            ], 
            "WBFL": [
                1358
            ], 
            "BM1F": [
                4403
            ], 
            "M1": [
                8997
            ], 
            "irrelevant_Adj": [
                1
            ], 
            "M2": [
                1566
            ], 
            "BM1L": [
                2577
            ], 
            "AM2F": [
                1016
            ], 
            "irrelevant_Noun": [
                0
            ], 
            "M1_ADJ": [
                1
            ]
        }, 
        "location1": [
            5
        ], 
        "location2": [
            7
        ], 
        "sentence": "amazingly wipe off dust keeping your car cleaner between wash ."
    }
}