{
    "1107fef5a389e7df2ef9a4b8a67eed70": {
        "sentence": "this type of nozzle may be good if you 're holding it for a long period of time watering your garden or something like that , but for washing your car when you only turn the water on periodically , it does n't work as well as a trigger type hose nozzle .", 
        "(28, 47)": {
            "AM2L": [
                5410
            ], 
            "AM2F": [
                3903
            ], 
            "WBF": [
                1358
            ], 
            "BM1F": [
                8724
            ], 
            "M1": [
                8997
            ], 
            "irrelevant_Adj": [
                1
            ], 
            "M2": [
                8374
            ], 
            "BM1L": [
                3252
            ], 
            "WBO": [
                8812, 
                8991, 
                5512, 
                8351, 
                8034, 
                8736, 
                5495, 
                5767, 
                4283, 
                2445, 
                5245, 
                8907, 
                720, 
                8789, 
                720
            ], 
            "WBL": [
                8305
            ], 
            "irrelevant_Noun": [
                0
            ], 
            "M1_ADJ": [
                1
            ]
        }, 
        "location2": [
            1, 
            47
        ], 
        "(19, 1)": {
            "AM2L": [
                5543
            ], 
            "AM2F": [
                3419
            ], 
            "WBF": [
                5458
            ], 
            "BM1F": [
                8073
            ], 
            "M1": [
                8374
            ], 
            "irrelevant_Adj": [
                1
            ], 
            "M2": [
                8997
            ], 
            "WBO": [
                5410, 
                4929, 
                929, 
                3518, 
                3985, 
                8991, 
                7, 
                3854, 
                4283, 
                3252, 
                310, 
                4710, 
                5766, 
                5458
            ], 
            "WBL": [
                8739
            ], 
            "irrelevant_Noun": [
                0
            ], 
            "M1_ADJ": [
                0
            ]
        }, 
        "(28, 1)": {
            "AM2L": [
                8812
            ], 
            "AM2F": [
                1358
            ], 
            "WBF": [
                5458
            ], 
            "BM1F": [
                8073
            ], 
            "M1": [
                8374
            ], 
            "irrelevant_Adj": [
                1
            ], 
            "M2": [
                8997
            ], 
            "WBO": [
                5410, 
                4929, 
                929, 
                3518, 
                3985, 
                8991, 
                7, 
                3854, 
                4283, 
                3252, 
                310, 
                4710, 
                5766, 
                5458, 
                8140, 
                8739, 
                8997, 
                3419, 
                5543, 
                7409, 
                4625, 
                8028, 
                1262
            ], 
            "WBL": [
                8724
            ], 
            "irrelevant_Noun": [
                0
            ], 
            "M1_ADJ": [
                0
            ]
        }, 
        "(19, 47)": {
            "AM2L": [
                5410
            ], 
            "AM2F": [
                3903
            ], 
            "WBF": [
                3419
            ], 
            "BM1F": [
                8739
            ], 
            "M1": [
                8997
            ], 
            "irrelevant_Adj": [
                1
            ], 
            "M2": [
                8374
            ], 
            "BM1L": [
                8140
            ], 
            "WBO": [
                5543, 
                7409, 
                4625, 
                8028, 
                1262, 
                3252, 
                8724, 
                8997, 
                1358, 
                8812, 
                8991, 
                5512, 
                8351, 
                8034, 
                8736, 
                5495, 
                5767, 
                4283, 
                2445, 
                5245, 
                8907, 
                720, 
                8789, 
                720
            ], 
            "WBL": [
                8305
            ], 
            "irrelevant_Noun": [
                0
            ], 
            "M1_ADJ": [
                1
            ]
        }, 
        "location1": [
            19, 
            28
        ]
    }
}