{
    "24effdd321e5000e6d049c915db7bc5b": {
        "(4, 15)": {
            "WBF": [
                3661
            ], 
            "BM1F": [
                1254
            ], 
            "M1": [
                8997
            ], 
            "irrelevant_Adj": [
                1
            ], 
            "M2": [
                7791
            ], 
            "BM1L": [
                5387
            ], 
            "WBO": [
                4625, 
                8034, 
                5567, 
                2436, 
                8812, 
                4559, 
                5574
            ], 
            "WBL": [
                8034
            ], 
            "irrelevant_Noun": [
                0
            ], 
            "M1_ADJ": [
                1
            ]
        }, 
        "location1": [
            4
        ], 
        "location2": [
            15
        ], 
        "sentence": "it dose not burn your hand like the others do when left out in the sun ."
    }, 
    "42b4f05fd73153bb55f8f2ec08fb1798": {
        "(19, 6)": {
            "AM2L": [
                4283
            ], 
            "AM2F": [
                1358
            ], 
            "WBF": [
                5543
            ], 
            "BM1F": [
                8034
            ], 
            "M1": [
                7791
            ], 
            "irrelevant_Adj": [
                1
            ], 
            "M2": [
                8997
            ], 
            "BM1L": [
                4043
            ], 
            "WBO": [
                3985, 
                8991, 
                3717, 
                3688, 
                8736, 
                5543, 
                3985, 
                8991, 
                688
            ], 
            "WBL": [
                325
            ], 
            "irrelevant_Noun": [
                0
            ], 
            "M1_ADJ": [
                0
            ]
        }, 
        "location1": [
            19
        ], 
        "location2": [
            6
        ], 
        "sentence": "if the car is in the sun or if you have hard water or if you are meticulous about your car , it may be a good thing to run a microfiber towel over the car after you use the absorber to get the rest of the water off and to ensure no spots/streaks get left behind ."
    }
}