{
    "b1c07ba6a5e7fe3f1f930add5c75d93c": {
        "(19, 17)": {
            "WBFL": [
                8162
            ], 
            "BM1F": [
                8851
            ], 
            "M1": [
                7630
            ], 
            "irrelevant_Adj": [
                1
            ], 
            "M2": [
                8997
            ], 
            "BM1L": [
                8028
            ], 
            "AM2F": [
                8860
            ], 
            "irrelevant_Noun": [
                0
            ], 
            "M1_ADJ": [
                0
            ]
        }, 
        "location1": [
            19
        ], 
        "location2": [
            17
        ], 
        "sentence": "it is good for rain , sleet and snow and even reduces the amount of bug that will stick to your window ."
    }, 
    "205f3631922808665e6617fc99f39b53": {
        "(6, 9)": {
            "AM2L": [
                7362
            ], 
            "AM2F": [
                8333
            ], 
            "WBF": [
                8262
            ], 
            "BM1F": [
                4216
            ], 
            "M1": [
                8997
            ], 
            "irrelevant_Adj": [
                1
            ], 
            "M2": [
                7630
            ], 
            "BM1L": [
                3149
            ], 
            "WBO": [
                2345
            ], 
            "WBL": [
                2345
            ], 
            "irrelevant_Noun": [
                0
            ], 
            "M1_ADJ": [
                1
            ]
        }, 
        "location1": [
            6
        ], 
        "location2": [
            9
        ], 
        "sentence": "it 's able to fit into your transmission dip stick tube , so it has to be small enough , so you can just dump a bunch a fluid into it at once ! ! !"
    }
}