{
    "e751bdda0c399950ba0904bfadf05ba1": {
        "location1": [
            7
        ], 
        "location2": [
            10
        ], 
        "(7, 10)": {
            "AM2L": [
                1755
            ], 
            "AM2F": [
                6731
            ], 
            "WBF": [
                1358
            ], 
            "BM1F": [
                4821
            ], 
            "M1": [
                8997
            ], 
            "irrelevant_Adj": [
                1
            ], 
            "M2": [
                7151
            ], 
            "BM1L": [
                1323
            ], 
            "WBO": [
                4043
            ], 
            "WBL": [
                4043
            ], 
            "irrelevant_Noun": [
                0
            ], 
            "M1_ADJ": [
                1
            ]
        }, 
        "sentence": "then using this brush , you can maintain your car in show room condition for a long time without having to wash it ."
    }
}