{
    "1107fef5a389e7df2ef9a4b8a67eed70": {
        "(28, 49)": {
            "WBF": [
                1358
            ], 
            "BM1F": [
                8724
            ], 
            "M1": [
                8997
            ], 
            "irrelevant_Adj": [
                1
            ], 
            "M2": [
                5410
            ], 
            "BM1L": [
                3252
            ], 
            "WBO": [
                8812, 
                8991, 
                5512, 
                8351, 
                8034, 
                8736, 
                5495, 
                5767, 
                4283, 
                2445, 
                5245, 
                8907, 
                720, 
                8789, 
                720, 
                310, 
                8305
            ], 
            "WBL": [
                3903
            ], 
            "irrelevant_Noun": [
                0
            ], 
            "M1_ADJ": [
                1
            ]
        }, 
        "sentence": "this type of nozzle may be good if you 're holding it for a long period of time watering your garden or something like that , but for washing your car when you only turn the water on periodically , it does n't work as well as a trigger type hose nozzle .", 
        "location2": [
            3, 
            49
        ], 
        "location1": [
            19, 
            28
        ], 
        "(19, 3)": {
            "AM2L": [
                5543
            ], 
            "AM2F": [
                3419
            ], 
            "WBF": [
                4929
            ], 
            "BM1F": [
                5458
            ], 
            "M1": [
                5410
            ], 
            "irrelevant_Adj": [
                1
            ], 
            "M2": [
                8997
            ], 
            "BM1L": [
                8374
            ], 
            "WBO": [
                929, 
                3518, 
                3985, 
                8991, 
                7, 
                3854, 
                4283, 
                3252, 
                310, 
                4710, 
                5766, 
                5458
            ], 
            "WBL": [
                8739
            ], 
            "irrelevant_Noun": [
                0
            ], 
            "M1_ADJ": [
                0
            ]
        }, 
        "(19, 49)": {
            "WBF": [
                3419
            ], 
            "BM1F": [
                8739
            ], 
            "M1": [
                8997
            ], 
            "irrelevant_Adj": [
                1
            ], 
            "M2": [
                5410
            ], 
            "BM1L": [
                8140
            ], 
            "WBO": [
                5543, 
                7409, 
                4625, 
                8028, 
                1262, 
                3252, 
                8724, 
                8997, 
                1358, 
                8812, 
                8991, 
                5512, 
                8351, 
                8034, 
                8736, 
                5495, 
                5767, 
                4283, 
                2445, 
                5245, 
                8907, 
                720, 
                8789, 
                720, 
                310, 
                8305
            ], 
            "WBL": [
                3903
            ], 
            "irrelevant_Noun": [
                0
            ], 
            "M1_ADJ": [
                1
            ]
        }, 
        "(28, 3)": {
            "AM2L": [
                8812
            ], 
            "AM2F": [
                1358
            ], 
            "WBF": [
                4929
            ], 
            "BM1F": [
                5458
            ], 
            "M1": [
                5410
            ], 
            "irrelevant_Adj": [
                1
            ], 
            "M2": [
                8997
            ], 
            "BM1L": [
                8374
            ], 
            "WBO": [
                929, 
                3518, 
                3985, 
                8991, 
                7, 
                3854, 
                4283, 
                3252, 
                310, 
                4710, 
                5766, 
                5458, 
                8140, 
                8739, 
                8997, 
                3419, 
                5543, 
                7409, 
                4625, 
                8028, 
                1262
            ], 
            "WBL": [
                8724
            ], 
            "irrelevant_Noun": [
                0
            ], 
            "M1_ADJ": [
                0
            ]
        }
    }, 
    "a445a224cab644aa0048870656ae4f37": {
        "location1": [
            6
        ], 
        "location2": [
            15
        ], 
        "(6, 15)": {
            "AM2F": [
                4152
            ], 
            "WBF": [
                4689
            ], 
            "BM1F": [
                8162
            ], 
            "M1": [
                8997
            ], 
            "irrelevant_Adj": [
                1
            ], 
            "M2": [
                5410
            ], 
            "BM1L": [
                3510
            ], 
            "WBO": [
                2206, 
                7663, 
                599, 
                1271, 
                8034
            ], 
            "WBL": [
                1160
            ], 
            "irrelevant_Noun": [
                0
            ], 
            "M1_ADJ": [
                1
            ]
        }, 
        "sentence": "you are better off going to your local department store and buying the craftsman brand nozzle instead ."
    }, 
    "11d62e4c4eb9ecd119a7f698b76d1419": {
        "location1": [
            5, 
            10
        ], 
        "location2": [
            11
        ], 
        "(5, 11)": {
            "AM2L": [
                2984
            ], 
            "AM2F": [
                1323
            ], 
            "WBF": [
                3903
            ], 
            "BM1F": [
                720
            ], 
            "M1": [
                8997
            ], 
            "irrelevant_Adj": [
                1
            ], 
            "M2": [
                5410
            ], 
            "BM1L": [
                3976
            ], 
            "WBO": [
                1323, 
                1258
            ], 
            "WBL": [
                8997
            ], 
            "irrelevant_Noun": [
                0
            ], 
            "M1_ADJ": [
                1
            ]
        }, 
        "(10, 11)": {
            "AM2L": [
                2984
            ], 
            "BM1F": [
                5543
            ], 
            "M1": [
                8997
            ], 
            "irrelevant_Adj": [
                1
            ], 
            "M2": [
                5410
            ], 
            "BM1L": [
                1258
            ], 
            "WBNULL": [
                1
            ], 
            "irrelevant_Noun": [
                0
            ], 
            "AM2F": [
                1323
            ], 
            "M1_ADJ": [
                1
            ]
        }, 
        "sentence": "not the brightest idea as your hose can burst or your nozzle can fail ."
    }, 
    "c71890eb89a2573215e27e32109650d3": {
        "location1": [
            6
        ], 
        "location2": [
            12
        ], 
        "(6, 12)": {
            "AM2L": [
                7
            ], 
            "AM2F": [
                8991
            ], 
            "WBF": [
                6090
            ], 
            "BM1F": [
                8
            ], 
            "M1": [
                8997
            ], 
            "irrelevant_Adj": [
                1
            ], 
            "M2": [
                5410
            ], 
            "BM1L": [
                8049
            ], 
            "WBO": [
                5294, 
                8028
            ], 
            "WBL": [
                5862
            ], 
            "irrelevant_Noun": [
                0
            ], 
            "M1_ADJ": [
                1
            ]
        }, 
        "sentence": "my neighbor mentioned , `` that there 's your problem neighbor - that crumby plastic nozzle you 're using ."
    }, 
    "ec633d33615b3d2d8ee9b540dbdaac3e": {
        "(50, 41)": {
            "AM2L": [
                5595
            ], 
            "AM2F": [
                3124
            ], 
            "WBF": [
                8049
            ], 
            "BM1F": [
                8375
            ], 
            "M1": [
                5410
            ], 
            "irrelevant_Adj": [
                1
            ], 
            "M2": [
                8997
            ], 
            "BM1L": [
                8997
            ], 
            "WBO": [
                4268, 
                5344, 
                3854, 
                310, 
                3665
            ], 
            "WBL": [
                3854
            ], 
            "irrelevant_Noun": [
                0
            ], 
            "M1_ADJ": [
                0
            ]
        }, 
        "(39, 41)": {
            "AM2L": [
                4268
            ], 
            "WBFL": [
                8375
            ], 
            "BM1F": [
                8024
            ], 
            "M1": [
                8997
            ], 
            "irrelevant_Adj": [
                1
            ], 
            "M2": [
                5410
            ], 
            "BM1L": [
                5980
            ], 
            "AM2F": [
                8049
            ], 
            "irrelevant_Noun": [
                0
            ], 
            "M1_ADJ": [
                1
            ]
        }, 
        "location1": [
            39, 
            50
        ], 
        "location2": [
            41
        ], 
        "sentence": "its much wider and useful than just the hose without a nozzlei would say the best 2 feature are 1 . the ability to shut it off going either direction and 2 . even if its not much more powerful than your typical nozzle there is no holding a handle , or holding your finger over the hose to get pressure ."
    }, 
    "25ed16f0a2132de011c3baa24c6ebeeb": {
        "(19, 20)": {
            "BM1F": [
                5387
            ], 
            "M1": [
                8997
            ], 
            "irrelevant_Adj": [
                1
            ], 
            "M2": [
                5410
            ], 
            "BM1L": [
                4268
            ], 
            "WBNULL": [
                1
            ], 
            "irrelevant_Noun": [
                0
            ], 
            "M1_ADJ": [
                1
            ]
        }, 
        "location1": [
            19
        ], 
        "location2": [
            20
        ], 
        "sentence": "if you are trying not to splatter mud , create crater or wash away feshly planted seed , this is not your nozzle ."
    }, 
    "0a11fb4092a0933ff57ab0c590a3184a": {
        "(17, 20)": {
            "WBF": [
                8375
            ], 
            "BM1F": [
                8024
            ], 
            "M1": [
                8997
            ], 
            "irrelevant_Adj": [
                1
            ], 
            "M2": [
                5410
            ], 
            "BM1L": [
                3758
            ], 
            "WBO": [
                1478
            ], 
            "WBL": [
                1478
            ], 
            "irrelevant_Noun": [
                0
            ], 
            "M1_ADJ": [
                1
            ]
        }, 
        "location1": [
            17
        ], 
        "location2": [
            20
        ], 
        "sentence": "the product appears to be very well constructed , and is quite a bit larger and heavier , than your typical cheapo nozzle ."
    }, 
    "1d0cb82131e537b7291a071413dc08d1": {
        "(12, 15)": {
            "WBF": [
                8375
            ], 
            "BM1F": [
                8024
            ], 
            "M1": [
                8997
            ], 
            "irrelevant_Adj": [
                1
            ], 
            "M2": [
                5410
            ], 
            "BM1L": [
                8736
            ], 
            "WBO": [
                1478
            ], 
            "WBL": [
                1478
            ], 
            "irrelevant_Noun": [
                0
            ], 
            "M1_ADJ": [
                1
            ]
        }, 
        "location1": [
            12
        ], 
        "location2": [
            15
        ], 
        "sentence": "12 inch in diameter , which produce a thicker stream of water than your typical cheapo nozzle ."
    }, 
    "a2654fbad7e53faad87d8853b15fb7bd": {
        "(1, 20)": {
            "WBF": [
                7888
            ], 
            "BM1F": [
                8456
            ], 
            "M1": [
                8997
            ], 
            "irrelevant_Adj": [
                1
            ], 
            "M2": [
                5410
            ], 
            "WBO": [
                3705, 
                3808, 
                8657, 
                599, 
                3518, 
                8736, 
                6038, 
                8991, 
                4929, 
                5387, 
                929, 
                320, 
                8162, 
                7910, 
                3352
            ], 
            "WBL": [
                8073
            ], 
            "irrelevant_Noun": [
                0
            ], 
            "M1_ADJ": [
                1
            ]
        }, 
        "location1": [
            1
        ], 
        "location2": [
            20
        ], 
        "sentence": "unless your system has high volume , and good water pressure , you may not be able to take full advantage this nozzle ."
    }
}