{
    "fd27537974873cc55e65622859215142": {
        "location1": [
            6
        ], 
        "location2": [
            15
        ], 
        "(6, 15)": {
            "WBF": [
                1358
            ], 
            "BM1F": [
                8719
            ], 
            "M1": [
                8997
            ], 
            "irrelevant_Adj": [
                1
            ], 
            "M2": [
                2580
            ], 
            "BM1L": [
                8162
            ], 
            "WBO": [
                720, 
                5477, 
                3985, 
                8991, 
                8531
            ], 
            "WBL": [
                1305
            ], 
            "irrelevant_Noun": [
                0
            ], 
            "M1_ADJ": [
                1
            ]
        }, 
        "sentence": "you wo n't have to wash your car as often if you use the california duster ."
    }, 
    "a1925c42a9eeeca7048989022e6c23b7": {
        "location1": [
            14
        ], 
        "location2": [
            1
        ], 
        "(14, 1)": {
            "WBF": [
                8851
            ], 
            "BM1F": [
                8034
            ], 
            "M1": [
                2580
            ], 
            "irrelevant_Adj": [
                1
            ], 
            "M2": [
                8997
            ], 
            "WBO": [
                8907, 
                2847, 
                1014, 
                3985, 
                8991, 
                6209, 
                310, 
                6937, 
                600
            ], 
            "WBL": [
                5495
            ], 
            "irrelevant_Noun": [
                0
            ], 
            "AM2F": [
                1358
            ], 
            "M1_ADJ": [
                0
            ]
        }, 
        "sentence": "the duster will work even better if you put a sealant and/or wax on your car ."
    }
}