{
    "173166e2ad0e35b4cbe303b976e9411e": {
        "(9, 17)": {
            "AM2L": [
                8851
            ], 
            "AM2F": [
                8991
            ], 
            "WBF": [
                3325
            ], 
            "BM1F": [
                1433
            ], 
            "M1": [
                8997
            ], 
            "irrelevant_Adj": [
                1
            ], 
            "M2": [
                2117
            ], 
            "BM1L": [
                8603
            ], 
            "WBO": [
                8722, 
                1358, 
                4268, 
                3312
            ], 
            "WBL": [
                527
            ], 
            "irrelevant_Noun": [
                0
            ], 
            "M1_ADJ": [
                1
            ]
        }, 
        "location1": [
            9
        ], 
        "location2": [
            17
        ], 
        "sentence": "it work well , and if you are very certain your freshly washed car is free from all debris , you will likely not cause any scratching ."
    }
}