{
    "e46cff3da4fd20b0ee6aef7d28a573be": {
        "(19, 8)": {
            "AM2L": [
                4717
            ], 
            "AM2F": [
                1358
            ], 
            "WBF": [
                8162
            ], 
            "BM1F": [
                104
            ], 
            "M1": [
                5062
            ], 
            "irrelevant_Adj": [
                1
            ], 
            "M2": [
                8997
            ], 
            "BM1L": [
                8024
            ], 
            "WBO": [
                2577, 
                5459, 
                591, 
                2787, 
                1358, 
                8987, 
                8034
            ], 
            "WBL": [
                4831
            ], 
            "irrelevant_Noun": [
                0
            ], 
            "M1_ADJ": [
                0
            ]
        }, 
        "location1": [
            19
        ], 
        "location2": [
            8
        ], 
        "sentence": "it takes a total of less than 2 minute to dust off an entire car , yet the result makes your car look like you just washed it ."
    }
}