{
    "1107fef5a389e7df2ef9a4b8a67eed70": {
        "(19, 22)": {
            "AM2L": [
                8028
            ], 
            "AM2F": [
                4625
            ], 
            "WBF": [
                3419
            ], 
            "BM1F": [
                8739
            ], 
            "M1": [
                8997
            ], 
            "irrelevant_Adj": [
                1
            ], 
            "M2": [
                7409
            ], 
            "BM1L": [
                8140
            ], 
            "WBO": [
                5543
            ], 
            "WBL": [
                5543
            ], 
            "irrelevant_Noun": [
                0
            ], 
            "M1_ADJ": [
                1
            ]
        }, 
        "(28, 22)": {
            "AM2L": [
                8812
            ], 
            "AM2F": [
                1358
            ], 
            "WBF": [
                4625
            ], 
            "BM1F": [
                5543
            ], 
            "M1": [
                7409
            ], 
            "irrelevant_Adj": [
                1
            ], 
            "M2": [
                8997
            ], 
            "BM1L": [
                3419
            ], 
            "WBO": [
                8028, 
                1262
            ], 
            "WBL": [
                8724
            ], 
            "irrelevant_Noun": [
                0
            ], 
            "M1_ADJ": [
                0
            ]
        }, 
        "location1": [
            19, 
            28
        ], 
        "location2": [
            22
        ], 
        "sentence": "this type of nozzle may be good if you 're holding it for a long period of time watering your garden or something like that , but for washing your car when you only turn the water on periodically , it does n't work as well as a trigger type hose nozzle ."
    }, 
    "2341143e6422c0fe1fa4910780bf7472": {
        "location1": [
            10
        ], 
        "location2": [
            16
        ], 
        "(10, 16)": {
            "AM2L": [
                310
            ], 
            "AM2F": [
                4625
            ], 
            "WBF": [
                1358
            ], 
            "BM1F": [
                3985
            ], 
            "M1": [
                8997
            ], 
            "irrelevant_Adj": [
                1
            ], 
            "M2": [
                7409
            ], 
            "BM1L": [
                5894
            ], 
            "WBO": [
                4268, 
                5682
            ], 
            "WBL": [
                482
            ], 
            "irrelevant_Noun": [
                0
            ], 
            "M1_ADJ": [
                1
            ]
        }, 
        "sentence": "having the longest cable possible is a major plus if your car is parked up against something like a pole or wall , or even parked on a one way street ."
    }
}