{
    "205f3631922808665e6617fc99f39b53": {
        "location1": [
            6
        ], 
        "location2": [
            24
        ], 
        "(6, 24)": {
            "AM2L": [
                3212
            ], 
            "AM2F": [
                310
            ], 
            "WBF": [
                8262
            ], 
            "BM1F": [
                4216
            ], 
            "M1": [
                8997
            ], 
            "irrelevant_Adj": [
                1
            ], 
            "M2": [
                1246
            ], 
            "BM1L": [
                3149
            ], 
            "WBO": [
                2345, 
                7630, 
                8333, 
                7362, 
                4283, 
                3705, 
                8162, 
                929, 
                7308, 
                2767, 
                7362, 
                8991, 
                1323, 
                4376
            ], 
            "WBL": [
                310
            ], 
            "irrelevant_Noun": [
                0
            ], 
            "M1_ADJ": [
                1
            ]
        }, 
        "sentence": "it 's able to fit into your transmission dip stick tube , so it has to be small enough , so you can just dump a bunch a fluid into it at once ! ! !"
    }
}