{
    "0d0337dba1a9fc2b23c3743222ce8cd8": {
        "location1": [
            13
        ], 
        "location2": [
            7
        ], 
        "(13, 7)": {
            "AM2F": [
                5657
            ], 
            "WBF": [
                3851
            ], 
            "BM1F": [
                2495
            ], 
            "M1": [
                2356
            ], 
            "irrelevant_Adj": [
                1
            ], 
            "M2": [
                8997
            ], 
            "BM1L": [
                8851
            ], 
            "WBO": [
                5514, 
                6702
            ], 
            "WBL": [
                6915
            ], 
            "irrelevant_Noun": [
                0
            ], 
            "M1_ADJ": [
                0
            ]
        }, 
        "sentence": "do n't use rag that will drag dirt & hold onto rock to scratch your paint ."
    }, 
    "2ec39498919dbb3d5fd6b722bf9af3a4": {
        "location1": [
            10, 
            20
        ], 
        "location2": [
            6
        ], 
        "(10, 6)": {
            "AM2L": [
                599
            ], 
            "AM2F": [
                1358
            ], 
            "WBF": [
                599
            ], 
            "BM1F": [
                4616
            ], 
            "M1": [
                2356
            ], 
            "irrelevant_Adj": [
                1
            ], 
            "M2": [
                8997
            ], 
            "BM1L": [
                8870
            ], 
            "WBO": [
                2577
            ], 
            "WBL": [
                5459
            ], 
            "irrelevant_Noun": [
                0
            ], 
            "M1_ADJ": [
                0
            ]
        }, 
        "(20, 6)": {
            "AM2F": [
                1358
            ], 
            "WBF": [
                599
            ], 
            "BM1F": [
                4616
            ], 
            "M1": [
                2356
            ], 
            "irrelevant_Adj": [
                1
            ], 
            "M2": [
                8997
            ], 
            "BM1L": [
                8870
            ], 
            "WBO": [
                2577, 
                5459, 
                8997, 
                1358, 
                599, 
                4831, 
                4283, 
                4717, 
                4625, 
                8991
            ], 
            "WBL": [
                8748
            ], 
            "irrelevant_Noun": [
                0
            ], 
            "M1_ADJ": [
                0
            ]
        }, 
        "sentence": "it is great to wipe light dirt and dust off your car and makes it look like you just waxed your car ."
    }, 
    "4ee27eb7615dee65b92894fa7714c89f": {
        "location1": [
            14
        ], 
        "location2": [
            8
        ], 
        "(14, 8)": {
            "AM2L": [
                8162
            ], 
            "AM2F": [
                1358
            ], 
            "WBF": [
                8819
            ], 
            "BM1F": [
                5458
            ], 
            "M1": [
                2356
            ], 
            "irrelevant_Adj": [
                1
            ], 
            "M2": [
                8997
            ], 
            "BM1L": [
                4737
            ], 
            "WBO": [
                4268, 
                5387
            ], 
            "WBL": [
                3252
            ], 
            "irrelevant_Noun": [
                0
            ], 
            "M1_ADJ": [
                0
            ]
        }, 
        "sentence": "this one seems to collect a lot of dirt which is not good for your car to wipe with ."
    }, 
    "ab36fc04605f61664599f6cf30820005": {
        "location1": [
            23
        ], 
        "location2": [
            14
        ], 
        "(23, 14)": {
            "AM2F": [
                5657
            ], 
            "WBF": [
                4043
            ], 
            "BM1F": [
                636
            ], 
            "M1": [
                2356
            ], 
            "irrelevant_Adj": [
                1
            ], 
            "M2": [
                8997
            ], 
            "BM1L": [
                3459
            ], 
            "WBO": [
                8049, 
                8991, 
                4929, 
                2436, 
                310
            ], 
            "WBL": [
                5495
            ], 
            "irrelevant_Noun": [
                0
            ], 
            "M1_ADJ": [
                0
            ]
        }, 
        "sentence": "i suppose you can turn on the leaf blower , but if you get any dirt in there you may do a number on your paint ."
    }, 
    "be9ac57ce88d0ae8efaf5f5a913a285d": {
        "location1": [
            8, 
            22
        ], 
        "location2": [
            16
        ], 
        "(8, 16)": {
            "AM2L": [
                4283
            ], 
            "AM2F": [
                8887
            ], 
            "WBF": [
                1358
            ], 
            "BM1F": [
                2577
            ], 
            "M1": [
                8997
            ], 
            "irrelevant_Adj": [
                1
            ], 
            "M2": [
                2356
            ], 
            "BM1L": [
                7775
            ], 
            "WBO": [
                599, 
                5387, 
                8329, 
                8162
            ], 
            "WBL": [
                3762
            ], 
            "irrelevant_Noun": [
                0
            ], 
            "M1_ADJ": [
                1
            ]
        }, 
        "(22, 16)": {
            "AM2L": [
                7523
            ], 
            "AM2F": [
                1358
            ], 
            "WBF": [
                8887
            ], 
            "BM1F": [
                3762
            ], 
            "M1": [
                2356
            ], 
            "irrelevant_Adj": [
                1
            ], 
            "M2": [
                8997
            ], 
            "BM1L": [
                1564
            ], 
            "WBO": [
                4283, 
                4283
            ], 
            "WBL": [
                4555
            ], 
            "irrelevant_Noun": [
                0
            ], 
            "M1_ADJ": [
                0
            ]
        }, 
        "sentence": "as long as you use as suggested , dust your car , and not try to clean heavy dirt with it , it will leave your car spotless ."
    }
}