{
    "e520e0bfdfa578464d3d59c14ed42ac8": {
        "location1": [
            25
        ], 
        "location2": [
            28
        ], 
        "(25, 28)": {
            "AM2L": [
                5080
            ], 
            "AM2F": [
                599
            ], 
            "WBF": [
                8863
            ], 
            "BM1F": [
                1572
            ], 
            "M1": [
                8997
            ], 
            "irrelevant_Adj": [
                1
            ], 
            "M2": [
                6267
            ], 
            "BM1L": [
                5458
            ], 
            "WBO": [
                5458
            ], 
            "WBL": [
                5458
            ], 
            "irrelevant_Noun": [
                0
            ], 
            "M1_ADJ": [
                1
            ]
        }, 
        "sentence": "have used this in the past on all of my vehicle ( 3 over the last 16 year ) and it does a great job of clearing your windshield/windows of rain and misting ."
    }, 
    "a01af467ce9d5b53fe29220f1435ea7e": {
        "(50, 2)": {
            "AM2F": [
                8872
            ], 
            "WBF": [
                5543
            ], 
            "BM1F": [
                4616
            ], 
            "M1": [
                6267
            ], 
            "irrelevant_Adj": [
                1
            ], 
            "M2": [
                8997
            ], 
            "BM1L": [
                2576
            ], 
            "WBO": [
                8812, 
                8034, 
                6685, 
                688, 
                8803, 
                599, 
                5076, 
                4268, 
                4418, 
                8501, 
                3338, 
                8034, 
                8157, 
                5495, 
                8034, 
                8587, 
                4043, 
                3339, 
                5458, 
                8991, 
                8073, 
                2445, 
                310, 
                3564, 
                4344, 
                5458, 
                4403, 
                8034, 
                933, 
                5181, 
                8501, 
                599, 
                5459, 
                5458, 
                8034, 
                8860, 
                8162, 
                8034, 
                5905, 
                8028, 
                8991, 
                2436, 
                5245, 
                6354
            ], 
            "WBL": [
                5284
            ], 
            "irrelevant_Noun": [
                0
            ], 
            "M1_ADJ": [
                0
            ]
        }, 
        "location1": [
            50
        ], 
        "location2": [
            2
        ], 
        "sentence": "during light rain or when the road are wet and mist is kicked up from the tire on the vehicle in front of you , this does a great job of keeping the beading moving up and off of the window to the point that you do n't really even need your wiper ."
    }, 
    "b4d378abe5578af0780c7591a80ad381": {
        "(4, 10)": {
            "WBF": [
                1358
            ], 
            "BM1F": [
                8724
            ], 
            "M1": [
                8997
            ], 
            "irrelevant_Adj": [
                1
            ], 
            "M2": [
                6267
            ], 
            "BM1L": [
                475
            ], 
            "WBO": [
                5543, 
                475
            ], 
            "WBL": [
                3762
            ], 
            "irrelevant_Noun": [
                0
            ], 
            "M1_ADJ": [
                1
            ]
        }, 
        "location1": [
            4
        ], 
        "location2": [
            10
        ], 
        "sentence": "great for after washing your car or after a heavy rain ."
    }, 
    "fa9c571c17b329afb2a7548c86e3cefa": {
        "(0, 9)": {
            "WBF": [
                8862
            ], 
            "AM2L": [
                7268
            ], 
            "M1": [
                8997
            ], 
            "irrelevant_Adj": [
                1
            ], 
            "M2": [
                6267
            ], 
            "WBO": [
                3485, 
                4268, 
                7362, 
                7266, 
                8028
            ], 
            "WBL": [
                3759
            ], 
            "irrelevant_Noun": [
                0
            ], 
            "AM2F": [
                4376
            ], 
            "M1_ADJ": [
                1
            ]
        }, 
        "(16, 9)": {
            "AM2F": [
                8872
            ], 
            "WBF": [
                4376
            ], 
            "BM1F": [
                3759
            ], 
            "M1": [
                6267
            ], 
            "irrelevant_Adj": [
                1
            ], 
            "M2": [
                8997
            ], 
            "BM1L": [
                8034
            ], 
            "WBO": [
                7268, 
                6667, 
                5459
            ], 
            "WBL": [
                8542
            ], 
            "irrelevant_Noun": [
                0
            ], 
            "M1_ADJ": [
                0
            ]
        }, 
        "location1": [
            0, 
            16
        ], 
        "location2": [
            9
        ], 
        "sentence": "your windshield glass is so slick that the heaviest rain just slide right off without using your wiper ."
    }, 
    "b1c07ba6a5e7fe3f1f930add5c75d93c": {
        "(19, 4)": {
            "AM2F": [
                8860
            ], 
            "WBF": [
                7261
            ], 
            "BM1F": [
                3252
            ], 
            "M1": [
                6267
            ], 
            "irrelevant_Adj": [
                1
            ], 
            "M2": [
                8997
            ], 
            "BM1L": [
                3518
            ], 
            "WBO": [
                599, 
                7357, 
                599, 
                2847, 
                6424, 
                8034, 
                583, 
                5458, 
                1225, 
                8028, 
                8851
            ], 
            "WBL": [
                8162
            ], 
            "irrelevant_Noun": [
                0
            ], 
            "M1_ADJ": [
                0
            ]
        }, 
        "location1": [
            19
        ], 
        "location2": [
            4
        ], 
        "sentence": "it is good for rain , sleet and snow and even reduces the amount of bug that will stick to your window ."
    }
}