{
    "95480dff824507e9fe1741381c104bbe": {
        "(18, 14)": {
            "AM2L": [
                8813
            ], 
            "AM2F": [
                1358
            ], 
            "WBF": [
                6780
            ], 
            "BM1F": [
                8034
            ], 
            "M1": [
                6273
            ], 
            "irrelevant_Adj": [
                1
            ], 
            "M2": [
                8997
            ], 
            "BM1L": [
                527
            ], 
            "WBO": [
                8501
            ], 
            "WBL": [
                4216
            ], 
            "irrelevant_Noun": [
                0
            ], 
            "M1_ADJ": [
                0
            ]
        }, 
        "location1": [
            18
        ], 
        "location2": [
            14
        ], 
        "sentence": "tip : do n't put it on the side window , unless you want all the rainwater rushing up into your car whenever you crack them open ."
    }
}