{
    "42b4f05fd73153bb55f8f2ec08fb1798": {
        "location1": [
            19
        ], 
        "location2": [
            39
        ], 
        "(19, 39)": {
            "AM2L": [
                3459
            ], 
            "AM2F": [
                8162
            ], 
            "WBF": [
                1358
            ], 
            "BM1F": [
                325
            ], 
            "M1": [
                8997
            ], 
            "irrelevant_Adj": [
                1
            ], 
            "M2": [
                337
            ], 
            "BM1L": [
                5004
            ], 
            "WBO": [
                4283, 
                4929, 
                929, 
                310, 
                3518, 
                8065, 
                8162, 
                6772, 
                310, 
                5018, 
                8227, 
                5595, 
                8034, 
                1358, 
                475, 
                8991
            ], 
            "WBL": [
                8034
            ], 
            "irrelevant_Noun": [
                0
            ], 
            "M1_ADJ": [
                1
            ]
        }, 
        "sentence": "if the car is in the sun or if you have hard water or if you are meticulous about your car , it may be a good thing to run a microfiber towel over the car after you use the absorber to get the rest of the water off and to ensure no spots/streaks get left behind ."
    }, 
    "2fd3f0bceb98ef087572134b5a49ff28": {
        "location1": [
            27
        ], 
        "location2": [
            16
        ], 
        "(27, 16)": {
            "AM2L": [
                8140
            ], 
            "AM2F": [
                2547
            ], 
            "WBF": [
                959
            ], 
            "BM1F": [
                8034
            ], 
            "M1": [
                337
            ], 
            "irrelevant_Adj": [
                1
            ], 
            "M2": [
                8997
            ], 
            "BM1L": [
                4043
            ], 
            "WBO": [
                4532, 
                4283, 
                5574, 
                8162, 
                2545, 
                720, 
                8073
            ], 
            "WBL": [
                2030
            ], 
            "irrelevant_Noun": [
                0
            ], 
            "M1_ADJ": [
                0
            ]
        }, 
        "sentence": "if you wash a sweater for example , it 's best to roll it up in the absorber before laying it out to dry , as this will cut your drying time to at least half and make it less of a hazard that the sweater will get out of shape ."
    }, 
    "761fef26aab697cfebf07059c3efa877": {
        "(13, 1)": {
            "AM2L": [
                760
            ], 
            "AM2F": [
                850
            ], 
            "WBF": [
                8907
            ], 
            "BM1F": [
                8034
            ], 
            "M1": [
                337
            ], 
            "irrelevant_Adj": [
                1
            ], 
            "M2": [
                8997
            ], 
            "WBO": [
                8789, 
                8887, 
                7369, 
                8501, 
                8736, 
                8044, 
                8887, 
                310
            ], 
            "WBL": [
                7554
            ], 
            "irrelevant_Noun": [
                0
            ], 
            "M1_ADJ": [
                0
            ]
        }, 
        "location1": [
            13
        ], 
        "location2": [
            1
        ], 
        "sentence": "the absorber work well with soaking up water then with a quick squeeze your back at drying ."
    }
}