{
    "42b4f05fd73153bb55f8f2ec08fb1798": {
        "(19, 43)": {
            "AM2L": [
                8034
            ], 
            "AM2F": [
                5458
            ], 
            "WBF": [
                1358
            ], 
            "BM1F": [
                325
            ], 
            "M1": [
                8997
            ], 
            "irrelevant_Adj": [
                1
            ], 
            "M2": [
                6594
            ], 
            "BM1L": [
                5004
            ], 
            "WBO": [
                4283, 
                4929, 
                929, 
                310, 
                3518, 
                8065, 
                8162, 
                6772, 
                310, 
                5018, 
                8227, 
                5595, 
                8034, 
                1358, 
                475, 
                8991, 
                8531, 
                8034, 
                337, 
                8162
            ], 
            "WBL": [
                8034
            ], 
            "irrelevant_Noun": [
                0
            ], 
            "M1_ADJ": [
                1
            ]
        }, 
        "location1": [
            19
        ], 
        "location2": [
            43
        ], 
        "sentence": "if the car is in the sun or if you have hard water or if you are meticulous about your car , it may be a good thing to run a microfiber towel over the car after you use the absorber to get the rest of the water off and to ensure no spots/streaks get left behind ."
    }
}