{
    "c2e10ff7451f13af5fcfcce4de11f527": {
        "location1": [
            10
        ], 
        "location2": [
            36
        ], 
        "(10, 36)": {
            "AM2L": [
                4283
            ], 
            "AM2F": [
                8024
            ], 
            "WBF": [
                1358
            ], 
            "BM1F": [
                4403
            ], 
            "M1": [
                8997
            ], 
            "irrelevant_Adj": [
                1
            ], 
            "M2": [
                2972
            ], 
            "BM1L": [
                5458
            ], 
            "WBO": [
                1564, 
                1262, 
                4283, 
                6976, 
                8162, 
                4940, 
                8028, 
                8806, 
                4158, 
                5503, 
                8527, 
                8162, 
                2577, 
                8040, 
                1358, 
                7144, 
                5387, 
                4555, 
                969, 
                5148, 
                4646, 
                599
            ], 
            "WBL": [
                5458
            ], 
            "irrelevant_Noun": [
                0
            ], 
            "M1_ADJ": [
                1
            ]
        }, 
        "sentence": "maybe i do n't understand the finer point of keeping your car clean , but it seems to me that whatever instrument one us to dust their car should not leave behind more lint and strand of fabric than it pick up ."
    }
}