{
    "e64c0217b00f00d34d82a063c1f6c9b8": {
        "(6, 3)": {
            "AM2L": [
                475
            ], 
            "AM2F": [
                1286
            ], 
            "WBF": [
                599
            ], 
            "BM1F": [
                8162
            ], 
            "M1": [
                1564
            ], 
            "irrelevant_Adj": [
                1
            ], 
            "M2": [
                8997
            ], 
            "BM1L": [
                8188
            ], 
            "WBO": [
                4139
            ], 
            "WBL": [
                4139
            ], 
            "irrelevant_Noun": [
                0
            ], 
            "M1_ADJ": [
                0
            ]
        }, 
        "location1": [
            6
        ], 
        "location2": [
            3
        ], 
        "sentence": "remember too to clean and inspect your cable after each use to prolong their life and keep you safe ."
    }, 
    "c2e10ff7451f13af5fcfcce4de11f527": {
        "(10, 12)": {
            "AM2L": [
                4283
            ], 
            "WBFL": [
                1358
            ], 
            "BM1F": [
                4403
            ], 
            "M1": [
                8997
            ], 
            "irrelevant_Adj": [
                1
            ], 
            "M2": [
                1564
            ], 
            "BM1L": [
                5458
            ], 
            "AM2F": [
                1262
            ], 
            "irrelevant_Noun": [
                0
            ], 
            "M1_ADJ": [
                1
            ]
        }, 
        "location1": [
            10
        ], 
        "location2": [
            12
        ], 
        "sentence": "maybe i do n't understand the finer point of keeping your car clean , but it seems to me that whatever instrument one us to dust their car should not leave behind more lint and strand of fabric than it pick up ."
    }, 
    "be9ac57ce88d0ae8efaf5f5a913a285d": {
        "(8, 14)": {
            "AM2L": [
                2356
            ], 
            "AM2F": [
                3762
            ], 
            "WBF": [
                1358
            ], 
            "BM1F": [
                2577
            ], 
            "M1": [
                8997
            ], 
            "irrelevant_Adj": [
                1
            ], 
            "M2": [
                1564
            ], 
            "BM1L": [
                7775
            ], 
            "WBO": [
                599, 
                5387
            ], 
            "WBL": [
                8162
            ], 
            "irrelevant_Noun": [
                0
            ], 
            "M1_ADJ": [
                1
            ]
        }, 
        "(22, 14)": {
            "AM2L": [
                7523
            ], 
            "AM2F": [
                1358
            ], 
            "WBF": [
                3762
            ], 
            "BM1F": [
                8162
            ], 
            "M1": [
                1564
            ], 
            "irrelevant_Adj": [
                1
            ], 
            "M2": [
                8997
            ], 
            "BM1L": [
                8329
            ], 
            "WBO": [
                2356, 
                8887, 
                4283, 
                4283
            ], 
            "WBL": [
                4555
            ], 
            "irrelevant_Noun": [
                0
            ], 
            "M1_ADJ": [
                0
            ]
        }, 
        "location1": [
            8, 
            22
        ], 
        "location2": [
            14
        ], 
        "sentence": "as long as you use as suggested , dust your car , and not try to clean heavy dirt with it , it will leave your car spotless ."
    }, 
    "2db43e40d02955f3566038336f894a3e": {
        "(10, 12)": {
            "AM2L": [
                2545
            ], 
            "WBFL": [
                1785
            ], 
            "BM1F": [
                4401
            ], 
            "M1": [
                8997
            ], 
            "irrelevant_Adj": [
                1
            ], 
            "M2": [
                1564
            ], 
            "BM1L": [
                599
            ], 
            "AM2F": [
                599
            ], 
            "irrelevant_Noun": [
                0
            ], 
            "M1_ADJ": [
                1
            ]
        }, 
        "location1": [
            10
        ], 
        "location2": [
            12
        ], 
        "sentence": "these fit perfectly and are easy to use and keep your connector clean and dry when not in use ."
    }, 
    "3171cfb68883c2d8161351ec569ea1e0": {
        "location1": [
            15
        ], 
        "location2": [
            6
        ], 
        "(15, 6)": {
            "AM2F": [
                8750
            ], 
            "WBF": [
                4376
            ], 
            "BM1F": [
                8162
            ], 
            "M1": [
                1564
            ], 
            "irrelevant_Adj": [
                1
            ], 
            "M2": [
                8997
            ], 
            "BM1L": [
                2614
            ], 
            "WBO": [
                8719, 
                599, 
                2545, 
                599, 
                8991
            ], 
            "WBL": [
                5495
            ], 
            "irrelevant_Noun": [
                0
            ], 
            "M1_ADJ": [
                0
            ]
        }, 
        "sentence": "the microfiber are also easier to clean , just wash and dry and you are on your way ."
    }, 
    "9ff76c70640ac19969f9d985dd3dd359": {
        "(4, 24)": {
            "WBF": [
                1358
            ], 
            "BM1F": [
                4401
            ], 
            "M1": [
                8997
            ], 
            "irrelevant_Adj": [
                1
            ], 
            "M2": [
                1564
            ], 
            "BM1L": [
                2660
            ], 
            "WBO": [
                4043, 
                310, 
                3416, 
                5543, 
                8531, 
                310, 
                1914, 
                4625, 
                3962, 
                2436, 
                599, 
                2577, 
                4283, 
                2049, 
                8162, 
                4401
            ], 
            "WBL": [
                4719
            ], 
            "irrelevant_Noun": [
                0
            ], 
            "M1_ADJ": [
                1
            ]
        }, 
        "location1": [
            4
        ], 
        "location2": [
            24
        ], 
        "sentence": "you must either keep your car in a garage , or use a cover like i do , and dust it daily to keep it looking clean ."
    }
}