{
    "205f3631922808665e6617fc99f39b53": {
        "(6, 10)": {
            "AM2L": [
                4283
            ], 
            "AM2F": [
                7362
            ], 
            "WBF": [
                8262
            ], 
            "BM1F": [
                4216
            ], 
            "M1": [
                8997
            ], 
            "irrelevant_Adj": [
                1
            ], 
            "M2": [
                8333
            ], 
            "BM1L": [
                3149
            ], 
            "WBO": [
                2345
            ], 
            "WBL": [
                7630
            ], 
            "irrelevant_Noun": [
                0
            ], 
            "M1_ADJ": [
                1
            ]
        }, 
        "location1": [
            6
        ], 
        "location2": [
            10
        ], 
        "sentence": "it 's able to fit into your transmission dip stick tube , so it has to be small enough , so you can just dump a bunch a fluid into it at once ! ! !"
    }
}