{
    "95480dff824507e9fe1741381c104bbe": {
        "(18, 0)": {
            "WBF": [
                2436
            ], 
            "AM2L": [
                8813
            ], 
            "M1": [
                8153
            ], 
            "irrelevant_Adj": [
                1
            ], 
            "M2": [
                8997
            ], 
            "WBO": [
                5245, 
                6209, 
                4283, 
                5495, 
                8034, 
                7178, 
                8860, 
                8456, 
                8991, 
                8702, 
                527, 
                8034, 
                6273, 
                6780
            ], 
            "WBL": [
                4216
            ], 
            "irrelevant_Noun": [
                0
            ], 
            "AM2F": [
                1358
            ], 
            "M1_ADJ": [
                0
            ]
        }, 
        "location1": [
            18
        ], 
        "location2": [
            0
        ], 
        "sentence": "tip : do n't put it on the side window , unless you want all the rainwater rushing up into your car whenever you crack them open ."
    }
}