{
    "19828c65162c323f82ec6f02c235e679": {
        "(45, 59)": {
            "AM2L": [
                8034
            ], 
            "AM2F": [
                8887
            ], 
            "WBF": [
                8324
            ], 
            "BM1F": [
                4043
            ], 
            "M1": [
                8997
            ], 
            "irrelevant_Adj": [
                1
            ], 
            "M2": [
                4777
            ], 
            "BM1L": [
                1177
            ], 
            "WBO": [
                527, 
                8080, 
                8979, 
                599, 
                8991, 
                5033, 
                720, 
                8789, 
                3717, 
                2761
            ], 
            "WBL": [
                3518
            ], 
            "irrelevant_Noun": [
                0
            ], 
            "M1_ADJ": [
                1
            ]
        }, 
        "location1": [
            33, 
            45
        ], 
        "location2": [
            59
        ], 
        "(33, 59)": {
            "AM2L": [
                8034
            ], 
            "AM2F": [
                8887
            ], 
            "WBF": [
                1358
            ], 
            "BM1F": [
                7598
            ], 
            "M1": [
                8997
            ], 
            "irrelevant_Adj": [
                1
            ], 
            "M2": [
                4777
            ], 
            "BM1L": [
                8162
            ], 
            "WBO": [
                8991, 
                5033, 
                720, 
                8789, 
                3717, 
                956, 
                4773, 
                310, 
                1177, 
                4043, 
                8997, 
                8324, 
                527, 
                8080, 
                8979, 
                599, 
                8991, 
                5033, 
                720, 
                8789, 
                3717, 
                2761
            ], 
            "WBL": [
                3518
            ], 
            "irrelevant_Noun": [
                0
            ], 
            "M1_ADJ": [
                1
            ]
        }, 
        "sentence": "yes , you can buy a $ 17 set of 10 foot , 18 gauge cable out there but if they ca n't reach between car or if they ca n't carry enough power to start your car , you might as well have been lugging a brick in your trunk all those year and you might as well have enjoyed a good lunch with the $ 17 for all the false confidence it gave you ."
    }
}